<?xml version="1.0" encoding="UTF-8" standalone="no"?>
<svg
   xmlns:dc="http://purl.org/dc/elements/1.1/"
   xmlns:cc="http://creativecommons.org/ns#"
   xmlns:rdf="http://www.w3.org/1999/02/22-rdf-syntax-ns#"
   xmlns:svg="http://www.w3.org/2000/svg"
   xmlns="http://www.w3.org/2000/svg"
   xmlns:xlink="http://www.w3.org/1999/xlink"
   xmlns:sodipodi="http://sodipodi.sourceforge.net/DTD/sodipodi-0.dtd"
   xmlns:inkscape="http://www.inkscape.org/namespaces/inkscape"
   sodipodi:docname="E02P02.svg"
   height="3503"
   width="2481"
   inkscape:version="1.0 (4035a4f, 2020-05-01)"
   version="1.1"
   id="svg2">
  <sodipodi:namedview
     inkscape:document-rotation="0"
     inkscape:snap-global="false"
     inkscape:window-maximized="1"
     inkscape:window-y="0"
     inkscape:window-x="0"
     inkscape:current-layer="layer1"
     inkscape:cy="3939.7004"
     inkscape:cx="1448.9653"
     inkscape:zoom="0.35251602"
     showgrid="false"
     id="namedview70"
     inkscape:window-height="1031"
     inkscape:window-width="1920"
     inkscape:pageshadow="2"
     inkscape:pageopacity="0"
     bordercolor="#666666"
     pagecolor="#ffffff" />
  <metadata
     id="metadata8">
    <rdf:RDF>
      <cc:Work
         rdf:about="">
        <dc:format>image/svg+xml</dc:format>
        <dc:type
           rdf:resource="http://purl.org/dc/dcmitype/StillImage" />
        <dc:title />
      </cc:Work>
    </rdf:RDF>
  </metadata>
  <defs
     id="defs6">
    <linearGradient
       id="linearGradient3587"
       inkscape:collect="always">
      <stop
         id="stop3583"
         offset="0"
         style="stop-color:#b08b67;stop-opacity:1" />
      <stop
         id="stop3585"
         offset="1"
         style="stop-color:#9f8263;stop-opacity:1" />
    </linearGradient>
    <linearGradient
       inkscape:collect="always"
       id="linearGradient3581">
      <stop
         style="stop-color:#9f8263;stop-opacity:1"
         offset="0"
         id="stop3577" />
      <stop
         style="stop-color:#d19e6f;stop-opacity:1"
         offset="1"
         id="stop3579" />
    </linearGradient>
    <linearGradient
       inkscape:collect="always"
       id="linearGradient3478-2">
      <stop
         style="stop-color:#b08b67;stop-opacity:1"
         offset="0"
         id="stop3474" />
      <stop
         style="stop-color:#776657;stop-opacity:1"
         offset="1"
         id="stop3476" />
    </linearGradient>
    <linearGradient
       id="linearGradient3472"
       inkscape:collect="always">
      <stop
         id="stop3468"
         offset="0"
         style="stop-color:#776657;stop-opacity:1" />
      <stop
         id="stop3470"
         offset="1"
         style="stop-color:#d19e6f;stop-opacity:1" />
    </linearGradient>
    <linearGradient
       inkscape:collect="always"
       id="linearGradient3369">
      <stop
         style="stop-color:#a6816d;stop-opacity:1"
         offset="0"
         id="stop3365" />
      <stop
         style="stop-color:#d19e6f;stop-opacity:1"
         offset="1"
         id="stop3367" />
    </linearGradient>
    <linearGradient
       id="linearGradient3363-8"
       inkscape:collect="always">
      <stop
         id="stop3359"
         offset="0"
         style="stop-color:#b08b67;stop-opacity:1" />
      <stop
         id="stop3361"
         offset="1"
         style="stop-color:#a6816d;stop-opacity:1" />
    </linearGradient>
    <linearGradient
       id="linearGradient3292"
       inkscape:collect="always">
      <stop
         id="stop3288"
         offset="0"
         style="stop-color:#836b54;stop-opacity:1" />
      <stop
         id="stop3290"
         offset="1"
         style="stop-color:#d19e6f;stop-opacity:1" />
    </linearGradient>
    <linearGradient
       inkscape:collect="always"
       id="linearGradient3286-5">
      <stop
         style="stop-color:#b69870;stop-opacity:1"
         offset="0"
         id="stop3282" />
      <stop
         style="stop-color:#836b54;stop-opacity:1"
         offset="1"
         id="stop3284" />
    </linearGradient>
    <linearGradient
       id="linearGradient3215-5"
       inkscape:collect="always">
      <stop
         id="stop3211"
         offset="0"
         style="stop-color:#b69270;stop-opacity:1" />
      <stop
         id="stop3213"
         offset="1"
         style="stop-color:#a3805e;stop-opacity:1" />
    </linearGradient>
    <linearGradient
       inkscape:collect="always"
       id="linearGradient3209">
      <stop
         style="stop-color:#a3805e;stop-opacity:1"
         offset="0"
         id="stop3205" />
      <stop
         style="stop-color:#d19e6f;stop-opacity:1"
         offset="1"
         id="stop3207" />
    </linearGradient>
    <linearGradient
       id="linearGradient3138"
       inkscape:collect="always">
      <stop
         id="stop3134"
         offset="0"
         style="stop-color:#685747;stop-opacity:1" />
      <stop
         id="stop3136"
         offset="1"
         style="stop-color:#d19e6f;stop-opacity:1" />
    </linearGradient>
    <linearGradient
       inkscape:collect="always"
       id="linearGradient3132-0">
      <stop
         style="stop-color:#b69270;stop-opacity:1"
         offset="0"
         id="stop3128" />
      <stop
         style="stop-color:#685747;stop-opacity:1"
         offset="1"
         id="stop3130" />
    </linearGradient>
    <linearGradient
       id="linearGradient3063"
       inkscape:collect="always">
      <stop
         id="stop3059"
         offset="0"
         style="stop-color:#634a4b;stop-opacity:1" />
      <stop
         id="stop3061"
         offset="1"
         style="stop-color:#47617e;stop-opacity:1" />
    </linearGradient>
    <linearGradient
       inkscape:collect="always"
       id="linearGradient3057">
      <stop
         style="stop-color:#47617e;stop-opacity:1"
         offset="0"
         id="stop3053" />
      <stop
         style="stop-color:#d19e6f;stop-opacity:1"
         offset="1"
         id="stop3055" />
    </linearGradient>
    <linearGradient
       inkscape:collect="always"
       id="linearGradient2894-7">
      <stop
         style="stop-color:#dba674;stop-opacity:1"
         offset="0"
         id="stop2890" />
      <stop
         style="stop-color:#ae8661;stop-opacity:1"
         offset="1"
         id="stop2892" />
    </linearGradient>
    <linearGradient
       id="linearGradient2888"
       inkscape:collect="always">
      <stop
         id="stop2884"
         offset="0"
         style="stop-color:#ae8661;stop-opacity:1" />
      <stop
         id="stop2886"
         offset="1"
         style="stop-color:#d19e6f;stop-opacity:1" />
    </linearGradient>
    <linearGradient
       inkscape:collect="always"
       id="linearGradient2822">
      <stop
         style="stop-color:#c1956f;stop-opacity:1"
         offset="0"
         id="stop2818" />
      <stop
         style="stop-color:#d19e6f;stop-opacity:1"
         offset="1"
         id="stop2820" />
    </linearGradient>
    <linearGradient
       id="linearGradient2816-1"
       inkscape:collect="always">
      <stop
         id="stop2812"
         offset="0"
         style="stop-color:#dba674;stop-opacity:1" />
      <stop
         id="stop2814"
         offset="1"
         style="stop-color:#c1956f;stop-opacity:1" />
    </linearGradient>
    <linearGradient
       id="linearGradient2772"
       inkscape:collect="always">
      <stop
         id="stop2768"
         offset="0"
         style="stop-color:#ab8a71;stop-opacity:1" />
      <stop
         id="stop2770"
         offset="1"
         style="stop-color:#a07f69;stop-opacity:1" />
    </linearGradient>
    <linearGradient
       inkscape:collect="always"
       id="linearGradient2766">
      <stop
         style="stop-color:#a07f69;stop-opacity:1"
         offset="0"
         id="stop2762" />
      <stop
         style="stop-color:#3f3f44;stop-opacity:1"
         offset="1"
         id="stop2764" />
    </linearGradient>
    <linearGradient
       inkscape:collect="always"
       id="linearGradient2638-8-6">
      <stop
         style="stop-color:#cca082;stop-opacity:1"
         offset="0"
         id="stop2634" />
      <stop
         style="stop-color:#c1956f;stop-opacity:1"
         offset="1"
         id="stop2636" />
    </linearGradient>
    <linearGradient
       id="linearGradient2632"
       inkscape:collect="always">
      <stop
         id="stop2628"
         offset="0"
         style="stop-color:#c1956f;stop-opacity:1" />
      <stop
         id="stop2630"
         offset="1"
         style="stop-color:#927672;stop-opacity:1" />
    </linearGradient>
    <linearGradient
       inkscape:collect="always"
       id="linearGradient2257">
      <stop
         style="stop-color:#636261;stop-opacity:1"
         offset="0"
         id="stop2253" />
      <stop
         style="stop-color:#927672;stop-opacity:1"
         offset="1"
         id="stop2255" />
    </linearGradient>
    <linearGradient
       id="linearGradient2251"
       inkscape:collect="always">
      <stop
         id="stop2247"
         offset="0"
         style="stop-color:#a89788;stop-opacity:1" />
      <stop
         id="stop2249"
         offset="1"
         style="stop-color:#636261;stop-opacity:1" />
    </linearGradient>
    <linearGradient
       inkscape:collect="always"
       id="linearGradient2080">
      <stop
         style="stop-color:#66575f;stop-opacity:1"
         offset="0"
         id="stop2076" />
      <stop
         style="stop-color:#927672;stop-opacity:1"
         offset="1"
         id="stop2078" />
    </linearGradient>
    <linearGradient
       id="linearGradient2074"
       inkscape:collect="always">
      <stop
         id="stop2070"
         offset="0"
         style="stop-color:#695b60;stop-opacity:1" />
      <stop
         id="stop2072"
         offset="1"
         style="stop-color:#66575f;stop-opacity:1" />
    </linearGradient>
    <linearGradient
       inkscape:collect="always"
       id="linearGradient1880-7">
      <stop
         style="stop-color:#cca082;stop-opacity:1"
         offset="0"
         id="stop1876" />
      <stop
         style="stop-color:#7873bb;stop-opacity:1"
         offset="1"
         id="stop1878" />
    </linearGradient>
    <linearGradient
       id="linearGradient1874-4"
       inkscape:collect="always">
      <stop
         id="stop1870"
         offset="0"
         style="stop-color:#7873bb;stop-opacity:1" />
      <stop
         id="stop1872"
         offset="1"
         style="stop-color:#927672;stop-opacity:1" />
    </linearGradient>
    <linearGradient
       id="linearGradient1711-8"
       inkscape:collect="always">
      <stop
         id="stop1707"
         offset="0"
         style="stop-color:#cca082;stop-opacity:1" />
      <stop
         id="stop1709"
         offset="1"
         style="stop-color:#927672;stop-opacity:1" />
    </linearGradient>
    <linearGradient
       id="linearGradient1079"
       inkscape:collect="always">
      <stop
         id="stop1075"
         offset="0"
         style="stop-color:#f7d09f;stop-opacity:0.54237288" />
      <stop
         id="stop1077"
         offset="1"
         style="stop-color:#dab688;stop-opacity:0;" />
    </linearGradient>
    <linearGradient
       inkscape:collect="always"
       id="linearGradient1063-6-8-8">
      <stop
         style="stop-color:#dab688;stop-opacity:1"
         offset="0"
         id="stop1059" />
      <stop
         style="stop-color:#927672;stop-opacity:1"
         offset="1"
         id="stop1061" />
    </linearGradient>
    <linearGradient
       id="linearGradient828-3"
       inkscape:collect="always">
      <stop
         id="stop824"
         offset="0"
         style="stop-color:#c09d70;stop-opacity:1" />
      <stop
         id="stop826"
         offset="1"
         style="stop-color:#927672;stop-opacity:1" />
    </linearGradient>
    <linearGradient
       gradientTransform="translate(0.13103817,2.424714)"
       gradientUnits="userSpaceOnUse"
       y2="454.56962"
       x2="1786.3651"
       y1="454.56962"
       x1="1708.8768"
       id="linearGradient830"
       xlink:href="#linearGradient828-3"
       inkscape:collect="always" />
    <filter
       inkscape:menu-tooltip="Adds a small scale graininess"
       inkscape:menu="Image Effects"
       inkscape:label="PepperGrain"
       height="1.1755431"
       y="-0.087771531"
       width="1.1186565"
       x="-0.039999999999999994"
       id="filter864"
       style="color-interpolation-filters:sRGB;"
       inkscape:collect="always">
      <feGaussianBlur
         result="fbSourceGraphic"
         id="feGaussianBlur866"
         stdDeviation="1.9155206"
         inkscape:collect="always" />
      <feColorMatrix
         id="feColorMatrix868"
         values="0 0 0 -1 0 0 0 0 -1 0 0 0 0 -1 0 0 0 0 1 0"
         in="fbSourceGraphic"
         result="fbSourceGraphicAlpha" />
      <feTurbulence
         in="fbSourceGraphic"
         result="result0"
         seed="77"
         baseFrequency="0.218"
         numOctaves="5"
         type="turbulence"
         id="feTurbulence870" />
      <feColorMatrix
         type="saturate"
         values="0"
         result="result4"
         id="feColorMatrix872" />
      <feComposite
         numOctaves="3"
         k4="-0.25182778229081926"
         baseFrequency="0.54700000000000004"
         result="result2"
         k3="0.5"
         k2="0.23999999999999999"
         k1="-0.34999999999999998"
         operator="arithmetic"
         in="fbSourceGraphic"
         id="feComposite874"
         in2="result4" />
      <feBlend
         k4="-0.25"
         in="result2"
         mode="overlay"
         result="result5"
         id="feBlend876"
         in2="fbSourceGraphic" />
      <feComposite
         k1="-0.28000000000000003"
         result="result3"
         operator="in"
         in="result5"
         id="feComposite878"
         in2="fbSourceGraphic" />
    </filter>
    <linearGradient
       gradientTransform="translate(-1703.7912,-420.66917)"
       gradientUnits="userSpaceOnUse"
       y2="454.56961"
       x2="1786.3651"
       y1="454.56961"
       x1="1708.8768"
       id="linearGradient830-0"
       xlink:href="#linearGradient828-3"
       inkscape:collect="always" />
    <linearGradient
       y2="414.8287"
       x2="1952.827"
       y1="422.85562"
       x1="1874.6544"
       gradientTransform="translate(-0.36478605,2.9205382)"
       gradientUnits="userSpaceOnUse"
       id="linearGradient1057"
       xlink:href="#linearGradient1063-6-8-8"
       inkscape:collect="always" />
    <linearGradient
       gradientUnits="userSpaceOnUse"
       y2="428.95758"
       x2="1936.1066"
       y1="428.95758"
       x1="1828.279"
       id="linearGradient1081"
       xlink:href="#linearGradient1079"
       inkscape:collect="always" />
    <filter
       height="1.0773874"
       y="-0.038693707"
       width="1.0234557"
       x="-0.011727851"
       id="filter1151"
       style="color-interpolation-filters:sRGB"
       inkscape:collect="always">
      <feGaussianBlur
         id="feGaussianBlur1153"
         stdDeviation="0.52691071"
         inkscape:collect="always" />
    </filter>
    <path
       sodipodi:nodetypes="cc"
       inkscape:connector-curvature="0"
       id="path892-6"
       d="m 1687.989,477.53793 c 37.4398,5.77864 81.1477,-10.01548 101.7802,-27.84544"
       style="fill:none;fill-rule:evenodd;stroke:none;stroke-width:0;stroke-linecap:butt;stroke-linejoin:miter;stroke-miterlimit:4;stroke-dasharray:none;stroke-opacity:1" />
    <path
       sodipodi:nodetypes="cc"
       inkscape:connector-curvature="0"
       id="path892-1"
       d="m 1687.989,477.53793 c 37.4398,5.77864 81.1477,-10.01548 101.7802,-27.84544"
       style="fill:none;fill-rule:evenodd;stroke:none;stroke-width:0;stroke-linecap:butt;stroke-linejoin:miter;stroke-miterlimit:4;stroke-dasharray:none;stroke-opacity:1" />
    <path
       sodipodi:nodetypes="cc"
       inkscape:connector-curvature="0"
       id="path892-5"
       d="m 1687.989,477.53793 c 37.4398,5.77864 81.1477,-10.01548 101.7802,-27.84544"
       style="fill:none;fill-rule:evenodd;stroke:none;stroke-width:0;stroke-linecap:butt;stroke-linejoin:miter;stroke-miterlimit:4;stroke-dasharray:none;stroke-opacity:1" />
    <filter
       height="1.0932989"
       y="-0.046649432"
       width="1.0429294"
       x="-0.021464675"
       id="filter1275"
       style="color-interpolation-filters:sRGB"
       inkscape:collect="always">
      <feGaussianBlur
         id="feGaussianBlur1277"
         stdDeviation="0.83752331"
         inkscape:collect="always" />
    </filter>
    <filter
       height="1.0624714"
       y="-0.031235692"
       width="1.0167363"
       x="-0.0083681663"
       id="filter1639"
       style="color-interpolation-filters:sRGB"
       inkscape:collect="always">
      <feGaussianBlur
         id="feGaussianBlur1641"
         stdDeviation="0.51630518"
         inkscape:collect="always" />
    </filter>
    <linearGradient
       y2="414.8287"
       x2="1952.827"
       y1="422.85562"
       x1="1874.6544"
       gradientTransform="translate(-1804.7103,-377.13402)"
       gradientUnits="userSpaceOnUse"
       id="linearGradient1057-6"
       xlink:href="#linearGradient1063-6-8-8"
       inkscape:collect="always" />
    <linearGradient
       gradientUnits="userSpaceOnUse"
       y2="354.59601"
       x2="2154.8613"
       y1="371.70193"
       x1="2129.2783"
       id="linearGradient1698"
       xlink:href="#linearGradient1063-6-8-8"
       inkscape:collect="always" />
    <linearGradient
       y2="368.7814"
       x2="2129.6433"
       y1="388.40482"
       x1="2055.5828"
       gradientTransform="translate(-0.36478605,2.9205382)"
       gradientUnits="userSpaceOnUse"
       id="linearGradient1705"
       xlink:href="#linearGradient1711-8"
       inkscape:collect="always" />
    <filter
       height="1.0680888"
       y="-0.034044398"
       width="1.0220718"
       x="-0.011035889"
       id="filter1794"
       style="color-interpolation-filters:sRGB"
       inkscape:collect="always">
      <feGaussianBlur
         id="feGaussianBlur1796"
         stdDeviation="0.6733044"
         inkscape:collect="always" />
    </filter>
    <linearGradient
       y2="368.7814"
       x2="2129.6433"
       y1="388.40482"
       x1="2055.5828"
       gradientTransform="translate(-2017.7204,-331.23685)"
       gradientUnits="userSpaceOnUse"
       id="linearGradient1705-3"
       xlink:href="#linearGradient1711-8"
       inkscape:collect="always" />
    <linearGradient
       gradientUnits="userSpaceOnUse"
       y2="354.59601"
       x2="2154.8613"
       y1="371.70193"
       x1="2129.2783"
       id="linearGradient1698-5"
       xlink:href="#linearGradient1063-6-8-8"
       inkscape:collect="always"
       gradientTransform="translate(-2017.3556,-334.15739)" />
    <linearGradient
       y2="367.9191"
       x2="2213.2866"
       y1="368.57184"
       x1="2161.2148"
       gradientTransform="translate(-0.36478605,3.9121866)"
       gradientUnits="userSpaceOnUse"
       id="linearGradient1861"
       xlink:href="#linearGradient1880-7"
       inkscape:collect="always" />
    <linearGradient
       gradientTransform="translate(0,0.99164845)"
       y2="364.94363"
       x2="2282.051"
       y1="370.83963"
       x1="2212.9219"
       gradientUnits="userSpaceOnUse"
       id="linearGradient1863"
       xlink:href="#linearGradient1874-4"
       inkscape:collect="always" />
    <filter
       height="1.1020302"
       y="-0.051015099"
       width="1.0174227"
       x="-0.0087113292"
       id="filter1999"
       style="color-interpolation-filters:sRGB"
       inkscape:collect="always">
      <feGaussianBlur
         id="feGaussianBlur2001"
         stdDeviation="0.61822791"
         inkscape:collect="always" />
    </filter>
    <linearGradient
       y2="367.9191"
       x2="2213.2866"
       y1="368.57184"
       x1="2161.2148"
       gradientTransform="translate(-2151.9212,-319.96742)"
       gradientUnits="userSpaceOnUse"
       id="linearGradient1861-1"
       xlink:href="#linearGradient1880-7"
       inkscape:collect="always" />
    <linearGradient
       gradientTransform="translate(-2151.5564,-322.88795)"
       y2="364.94363"
       x2="2282.051"
       y1="370.83963"
       x1="2212.9219"
       gradientUnits="userSpaceOnUse"
       id="linearGradient1863-2"
       xlink:href="#linearGradient1874-4"
       inkscape:collect="always" />
    <linearGradient
       y2="403.18491"
       x2="2354.7844"
       y1="398.95819"
       x1="2338.1433"
       gradientTransform="translate(0,0.99164845)"
       gradientUnits="userSpaceOnUse"
       id="linearGradient2066"
       xlink:href="#linearGradient2080"
       inkscape:collect="always" />
    <linearGradient
       y2="396.03766"
       x2="2338.5081"
       y1="372.32098"
       x1="2308.5562"
       gradientTransform="translate(-0.36478605,3.9121866)"
       gradientUnits="userSpaceOnUse"
       id="linearGradient2068"
       xlink:href="#linearGradient2074"
       inkscape:collect="always" />
    <filter
       height="1.1736557"
       y="-0.086827889"
       width="1.0187976"
       x="-0.009398777"
       id="filter1483"
       style="color-interpolation-filters:sRGB"
       inkscape:collect="always">
      <feGaussianBlur
         id="feGaussianBlur1485"
         stdDeviation="1.1682832"
         inkscape:collect="always" />
    </filter>
    <filter
       height="1.0446379"
       y="-0.022318958"
       width="1.0711555"
       x="-0.035577732"
       id="filter2178"
       style="color-interpolation-filters:sRGB"
       inkscape:collect="always">
      <feGaussianBlur
         id="feGaussianBlur2180"
         stdDeviation="1.0300299"
         inkscape:collect="always" />
    </filter>
    <linearGradient
       y2="966.78021"
       x2="2218.7456"
       y1="931.91779"
       x1="2202.5156"
       gradientTransform="translate(0,0.99164845)"
       gradientUnits="userSpaceOnUse"
       id="linearGradient2243"
       xlink:href="#linearGradient2257"
       inkscape:collect="always" />
    <linearGradient
       y2="928.99725"
       x2="2202.8804"
       y1="820.38287"
       x1="2205.4421"
       gradientTransform="translate(-0.36478605,3.9121866)"
       gradientUnits="userSpaceOnUse"
       id="linearGradient2245"
       xlink:href="#linearGradient2251"
       inkscape:collect="always" />
    <filter
       height="1.1736557"
       y="-0.086827889"
       width="1.0187976"
       x="-0.009398777"
       id="filter1483-1"
       style="color-interpolation-filters:sRGB"
       inkscape:collect="always">
      <feGaussianBlur
         id="feGaussianBlur1485-1"
         stdDeviation="1.1682832"
         inkscape:collect="always" />
    </filter>
    <filter
       height="1.1736557"
       y="-0.086827889"
       width="1.0187976"
       x="-0.009398777"
       id="filter1483-1-7"
       style="color-interpolation-filters:sRGB"
       inkscape:collect="always">
      <feGaussianBlur
         id="feGaussianBlur1485-1-7"
         stdDeviation="1.1682832"
         inkscape:collect="always" />
    </filter>
    <filter
       height="1.1736557"
       y="-0.086827889"
       width="1.0187976"
       x="-0.009398777"
       id="filter1483-1-7-3"
       style="color-interpolation-filters:sRGB"
       inkscape:collect="always">
      <feGaussianBlur
         id="feGaussianBlur1485-1-7-6"
         stdDeviation="1.1682832"
         inkscape:collect="always" />
    </filter>
    <filter
       height="1.1736557"
       y="-0.086827889"
       width="1.0187976"
       x="-0.009398777"
       id="filter1483-1-7-3-3"
       style="color-interpolation-filters:sRGB"
       inkscape:collect="always">
      <feGaussianBlur
         id="feGaussianBlur1485-1-7-6-9"
         stdDeviation="1.1682832"
         inkscape:collect="always" />
    </filter>
    <filter
       height="1.1736557"
       y="-0.086827889"
       width="1.0187976"
       x="-0.009398777"
       id="filter1483-1-7-3-3-1"
       style="color-interpolation-filters:sRGB"
       inkscape:collect="always">
      <feGaussianBlur
         id="feGaussianBlur1485-1-7-6-9-2"
         stdDeviation="1.1682832"
         inkscape:collect="always" />
    </filter>
    <filter
       height="1.1736557"
       y="-0.086827889"
       width="1.0187976"
       x="-0.009398777"
       id="filter1483-1-7-3-3-1-9"
       style="color-interpolation-filters:sRGB"
       inkscape:collect="always">
      <feGaussianBlur
         id="feGaussianBlur1485-1-7-6-9-2-0"
         stdDeviation="1.1682832"
         inkscape:collect="always" />
    </filter>
    <filter
       height="1.1736557"
       y="-0.086827889"
       width="1.0187976"
       x="-0.009398777"
       id="filter1483-1-7-3-3-1-9-5"
       style="color-interpolation-filters:sRGB"
       inkscape:collect="always">
      <feGaussianBlur
         id="feGaussianBlur1485-1-7-6-9-2-0-0"
         stdDeviation="1.1682832"
         inkscape:collect="always" />
    </filter>
    <filter
       height="1.1736557"
       y="-0.086827889"
       width="1.0187976"
       x="-0.009398777"
       id="filter1483-1-7-3-3-1-9-5-3"
       style="color-interpolation-filters:sRGB"
       inkscape:collect="always">
      <feGaussianBlur
         id="feGaussianBlur1485-1-7-6-9-2-0-0-8"
         stdDeviation="1.1682832"
         inkscape:collect="always" />
    </filter>
    <filter
       height="1.1736557"
       y="-0.086827889"
       width="1.0187976"
       x="-0.009398777"
       id="filter1483-1-7-3-3-1-9-5-3-1"
       style="color-interpolation-filters:sRGB"
       inkscape:collect="always">
      <feGaussianBlur
         id="feGaussianBlur1485-1-7-6-9-2-0-0-8-1"
         stdDeviation="1.1682832"
         inkscape:collect="always" />
    </filter>
    <filter
       height="1.1736557"
       y="-0.086827889"
       width="1.0187976"
       x="-0.009398777"
       id="filter1483-1-7-3-3-1-9-5-3-1-8"
       style="color-interpolation-filters:sRGB"
       inkscape:collect="always">
      <feGaussianBlur
         id="feGaussianBlur1485-1-7-6-9-2-0-0-8-1-4"
         stdDeviation="1.1682832"
         inkscape:collect="always" />
    </filter>
    <linearGradient
       y2="1586.7551"
       x2="872.09833"
       y1="1588.5449"
       x1="802.25348"
       gradientTransform="translate(-0.36478605,2.9205382)"
       gradientUnits="userSpaceOnUse"
       id="linearGradient2624"
       xlink:href="#linearGradient2638-8-6"
       inkscape:collect="always" />
    <linearGradient
       y2="1588.0966"
       x2="904.90186"
       y1="1589.6757"
       x1="871.73352"
       gradientUnits="userSpaceOnUse"
       id="linearGradient2626"
       xlink:href="#linearGradient2632"
       inkscape:collect="always" />
    <linearGradient
       y2="1586.7551"
       x2="872.09833"
       y1="1588.5449"
       x1="802.25348"
       gradientTransform="translate(-799.2388,-1572.4004)"
       gradientUnits="userSpaceOnUse"
       id="linearGradient2624-5"
       xlink:href="#linearGradient2638-8-6"
       inkscape:collect="always" />
    <linearGradient
       y2="1588.0966"
       x2="904.90186"
       y1="1589.6757"
       x1="871.73352"
       gradientUnits="userSpaceOnUse"
       id="linearGradient2626-6"
       xlink:href="#linearGradient2632"
       inkscape:collect="always"
       gradientTransform="translate(-798.87401,-1575.321)" />
    <linearGradient
       y2="1611.3308"
       x2="634.53387"
       y1="1605.791"
       x1="682.82452"
       gradientTransform="translate(-0.36478605,2.9205382)"
       gradientUnits="userSpaceOnUse"
       id="linearGradient2758"
       xlink:href="#linearGradient2772"
       inkscape:collect="always" />
    <linearGradient
       y2="1623.0198"
       x2="624.22223"
       y1="1614.2513"
       x1="634.16907"
       gradientUnits="userSpaceOnUse"
       id="linearGradient2760"
       xlink:href="#linearGradient2766"
       inkscape:collect="always" />
    <linearGradient
       y2="1567.272"
       x2="1078.9362"
       y1="1567.3635"
       x1="1078.988"
       gradientUnits="userSpaceOnUse"
       id="linearGradient2808"
       xlink:href="#linearGradient2822"
       inkscape:collect="always" />
    <linearGradient
       y2="1564.443"
       x2="1079.3528"
       y1="1561.7704"
       x1="962.90051"
       gradientTransform="translate(-0.36478605,2.9205382)"
       gradientUnits="userSpaceOnUse"
       id="linearGradient2810"
       xlink:href="#linearGradient2816-1"
       inkscape:collect="always" />
    <linearGradient
       y2="1564.443"
       x2="1079.3528"
       y1="1561.7704"
       x1="962.90051"
       gradientTransform="translate(-954.14689,-1543.5397)"
       gradientUnits="userSpaceOnUse"
       id="linearGradient2810-4"
       xlink:href="#linearGradient2816-1"
       inkscape:collect="always" />
    <linearGradient
       y2="1567.272"
       x2="1078.9362"
       y1="1567.3635"
       x1="1078.988"
       gradientUnits="userSpaceOnUse"
       id="linearGradient2808-5"
       xlink:href="#linearGradient2822"
       inkscape:collect="always"
       gradientTransform="translate(-953.7821,-1546.4602)" />
    <linearGradient
       y2="1562.3137"
       x2="1300.5696"
       y1="1551.9929"
       x1="1293.6799"
       gradientUnits="userSpaceOnUse"
       id="linearGradient2880"
       xlink:href="#linearGradient2888"
       inkscape:collect="always" />
    <linearGradient
       y2="1549.0724"
       x2="1294.0447"
       y1="1533.5084"
       x1="1237.0913"
       gradientTransform="translate(-0.36478605,2.9205382)"
       gradientUnits="userSpaceOnUse"
       id="linearGradient2882"
       xlink:href="#linearGradient2894-7"
       inkscape:collect="always" />
    <linearGradient
       y2="1549.0724"
       x2="1294.0447"
       y1="1533.5084"
       x1="1237.0913"
       gradientTransform="translate(-1192.788,-1527.422)"
       gradientUnits="userSpaceOnUse"
       id="linearGradient2882-9"
       xlink:href="#linearGradient2894-7"
       inkscape:collect="always" />
    <linearGradient
       y2="1562.3137"
       x2="1300.5696"
       y1="1551.9929"
       x1="1293.6799"
       gradientUnits="userSpaceOnUse"
       id="linearGradient2880-8"
       xlink:href="#linearGradient2888"
       inkscape:collect="always"
       gradientTransform="translate(-1192.4232,-1530.3425)" />
    <linearGradient
       y2="1562.9657"
       x2="1315.8922"
       y1="1556.2311"
       x1="1311.6106"
       gradientUnits="userSpaceOnUse"
       id="linearGradient3049"
       xlink:href="#linearGradient3057"
       inkscape:collect="always" />
    <linearGradient
       y2="1553.3105"
       x2="1311.9755"
       y1="1539.3766"
       x1="1305.2279"
       gradientTransform="translate(-0.36478605,2.9205382)"
       gradientUnits="userSpaceOnUse"
       id="linearGradient3051"
       xlink:href="#linearGradient3063"
       inkscape:collect="always" />
    <linearGradient
       y2="1594.5424"
       x2="1493.941"
       y1="1592.6505"
       x1="1485.0681"
       gradientUnits="userSpaceOnUse"
       id="linearGradient3124"
       xlink:href="#linearGradient3138"
       inkscape:collect="always" />
    <linearGradient
       y2="1589.73"
       x2="1485.4329"
       y1="1577.6367"
       x1="1446.825"
       gradientTransform="translate(-0.36478605,2.9205382)"
       gradientUnits="userSpaceOnUse"
       id="linearGradient3126"
       xlink:href="#linearGradient3132-0"
       inkscape:collect="always" />
    <linearGradient
       y2="1589.73"
       x2="1485.4329"
       y1="1577.6367"
       x1="1446.825"
       gradientTransform="translate(-1393.5438,-1556.95)"
       gradientUnits="userSpaceOnUse"
       id="linearGradient3126-3"
       xlink:href="#linearGradient3132-0"
       inkscape:collect="always" />
    <linearGradient
       y2="1594.5424"
       x2="1493.941"
       y1="1592.6505"
       x1="1485.0681"
       gradientUnits="userSpaceOnUse"
       id="linearGradient3124-5"
       xlink:href="#linearGradient3138"
       inkscape:collect="always"
       gradientTransform="translate(-1393.179,-1559.8705)" />
    <linearGradient
       y2="1620.8427"
       x2="1658.6409"
       y1="1616.795"
       x1="1655.3729"
       gradientUnits="userSpaceOnUse"
       id="linearGradient3201"
       xlink:href="#linearGradient3209"
       inkscape:collect="always" />
    <linearGradient
       y2="1613.8745"
       x2="1655.7377"
       y1="1587.1221"
       x1="1579.1885"
       gradientTransform="translate(-0.36478605,2.9205382)"
       gradientUnits="userSpaceOnUse"
       id="linearGradient3203"
       xlink:href="#linearGradient3215-5"
       inkscape:collect="always" />
    <linearGradient
       y2="1613.8745"
       x2="1655.7377"
       y1="1587.1221"
       x1="1579.1885"
       gradientTransform="translate(-1565.329,-1582.9779)"
       gradientUnits="userSpaceOnUse"
       id="linearGradient3203-4"
       xlink:href="#linearGradient3215-5"
       inkscape:collect="always" />
    <linearGradient
       y2="1620.8427"
       x2="1658.6409"
       y1="1616.795"
       x1="1655.3729"
       gradientUnits="userSpaceOnUse"
       id="linearGradient3201-4"
       xlink:href="#linearGradient3209"
       inkscape:collect="always"
       gradientTransform="translate(-1564.9642,-1585.8985)" />
    <linearGradient
       y2="1577.2101"
       x2="1902.5864"
       y1="1581.5916"
       x1="1889.8978"
       gradientUnits="userSpaceOnUse"
       id="linearGradient3278"
       xlink:href="#linearGradient3292"
       inkscape:collect="always" />
    <linearGradient
       y2="1578.671"
       x2="1890.2626"
       y1="1606.4592"
       x1="1788.9221"
       gradientTransform="translate(-0.36478605,2.9205382)"
       gradientUnits="userSpaceOnUse"
       id="linearGradient3280"
       xlink:href="#linearGradient3286-5"
       inkscape:collect="always" />
    <linearGradient
       y2="1578.671"
       x2="1890.2626"
       y1="1606.4592"
       x1="1788.9221"
       gradientTransform="translate(-1781.2253,-1557.3232)"
       gradientUnits="userSpaceOnUse"
       id="linearGradient3280-2"
       xlink:href="#linearGradient3286-5"
       inkscape:collect="always" />
    <linearGradient
       y2="1577.2101"
       x2="1902.5864"
       y1="1581.5916"
       x1="1889.8978"
       gradientUnits="userSpaceOnUse"
       id="linearGradient3278-2"
       xlink:href="#linearGradient3292"
       inkscape:collect="always"
       gradientTransform="translate(-1780.8605,-1560.2437)" />
    <linearGradient
       y2="1516.7195"
       x2="2068.6875"
       y1="1503.7472"
       x1="2063.4363"
       gradientUnits="userSpaceOnUse"
       id="linearGradient3355"
       xlink:href="#linearGradient3369"
       inkscape:collect="always" />
    <linearGradient
       y2="1500.8267"
       x2="2063.801"
       y1="1560.3475"
       x1="1996.6725"
       gradientTransform="translate(-0.36478605,2.9205382)"
       gradientUnits="userSpaceOnUse"
       id="linearGradient3357"
       xlink:href="#linearGradient3363-8"
       inkscape:collect="always" />
    <linearGradient
       y2="1500.8267"
       x2="2063.801"
       y1="1560.3475"
       x1="1996.6725"
       gradientTransform="translate(-1981.3469,-1475.4752)"
       gradientUnits="userSpaceOnUse"
       id="linearGradient3357-7"
       xlink:href="#linearGradient3363-8"
       inkscape:collect="always" />
    <linearGradient
       y2="1516.7195"
       x2="2068.6875"
       y1="1503.7472"
       x1="2063.4363"
       gradientUnits="userSpaceOnUse"
       id="linearGradient3355-1"
       xlink:href="#linearGradient3369"
       inkscape:collect="always"
       gradientTransform="translate(-1980.9822,-1478.3957)" />
    <linearGradient
       y2="1369.9556"
       x2="2182.7271"
       y1="1366.4039"
       x1="2165.0803"
       gradientUnits="userSpaceOnUse"
       id="linearGradient3464"
       xlink:href="#linearGradient3472"
       inkscape:collect="always" />
    <linearGradient
       y2="1363.4834"
       x2="2165.4451"
       y1="1401.6837"
       x1="2108.7288"
       gradientTransform="translate(-0.36478605,2.9205382)"
       gradientUnits="userSpaceOnUse"
       id="linearGradient3466"
       xlink:href="#linearGradient3478-2"
       inkscape:collect="always" />
    <linearGradient
       y2="1363.4834"
       x2="2165.4451"
       y1="1401.6837"
       x1="2108.7288"
       gradientTransform="translate(-2087.0207,-1304.4905)"
       gradientUnits="userSpaceOnUse"
       id="linearGradient3466-7"
       xlink:href="#linearGradient3478-2"
       inkscape:collect="always" />
    <linearGradient
       y2="1369.9556"
       x2="2182.7271"
       y1="1366.4039"
       x1="2165.0803"
       gradientUnits="userSpaceOnUse"
       id="linearGradient3464-9"
       xlink:href="#linearGradient3472"
       inkscape:collect="always"
       gradientTransform="translate(-2086.6559,-1307.411)" />
    <linearGradient
       y2="1290.1925"
       x2="2229.7227"
       y1="1275.8621"
       x1="2220.2678"
       gradientUnits="userSpaceOnUse"
       id="linearGradient3573"
       xlink:href="#linearGradient3581"
       inkscape:collect="always" />
    <linearGradient
       y2="1272.9415"
       x2="2220.6326"
       y1="1294.7582"
       x1="2200.1328"
       gradientTransform="translate(-0.36478605,2.9205382)"
       gradientUnits="userSpaceOnUse"
       id="linearGradient3575"
       xlink:href="#linearGradient3587"
       inkscape:collect="always" />
  </defs>
  <sodipodi:namedview
     inkscape:current-layer="layer1"
     inkscape:window-maximized="1"
     inkscape:window-y="26"
     inkscape:window-x="1920"
     inkscape:cy="1751.5"
     inkscape:cx="1240.5"
     inkscape:zoom="0.25606623"
     showgrid="false"
     id="namedview4"
     inkscape:window-height="1025"
     inkscape:window-width="1920"
     inkscape:pageshadow="2"
     inkscape:pageopacity="0"
     guidetolerance="10"
     gridtolerance="10"
     objecttolerance="10"
     borderopacity="1"
     bordercolor="#666666"
     pagecolor="#ffffff" />
  <g
     sodipodi:insensitive="true"
     inkscape:label="artwork"
     id="layer2"
     inkscape:groupmode="layer">
    <image
       sodipodi:absref="/home/kraftwerk/Downloads/lang/gfx_Pepper-and-Carrot_by-David-Revoy_E02P02.png"
       xlink:href="../gfx_Pepper-and-Carrot_by-David-Revoy_E02P02.png"
       y="0"
       x="-1.6728083e-06"
       id="image10"
       height="3503"
       width="2481" />
  </g>
  <g
     style="display:inline;opacity:1"
     inkscape:label="text"
     id="layer1"
     inkscape:groupmode="layer">
    <path
       inkscape:connector-curvature="0"
       id="path2505"
       d="m 2183.9576,1283.1811 1.63,23.4729 9.4544,16.3006 23.1469,-21.8429 c 0,0 19.8867,-29.0151 20.5388,-30.3191 0.652,-1.3041 23.7989,-20.5388 23.7989,-20.5388 0,0 10.4324,-20.5388 9.7804,-22.1689 -0.6521,-1.63 -14.9966,-6.8462 -14.9966,-6.8462 l -19.5608,7.4983 -22.1688,15.3226 -9.1284,13.3665 -12.0624,11.4104 z"
       style="opacity:1;vector-effect:none;fill:url(#linearGradient3575);fill-opacity:1;fill-rule:evenodd;stroke:url(#linearGradient3573);stroke-width:1px;stroke-linecap:butt;stroke-linejoin:miter;stroke-miterlimit:4;stroke-dasharray:none;stroke-dashoffset:0;stroke-opacity:1;filter:url(#filter864)" />
    <path
       sodipodi:nodetypes="ccscccccccccc"
       inkscape:connector-curvature="0"
       id="path2503"
       d="m 2090.718,1402.1756 c 0.2906,7.9456 -0.7341,15.0144 3.2601,25.429 0,0 8.1503,5.8682 9.7804,2.9341 1.6301,-2.9341 22.8209,-25.755 22.8209,-25.755 l 37.7156,-27.4868 27.9762,-21.2588 -11.7435,-33.7291 -11.8927,-4.8966 -8.1503,4.8902 -20.2128,20.5387 -19.5607,17.6047 -20.8648,24.4509 z"
       style="opacity:1;vector-effect:none;fill:url(#linearGradient3466);fill-opacity:1;fill-rule:evenodd;stroke:url(#linearGradient3464);stroke-width:1px;stroke-linecap:butt;stroke-linejoin:miter;stroke-miterlimit:4;stroke-dasharray:none;stroke-dashoffset:0;stroke-opacity:1;filter:url(#filter864)" />
    <path
       sodipodi:nodetypes="cccccccccccccccc"
       inkscape:connector-curvature="0"
       id="path2501"
       d="m 1984.7639,1550.8373 2.9069,9.2029 8.6734,16.1515 25.5987,-15.8184 19.3638,-12.6464 22.6783,-21.9926 13.3665,-12.3884 1.9561,-18.2567 -13.3665,-6.8463 -3.9122,-1.9561 -12.3885,11.0845 -15.3226,12.0624 -12.3884,11.4105 -29.0151,17.6046 -7.4983,8.1503 z"
       style="opacity:1;vector-effect:none;fill:url(#linearGradient3357);fill-opacity:1;fill-rule:evenodd;stroke:url(#linearGradient3355);stroke-width:1px;stroke-linecap:butt;stroke-linejoin:miter;stroke-miterlimit:4;stroke-dasharray:none;stroke-dashoffset:0;stroke-opacity:1;filter:url(#filter864)" />
    <path
       sodipodi:nodetypes="cccccccccccccc"
       inkscape:connector-curvature="0"
       id="path2499"
       d="m 1787.2004,1606.5854 0.2988,31.0192 18.2975,-3.3962 26.0946,-6.8599 36.004,-11.3696 25.7549,-9.7668 18.1414,-11.5802 -4.2246,-16.4569 -17.6727,-11.6891 -20.8648,6.5202 -23.1469,12.0625 -17.2786,5.8682 -42.7077,6.8463 z"
       style="opacity:1;vector-effect:none;fill:url(#linearGradient3280);fill-opacity:1;fill-rule:evenodd;stroke:url(#linearGradient3278);stroke-width:1px;stroke-linecap:butt;stroke-linejoin:miter;stroke-miterlimit:4;stroke-dasharray:none;stroke-dashoffset:0;stroke-opacity:1;filter:url(#filter864)" />
    <path
       inkscape:connector-curvature="0"
       id="path2497"
       d="m 1573.3362,1593.2189 -4.5642,9.7804 6.1943,8.4763 19.2347,3.5862 27.3851,4.5641 16.9526,5.8683 15.6486,2.6081 c 0,0 7.1723,0.326 7.4983,-0.9781 0.326,-1.304 2.2821,-11.0844 2.2821,-11.0844 l -1.9561,-6.5203 -14.9966,-7.8243 -19.5607,-5.8682 -18.5827,-3.2601 -23.7989,-3.2601 z"
       style="opacity:1;vector-effect:none;fill:url(#linearGradient3203);fill-opacity:1;fill-rule:evenodd;stroke:url(#linearGradient3201);stroke-width:1px;stroke-linecap:butt;stroke-linejoin:miter;stroke-miterlimit:4;stroke-dasharray:none;stroke-dashoffset:0;stroke-opacity:1;filter:url(#filter864)" />
    <path
       sodipodi:nodetypes="cccccccccccccc"
       inkscape:connector-curvature="0"
       id="path2495"
       d="m 1397.3872,1568.7191 6.0313,20.1965 21.908,6.0963 36.7417,5.9009 25.5756,4.3686 8.0851,0.2119 5.5585,-8.0362 1.3041,-6.8463 -3.2601,-8.1503 -26.081,-9.7804 c 0,0 -26.081,-4.5641 -27.7111,-4.8902 -1.63,-0.326 -21.1908,-3.9121 -21.1908,-3.9121 l -15.3226,-0.326 z"
       style="opacity:1;vector-effect:none;fill:url(#linearGradient3126);fill-opacity:1;fill-rule:evenodd;stroke:url(#linearGradient3124);stroke-width:1px;stroke-linecap:butt;stroke-linejoin:miter;stroke-miterlimit:4;stroke-dasharray:none;stroke-dashoffset:0;stroke-opacity:1;filter:url(#filter864)" />
    <path
       inkscape:connector-curvature="0"
       id="path2493"
       d="m 1196.7918,1538.7748 1.6301,17.9307 7.8243,3.5862 27.059,-0.9781 41.4036,2.9341 26.733,3.5862 4.5642,0.326 -7.4983,-18.5827 -6.1942,-5.8683 -35.2094,-6.1942 -24.4509,-2.2821 h -16.3007 l -15.6486,0.9781 z"
       style="opacity:1;vector-effect:none;fill:url(#linearGradient2882);fill-opacity:1;fill-rule:evenodd;stroke:url(#linearGradient2880);stroke-width:1px;stroke-linecap:butt;stroke-linejoin:miter;stroke-miterlimit:4;stroke-dasharray:none;stroke-dashoffset:0;stroke-opacity:1;filter:url(#filter864)" />
    <path
       inkscape:connector-curvature="0"
       id="path2491"
       d="m 958.47668,1563.8778 14.34455,-9.4544 29.66717,0.6521 25.4289,-4.2382 28.6891,-1.6301 13.6926,0.326 5.5422,15.3226 -6.5203,9.4544 -35.5353,0.978 -26.7331,2.6081 -18.58268,1.3041 -21.84283,1.304 -6.19424,-0.652 z"
       style="opacity:1;vector-effect:none;fill:url(#linearGradient2810);fill-opacity:1;fill-rule:evenodd;stroke:url(#linearGradient2808);stroke-width:1px;stroke-linecap:butt;stroke-linejoin:miter;stroke-miterlimit:4;stroke-dasharray:none;stroke-dashoffset:0;stroke-opacity:1;filter:url(#filter864)" />
    <path
       inkscape:connector-curvature="0"
       id="path2489"
       d="m 803.94676,1604.6294 -1.95607,-16.9527 9.45436,-6.8463 43.68567,-2.9341 23.14689,1.3041 1.63006,16.6266 -6.84626,9.4544 -19.56075,-1.6301 -19.88676,1.3041 -25.75499,2.2821 z"
       style="opacity:1;vector-effect:none;fill:url(#linearGradient2624);fill-opacity:1;fill-rule:evenodd;stroke:url(#linearGradient2626);stroke-width:1px;stroke-linecap:butt;stroke-linejoin:miter;stroke-miterlimit:4;stroke-dasharray:none;stroke-dashoffset:0;stroke-opacity:1;filter:url(#filter864)" />
    <path
       transform="matrix(1.0108081,0,0,0.92755468,-6.2309242,115.73684)"
       inkscape:connector-curvature="0"
       id="path2487"
       d="m 622.0318,1608.5415 c 1.95608,-1.9561 1.63006,-6.8463 3.58614,-8.4763 1.95607,-1.6301 12.06246,-0.9781 12.06246,-0.9781 l 24.77695,-1.63 23.14689,-0.652 7.82429,6.8462 -2.93411,13.3665 -7.17227,6.5203 -25.75499,0.652 -24.12492,2.6081 -10.75841,1.3041 -6.52025,-2.9342 2.6081,-9.7803 z"
       style="opacity:1;vector-effect:none;fill:url(#linearGradient2758);fill-opacity:1;fill-rule:evenodd;stroke:url(#linearGradient2760);stroke-width:1.03275156px;stroke-linecap:butt;stroke-linejoin:miter;stroke-miterlimit:4;stroke-dasharray:none;stroke-dashoffset:0;stroke-opacity:1;filter:url(#filter864)" />
    <path
       sodipodi:nodetypes="ccscccscc"
       inkscape:connector-curvature="0"
       id="path2182"
       d="m 2180.4366,811.09592 c 18.8165,-17.10594 66.7132,-57.58998 69.5641,-55.87939 2.851,1.71059 -6.8423,63.29196 -5.7019,74.69592 1.1404,11.40396 2.851,50.74761 3.9913,63.86216 1.1404,13.11455 14.8966,66.16789 -2.2093,74.72086 -17.106,8.55297 -23.9359,32.02633 -34.1994,27.46472 -65.7644,11.91521 -53.1123,-61.70153 -53.1123,-78.80747 0,-17.10594 7.4126,-71.84493 10.8337,-79.8277 3.4212,-7.98277 10.8338,-26.2291 10.8338,-26.2291 z"
       style="opacity:0.88999999;vector-effect:none;fill:url(#linearGradient2245);fill-opacity:1;fill-rule:evenodd;stroke:url(#linearGradient2243);stroke-width:1px;stroke-linecap:butt;stroke-linejoin:miter;stroke-miterlimit:4;stroke-dasharray:none;stroke-dashoffset:0;stroke-opacity:1;filter:url(#filter864)" />
    <flowRoot
       transform="matrix(0.73603861,0.37310914,-0.15603585,0.72101075,1816.5894,156.4377)"
       style="color:#000000;font-style:normal;font-variant:normal;font-weight:normal;font-stretch:normal;line-height:0.01%;font-family:Arial;-inkscape-font-specification:Arial;text-align:start;letter-spacing:0px;word-spacing:0px;text-anchor:start;display:inline;overflow:visible;visibility:visible;fill:#e69d76;fill-opacity:1;fill-rule:nonzero;stroke:#e99f77;stroke-width:3.84797;stroke-miterlimit:4;stroke-dasharray:none;stroke-opacity:1;marker:none;enable-background:accumulate"
       id="flowRoot3063-8-9-4-4"
       xml:space="preserve"><flowRegion
         style="text-align:start;text-anchor:start;stroke-width:7.79627"
         id="flowRegion3065-8-8-2-4"><rect
           style="color:#000000;font-size:72px;text-align:start;text-anchor:start;display:inline;overflow:visible;visibility:visible;fill:#e69d76;fill-opacity:1;fill-rule:nonzero;stroke:#e99f77;stroke-width:3.84797239;stroke-miterlimit:4;stroke-dasharray:none;stroke-opacity:1;marker:none;enable-background:accumulate"
           y="425.30325"
           x="92.642677"
           height="97.795288"
           width="179.36235"
           id="rect3067-6-6-0-4" /></flowRegion><flowPara
         id="flowPara3188-0-7-3"
         style="color:#000000;font-style:normal;font-variant:normal;font-weight:normal;font-stretch:normal;font-size:64px;line-height:1.25;font-family:Lavi;-inkscape-font-specification:Lavi;text-align:start;text-anchor:start;display:inline;overflow:visible;visibility:visible;fill:#e69d76;fill-opacity:1;fill-rule:nonzero;stroke:#e99f77;stroke-width:3.84797;stroke-miterlimit:4;stroke-dasharray:none;stroke-opacity:1;marker:none;enable-background:accumulate">tok</flowPara></flowRoot>
    <path
       sodipodi:nodetypes="ccccccccc"
       inkscape:connector-curvature="0"
       id="path822"
       d="m 1708.5746,455.31233 c 16.3544,-0.46727 44.4688,-9.62533 49.6088,-12.42893 5.1399,-2.80361 24.5219,-14.70397 24.5219,-14.70397 l 2.8564,7.76261 0.9345,8.41082 -0.4673,12.553 -21.8212,16.24684 c 0,0 -36.119,13.85671 -45.4643,12.92217 -17.3602,-3.33899 -10.1688,-30.76254 -10.1688,-30.76254 z"
       style="fill:url(#linearGradient830);fill-opacity:1;fill-rule:evenodd;stroke:none;stroke-width:1px;stroke-linecap:butt;stroke-linejoin:miter;stroke-opacity:1;filter:url(#filter864)" />
    <text
       transform="matrix(0.88981139,-0.0185016,0,1,203.48633,28.807734)"
       xml:space="preserve"
       style="font-style:normal;font-variant:normal;font-weight:normal;font-stretch:normal;font-size:8.20772px;line-height:0%;font-family:Lavi;-inkscape-font-specification:Lavi;text-align:center;letter-spacing:0px;word-spacing:0px;text-anchor:middle;opacity:0.633;fill:#2b2b2b;fill-opacity:1;stroke:#000000;stroke-width:1.20641;stroke-miterlimit:4;stroke-dasharray:none;stroke-opacity:0.649718;filter:url(#filter1275)"
       id="text4178-6-5-9-0-7-0-4"><textPath
         style="font-style:normal;font-variant:normal;font-weight:normal;font-stretch:normal;font-size:27.8219px;line-height:1.25;font-family:Fondamento;-inkscape-font-specification:Fondamento;letter-spacing:2.65028px;fill:#2b2b2b;fill-opacity:1;stroke:#000000;stroke-width:1.20641;stroke-miterlimit:4;stroke-dasharray:none;stroke-opacity:0.649718"
         id="textPath894"
         startOffset="50%"
         xlink:href="#path892"> ATEŞ D</textPath></text>
    <path
       sodipodi:nodetypes="cc"
       inkscape:connector-curvature="0"
       id="path892"
       d="m 1687.989,477.53793 c 37.4398,5.77864 81.1477,-10.01548 101.7802,-27.84544"
       style="fill:none;fill-rule:evenodd;stroke:none;stroke-width:0;stroke-linecap:butt;stroke-linejoin:miter;stroke-miterlimit:4;stroke-dasharray:none;stroke-opacity:1" />
    <path
       sodipodi:nodetypes="cccccccccccccc"
       inkscape:connector-curvature="0"
       id="path1004"
       d="m 1812.59,412.70195 c 6.3735,0.74983 59.9863,1.12474 65.9849,-0.37492 5.9986,-1.49965 46.1145,-13.49691 50.6134,-17.62097 4.499,-4.12406 15.3715,-8.99794 15.3715,-8.99794 l 5.6237,4.12405 7.2332,9.72935 c 0,0 2.2311,13.25949 -1.518,16.25881 -3.7492,2.99931 -13.2134,11.71377 -13.2134,11.71377 l -42.5482,14.62166 -39.1832,7.96462 -30.7429,-0.67683 -14.6217,-6.74845 -5.3311,-6.08084 z"
       style="opacity:1;vector-effect:none;fill:url(#linearGradient1057);fill-opacity:1;fill-rule:evenodd;stroke:none;stroke-width:1px;stroke-linecap:butt;stroke-linejoin:miter;stroke-miterlimit:4;stroke-dasharray:none;stroke-dashoffset:0;stroke-opacity:1;filter:url(#filter864)" />
    <path
       transform="matrix(0.77512798,0,0,1,427.28767,-1.435989e-5)"
       inkscape:connector-curvature="0"
       id="path1065"
       d="m 1853.3809,428.37635 c 7.1723,-7.17228 17.2787,-10.75841 17.2787,-8.47633 0,2.28209 11.4104,3.26013 13.3665,-1.95607 1.9561,-5.2162 14.6706,-5.2162 14.6706,-5.2162 l -3.5862,8.80234 c 0,0 -6.8462,4.23816 -9.1283,6.84626 -2.2821,2.6081 4.8902,5.2162 4.8902,5.2162 0,0 24.7769,-17.60468 28.037,-19.88676 3.2602,-2.28209 4.5642,-0.97804 3.9122,3.91215 -0.652,4.89018 10.1064,5.2162 12.0624,2.28208 1.9561,-2.93411 0.9781,5.54222 0.9781,5.54222 l -35.725,16.71352 c 0,0 -36.6498,6.43336 -34.6937,0.89115 1.9561,-5.54221 -1.9561,-11.08443 -1.9561,-11.08443 l -15.6486,7.17228 c 0,0 -22.1688,9.45436 -17.2787,1.30405 4.8902,-8.15031 7.1723,-16.95265 0.3261,-12.06246 -6.8463,4.89018 1.956,-9.12835 1.956,-9.12835 0,0 18.9088,-8.80234 16.9527,-3.91215 -1.9561,4.89019 -5.5422,16.62663 -5.5422,16.62663 z"
       style="fill:url(#linearGradient1081);fill-opacity:1;fill-rule:evenodd;stroke:none;stroke-width:1.13582981px;stroke-linecap:butt;stroke-linejoin:miter;stroke-opacity:1;filter:url(#filter1151)" />
    <flowRoot
       style="font-style:normal;font-variant:normal;font-weight:normal;font-stretch:normal;font-size:0.666667px;line-height:0%;font-family:Lavi;-inkscape-font-specification:Lavi;text-align:center;letter-spacing:22.66px;word-spacing:-79.64px;writing-mode:lr-tb;text-anchor:middle;fill:#000000;fill-opacity:1;stroke:none;stroke-width:1px;stroke-linecap:butt;stroke-linejoin:miter;stroke-opacity:1"
       id="flowRoot1255"
       xml:space="preserve"><flowRegion
         id="flowRegion1257"><rect
           y="355.1629"
           x="1834.1185"
           height="16.814909"
           width="109.94366"
           id="rect1259" /></flowRegion><flowPara
         id="flowPara1261" /></flowRoot>
    <text
       transform="matrix(0.97958467,0,0,1.2064985,39.496757,-91.364445)"
       xml:space="preserve"
       style="font-style:normal;font-variant:normal;font-weight:normal;font-stretch:normal;font-size:6.19657px;line-height:0%;font-family:Lavi;-inkscape-font-specification:Lavi;text-align:center;letter-spacing:0px;word-spacing:0px;text-anchor:middle;opacity:0.518;fill:#2b2b2b;fill-opacity:1;stroke:#000000;stroke-width:2.01291;stroke-miterlimit:4;stroke-dasharray:none;stroke-opacity:0.649718;filter:url(#filter1639)"
       id="text4178-6-5-9-0-7-0-4-0"><textPath
         style="stroke-width:2.01291"
         id="textPath1504"
         startOffset="50%"
         xlink:href="#path1499"><tspan
           style="font-style:normal;font-variant:normal;font-weight:normal;font-stretch:normal;font-size:21.6802px;line-height:1.25;font-family:Fondamento;-inkscape-font-specification:Fondamento;letter-spacing:1.65799px;fill:#2b2b2b;fill-opacity:1;stroke:#000000;stroke-width:2.01291;stroke-miterlimit:4;stroke-dasharray:none;stroke-opacity:0.649718"
           id="tspan4293-1-6-3-5-0-2">       DERİN OKYANUS</tspan></textPath></text>
    <path
       inkscape:connector-curvature="0"
       id="path1499"
       d="m 1810.2582,436.61426 c 27.7406,8.65931 105.7791,2.62319 144.5827,-22.38359"
       style="fill:none;fill-rule:evenodd;stroke:none;stroke-width:1px;stroke-linecap:butt;stroke-linejoin:miter;stroke-opacity:1" />
    <path
       sodipodi:nodetypes="cccccccscccc"
       inkscape:connector-curvature="0"
       id="path1643"
       d="m 2024.4489,370.42514 c 21.6675,-1.71059 56.8355,-10.49287 65.234,-12.75866 8.3986,-3.49837 31.0994,-10.26357 34.5206,-14.25495 8.3515,-8.67513 19.4881,4.54134 19.4881,4.54134 l 7.2041,7.13878 -5.636,24.35349 c 0,0 -7.5879,5.9445 -15.5707,9.70437 -8.9688,5.23894 -46.5869,18.92369 -61.4121,19.49388 -14.8251,0.5702 -41.9008,3.6355 -41.9008,3.6355 l 4.0985,-18.5678 -7.9828,-17.64615 z"
       style="opacity:1;vector-effect:none;fill:url(#linearGradient1705);fill-opacity:1;fill-rule:evenodd;stroke:url(#linearGradient1698);stroke-width:1px;stroke-linecap:butt;stroke-linejoin:miter;stroke-miterlimit:4;stroke-dasharray:none;stroke-dashoffset:0;stroke-opacity:1;filter:url(#filter864)" />
    <text
       y="-89.676819"
       transform="matrix(0.79747472,0.01134452,-0.11163347,1.1121275,476.1944,-74.331329)"
       xml:space="preserve"
       style="font-style:normal;font-variant:normal;font-weight:normal;font-stretch:normal;font-size:6.91081px;line-height:0%;font-family:Lavi;-inkscape-font-specification:Lavi;text-align:center;letter-spacing:0px;word-spacing:0px;text-anchor:middle;opacity:0.633;fill:#2b2b2b;fill-opacity:1;stroke:#000000;stroke-width:2.322;stroke-miterlimit:4;stroke-dasharray:none;stroke-opacity:0.649718;filter:url(#filter1794)"
       id="text4178-6-5-9-0-7-0-4-0-9"><textPath
         style="stroke-width:2.322"
         id="textPath1727"
         startOffset="50%"
         xlink:href="#path1725"><tspan
           style="font-style:normal;font-variant:normal;font-weight:normal;font-stretch:normal;font-size:24.1792px;line-height:1.25;font-family:Fondamento;-inkscape-font-specification:Fondamento;letter-spacing:1.8491px;fill:#2b2b2b;fill-opacity:1;stroke:#000000;stroke-width:2.322;stroke-miterlimit:4;stroke-dasharray:none;stroke-opacity:0.649718"
           id="tspan4293-1-6-3-5-0-2-3">MENEKŞE</tspan></textPath></text>
    <path
       sodipodi:nodetypes="cc"
       inkscape:connector-curvature="0"
       id="path1725"
       d="m 2013.0463,406.57773 c 34.2119,-0.89637 107.6347,-16.64738 127.9227,-30.24528"
       style="fill:none;fill-rule:evenodd;stroke:none;stroke-width:0.60000002;stroke-linecap:butt;stroke-linejoin:miter;stroke-miterlimit:4;stroke-dasharray:none;stroke-opacity:1" />
    <path
       sodipodi:nodetypes="ccsccccsccc"
       inkscape:connector-curvature="0"
       id="path1798"
       d="m 2162.6559,349.25614 c 2.1558,-8.19188 3.018,-13.79685 8.1918,-11.20994 5.1739,2.58691 10.7789,3.44921 31.043,4.31151 21.5424,0.91669 77.1761,-12.93454 80.6253,-11.64108 3.4492,1.29345 13.7969,21.55756 10.7788,25.43793 -3.0181,3.88036 -6.4673,31.47406 -7.3296,33.19866 -0.8623,1.72461 -12.9345,9.91649 -17.6772,11.20994 -4.7426,1.29346 -39.6659,9.05419 -49.5824,6.46728 -9.9165,-2.58691 -34.061,-4.74267 -38.8036,-7.76073 -4.7427,-3.01806 -22.4199,-17.24606 -22.8511,-21.55757 -0.4311,-4.31152 5.605,-28.456 5.605,-28.456 z"
       style="opacity:0.88999999;vector-effect:none;fill:url(#linearGradient1861);fill-opacity:1;fill-rule:evenodd;stroke:url(#linearGradient1863);stroke-width:1px;stroke-linecap:butt;stroke-linejoin:miter;stroke-miterlimit:4;stroke-dasharray:none;stroke-dashoffset:0;stroke-opacity:1;filter:url(#filter864)" />
    <text
       transform="matrix(0.81020149,-0.1994889,-0.1629819,1.3526794,493.31471,311.00898)"
       xml:space="preserve"
       style="font-style:normal;font-variant:normal;font-weight:normal;font-stretch:normal;font-size:7.20413px;line-height:0%;font-family:Lavi;-inkscape-font-specification:Lavi;text-align:center;letter-spacing:0px;word-spacing:0px;text-anchor:middle;opacity:0.633;fill:#2b2b2b;fill-opacity:1;stroke:#000000;stroke-width:1.82526;stroke-miterlimit:4;stroke-dasharray:none;stroke-opacity:0.649718;filter:url(#filter1999)"
       id="text4178-6-5-9-0-7-0-4-0-4"><textPath
         style="stroke-width:1.82526"
         id="textPath1920"
         startOffset="50%"
         xlink:href="#path1918"><tspan
           style="font-style:normal;font-variant:normal;font-weight:normal;font-stretch:normal;font-size:25.2054px;line-height:1.25;font-family:Fondamento;-inkscape-font-specification:Fondamento;letter-spacing:1.92758px;fill:#2b2b2b;fill-opacity:1;stroke:#000000;stroke-width:1.82526;stroke-miterlimit:4;stroke-dasharray:none;stroke-opacity:0.649718"
           id="tspan4293-1-6-3-5-0-2-3-3">ULTRA MAVİ</tspan></textPath></text>
    <path
       sodipodi:nodetypes="cc"
       inkscape:connector-curvature="0"
       id="path1918"
       d="m 2129.5742,360.55409 c 17.4239,7.98277 85.4105,28.19628 158.9077,22.4943"
       style="fill:none;fill-rule:evenodd;stroke:none;stroke-width:0.99999994px;stroke-linecap:butt;stroke-linejoin:miter;stroke-opacity:1" />
    <path
       inkscape:connector-curvature="0"
       id="path2003"
       d="m 2303.4737,406.95733 c 5.9987,-16.12132 23.9946,-60.36121 25.1193,-61.86087 1.1247,-1.49966 22.8698,26.244 24.7444,28.86841 1.8745,2.6244 4.4989,4.87388 -1.8746,9.37285 -6.3736,4.49898 -20.2454,47.98904 -20.6203,51.36327 -0.3749,3.37423 -17.621,7.12337 -18.3708,1.49966 -0.7498,-5.62372 -8.998,-29.24332 -8.998,-29.24332 z"
       style="opacity:0.88999999;vector-effect:none;fill:url(#linearGradient2068);fill-opacity:1;fill-rule:evenodd;stroke:url(#linearGradient2066);stroke-width:1px;stroke-linecap:butt;stroke-linejoin:miter;stroke-miterlimit:4;stroke-dasharray:none;stroke-dashoffset:0;stroke-opacity:1;filter:url(#filter864)" />
    <text
       transform="matrix(0.26745914,0.49019662,-0.42771351,1.1085401,3304.7158,-3702.1843)"
       x="1318.7137"
       y="3129.8394"
       xml:space="preserve"
       style="font-style:normal;font-variant:normal;font-weight:normal;font-stretch:normal;line-height:0%;font-family:Lavi;-inkscape-font-specification:Lavi;text-align:center;letter-spacing:0px;word-spacing:0px;text-anchor:middle;opacity:0.633;fill:#2b2b2b;fill-opacity:1;stroke:#000000;stroke-width:1.58832;stroke-miterlimit:4;stroke-dasharray:none;stroke-opacity:0.649718;filter:url(#filter1483)"
       id="text4178-6-5-9-0-7-0-4-0-8"><tspan
         id="tspan4293-1-6-3-5-0-2-3-7"
         sodipodi:role="line"
         style="font-style:normal;font-variant:normal;font-weight:normal;font-stretch:normal;font-size:41.985px;line-height:1.25;font-family:Fondamento;-inkscape-font-specification:Fondamento;letter-spacing:3.2108px;fill:#2b2b2b;fill-opacity:1;stroke:#000000;stroke-width:1.58832;stroke-miterlimit:4;stroke-dasharray:none;stroke-opacity:0.649718"
         x="1320.3191"
         y="3129.8394">PIN</tspan></text>
    <text
       transform="matrix(-0.00840305,1.0428974,-1.5917178,1.3181824,7181.4538,-4643.3374)"
       x="1318.7137"
       y="3129.8394"
       xml:space="preserve"
       style="font-style:normal;font-variant:normal;font-weight:normal;font-stretch:normal;line-height:0%;font-family:Lavi;-inkscape-font-specification:Lavi;text-align:center;letter-spacing:0px;word-spacing:0px;text-anchor:middle;display:inline;opacity:0.776;fill:#2b2b2b;fill-opacity:1;stroke:#000000;stroke-width:0.879991;stroke-miterlimit:4;stroke-dasharray:none;stroke-opacity:0.649718;filter:url(#filter2178)"
       id="text4178-6-5-9-0-7-0-4-0-8-2"><tspan
         id="tspan4293-1-6-3-5-0-2-3-7-7"
         sodipodi:role="line"
         style="font-style:normal;font-variant:normal;font-weight:normal;font-stretch:normal;font-size:41.985px;line-height:1.25;font-family:Fondamento;-inkscape-font-specification:Fondamento;letter-spacing:3.2108px;fill:#2b2b2b;fill-opacity:1;stroke:#000000;stroke-width:0.879991;stroke-miterlimit:4;stroke-dasharray:none;stroke-opacity:0.649718"
         x="1320.3191"
         y="3129.8394">IZIL</tspan></text>
    <text
       transform="matrix(0.38169653,-0.02860781,-0.07588292,0.4745916,392.49297,171.33321)"
       x="1318.7137"
       y="3129.8394"
       xml:space="preserve"
       style="font-style:normal;font-variant:normal;font-weight:normal;font-stretch:normal;line-height:0%;font-family:Lavi;-inkscape-font-specification:Lavi;text-align:center;letter-spacing:0px;word-spacing:0px;text-anchor:middle;opacity:0.633;fill:#2b2b2b;fill-opacity:1;stroke:#000000;stroke-width:2.67102;stroke-miterlimit:4;stroke-dasharray:none;stroke-opacity:0.649718;filter:url(#filter1483-1)"
       id="text4178-6-5-9-0-7-0-4-0-5"><tspan
         id="tspan4293-1-6-3-5-0-2-3-9"
         sodipodi:role="line"
         style="font-style:normal;font-variant:normal;font-weight:normal;font-stretch:normal;font-size:41.985px;line-height:1.25;font-family:Fondamento;-inkscape-font-specification:Fondamento;letter-spacing:3.2108px;fill:#2b2b2b;fill-opacity:1;stroke:#000000;stroke-width:2.67102;stroke-miterlimit:4;stroke-dasharray:none;stroke-opacity:0.649718"
         x="1320.3191"
         y="3129.8394">DOĞA</tspan></text>
    <text
       transform="matrix(0.38094171,-0.0266145,-0.05717669,0.47382801,515.52285,152.05072)"
       x="1318.7137"
       y="3129.8394"
       xml:space="preserve"
       style="font-style:normal;font-variant:normal;font-weight:normal;font-stretch:normal;line-height:0%;font-family:Lavi;-inkscape-font-specification:Lavi;text-align:center;letter-spacing:0px;word-spacing:0px;text-anchor:middle;display:inline;opacity:0.673;fill:#2b2b2b;fill-opacity:1;stroke:#000000;stroke-width:2.67102;stroke-miterlimit:4;stroke-dasharray:none;stroke-opacity:0.649718;filter:url(#filter1483-1-7)"
       id="text4178-6-5-9-0-7-0-4-0-5-6"><tspan
         id="tspan4293-1-6-3-5-0-2-3-9-7"
         sodipodi:role="line"
         style="font-style:normal;font-variant:normal;font-weight:normal;font-stretch:normal;font-size:41.985px;line-height:1.25;font-family:Fondamento;-inkscape-font-specification:Fondamento;letter-spacing:3.2108px;fill:#2b2b2b;fill-opacity:1;stroke:#000000;stroke-width:2.67102;stroke-miterlimit:4;stroke-dasharray:none;stroke-opacity:0.649718"
         x="1320.3191"
         y="3129.8394">SARI</tspan></text>
    <text
       transform="matrix(0.3590063,-0.01666038,-0.05388434,0.46087809,708.92377,150.55287)"
       x="1318.7137"
       y="3129.8394"
       xml:space="preserve"
       style="font-style:normal;font-variant:normal;font-weight:normal;font-stretch:normal;line-height:0%;font-family:Lavi;-inkscape-font-specification:Lavi;text-align:center;letter-spacing:0px;word-spacing:0px;text-anchor:middle;display:inline;opacity:0.688;fill:#2b2b2b;fill-opacity:1;stroke:#000000;stroke-width:2.78558;stroke-miterlimit:4;stroke-dasharray:none;stroke-opacity:0.649718;filter:url(#filter1483-1-7-3)"
       id="text4178-6-5-9-0-7-0-4-0-5-6-5"><tspan
         id="tspan4293-1-6-3-5-0-2-3-9-7-6"
         sodipodi:role="line"
         style="font-style:normal;font-variant:normal;font-weight:normal;font-stretch:normal;font-size:41.985px;line-height:1.25;font-family:Fondamento;-inkscape-font-specification:Fondamento;letter-spacing:3.2108px;fill:#2b2b2b;fill-opacity:1;stroke:#000000;stroke-width:2.78558;stroke-miterlimit:4;stroke-dasharray:none;stroke-opacity:0.649718"
         x="1320.3191"
         y="3129.8394">TURUNCU</tspan></text>
    <text
       transform="matrix(0.36736306,0.04204265,0.03715009,0.47300737,647.17593,21.479273)"
       x="1318.7137"
       y="3129.8394"
       xml:space="preserve"
       style="font-style:normal;font-variant:normal;font-weight:normal;font-stretch:normal;line-height:0%;font-family:Lavi;-inkscape-font-specification:Lavi;text-align:center;letter-spacing:0px;word-spacing:0px;text-anchor:middle;display:inline;opacity:0.676;fill:#2b2b2b;fill-opacity:1;stroke:#000000;stroke-width:2.72306;stroke-miterlimit:4;stroke-dasharray:none;stroke-opacity:0.649718;filter:url(#filter1483-1-7-3-3)"
       id="text4178-6-5-9-0-7-0-4-0-5-6-5-4"><tspan
         id="tspan4293-1-6-3-5-0-2-3-9-7-6-8"
         sodipodi:role="line"
         style="font-style:normal;font-variant:normal;font-weight:normal;font-stretch:normal;font-size:41.985px;line-height:1.25;font-family:Fondamento;-inkscape-font-specification:Fondamento;letter-spacing:3.2108px;fill:#2b2b2b;fill-opacity:1;stroke:#000000;stroke-width:2.72306;stroke-miterlimit:4;stroke-dasharray:none;stroke-opacity:0.649718"
         x="1320.3191"
         y="3129.8394">ATEŞ DANSI</tspan></text>
    <text
       transform="matrix(0.31272126,0.04788221,0.031387,0.51243199,940.98033,-77.729997)"
       x="1318.7137"
       y="3129.8394"
       xml:space="preserve"
       style="font-style:normal;font-variant:normal;font-weight:normal;font-stretch:normal;font-size:30.1183px;line-height:0%;font-family:Lavi;-inkscape-font-specification:Lavi;text-align:center;letter-spacing:0px;word-spacing:0px;text-anchor:middle;display:inline;opacity:0.728;fill:#2b2b2b;fill-opacity:1;stroke:#000000;stroke-width:2.83614;stroke-miterlimit:4;stroke-dasharray:none;stroke-opacity:0.649718;filter:url(#filter1483-1-7-3-3-1)"
       id="text4178-6-5-9-0-7-0-4-0-5-6-5-4-9"><tspan
         id="tspan4293-1-6-3-5-0-2-3-9-7-6-8-3"
         sodipodi:role="line"
         style="font-style:normal;font-variant:normal;font-weight:normal;font-stretch:normal;font-size:30.1183px;line-height:1.25;font-family:Fondamento;-inkscape-font-specification:Fondamento;letter-spacing:3.2108px;fill:#2b2b2b;fill-opacity:1;stroke:#000000;stroke-width:2.83614;stroke-miterlimit:4;stroke-dasharray:none;stroke-opacity:0.649718"
         x="1320.3191"
         y="3129.8394">DERİN OKYANUS</tspan></text>
    <text
       transform="matrix(0.34502779,0.06805058,0.0246526,0.49811269,1085.9998,-29.820448)"
       x="1318.7137"
       y="3129.8394"
       xml:space="preserve"
       style="font-style:normal;font-variant:normal;font-weight:normal;font-stretch:normal;line-height:0%;font-family:Lavi;-inkscape-font-specification:Lavi;text-align:center;letter-spacing:0px;word-spacing:0px;text-anchor:middle;display:inline;opacity:0.809;fill:#2b2b2b;fill-opacity:1;stroke:#000000;stroke-width:2.73916;stroke-miterlimit:4;stroke-dasharray:none;stroke-opacity:0.649718;filter:url(#filter1483-1-7-3-3-1-9)"
       id="text4178-6-5-9-0-7-0-4-0-5-6-5-4-9-8"><tspan
         id="tspan4293-1-6-3-5-0-2-3-9-7-6-8-3-8"
         sodipodi:role="line"
         style="font-style:normal;font-variant:normal;font-weight:normal;font-stretch:normal;font-size:41.985px;line-height:1.25;font-family:Fondamento;-inkscape-font-specification:Fondamento;letter-spacing:3.2108px;fill:#2b2b2b;fill-opacity:1;stroke:#000000;stroke-width:2.73916;stroke-miterlimit:4;stroke-dasharray:none;stroke-opacity:0.649718"
         x="1320.3191"
         y="3129.8394">MENEKŞE</tspan></text>
    <text
       transform="matrix(0.36239879,-0.11498906,-0.00129771,0.54624157,1368.689,50.976183)"
       x="1318.7137"
       y="3129.8394"
       xml:space="preserve"
       style="font-style:normal;font-variant:normal;font-weight:normal;font-stretch:normal;line-height:0%;font-family:Lavi;-inkscape-font-specification:Lavi;text-align:center;letter-spacing:0px;word-spacing:0px;text-anchor:middle;display:inline;opacity:0.633;fill:#2b2b2b;fill-opacity:1;stroke:#000000;stroke-width:2.54072;stroke-miterlimit:4;stroke-dasharray:none;stroke-opacity:0.649718;filter:url(#filter1483-1-7-3-3-1-9-5)"
       id="text4178-6-5-9-0-7-0-4-0-5-6-5-4-9-8-9"><tspan
         id="tspan4293-1-6-3-5-0-2-3-9-7-6-8-3-8-6"
         sodipodi:role="line"
         style="font-style:normal;font-variant:normal;font-weight:normal;font-stretch:normal;font-size:41.985px;line-height:1.25;font-family:Fondamento;-inkscape-font-specification:Fondamento;letter-spacing:3.2108px;fill:#2b2b2b;fill-opacity:1;stroke:#000000;stroke-width:2.54072;stroke-miterlimit:4;stroke-dasharray:none;stroke-opacity:0.649718"
         x="1320.3191"
         y="3129.8394">ULTRA MAVİ</tspan></text>
    <text
       transform="matrix(0.25827907,-0.20585885,0.19526002,0.43777064,1079.4907,438.58483)"
       x="1318.7137"
       y="3129.8394"
       xml:space="preserve"
       style="font-style:normal;font-variant:normal;font-weight:normal;font-stretch:normal;line-height:0%;font-family:Lavi;-inkscape-font-specification:Lavi;text-align:center;letter-spacing:0px;word-spacing:0px;text-anchor:middle;display:inline;opacity:0.559;fill:#2b2b2b;fill-opacity:1;stroke:#000000;stroke-width:2.88642;stroke-miterlimit:4;stroke-dasharray:none;stroke-opacity:0.649718;filter:url(#filter1483-1-7-3-3-1-9-5-3)"
       id="text4178-6-5-9-0-7-0-4-0-5-6-5-4-9-8-9-5"><tspan
         id="tspan4293-1-6-3-5-0-2-3-9-7-6-8-3-8-6-6"
         sodipodi:role="line"
         style="font-style:normal;font-variant:normal;font-weight:normal;font-stretch:normal;font-size:41.985px;line-height:1.25;font-family:Fondamento;-inkscape-font-specification:Fondamento;letter-spacing:3.2108px;fill:#2b2b2b;fill-opacity:1;stroke:#000000;stroke-width:2.88642;stroke-miterlimit:4;stroke-dasharray:none;stroke-opacity:0.649718"
         x="1320.3191"
         y="3129.8394">PEMBE</tspan></text>
    <text
       transform="matrix(0.28641096,-0.29551723,0.05280189,0.74994113,1590.9891,-568.66446)"
       x="1318.7137"
       y="3129.8394"
       xml:space="preserve"
       style="font-style:normal;font-variant:normal;font-weight:normal;font-stretch:normal;line-height:0%;font-family:Lavi;-inkscape-font-specification:Lavi;text-align:center;letter-spacing:0px;word-spacing:0px;text-anchor:middle;display:inline;opacity:0.721;fill:#2b2b2b;fill-opacity:1;stroke:#000000;stroke-width:2.35419;stroke-miterlimit:4;stroke-dasharray:none;stroke-opacity:0.649718;filter:url(#filter1483-1-7-3-3-1-9-5-3-1)"
       id="text4178-6-5-9-0-7-0-4-0-5-6-5-4-9-8-9-5-5"><tspan
         id="tspan4293-1-6-3-5-0-2-3-9-7-6-8-3-8-6-6-9"
         sodipodi:role="line"
         style="font-style:normal;font-variant:normal;font-weight:normal;font-stretch:normal;font-size:41.985px;line-height:1.25;font-family:Fondamento;-inkscape-font-specification:Fondamento;letter-spacing:3.2108px;fill:#2b2b2b;fill-opacity:1;stroke:#000000;stroke-width:2.35419;stroke-miterlimit:4;stroke-dasharray:none;stroke-opacity:0.649718"
         x="1320.3191"
         y="3129.8394">MACENTA X</tspan></text>
    <text
       transform="matrix(0.2819084,-0.33341141,0.2050152,0.773064,1207.3912,-699.82546)"
       x="1318.7137"
       y="3129.8394"
       xml:space="preserve"
       style="font-style:normal;font-variant:normal;font-weight:normal;font-stretch:normal;line-height:0%;font-family:Lavi;-inkscape-font-specification:Lavi;text-align:center;letter-spacing:0px;word-spacing:0px;text-anchor:middle;display:inline;opacity:0.816;fill:#2b2b2b;fill-opacity:1;stroke:#000000;stroke-width:2.11192;stroke-miterlimit:4;stroke-dasharray:none;stroke-opacity:0.649718;filter:url(#filter1483-1-7-3-3-1-9-5-3-1-8)"
       id="text4178-6-5-9-0-7-0-4-0-5-6-5-4-9-8-9-5-5-8"><tspan
         id="tspan4293-1-6-3-5-0-2-3-9-7-6-8-3-8-6-6-9-1"
         sodipodi:role="line"
         style="font-style:normal;font-variant:normal;font-weight:normal;font-stretch:normal;font-size:41.985px;line-height:1.25;font-family:Fondamento;-inkscape-font-specification:Fondamento;letter-spacing:3.2108px;fill:#2b2b2b;fill-opacity:1;stroke:#000000;stroke-width:2.11192;stroke-miterlimit:4;stroke-dasharray:none;stroke-opacity:0.649718"
         x="1320.3191"
         y="3129.8394">KIZIL</tspan></text>
    <path
       sodipodi:nodetypes="ccccccc"
       inkscape:connector-curvature="0"
       id="path2896"
       d="m 1302.3466,1544.2331 11.729,32.457 h 9.747 l -4.1241,-10.8725 -11.6223,-19.1207 -4.1241,-4.8738 z"
       style="opacity:1;vector-effect:none;fill:url(#linearGradient3051);fill-opacity:1;fill-rule:evenodd;stroke:url(#linearGradient3049);stroke-width:1px;stroke-linecap:butt;stroke-linejoin:miter;stroke-miterlimit:4;stroke-dasharray:none;stroke-dashoffset:0;stroke-opacity:1;filter:url(#filter864)" />
  </g>
</svg>
