<?xml version="1.0" encoding="UTF-8" standalone="no"?>
<!-- Created with Inkscape (http://www.inkscape.org/) -->

<svg
   xmlns:dc="http://purl.org/dc/elements/1.1/"
   xmlns:cc="http://creativecommons.org/ns#"
   xmlns:rdf="http://www.w3.org/1999/02/22-rdf-syntax-ns#"
   xmlns:svg="http://www.w3.org/2000/svg"
   xmlns="http://www.w3.org/2000/svg"
   xmlns:xlink="http://www.w3.org/1999/xlink"
   xmlns:sodipodi="http://sodipodi.sourceforge.net/DTD/sodipodi-0.dtd"
   xmlns:inkscape="http://www.inkscape.org/namespaces/inkscape"
   id="svg2"
   version="1.1"
   inkscape:version="0.92.2 (5c3e80d, 2017-08-06)"
   width="2481"
   height="3503"
   sodipodi:docname="Pepper-and-Carrot_by-David-Revoy_E16P06.svg"
   inkscape:export-filename="E:\Users\jamesmichael\Downloads\Compressed\eps\peppercarrot_ep16_translation-master\peppercarrot_ep16_translation-master\ph\Pepper-and-Carrot_by-David-Revoy_E16P06.png"
   inkscape:export-xdpi="98.181801"
   inkscape:export-ydpi="98.181801">
  <metadata
     id="metadata8">
    <rdf:RDF>
      <cc:Work
         rdf:about="">
        <dc:format>image/svg+xml</dc:format>
        <dc:type
           rdf:resource="http://purl.org/dc/dcmitype/StillImage" />
        <dc:title />
      </cc:Work>
    </rdf:RDF>
  </metadata>
  <defs
     id="defs6">
    <filter
       style="color-interpolation-filters:sRGB"
       id="filter3018"
       inkscape:label="Lapping"
       inkscape:menu="Distort"
       inkscape:menu-tooltip="Something like a water noise"
       height="1.3"
       y="-0.15000001"
       width="1.3"
       x="-0.15000001">
      <feTurbulence
         id="feTurbulence3020"
         numOctaves="5"
         seed="0"
         type="fractalNoise"
         baseFrequency="0.045999999999999999"
         result="result1" />
      <feGaussianBlur
         id="feGaussianBlur3022"
         stdDeviation="2"
         result="result2" />
      <feDisplacementMap
         id="feDisplacementMap3024"
         in2="result2"
         scale="50"
         yChannelSelector="B"
         xChannelSelector="R"
         in="SourceGraphic" />
    </filter>
    <filter
       style="color-interpolation-filters:sRGB"
       id="filter3018-5"
       inkscape:label="Lapping"
       inkscape:menu="Distort"
       inkscape:menu-tooltip="Something like a water noise"
       height="1.3"
       y="-0.15000001"
       width="1.3"
       x="-0.15000001">
      <feTurbulence
         id="feTurbulence3020-9"
         numOctaves="2"
         seed="0"
         type="fractalNoise"
         baseFrequency="0.02802547770700637"
         result="result1" />
      <feGaussianBlur
         id="feGaussianBlur3022-7"
         stdDeviation="0.01"
         result="result2"
         baseFrequency="0.028000000000000001" />
      <feDisplacementMap
         id="feDisplacementMap3024-8"
         in2="result2"
         scale="50"
         yChannelSelector="B"
         xChannelSelector="R"
         in="SourceGraphic" />
    </filter>
    <filter
       inkscape:label="Ripple"
       inkscape:menu="Distort"
       inkscape:menu-tooltip="Horizontal rippling of edges"
       style="color-interpolation-filters:sRGB;"
       id="filter4265"
       y="-0.10000000000000001">
      <feTurbulence
         numOctaves="1"
         baseFrequency="0.002 0.107"
         id="feTurbulence4267" />
      <feColorMatrix
         values="5 0 0 0 0 0 0 0 0 0 0 0 0 0 0 0 0 0 4 0 "
         result="result91"
         id="feColorMatrix4269" />
      <feDisplacementMap
         yChannelSelector="A"
         xChannelSelector="R"
         scale="14.3"
         in="SourceGraphic"
         in2="result91"
         id="feDisplacementMap4271" />
    </filter>
    <filter
       style="color-interpolation-filters:sRGB"
       id="filter4375-4-1-1-1-9"
       inkscape:label="deevad outline effect">
      <feFlood
         id="feFlood4377-7-9-0-8-1"
         flood-opacity="1"
         flood-color="rgb(105,130,141)"
         result="flood" />
      <feComposite
         id="feComposite4379-3-8-8-2-77"
         in2="SourceGraphic"
         in="flood"
         operator="in"
         result="composite1" />
      <feMorphology
         id="feMorphology4393-1-0-49-8-9"
         operator="dilate"
         radius="4"
         result="result3" />
      <feComposite
         id="feComposite4385-9-5-7-0-8"
         in2="result3"
         in="SourceGraphic"
         operator="over"
         result="composite2" />
    </filter>
    <filter
       style="color-interpolation-filters:sRGB"
       id="filter3018-9"
       inkscape:label="Lapping"
       inkscape:menu="Distort"
       inkscape:menu-tooltip="Something like a water noise"
       height="1.3"
       y="-0.15000001"
       width="1.3"
       x="-0.15000001">
      <feTurbulence
         id="feTurbulence3020-3"
         numOctaves="5"
         seed="0"
         type="fractalNoise"
         baseFrequency="0.045999999999999999"
         result="result1" />
      <feGaussianBlur
         id="feGaussianBlur3022-77"
         stdDeviation="2"
         result="result2" />
      <feDisplacementMap
         id="feDisplacementMap3024-6"
         in2="result2"
         scale="50"
         yChannelSelector="B"
         xChannelSelector="R"
         in="SourceGraphic" />
    </filter>
    <filter
       inkscape:label="Ripple"
       inkscape:menu="Distort"
       inkscape:menu-tooltip="Horizontal rippling of edges"
       style="color-interpolation-filters:sRGB"
       id="filter4265-7"
       y="-0.1">
      <feTurbulence
         numOctaves="1"
         baseFrequency="0.002 0.107"
         id="feTurbulence4267-7" />
      <feColorMatrix
         values="5 0 0 0 0 0 0 0 0 0 0 0 0 0 0 0 0 0 4 0 "
         result="result91"
         id="feColorMatrix4269-1" />
      <feDisplacementMap
         yChannelSelector="A"
         xChannelSelector="R"
         scale="14.3"
         in="SourceGraphic"
         in2="result91"
         id="feDisplacementMap4271-2" />
    </filter>
  </defs>
  <sodipodi:namedview
     pagecolor="#ffffff"
     bordercolor="#666666"
     borderopacity="1"
     objecttolerance="10"
     gridtolerance="10"
     guidetolerance="10"
     inkscape:pageopacity="0"
     inkscape:pageshadow="2"
     inkscape:window-width="1366"
     inkscape:window-height="705"
     id="namedview4"
     showgrid="false"
     inkscape:zoom="0.21213204"
     inkscape:cx="1301.1207"
     inkscape:cy="1206.5529"
     inkscape:window-x="-8"
     inkscape:window-y="-8"
     inkscape:window-maximized="1"
     inkscape:current-layer="layer1" />
  <g
     inkscape:groupmode="layer"
     id="layer2"
     inkscape:label="artwork"
     sodipodi:insensitive="true">
    <image
       sodipodi:absref="E:\Users\jamesmichael\Downloads\Compressed\eps\peppercarrot_ep16_translation-master\peppercarrot_ep16_translation-master\ph\../gfx_Pepper-and-Carrot_by-David-Revoy_E16P06.png"
       xlink:href="../gfx_Pepper-and-Carrot_by-David-Revoy_E16P06.png"
       y="0"
       x="0"
       id="image10"
       height="3503"
       width="2481" />
  </g>
  <g
     inkscape:groupmode="layer"
     id="layer3"
     inkscape:label="speechbubbles">
    <path
       style="color:#000000;display:inline;overflow:visible;visibility:visible;fill:#0f0f0f;fill-opacity:1;fill-rule:nonzero;stroke:none;stroke-width:1px;marker:none;filter:url(#filter3018-9);enable-background:accumulate"
       d="m 240.47794,228.68257 c -18.55131,-357.88789 39.20414,-1.55259 37.31886,-34.1597 C 271.7355,89.688626 285.58346,34.848351 350.6084,22.700071 460.91674,2.0917173 155.85437,-29.17588 505.78187,-36.868067 c 72.96992,-1.604042 121.69762,66.799851 127.49088,111.161903 18.67666,143.017044 62.85504,-195.888806 35.42964,129.370574 -3.2974,39.10641 -9.18365,85.09596 -153.48545,63.7442 -87.58867,-12.96015 335.1102,55.56504 -156.44786,52.67338 -49.56107,-0.29155 -114.31664,-43.79722 -118.29114,-91.39942 z"
       id="path3986"
       inkscape:connector-curvature="0"
       sodipodi:nodetypes="csssssssc"
       transform="matrix(0.85968728,0,0.02154304,0.90016842,20.167475,511.44598)" />
    <path
       style="color:#000000;display:inline;overflow:visible;visibility:visible;fill:#0f0f0f;fill-opacity:1;fill-rule:nonzero;stroke:none;stroke-width:1px;marker:none;enable-background:accumulate"
       d="m 680.57237,632.24549 c -17.09062,58.38926 -35.17677,61.96629 -52.88086,73.40862 -4.31685,-3.47698 -2.14346,-34.60622 -2.14346,-34.60622 0,0 -39.29405,58.68551 -54.58859,64.94605 -15.29463,6.2606 -27.5297,-21.752 -27.5297,-21.752 0,0 75.79585,-58.26928 86.63428,-72.14534 11.32175,10.04939 7.21526,27.97609 9.33626,33.40093 11.82429,-3.79121 34.43647,-22.66451 41.17207,-43.25204 z"
       id="path4456"
       inkscape:connector-curvature="0"
       sodipodi:nodetypes="cccscccc" />
    <path
       style="color:#000000;display:inline;overflow:visible;visibility:visible;fill:#d40000;fill-opacity:1;fill-rule:nonzero;stroke:none;stroke-width:1px;marker:none;filter:url(#filter4265-7);enable-background:accumulate"
       d="M -54.210057,274.1877 C -335.81995,361.20159 -90.073347,208.77608 3.0425451,205.11145 129.85977,195.20961 645.71894,181.69611 684.47004,201.29701 c 38.751,19.601 -321.74074,54.83448 -91.37853,24.87031 599.84469,-78.02429 91.00532,106.0417 -152.18319,78.58651 -87.13208,-9.83693 -238.76925,22.17281 -263.40622,6.78819 -24.34819,-15.20429 0,0 -231.712157,-37.35432 z"
       id="path3986-3"
       inkscape:connector-curvature="0"
       sodipodi:nodetypes="cccsssc"
       transform="matrix(0.06698198,-0.32487181,2.9224041,0.0069021,1172.2264,687.59367)" />
    <path
       style="fill:#d40000;fill-rule:evenodd;stroke:none;stroke-width:0.80249292px;stroke-linecap:butt;stroke-linejoin:miter;stroke-opacity:1"
       d="m 1769.6637,551.19777 c -11.7084,-1.32186 -23.3577,-2.80677 -35.1028,-4.02686 -5.3216,1.42186 -10.6034,2.65504 -15.95,4.19486 -6.1414,3.8148 -12.2828,7.62957 -18.4241,11.44429 7.9085,-7.60351 15.8172,-15.20705 23.7258,-22.81055 -6.1059,-4.85066 -12.2117,-9.7014 -18.3176,-14.55201 -9.5856,4.2069 -19.1517,8.28943 -28.7495,12.57396 -7.7529,5.23721 -15.5128,10.29018 -23.2615,15.64235 -7.7017,8.12573 -15.4035,16.25151 -23.1052,24.3773 11.9845,-15.46387 23.9688,-30.92775 35.9533,-46.39163 11.3566,-7.61579 22.734,-15.3637 34.0775,-22.89688 7.0998,-3.0139 14.1996,-6.02777 21.2995,-9.04165 7.1016,3.54263 14.0457,7.38774 21.2513,10.73073 4.0339,1.72484 8.0679,3.44973 12.1019,5.17458 -5.6154,4.6999 -11.2309,9.39992 -16.8463,14.09982 9.1565,-5.61643 18.3131,-11.23273 27.4696,-16.84917 7.0439,-0.596 14.1467,-1.33375 21.1537,-1.84134 4.816,1.35105 9.632,2.70224 14.448,4.05328 -10.5802,12.01744 -21.1086,24.23111 -31.7236,36.11892 z"
       id="path4345"
       inkscape:connector-curvature="0"
       inkscape:transform-center-x="33.043581"
       inkscape:transform-center-y="-15.085451" />
    <path
       style="color:#000000;display:inline;overflow:visible;visibility:visible;fill:#ffffff;fill-opacity:1;fill-rule:nonzero;stroke:none;stroke-width:0.90576833px;marker:none;enable-background:accumulate"
       d="m 163.8554,1838.431 c 5.89037,-132.4703 48.95594,-226.7052 155.67689,-194.316 57.16544,17.3495 149.31893,-4.3153 141.04893,237.6128 -6.6483,194.4838 -95.59852,150.3296 -153.32273,149.127 -19.46768,-0.4056 -114.3158,-0.3302 -130.67566,-67.6787 -10.24087,-42.1583 -13.8276,-83.668 -12.72743,-124.7451 z"
       id="path4546"
       inkscape:connector-curvature="0"
       sodipodi:nodetypes="cssssc" />
    <path
       style="color:#000000;display:inline;overflow:visible;visibility:visible;fill:#ffffff;fill-opacity:1;fill-rule:nonzero;stroke:none;stroke-width:0.90719521px;marker:none;enable-background:accumulate"
       d="m 162.68704,2180.8428 c -1.09293,-59.1198 10.57346,-98.6607 38.72494,-122.9839 28.1515,-24.3233 72.78808,-33.4289 137.63553,-31.678 64.45035,1.7402 140.86189,-7.6837 139.9347,164.5246 1.10799,137.7102 -133.12689,127.6693 -211.22828,124.6177 -78.10138,-3.0513 -101.9117,-23.5755 -105.06689,-134.4804 z"
       id="path4546-5"
       inkscape:connector-curvature="0"
       sodipodi:nodetypes="csscsc" />
    <path
       style="color:#000000;display:inline;overflow:visible;visibility:visible;fill:#ffffff;fill-opacity:1;fill-rule:nonzero;stroke:none;stroke-width:0.54198152px;marker:none;enable-background:accumulate"
       d="m 1035.3545,2225.3729 c -5.2216,10.5032 -13.7231,16.2643 -17.5209,17.5014 -3.7978,1.2372 -31.72186,7.0908 -35.92876,9.1183 -3.467,1.6877 -9.1754,3.4261 -7.0483,5.2357 -21.3184,33.959 27.92236,12.6373 6.938,42.209 -7.47267,10.1792 -27.85017,25.3656 -38.16259,32.4915 14.24148,-13.9778 23.95361,-39.3101 5.95247,-42.4073 -22.92011,-3.427 -17.07032,-32.3494 -16.25873,-38.7013 -8.13578,-1.837 -2.05764,-12.5017 13.89352,-4.5112 2.116,-3.3356 40.11563,-2.1225 42.95463,-4.9459 2.8389,-2.8233 21.43916,-18.0075 21.43916,-18.0075 z"
       id="path5058"
       inkscape:connector-curvature="0"
       sodipodi:nodetypes="cscccccccccc" />
    <path
       style="fill:#ffffff;stroke:none;stroke-width:0.88086373"
       d="m 2073.3794,2370.9754 c -0.072,-46.5419 26.9741,-115.1444 85.9365,-110.2987 74.8788,6.154 90.7938,47.8016 91.4451,106.3675 1.1043,99.2769 -39.0109,124.405 -98.7817,123.955 -69.3924,-0.5222 -77.8916,-72.5523 -78.5999,-120.0238 z"
       id="path3280-8"
       inkscape:connector-curvature="0"
       sodipodi:nodetypes="csssc" />
    <path
       style="color:#000000;display:inline;overflow:visible;visibility:visible;fill:#ffffff;fill-opacity:1;fill-rule:nonzero;stroke:none;stroke-width:1.16858482px;marker:none;enable-background:accumulate"
       d="m 2177.4282,2498.8591 c 19.4649,-0.9 39.9427,-1.5559 51.9531,-11.4419 3.2824,-2.9317 6.2388,-6.361 7.2375,-11.0138 -0.598,-5.8576 -6.7903,-13.268 -13.697,-18.5282 -9.7426,-7.9876 -21.6437,-14.2794 -29.3714,-24.0974 -5.4855,-7.1742 -3.8507,-12.5352 -3.1081,-17.4429 2.2543,-12.2946 7.0121,-23.1458 6.3213,-37.1622 -97.7326,-110.1122 -30.2219,-82.492 -27.9524,-0.1055 4.2964,13.6614 -2.656,21.3433 -5.959,30.6616 -1.4066,4.3268 -2.4349,9.2419 -0.384,15.3112 5.2431,9.348 16.3335,16.7879 25.9407,22.4057 9.8852,5.9689 21.4817,12.1421 28.5084,21.7646 5.6389,6.5924 0.8106,9.5456 -0.5243,13.1785 -6.7807,9.9987 -19.2397,15.3284 -34.2468,16.7202 -1.5188,0.01 -3.1151,-0.1181 -4.718,-0.2499 z"
       id="path4496"
       inkscape:connector-curvature="0"
       sodipodi:nodetypes="ccccccccccccccc" />
    <text
       xml:space="preserve"
       style="font-style:normal;font-variant:normal;font-weight:normal;font-stretch:normal;line-height:0%;font-family:Lavi;-inkscape-font-specification:Lavi;text-align:center;letter-spacing:0px;word-spacing:0px;text-anchor:middle;opacity:1;fill:#000000;fill-opacity:1;stroke:none"
       x="1232.4392"
       y="3440.9868"
       id="text4246-42-8"><tspan
         sodipodi:role="line"
         style="font-size:36.73472214px;line-height:1.25;fill:#000000"
         x="1238.8965"
         y="3440.9868"
         id="tspan4252-9-8"> </tspan></text>
    <path
       style="color:#000000;display:inline;overflow:visible;visibility:visible;fill:#ffffff;fill-opacity:1;fill-rule:nonzero;stroke:none;stroke-width:0.85008806px;marker:none;enable-background:accumulate"
       d="m 490.2227,1854.5987 c 49.73095,-108.0982 284.5062,-81.3771 309.97635,-0.2024 25.47016,81.1747 40.00941,280.1832 -4.21739,345.6469 -44.2268,65.463 -297.93137,91.6486 -320.06485,-5.2371 -22.1334,-96.8862 -35.42513,-232.1097 14.30589,-340.2074 z"
       id="path4008-8"
       inkscape:connector-curvature="0"
       sodipodi:nodetypes="zsssz" />
    <path
       sodipodi:nodetypes="zsssz"
       inkscape:connector-curvature="0"
       id="path4916"
       d="m 842.56757,1922.2506 c 43.4288,-94.4546 248.45193,-71.1061 270.69433,-0.1769 22.2424,70.9294 34.9392,244.82 -3.683,302.0213 -38.6221,57.2006 -260.17563,80.0812 -279.50433,-4.5761 -19.3284,-84.6577 -30.9358,-202.8141 12.493,-297.2683 z"
       style="color:#000000;display:inline;overflow:visible;visibility:visible;fill:#ffffff;fill-opacity:1;fill-rule:nonzero;stroke:none;stroke-width:0.74257708px;marker:none;enable-background:accumulate" />
  </g>
  <g
     inkscape:groupmode="layer"
     id="layer1"
     inkscape:label="txt"
     style="opacity:1">
    <text
       xml:space="preserve"
       style="font-style:normal;font-variant:normal;font-weight:normal;font-stretch:normal;line-height:0%;font-family:Lavi;-inkscape-font-specification:Lavi;text-align:center;letter-spacing:0px;word-spacing:0px;text-anchor:middle;fill:#ffffff;fill-opacity:1;stroke:none"
       x="418.10349"
       y="631.3833"
       id="text4180"
       transform="scale(0.99830099,1.0017019)"><tspan
         sodipodi:role="line"
         id="tspan4182"
         x="424.40933"
         y="631.3833"
         style="font-style:normal;font-variant:normal;font-weight:normal;font-stretch:normal;font-size:50.4467392px;line-height:1.25;font-family:'Drukaatie burti';-inkscape-font-specification:'Drukaatie burti'">GRAVITAS </tspan><tspan
         sodipodi:role="line"
         x="418.10349"
         y="694.44171"
         style="font-style:normal;font-variant:normal;font-weight:normal;font-stretch:normal;font-size:50.4467392px;line-height:1.25;font-family:'Drukaatie burti';-inkscape-font-specification:'Drukaatie burti'"
         id="tspan890">SPIRALIS !</tspan></text>
    <text
       xml:space="preserve"
       style="font-style:normal;font-variant:normal;font-weight:normal;font-stretch:normal;line-height:0%;font-family:Lavi;-inkscape-font-specification:Lavi;text-align:center;letter-spacing:0px;word-spacing:0px;text-anchor:middle;fill:#ffffff;fill-opacity:1;stroke:none"
       x="1915.5634"
       y="560.59735"
       id="text4180-1"
       transform="scale(0.99830099,1.0017019)"><tspan
         sodipodi:role="line"
         id="tspan4182-2"
         x="1921.8691"
         y="560.59735"
         style="font-style:normal;font-variant:normal;font-weight:normal;font-stretch:normal;font-size:50.4467392px;line-height:1.25;font-family:'Drukaatie burti';-inkscape-font-specification:'Drukaatie burti'">BRAzzERO </tspan><tspan
         sodipodi:role="line"
         x="1915.5634"
         y="623.65576"
         style="font-style:normal;font-variant:normal;font-weight:normal;font-stretch:normal;font-size:50.4467392px;line-height:1.25;font-family:'Drukaatie burti';-inkscape-font-specification:'Drukaatie burti'"
         id="tspan888">INTENSIA !</tspan></text>
    <text
       xml:space="preserve"
       style="font-style:normal;font-variant:normal;font-weight:normal;font-stretch:normal;line-height:0%;font-family:Lavi;-inkscape-font-specification:Lavi;letter-spacing:0px;word-spacing:0px;fill:#000000;fill-opacity:1;stroke:none;stroke-width:0.99236238;stroke-miterlimit:4;stroke-dasharray:none;stroke-opacity:1;filter:url(#filter4375-4-1-1-1-9)"
       x="787.65729"
       y="1584.5073"
       id="text4580"
       transform="matrix(1.1015253,-0.87314706,0.0870639,1.7091559,1054.2092,-513.95448)"><tspan
         sodipodi:role="line"
         id="tspan4582"
         x="787.65729"
         y="1584.5073"
         style="font-size:70px;line-height:1.25;fill:#ffffff;stroke:none"><tspan
           style="font-size:80.40014648px;stroke:none"
           id="tspan4617">Splash!</tspan></tspan></text>
    <text
       xml:space="preserve"
       style="font-style:normal;font-variant:normal;font-weight:normal;font-stretch:normal;line-height:0%;font-family:Lavi;-inkscape-font-specification:Lavi;text-align:center;letter-spacing:0px;word-spacing:0px;text-anchor:middle;fill:#000000;fill-opacity:1;stroke:none"
       x="2163.0659"
       y="2328.186"
       id="text4246-2-0"><tspan
         sodipodi:role="line"
         style="font-size:36.0129776px;line-height:1.25"
         x="2169.3962"
         y="2328.186"
         id="tspan3664">Ano </tspan><tspan
         sodipodi:role="line"
         style="font-size:36.0129776px;line-height:1.25"
         x="2169.3962"
         y="2373.2021"
         id="tspan4934">bang </tspan><tspan
         sodipodi:role="line"
         style="font-size:36.0129776px;line-height:1.25"
         x="2169.3962"
         y="2418.2185"
         id="tspan4930"> </tspan><tspan
         sodipodi:role="line"
         style="font-size:36.0129776px;line-height:1.25"
         x="2163.0659"
         y="2463.2346"
         id="tspan4932">to...</tspan></text>
    <text
       xml:space="preserve"
       style="font-style:normal;font-variant:normal;font-weight:normal;font-stretch:normal;line-height:0%;font-family:Arial;-inkscape-font-specification:Arial;text-align:center;letter-spacing:0px;word-spacing:0px;text-anchor:middle;display:inline;opacity:0.85500004;fill:#000000;fill-opacity:1;stroke:none"
       x="1240.6475"
       y="3381.4036"
       id="text4229"><tspan
         sodipodi:role="line"
         x="1240.6475"
         y="3381.4036"
         style="font-style:normal;font-variant:normal;font-weight:normal;font-stretch:normal;font-size:28.75px;line-height:1.25;font-family:Lavi;-inkscape-font-specification:Lavi;fill:#000000"
         id="tspan4169">License: Creative Commons Attribution 4.0, Software: Krita, Blender, Gmic, Inkscape on Ubuntu</tspan></text>
    <text
       xml:space="preserve"
       style="color:#000000;font-style:normal;font-variant:normal;font-weight:normal;font-stretch:normal;line-height:0%;font-family:Lavi;-inkscape-font-specification:Lavi;text-indent:0;text-align:center;text-decoration:none;text-decoration-line:none;letter-spacing:0px;word-spacing:0px;text-transform:none;writing-mode:lr-tb;direction:ltr;baseline-shift:baseline;text-anchor:middle;display:inline;overflow:visible;visibility:visible;opacity:0.85500004;fill:#000000;fill-opacity:1;fill-rule:nonzero;stroke:none;enable-background:accumulate"
       x="1242.353"
       y="3340.7739"
       id="text4246-42-4"><tspan
         sodipodi:role="line"
         style="color:#000000;font-style:normal;font-variant:normal;font-weight:normal;font-stretch:normal;font-size:28.75px;line-height:125%;font-family:Lavi;-inkscape-font-specification:Lavi;text-indent:0;text-align:center;text-decoration:none;text-decoration-line:none;letter-spacing:0px;word-spacing:0px;text-transform:none;writing-mode:lr-tb;direction:ltr;baseline-shift:baseline;text-anchor:middle;display:inline;overflow:visible;visibility:visible;fill:#000000;fill-opacity:1;fill-rule:nonzero;stroke:none;enable-background:accumulate"
         x="1242.353"
         y="3340.7739"
         id="tspan4252-9-9">Based on the Hereva universe created by David Revoy with contributions from Craig Maloney. Corrections by Willem Sonke, Moini, Hali, CGand and Alex Gryson.</tspan></text>
    <text
       xml:space="preserve"
       style="font-style:normal;font-variant:normal;font-weight:normal;font-stretch:normal;line-height:0%;font-family:Lavi;-inkscape-font-specification:Lavi;text-align:center;letter-spacing:0px;word-spacing:0px;text-anchor:middle;opacity:1;fill:#000000;fill-opacity:1;stroke:#000000;stroke-width:3.82200003;stroke-miterlimit:4;stroke-dasharray:none;stroke-opacity:1"
       x="2028.7821"
       y="2443.6147"
       id="text4213"
       transform="matrix(0.75304346,0,-0.11971288,1.3279446,0,0)"><tspan
         sodipodi:role="line"
         id="tspan4215"
         x="2028.7821"
         y="2443.6147"
         style="font-size:63.55184174px;line-height:1.25;fill:#000000;stroke:#000000;stroke-width:3.82200003;stroke-miterlimit:4;stroke-dasharray:none">- WAK -</tspan></text>
    <text
       xml:space="preserve"
       style="font-style:normal;font-variant:normal;font-weight:normal;font-stretch:normal;line-height:0%;font-family:Lavi;-inkscape-font-specification:Lavi;text-align:center;letter-spacing:0px;word-spacing:0px;text-anchor:middle;fill:#000000;fill-opacity:1;stroke:none"
       x="1240.0964"
       y="3300.3928"
       id="text4246-42"><tspan
         sodipodi:role="line"
         style="font-size:36.73472214px;line-height:1.25;fill:#000000"
         x="1240.0964"
         y="3300.3928"
         id="tspan4252-9">04/2016 - www.peppercarrot.com - Art &amp; Scenario : David Revoy - Tagalog Translation : Paolo Abes</tspan></text>
    <text
       xml:space="preserve"
       style="font-style:normal;font-variant:normal;font-weight:normal;font-stretch:normal;line-height:0%;font-family:Lavi;-inkscape-font-specification:Lavi;text-align:center;letter-spacing:0px;word-spacing:0px;text-anchor:middle;fill:#000000;fill-opacity:1;stroke:none"
       x="328.19498"
       y="2042.7311"
       id="text4246-2-5-1-3"><tspan
         sodipodi:role="line"
         style="font-size:45px;line-height:1.25"
         x="336.10513"
         y="2042.7311"
         id="tspan4552-6-9"> </tspan><tspan
         sodipodi:role="line"
         style="font-size:45px;line-height:1.25"
         x="336.10513"
         y="2098.981"
         id="tspan4346">Ang </tspan><tspan
         sodipodi:role="line"
         style="font-size:45px;line-height:1.25"
         x="336.10513"
         y="2155.231"
         id="tspan4860">leksion ay </tspan><tspan
         sodipodi:role="line"
         style="font-size:45px;line-height:1.25"
         x="336.10513"
         y="2211.481"
         id="tspan4836">ang tularan </tspan><tspan
         sodipodi:role="line"
         style="font-size:45px;line-height:1.25"
         x="328.19498"
         y="2267.731"
         id="tspan4862">ang guro!</tspan></text>
    <text
       xml:space="preserve"
       style="font-style:normal;font-weight:normal;line-height:0%;font-family:sans-serif;letter-spacing:0px;word-spacing:0px;fill:#000000;fill-opacity:1;stroke:none"
       x="2762.5"
       y="2540.5"
       id="text3656"><tspan
         sodipodi:role="line"
         id="tspan3658"
         x="2762.5"
         y="2540.5"
         style="font-size:40px;line-height:1.25;font-family:sans-serif">œ</tspan></text>
    <flowRoot
       xml:space="preserve"
       id="flowRoot4842"
       style="font-style:normal;font-weight:normal;font-size:40px;line-height:1.25;font-family:sans-serif;letter-spacing:0px;word-spacing:0px;fill:#000000;fill-opacity:1;stroke:none"
       transform="translate(-549.75818,34.644661)"><flowRegion
         id="flowRegion4844"><rect
           id="rect4846"
           width="249.84442"
           height="304.05591"
           x="733.03406"
           y="1678.6646" /></flowRegion><flowPara
         id="flowPara4848"
         style="font-style:normal;font-variant:normal;font-weight:normal;font-stretch:normal;font-family:Lavi;-inkscape-font-specification:Lavi;text-align:center;text-anchor:middle">Ahh, mga nene...</flowPara><flowPara
         id="flowPara4850"
         style="font-style:normal;font-variant:normal;font-weight:normal;font-stretch:normal;font-family:Lavi;-inkscape-font-specification:Lavi;text-align:center;text-anchor:middle">Gusto palaging </flowPara><flowPara
         id="flowPara4852"
         style="font-style:normal;font-variant:normal;font-weight:normal;font-stretch:normal;font-family:Lavi;-inkscape-font-specification:Lavi"><flowSpan
   style="text-align:center;text-anchor:middle"
   id="flowSpan4858">sumugod </flowSpan>at sumige </flowPara></flowRoot>    <flowRoot
       xml:space="preserve"
       id="flowRoot4884"
       style="font-style:normal;font-variant:normal;font-weight:normal;font-stretch:normal;font-size:40px;line-height:1.25;font-family:Lavi;-inkscape-font-specification:Lavi;text-align:center;letter-spacing:0px;word-spacing:0px;text-anchor:middle;fill:#000000;fill-opacity:1;stroke:none"
       transform="translate(-738.00181,125.92725)"><flowRegion
         id="flowRegion4886"
         style="font-style:normal;font-variant:normal;font-weight:normal;font-stretch:normal;font-family:Lavi;-inkscape-font-specification:Lavi;text-align:center;text-anchor:middle"><rect
           id="rect4888"
           width="355.91043"
           height="549.18634"
           x="1204.4386"
           y="1763.5173"
           style="font-style:normal;font-variant:normal;font-weight:normal;font-stretch:normal;font-family:Lavi;-inkscape-font-specification:Lavi;text-align:center;text-anchor:middle" /></flowRegion><flowPara
         style="font-style:normal;font-variant:normal;font-weight:normal;font-stretch:normal;font-family:Lavi;-inkscape-font-specification:Lavi;text-align:center;text-anchor:middle"
         id="flowPara4898">Kapag walang nangyari ayon </flowPara><flowPara
         style="font-style:normal;font-variant:normal;font-weight:normal;font-stretch:normal;font-family:Lavi;-inkscape-font-specification:Lavi;text-align:center;text-anchor:middle"
         id="flowPara4902">sa gusto,</flowPara><flowPara
         id="flowPara4892"
         style="font-style:normal;font-variant:normal;font-weight:normal;font-stretch:normal;font-family:Lavi;-inkscape-font-specification:Lavi;text-align:center;text-anchor:middle">maglublob ka </flowPara><flowPara
         style="font-style:normal;font-variant:normal;font-weight:normal;font-stretch:normal;font-family:Lavi;-inkscape-font-specification:Lavi;text-align:center;text-anchor:middle"
         id="flowPara4918">muna at magpahinga!</flowPara><flowPara
         id="flowPara4896"
         style="font-style:normal;font-variant:normal;font-weight:normal;font-stretch:normal;font-family:Lavi;-inkscape-font-specification:Lavi;text-align:center;text-anchor:middle" /></flowRoot>    <flowRoot
       xml:space="preserve"
       id="flowRoot4906"
       style="font-style:normal;font-variant:normal;font-weight:normal;font-stretch:normal;font-size:40px;line-height:1.25;font-family:Lavi;-inkscape-font-specification:Lavi;text-align:center;letter-spacing:0px;word-spacing:0px;text-anchor:middle;fill:#000000;fill-opacity:1;stroke:none"
       transform="translate(-413.33334,263.33333)"><flowRegion
         id="flowRegion4908"
         style="font-style:normal;font-variant:normal;font-weight:normal;font-stretch:normal;font-family:Lavi;-inkscape-font-specification:Lavi;text-align:center;text-anchor:middle"><rect
           id="rect4910"
           width="266.66666"
           height="283.33334"
           x="1263.3334"
           y="1723"
           style="font-style:normal;font-variant:normal;font-weight:normal;font-stretch:normal;font-family:Lavi;-inkscape-font-specification:Lavi;text-align:center;text-anchor:middle" /></flowRegion><flowPara
         id="flowPara4912">Tanggal ang inaalala</flowPara><flowPara
         id="flowPara4914">pati na ang rayuma!</flowPara></flowRoot>    <flowRoot
       xml:space="preserve"
       id="flowRoot4920"
       style="fill:black;fill-opacity:1;stroke:none;font-family:sans-serif;font-style:normal;font-weight:normal;font-size:40px;line-height:1.25;letter-spacing:0px;word-spacing:0px"><flowRegion
         id="flowRegion4922"><rect
           id="rect4924"
           width="194.45436"
           height="49.497475"
           x="2029.3965"
           y="2293.8474" /></flowRegion><flowPara
         id="flowPara4926" /></flowRoot>    <text
       xml:space="preserve"
       style="font-style:normal;font-weight:normal;font-size:40px;line-height:1.25;font-family:sans-serif;letter-spacing:0px;word-spacing:0px;fill:#000000;fill-opacity:1;stroke:none"
       x="2817.1382"
       y="2415.5002"
       id="text4841"
       transform="skewX(-16.635418)"><tspan
         sodipodi:role="line"
         id="tspan4839"
         x="2817.1382"
         y="2415.5002"
         style="font-style:normal;font-variant:normal;font-weight:normal;font-stretch:normal;font-family:'Drukaatie burti';-inkscape-font-specification:'Drukaatie burti'">Leksion</tspan></text>
  </g>
</svg>
