<?xml version="1.0" encoding="UTF-8" standalone="no"?>
<!-- Created with Inkscape (http://www.inkscape.org/) -->

<svg
   xmlns:dc="http://purl.org/dc/elements/1.1/"
   xmlns:cc="http://creativecommons.org/ns#"
   xmlns:rdf="http://www.w3.org/1999/02/22-rdf-syntax-ns#"
   xmlns:svg="http://www.w3.org/2000/svg"
   xmlns="http://www.w3.org/2000/svg"
   xmlns:xlink="http://www.w3.org/1999/xlink"
   xmlns:sodipodi="http://sodipodi.sourceforge.net/DTD/sodipodi-0.dtd"
   xmlns:inkscape="http://www.inkscape.org/namespaces/inkscape"
   id="svg2"
   version="1.1"
   inkscape:version="0.91 r13725"
   width="2481"
   height="3503"
   sodipodi:docname="E31P03.svg">
  <metadata
     id="metadata8">
    <rdf:RDF>
      <cc:Work
         rdf:about="">
        <dc:format>image/svg+xml</dc:format>
        <dc:type
           rdf:resource="http://purl.org/dc/dcmitype/StillImage" />
        <dc:title />
      </cc:Work>
    </rdf:RDF>
  </metadata>
  <defs
     id="defs6">
    <filter
       style="color-interpolation-filters:sRGB"
       id="filter3018-9-9"
       inkscape:label="Lapping"
       inkscape:menu="Distort"
       inkscape:menu-tooltip="Something like a water noise"
       height="1.3"
       y="-0.15000001"
       width="1.3"
       x="-0.15000001">
      <feTurbulence
         id="feTurbulence3020-3-0"
         numOctaves="5"
         seed="0"
         type="fractalNoise"
         baseFrequency="0.045999999999999999"
         result="result1" />
      <feGaussianBlur
         id="feGaussianBlur3022-77-9"
         stdDeviation="2"
         result="result2" />
      <feDisplacementMap
         id="feDisplacementMap3024-6-9"
         in2="result2"
         scale="50"
         yChannelSelector="B"
         xChannelSelector="R"
         in="SourceGraphic" />
    </filter>
    <filter
       style="color-interpolation-filters:sRGB"
       id="filter3018-9-9-3"
       inkscape:label="Lapping"
       inkscape:menu="Distort"
       inkscape:menu-tooltip="Something like a water noise"
       height="1.3"
       y="-0.15000001"
       width="1.3"
       x="-0.15000001">
      <feTurbulence
         id="feTurbulence3020-3-0-6"
         numOctaves="5"
         seed="0"
         type="fractalNoise"
         baseFrequency="0.045999999999999999"
         result="result1" />
      <feGaussianBlur
         id="feGaussianBlur3022-77-9-7"
         stdDeviation="2"
         result="result2" />
      <feDisplacementMap
         id="feDisplacementMap3024-6-9-5"
         in2="result2"
         scale="50"
         yChannelSelector="B"
         xChannelSelector="R"
         in="SourceGraphic" />
    </filter>
    <filter
       style="color-interpolation-filters:sRGB"
       id="filter4375-4-1-1-1-9-5-8-3"
       inkscape:label="Drop Shadow">
      <feFlood
         id="feFlood4377-7-9-0-8-1-7-3-8"
         flood-opacity="1"
         flood-color="rgb(39,39,39)"
         result="flood" />
      <feComposite
         id="feComposite4379-3-8-8-2-77-4-1-8"
         in2="SourceGraphic"
         in="flood"
         operator="in"
         result="composite1" />
      <feMorphology
         id="feMorphology4393-1-0-49-8-9-3-0-31"
         operator="dilate"
         radius="6.2000000000000002"
         result="result3" />
      <feComposite
         id="feComposite4385-9-5-7-0-8-8-7-8"
         in2="result3"
         in="SourceGraphic"
         operator="over"
         result="fbSourceGraphic" />
      <feColorMatrix
         result="fbSourceGraphicAlpha"
         in="fbSourceGraphic"
         values="0 0 0 -1 0 0 0 0 -1 0 0 0 0 -1 0 0 0 0 1 0"
         id="feColorMatrix4544-96" />
      <feTurbulence
         id="feTurbulence4546-4"
         type="fractalNoise"
         numOctaves="3"
         seed="37"
         baseFrequency="0.129 0.0050000000000000001"
         result="turbulence" />
      <feDisplacementMap
         id="feDisplacementMap4548-3"
         in2="turbulence"
         in="fbSourceGraphic"
         scale="6.6"
         yChannelSelector="G"
         xChannelSelector="R"
         result="fbSourceGraphic" />
      <feColorMatrix
         result="fbSourceGraphicAlpha"
         in="fbSourceGraphic"
         values="0 0 0 -1 0 0 0 0 -1 0 0 0 0 -1 0 0 0 0 1 0"
         id="feColorMatrix4670-33" />
      <feFlood
         id="feFlood4672-8"
         flood-opacity="0.40999999999999998"
         flood-color="rgb(0,0,0)"
         result="flood"
         in="fbSourceGraphic" />
      <feComposite
         id="feComposite4674-6"
         in2="fbSourceGraphic"
         in="flood"
         operator="in"
         result="composite1" />
      <feGaussianBlur
         id="feGaussianBlur4676-0"
         in="composite1"
         stdDeviation="0"
         result="blur" />
      <feOffset
         id="feOffset4678-4"
         dx="6"
         dy="6"
         result="offset" />
      <feComposite
         id="feComposite4680-8"
         in2="offset"
         in="fbSourceGraphic"
         operator="over"
         result="composite2" />
    </filter>
    <filter
       style="color-interpolation-filters:sRGB"
       id="filter4375-4-1-1-1-9-3"
       inkscape:label="Roughen">
      <feFlood
         id="feFlood4377-7-9-0-8-1-6"
         flood-opacity="1"
         flood-color="rgb(44,110,8)"
         result="flood" />
      <feComposite
         id="feComposite4379-3-8-8-2-77-75"
         in2="SourceGraphic"
         in="flood"
         operator="in"
         result="composite1" />
      <feMorphology
         id="feMorphology4393-1-0-49-8-9-35"
         operator="dilate"
         radius="4"
         result="result3" />
      <feComposite
         id="feComposite4385-9-5-7-0-8-6-2"
         in2="result3"
         in="SourceGraphic"
         operator="over"
         result="fbSourceGraphic" />
      <feColorMatrix
         result="fbSourceGraphicAlpha"
         in="fbSourceGraphic"
         values="0 0 0 -1 0 0 0 0 -1 0 0 0 0 -1 0 0 0 0 1 0"
         id="feColorMatrix333" />
      <feTurbulence
         id="feTurbulence335"
         type="fractalNoise"
         numOctaves="5"
         seed="1"
         baseFrequency="0.013 0.013"
         result="turbulence" />
      <feDisplacementMap
         in2="turbulence"
         id="feDisplacementMap337"
         in="fbSourceGraphic"
         scale="6.6"
         yChannelSelector="G"
         xChannelSelector="R"
         result="fbSourceGraphic" />
      <feColorMatrix
         result="fbSourceGraphicAlpha"
         in="fbSourceGraphic"
         values="0 0 0 -1 0 0 0 0 -1 0 0 0 0 -1 0 0 0 0 1 0"
         id="feColorMatrix435" />
      <feTurbulence
         id="feTurbulence437"
         type="fractalNoise"
         numOctaves="5"
         seed="27"
         baseFrequency="0.001 0.4414"
         result="turbulence" />
      <feDisplacementMap
         in2="turbulence"
         id="feDisplacementMap439"
         in="fbSourceGraphic"
         scale="4.27461"
         yChannelSelector="G"
         xChannelSelector="R" />
    </filter>
    <filter
       style="color-interpolation-filters:sRGB"
       id="filter4375-4-1-1-1-9-3-7"
       inkscape:label="Roughen">
      <feFlood
         id="feFlood4377-7-9-0-8-1-6-5"
         flood-opacity="1"
         flood-color="rgb(44,110,8)"
         result="flood" />
      <feComposite
         id="feComposite4379-3-8-8-2-77-75-1"
         in2="SourceGraphic"
         in="flood"
         operator="in"
         result="composite1" />
      <feMorphology
         id="feMorphology4393-1-0-49-8-9-35-3"
         operator="dilate"
         radius="4"
         result="result3" />
      <feComposite
         id="feComposite4385-9-5-7-0-8-6-2-7"
         in2="result3"
         in="SourceGraphic"
         operator="over"
         result="fbSourceGraphic" />
      <feColorMatrix
         result="fbSourceGraphicAlpha"
         in="fbSourceGraphic"
         values="0 0 0 -1 0 0 0 0 -1 0 0 0 0 -1 0 0 0 0 1 0"
         id="feColorMatrix333-8" />
      <feTurbulence
         id="feTurbulence335-0"
         type="fractalNoise"
         numOctaves="5"
         seed="1"
         baseFrequency="0.013 0.013"
         result="turbulence" />
      <feDisplacementMap
         in2="turbulence"
         id="feDisplacementMap337-9"
         in="fbSourceGraphic"
         scale="6.6"
         yChannelSelector="G"
         xChannelSelector="R"
         result="fbSourceGraphic" />
      <feColorMatrix
         result="fbSourceGraphicAlpha"
         in="fbSourceGraphic"
         values="0 0 0 -1 0 0 0 0 -1 0 0 0 0 -1 0 0 0 0 1 0"
         id="feColorMatrix435-5" />
      <feTurbulence
         id="feTurbulence437-2"
         type="fractalNoise"
         numOctaves="5"
         seed="27"
         baseFrequency="0.001 0.4414"
         result="turbulence" />
      <feDisplacementMap
         in2="turbulence"
         id="feDisplacementMap439-1"
         in="fbSourceGraphic"
         scale="4.27461"
         yChannelSelector="G"
         xChannelSelector="R" />
    </filter>
    <filter
       style="color-interpolation-filters:sRGB"
       id="filter4375-4-1-1-1-9-3-7-6"
       inkscape:label="Roughen">
      <feFlood
         id="feFlood4377-7-9-0-8-1-6-5-1"
         flood-opacity="1"
         flood-color="rgb(44,110,8)"
         result="flood" />
      <feComposite
         id="feComposite4379-3-8-8-2-77-75-1-6"
         in2="SourceGraphic"
         in="flood"
         operator="in"
         result="composite1" />
      <feMorphology
         id="feMorphology4393-1-0-49-8-9-35-3-0"
         operator="dilate"
         radius="4"
         result="result3" />
      <feComposite
         id="feComposite4385-9-5-7-0-8-6-2-7-9"
         in2="result3"
         in="SourceGraphic"
         operator="over"
         result="fbSourceGraphic" />
      <feColorMatrix
         result="fbSourceGraphicAlpha"
         in="fbSourceGraphic"
         values="0 0 0 -1 0 0 0 0 -1 0 0 0 0 -1 0 0 0 0 1 0"
         id="feColorMatrix333-8-1" />
      <feTurbulence
         id="feTurbulence335-0-9"
         type="fractalNoise"
         numOctaves="5"
         seed="1"
         baseFrequency="0.013 0.013"
         result="turbulence" />
      <feDisplacementMap
         in2="turbulence"
         id="feDisplacementMap337-9-1"
         in="fbSourceGraphic"
         scale="6.6"
         yChannelSelector="G"
         xChannelSelector="R"
         result="fbSourceGraphic" />
      <feColorMatrix
         result="fbSourceGraphicAlpha"
         in="fbSourceGraphic"
         values="0 0 0 -1 0 0 0 0 -1 0 0 0 0 -1 0 0 0 0 1 0"
         id="feColorMatrix435-5-5" />
      <feTurbulence
         id="feTurbulence437-2-0"
         type="fractalNoise"
         numOctaves="5"
         seed="27"
         baseFrequency="0.001 0.4414"
         result="turbulence" />
      <feDisplacementMap
         in2="turbulence"
         id="feDisplacementMap439-1-9"
         in="fbSourceGraphic"
         scale="4.27461"
         yChannelSelector="G"
         xChannelSelector="R" />
    </filter>
    <filter
       style="color-interpolation-filters:sRGB"
       id="filter4375-4-1-1-1-9-5-8-3-4-3-3"
       inkscape:label="Drop Shadow">
      <feFlood
         id="feFlood4377-7-9-0-8-1-7-3-6-6-6"
         flood-opacity="1"
         flood-color="rgb(44,110,8)"
         result="flood" />
      <feComposite
         id="feComposite4379-3-8-8-2-77-4-1-7-7-7"
         in2="SourceGraphic"
         in="flood"
         operator="in"
         result="composite1" />
      <feMorphology
         id="feMorphology4393-1-0-49-8-9-3-0-5-5-5"
         operator="dilate"
         radius="6.2000000000000002"
         result="result3" />
      <feComposite
         id="feComposite4385-9-5-7-0-8-8-7-3-3-3"
         in2="result3"
         in="SourceGraphic"
         operator="over"
         result="fbSourceGraphic" />
      <feColorMatrix
         result="fbSourceGraphicAlpha"
         in="fbSourceGraphic"
         values="0 0 0 -1 0 0 0 0 -1 0 0 0 0 -1 0 0 0 0 1 0"
         id="feColorMatrix4544-5-5-5" />
      <feTurbulence
         id="feTurbulence4546-6-6-6"
         type="fractalNoise"
         numOctaves="3"
         seed="37"
         baseFrequency="0.129 0.0050000000000000001"
         result="turbulence" />
      <feDisplacementMap
         id="feDisplacementMap4548-2-2-2"
         in2="turbulence"
         in="fbSourceGraphic"
         scale="6.6"
         yChannelSelector="G"
         xChannelSelector="R"
         result="fbSourceGraphic" />
      <feColorMatrix
         result="fbSourceGraphicAlpha"
         in="fbSourceGraphic"
         values="0 0 0 -1 0 0 0 0 -1 0 0 0 0 -1 0 0 0 0 1 0"
         id="feColorMatrix4670-9-3-9-9" />
      <feFlood
         id="feFlood4672-1-0-1-1"
         flood-opacity="0.40999999999999998"
         flood-color="rgb(0,0,0)"
         result="flood"
         in="fbSourceGraphic" />
      <feComposite
         id="feComposite4674-2-3-2-2"
         in2="fbSourceGraphic"
         in="flood"
         operator="in"
         result="composite1" />
      <feGaussianBlur
         id="feGaussianBlur4676-7-7-7"
         in="composite1"
         stdDeviation="0"
         result="blur" />
      <feOffset
         id="feOffset4678-0-0-0-0"
         dx="6"
         dy="6"
         result="offset" />
      <feComposite
         id="feComposite4680-9-9-9"
         in2="offset"
         in="fbSourceGraphic"
         operator="over"
         result="composite2" />
    </filter>
  </defs>
  <sodipodi:namedview
     pagecolor="#ffffff"
     bordercolor="#666666"
     borderopacity="1"
     objecttolerance="10"
     gridtolerance="10"
     guidetolerance="10"
     inkscape:pageopacity="0"
     inkscape:pageshadow="2"
     inkscape:window-width="1366"
     inkscape:window-height="715"
     id="namedview4"
     showgrid="false"
     inkscape:zoom="0.37512071"
     inkscape:cx="1374.6199"
     inkscape:cy="-71.896935"
     inkscape:window-x="-8"
     inkscape:window-y="-8"
     inkscape:window-maximized="1"
     inkscape:current-layer="layer3"
     inkscape:snap-global="false" />
  <g
     inkscape:groupmode="layer"
     id="layer2"
     inkscape:label="artwork"
     sodipodi:insensitive="true">
    <image
       sodipodi:absref="D:\Pepper&amp;Carrot translation\ep31_The-Fight_lang-pack\lang\cn\..\gfx_Pepper-and-Carrot_by-David-Revoy_E31P03.png"
       xlink:href="../gfx_Pepper-and-Carrot_by-David-Revoy_E31P03.png"
       y="0"
       x="0"
       id="image10"
       height="3503"
       width="2481" />
  </g>
  <g
     inkscape:groupmode="layer"
     id="layer3"
     inkscape:label="speechbubbles">
    <path
       style="opacity:1;fill:#ffffff;stroke:none;stroke-width:0.99999994"
       d="m 381.74705,3063.5701 c 23.5573,25.2185 16.05782,40.0616 6.16704,51.7938 -9.88784,11.7318 -11.67487,25.2666 -9.83969,33.528 1.83519,8.2615 10.78298,20.2861 18.14084,25.774 7.35884,5.4879 -2.12411,19.0189 -7.55193,27.6085 -7.17016,11.3489 -32.97775,42.2303 -32.97775,42.2303 0,0 24.01881,18.4803 32.06612,7.673 8.04636,-10.807 25.83751,-48.8286 27.68149,-53.69 1.84304,-4.8612 5.11757,-19.9657 -0.30171,-27.3938 -5.42024,-7.4278 -17.54915,-11.083 -21.79889,-20.426 -4.37795,-9.6249 -2.96542,-17.0989 2.36859,-27.0272 5.334,-9.9282 13.34075,-32.9425 2.88638,-43.9873 -10.45535,-11.0446 -16.84049,-16.0833 -16.84049,-16.0833 z"
       id="path3023-9"
       inkscape:connector-curvature="0"
       sodipodi:nodetypes="csssscssssssc" />
    <path
       style="color:#000000;display:inline;overflow:visible;visibility:visible;fill:#ffffff;fill-opacity:1;fill-rule:nonzero;stroke:none;stroke-width:0.99999988px;marker:none;enable-background:accumulate"
       d="m 2088.451,371.01925 c -5.6125,15.0246 -37.2674,16.28494 -48.9206,13.23097 23.4899,16.80776 22.671,27.25097 -9.2217,28.87178 53.4847,30.29272 9.7777,25.70871 1.1569,33.38946 41.9953,10.43971 28.0759,26.26207 1.1203,33.53521 48.2696,0.44427 36.5842,11.10656 18.3094,26.44973 21.3716,-10.0452 54.3398,-17.2686 55.5095,8.99521 30.966,-22.94363 46.9429,-22.49675 58.1408,3.44761 9.3536,-22.37193 41.2035,-26.67753 53.3823,-2.55036 10.4911,-32.6528 47.9248,-28.05569 70.2078,-12.23072 -12.5087,-11.16851 -3.9789,-29.55869 38.6674,-25.83963 -3.4328,-10.23809 1.9654,-23.16009 23.5014,-21.45374 -24.8067,-6.18388 -29.3785,-12.56327 16.6819,-19.42794 -35.0493,-0.66334 -67.7329,-2.02406 -26.6125,-25.43465 -12.9005,-0.56645 -43.5086,18.96798 -29.238,-38.19865 -37.7831,16.85663 -77.4858,25.47392 -75.5324,-9.93436 -14.0468,19.15213 -38.4105,28.62914 -49.0099,4.70708 -8.7499,22.34663 -35.3266,12.9892 -49.1327,-2.26321 -9.1224,15.13633 -22.7686,25.35958 -49.0099,4.70621 z"
       id="path3549-3-7-8"
       inkscape:connector-curvature="0"
       sodipodi:nodetypes="ccccccccccccccccccc" />
    <path
       style="display:inline;fill:#ffffff;fill-rule:evenodd;stroke:none;stroke-width:1px;stroke-linecap:butt;stroke-linejoin:miter;stroke-opacity:1"
       d="m 2360.7223,364.6302 c -28.2459,-1.85574 -69.2065,11.37792 -45.4492,49.56814 -51.8709,-25.02651 -124.667,-34.01157 -141.7945,7.67825 -2.8825,-50.99026 -37.6491,-37.14457 -66.3441,-24.86586 27.3093,-20.9346 -22.9151,-31.24914 -49.8034,-31.69953 55.7202,-45.19436 25.5343,-58.34427 2.7317,-74.24873 56.146,10.76492 42.0205,-13.58945 48.3391,-27.72588 48.6971,30.4213 83.3445,22.02164 110.1266,-8.11089 14.7961,15.63738 20.1453,48.60035 71.9307,-3.60211 -18.4098,44.39511 7.051,39.13435 47.9163,16.43862 -6.114,15.11702 -44.1139,38.83869 20.795,34.79211 -40.2239,15.25006 -48.2502,34.72213 1.5518,61.77588 z"
       id="path4584-8"
       inkscape:connector-curvature="0"
       sodipodi:nodetypes="cccccccccccc" />
    <path
       style="color:#000000;display:inline;overflow:visible;visibility:visible;fill:#ffffff;fill-opacity:1;fill-rule:nonzero;stroke:none;stroke-width:1px;marker:none;enable-background:accumulate"
       d="m 2058.8601,431.69433 c -27.5042,-3.8742 -62.9203,-11.63396 -67.5341,-17.71819 2.0751,9.48509 2.264,18.32581 2.5306,25.21155 -13.9157,0.25456 -55.6137,-16.44183 -79.4432,-25.19132 31.277,29.44861 81.2873,50.10363 102.7692,52.79146 -4.1923,-9.10689 -5.7958,-17.40615 -5.0533,-22.24832 10.4561,-4.15714 46.3532,12.89672 46.4657,13.60497 z"
       id="path5066-6"
       inkscape:connector-curvature="0"
       sodipodi:nodetypes="cccccccc" />
    <path
       style="color:#000000;display:inline;overflow:visible;visibility:visible;fill:#090909;fill-opacity:1;fill-rule:nonzero;stroke:none;stroke-width:1.4638871px;marker:none;filter:url(#filter3018-9-9);enable-background:accumulate"
       d="m 176.95326,304.17899 c 0,-59.7361 -22.48244,-115.85882 98.01007,-170.07006 130.56298,-58.742076 268.39887,-35.07555 341.04902,5.6261 40.12846,22.48164 99.48111,119.36155 101.46841,158.56335 1.9872,39.2018 -60.43426,96.7909 -148.86606,115.55434 -86.7685,18.41053 -241.07149,-0.58661 -288.76509,-14.58731 -47.6936,-14.0007 -98.92185,-47.48422 -102.89635,-95.08642 z"
       id="path3986-45"
       inkscape:connector-curvature="0"
       sodipodi:nodetypes="csssssc"
       transform="matrix(0.66277094,0,0,0.59257433,574.16516,724.79821)" />
    <path
       style="display:inline;fill:#000000;fill-opacity:1;fill-rule:evenodd;stroke:none;stroke-width:1px;stroke-linecap:butt;stroke-linejoin:miter;stroke-opacity:1"
       d="m 899.88875,1058.8611 c 0,0 -31.4058,-3.2008 -31.71219,-15.0575 -0.30712,-11.8562 30.06575,-29.9486 30.06575,-29.9486 0,0 -37.392,-12.5088 -31.8252,-43.17906 5.56688,-30.67024 42.84594,-46.28311 36.42648,-25.82967 -6.41941,20.45354 -35.38623,54.65079 29.32281,65.22183 -49.058,23.1301 -43.87818,24.9896 -43.11544,29.6681 0.76214,4.6788 31.71224,15.0573 41.48006,17.6475 -35.75199,15.5401 -59.35761,26.6224 -19.40484,65.9512 -27.88769,-15.6994 -45.83688,-45.8117 -11.23743,-64.4738 z"
       id="path4394-0"
       inkscape:connector-curvature="0"
       sodipodi:nodetypes="cscsscsccc" />
    <path
       style="color:#000000;display:inline;overflow:visible;visibility:visible;fill:#ffffff;fill-opacity:1;fill-rule:nonzero;stroke:none;stroke-width:1px;marker:none;enable-background:accumulate"
       d="m 1846.3595,1304.9369 c 2.5985,-8.1848 16.4783,-33.5365 20.5404,-6.7171 29.9083,-35.9114 66.8173,-23.2573 74.9987,-18.0245 -3.7753,-10.6312 3.8363,-29.7408 25.5761,-25.0422 -4.1306,-10.2705 2.106,-17.9825 17.5928,-23.4105 -21.9475,-4.8048 -26.5862,-11.055 12.0272,-20.9214 -30.0686,1.4793 -58.2139,2.0974 -25.7562,-24.4052 -11.105,0.2147 -35.0181,22.1018 -29.4699,-37.3112 -16.8489,20.1051 -35.917,31.9033 -65.7831,-5.5213 -6.0418,16.0608 -16.5176,27.3659 -41.3792,7.8349 11.373,35.9237 -26.9391,23.2408 -40.329,16.5444 22.0592,15.7622 22.5855,26.502 -4.5157,30.1269 49.2968,27.7223 11.365,25.7378 4.8835,34.1336 37.1515,8.1024 22.5854,22.5445 17.6952,36.2469 41.3553,-2.5181 30.2539,19.6858 33.9192,36.4667 z"
       id="path3549-3-8"
       inkscape:connector-curvature="0"
       sodipodi:nodetypes="ccccccccccccccc" />
    <path
       style="color:#000000;display:inline;overflow:visible;visibility:visible;opacity:1;fill:#ffffff;fill-opacity:1;fill-rule:nonzero;stroke:none;stroke-width:0.77001458px;marker:none;enable-background:accumulate"
       d="m 1883.1717,1169.2778 c 8.3775,-17.2131 2.214,-37.9227 1.9672,-43.4608 -6.0671,2.2703 -11.9539,3.0892 -16.5234,3.8155 0.426,-10.2142 23.4596,-55.0335 31.5099,-61.7346 -20.5459,15.3354 -47.8551,56.4173 -47.2472,73.3512 6.3231,0.1799 10.0581,-0.5917 13.3951,-0.4107 0.721,8.4891 -5.8909,30.737 -5.8909,30.737 z"
       id="path5066-9"
       inkscape:connector-curvature="0"
       sodipodi:nodetypes="cccccccc" />
    <path
       style="color:#000000;display:inline;overflow:visible;visibility:visible;fill:#000000;fill-opacity:1;fill-rule:nonzero;stroke:none;stroke-width:1.38636136px;marker:none;filter:url(#filter3018-9-9-3);enable-background:accumulate"
       d="m 161.85652,306.34242 c 0,-59.7361 -20.32576,-85.57075 100.16675,-139.78199 130.56298,-58.74208 288.70937,-37.96157 361.35952,2.74008 40.12846,22.48164 51.1338,91.9595 53.1211,131.1613 1.9872,39.2018 -19.45739,143.98214 -107.88919,162.74558 C 481.8462,481.61792 317.7031,449.45954 270.0095,435.45884 222.3159,421.45814 165.83102,353.94462 161.85652,306.34242 Z"
       id="path3986-45-3"
       inkscape:connector-curvature="0"
       sodipodi:nodetypes="csssssc"
       transform="matrix(0.66277094,0,0,0.66070126,1074.0206,1473.7599)" />
    <path
       style="fill:#000000;fill-opacity:1;fill-rule:evenodd;stroke:none;stroke-width:1px;stroke-linecap:butt;stroke-linejoin:miter;stroke-opacity:1"
       d="m 1408.9636,1752.7522 c 2.0013,15.8812 4.1353,31.7554 6.0537,47.6408 -0.7903,6.3492 -1.4252,12.7271 -2.313,19.0578 -2.7394,6.393 -5.4786,12.7859 -8.2184,19.1783 5.7896,-7.0758 11.5794,-14.1516 17.369,-21.2272 4.5416,10.0706 9.0834,20.1412 13.6251,30.2119 -2.8077,10.7284 -5.5118,21.4852 -8.383,32.1968 -3.8128,7.8887 -7.4697,15.8664 -11.379,23.7007 -6.2446,6.5804 -12.4891,13.1611 -18.7334,19.7418 12.0867,-9.0281 24.1735,-18.0562 36.2604,-27.0844 5.5377,-11.5801 11.1849,-23.1306 16.6544,-34.7287 1.9931,-7.9907 3.9868,-15.981 5.9799,-23.9717 -3.5177,-10.8104 -7.2775,-21.5448 -10.6361,-32.4059 -1.7566,-6.0174 -3.513,-12.0345 -5.2695,-18.0518 -3.5236,5.3243 -7.0473,10.6485 -10.5704,15.9733 4.0244,-9.562 8.0489,-19.124 12.0732,-28.686 -0.035,-8.9563 0.045,-17.9287 -0.061,-26.8749 -1.5018,-6.8794 -3.0037,-13.7587 -4.5054,-20.6381 -9.2968,8.6728 -18.7625,17.1932 -27.9471,25.9676 z"
       id="path4345-2"
       inkscape:connector-curvature="0"
       inkscape:transform-center-x="-16.532507"
       inkscape:transform-center-y="-93.825879" />
    <path
       style="color:#000000;display:inline;overflow:visible;visibility:visible;fill:#ffffff;fill-opacity:1;fill-rule:nonzero;stroke:none;stroke-width:0.99999994px;marker:none;enable-background:accumulate"
       d="m 684.99307,1779.1582 c 61.66174,-16.2561 73.14039,-41.1907 83.269,-58.351 -4.39854,-4.2253 -10.71973,-13.2123 -10.71973,-13.2123 0,0 22.97628,-32.034 27.75428,-46.8821 4.77802,-14.8481 -12.8848,-20.7999 -12.8848,-20.7999 0,0 -46.19491,61.2421 -59.92565,71.7021 12.55488,11.0884 17.19616,18.1382 23.43027,20.2381 -2.54487,11.4873 -29.27851,40.8822 -50.92337,47.3051 z"
       id="path4456-8"
       inkscape:connector-curvature="0" />
    <path
       style="color:#000000;display:inline;overflow:visible;visibility:visible;fill:#ffffff;fill-opacity:1;fill-rule:nonzero;stroke:none;stroke-width:0.99999994px;marker:none;enable-background:accumulate"
       d="m 605.37632,1742.6565 c 7.10694,-7.0451 37.82196,-27.6986 33.30417,-2.0983 49.3473,-29.5394 83.76877,-14.3238 119.03854,-1.6525 12.22304,-9.151 17.04422,-24.4313 48.04849,-18.0279 -2.1127,-10.3184 10.23682,-16.1977 35.49093,-18.1168 -30.85931,-8.8316 -35.31607,-15.5379 26.20234,-16.9297 -45.45793,-4.6486 -51.97115,-31.1506 6.92384,-49.1514 -16.65772,-2.023 -78.1325,24.8565 -46.41462,-28.9456 -33.07659,15.2111 -84.7698,32.3056 -114.57855,-8.2602 -15.35238,13.6354 -35.44627,21.9881 -64.84503,-1.0378 -10.7589,13.9276 -52.25101,11.5144 -66.71315,7.2214 26.70264,18.9829 23.25145,29.0136 -18.62423,26.9409 62.63444,35.4864 6.80756,26.0628 -6.17745,32.525 52.24871,14.9218 24.81323,25.3562 12.10926,37.0424 62.71217,5.9471 37.38519,24.2476 36.23546,40.4905 z"
       id="path3549-3-3"
       inkscape:connector-curvature="0"
       sodipodi:nodetypes="ccccccccccccccc" />
    <path
       style="fill:#ffffff;stroke:none"
       d="m 279.9442,3283.1371 c 2.0507,-31.391 12.645,-58.232 102.372,-58.257 94.2308,-0.03 111.7363,16.735 112.7133,59.083 1.379,59.762 -51.7313,56.981 -107.3986,57.133 -77.9777,0.212 -107.2263,0.262 -107.6867,-57.959 z"
       id="path3280-1"
       inkscape:connector-curvature="0"
       sodipodi:nodetypes="csssc"
       inkscape:transform-center-x="89.999998"
       inkscape:transform-center-y="67.499998" />
    <path
       style="fill:#ffffff;fill-rule:evenodd;stroke:none;stroke-width:1px;stroke-linecap:butt;stroke-linejoin:miter;stroke-opacity:1"
       d="m 1687.674,1652.5805 c 10.8091,28.67 23.8371,40.143 43.3145,1.635 15.888,9.306 15.7808,38.162 67.8321,3.269 -29.8746,44.044 -17.3435,47.61 0,46.583 -25.1962,57.06 -3.7094,48.215 5.7208,56.391 -30.8793,34.465 -26.8332,50.637 -12.2588,61.294 -28.4932,7.7287 20.1219,92.0875 40.2496,129.5436 -38.396,-30.4664 -93.7369,-126.7275 -69.6708,-36.3766 -27.0363,-21.803 -45.9051,-15.837 -62.1113,-0.818 -13.9826,-19.98 -25.3371,-45.217 -64.5631,-14.71 21.7239,-33.802 13.1289,-50.76 -4.0863,-62.929 32.342,-32.722 7.0945,-44.116 -17.9796,-55.573 45.3309,-3.935 32.4477,-40.21 20.4314,-76.005 21.2249,7.19 42.525,14.905 53.1215,-52.304 z"
       id="path4489"
       inkscape:connector-curvature="0"
       sodipodi:nodetypes="cccccccccccccc" />
  </g>
  <g
     inkscape:groupmode="layer"
     id="layer1"
     inkscape:label="txt">
    <text
       xml:space="preserve"
       style="font-style:normal;font-variant:normal;font-weight:normal;font-stretch:normal;font-size:12.49948788px;line-height:0%;font-family:Lavi;-inkscape-font-specification:Lavi;text-align:center;letter-spacing:0px;word-spacing:0px;text-anchor:middle;display:inline;fill:#000000;fill-opacity:1;stroke:#000000;stroke-width:1.79999995;stroke-miterlimit:4;stroke-dasharray:none;stroke-opacity:1"
       x="2431.3743"
       y="330.08981"
       id="text4246-3-7-9-5-1-6-2"
       transform="matrix(0.92840736,0,-0.16338777,1.0771134,0,0)"
       sodipodi:linespacing="0%"><tspan
         sodipodi:role="line"
         style="font-style:normal;font-variant:normal;font-weight:normal;font-stretch:normal;font-size:46.87307739px;line-height:1.25;font-family:'小赖字体 SC';-inkscape-font-specification:'小赖字体 SC';stroke:#000000;stroke-width:1.79999995;stroke-miterlimit:4;stroke-dasharray:none;stroke-opacity:1;"
         x="2431.3743"
         y="330.08981"
         id="tspan1222">萝卜头！</tspan></text>
    <text
       xml:space="preserve"
       style="font-style:normal;font-variant:normal;font-weight:normal;font-stretch:normal;line-height:0%;font-family:Lavi;-inkscape-font-specification:Lavi;text-align:center;letter-spacing:0px;word-spacing:0px;text-anchor:middle;display:inline;fill:#000000;fill-opacity:1;stroke:none"
       x="2188.6885"
       y="455.06714"
       id="text4246-2-3-1-3-9-9"
       sodipodi:linespacing="0%"><tspan
         sodipodi:role="line"
         style="font-style:normal;font-variant:normal;font-weight:normal;font-stretch:normal;font-size:45px;line-height:1.25;font-family:'小赖字体 SC';-inkscape-font-specification:'小赖字体 SC';"
         x="2188.6885"
         y="455.06714"
         id="tspan4161">7-B计划！</tspan></text>
    <text
       xml:space="preserve"
       style="font-style:normal;font-variant:normal;font-weight:normal;font-stretch:normal;line-height:0%;font-family:Lavi;-inkscape-font-specification:Lavi;text-align:center;letter-spacing:0px;word-spacing:0px;text-anchor:middle;opacity:1;fill:#ffffff;fill-opacity:1;stroke:none"
       x="874.26086"
       y="858.07977"
       id="text4180"
       transform="scale(0.99830099,1.0017019)"
       sodipodi:linespacing="0%"><tspan
         sodipodi:role="line"
         x="874.26086"
         y="858.07977"
         style="font-style:normal;font-variant:normal;font-weight:normal;font-stretch:normal;font-size:50.4467392px;line-height:1.25;font-family:'小赖字体 SC';-inkscape-font-specification:'小赖字体 SC';"
         id="tspan881">图片品质</tspan><tspan
         sodipodi:role="line"
         x="874.26086"
         y="921.13818"
         style="font-style:normal;font-variant:normal;font-weight:normal;font-stretch:normal;font-size:50.4467392px;line-height:1.25;font-family:'小赖字体 SC';-inkscape-font-specification:'小赖字体 SC';"
         id="tspan3465">附着！</tspan></text>
    <text
       xml:space="preserve"
       style="font-style:normal;font-variant:normal;font-weight:normal;font-stretch:normal;line-height:0%;font-family:Lavi;-inkscape-font-specification:Lavi;letter-spacing:0px;word-spacing:0px;display:inline;fill:#ffffff;fill-opacity:1;stroke:none;stroke-width:0.66784471;stroke-miterlimit:4;stroke-dasharray:none;stroke-opacity:1;filter:url(#filter4375-4-1-1-1-9-5-8-3-4-3-3)"
       x="787.65729"
       y="1584.5073"
       id="text4580-6-0-3-3-3"
       transform="matrix(0.92074576,-0.63912706,0.0189825,1.6148287,288.53291,-936.66802)"><tspan
         sodipodi:role="line"
         id="tspan4582-1-1-6-6-6"
         x="787.65729"
         y="1584.5073"
         style="font-size:70px;line-height:1.25;fill:#ffffff;fill-opacity:1;stroke:none;stroke-width:0.66784471;stroke-opacity:1"><tspan
           style="font-size:93.14950562px;fill:#ffffff;fill-opacity:1;stroke:none;stroke-width:0.66784471;stroke-opacity:1"
           id="tspan4315-8-0-0-0">Bzi<tspan
   style="font-size:79.43728638px;stroke:none;stroke-width:0.66784471"
   id="tspan951-6-6">ooo </tspan></tspan><tspan
           style="font-size:95.32473755px;fill:#ffffff;fill-opacity:1;stroke:none;stroke-width:0.66784471;stroke-opacity:1"
           id="tspan4313-2-6-2-2">!</tspan></tspan></text>
    <text
       xml:space="preserve"
       style="font-style:normal;font-variant:normal;font-weight:normal;font-stretch:normal;font-size:6.85986376px;line-height:0%;font-family:Lavi;-inkscape-font-specification:Lavi;text-align:center;letter-spacing:0px;word-spacing:0px;text-anchor:middle;opacity:1;fill:#ffffff;fill-opacity:1;stroke:none;stroke-width:0.87182146;"
       x="1241.0875"
       y="247.76309"
       id="text4246-4-9-8-0-3-3"
       transform="matrix(0.5722263,0.73233759,-0.15643506,1.5473541,0,0)"><tspan
         sodipodi:role="line"
         style="font-size:69.42941284px;line-height:1.25;stroke-width:0.87182146;fill:#ffffff;"
         x="1241.0875"
         y="247.76309"
         id="tspan4205-3-3-6">Zo<tspan
   style="font-size:60.09608078px;fill:#ffffff;"
   id="tspan947">u</tspan><tspan
   id="tspan952"
   style="font-size:46.76274872px;fill:#ffffff;">uu</tspan></tspan></text>
    <text
       xml:space="preserve"
       style="font-style:normal;font-variant:normal;font-weight:normal;font-stretch:normal;font-size:8.93845081px;line-height:0%;font-family:Lavi;-inkscape-font-specification:Lavi;text-align:center;letter-spacing:0px;word-spacing:0px;text-anchor:middle;display:inline;fill:#000000;fill-opacity:1;stroke:none;stroke-width:1"
       x="2218.0569"
       y="1199.1886"
       id="text4246-2-3-1-3-9-9-7"
       transform="matrix(0.95843932,0,-0.20731228,1.0433629,0,0)"><tspan
         sodipodi:role="line"
         style="font-size:77.6869278px;line-height:1.25;letter-spacing:-3.72435451px;stroke-width:1"
         x="2216.1948"
         y="1199.1886"
         id="tspan4161-6">?!!</tspan></text>
    <text
       xml:space="preserve"
       style="font-style:normal;font-variant:normal;font-weight:normal;font-stretch:normal;font-size:16.32520676px;line-height:0%;font-family:Lavi;-inkscape-font-specification:Lavi;text-align:center;letter-spacing:0px;word-spacing:0px;text-anchor:middle;display:inline;fill:#000000;fill-opacity:1;stroke:none;stroke-width:1"
       x="716.99976"
       y="1692.6017"
       id="text4246-2-3-1-3-9-9-6"
       transform="scale(1.0007559,0.99924467)"
       sodipodi:linespacing="0%"><tspan
         sodipodi:role="line"
         style="font-style:normal;font-variant:normal;font-weight:normal;font-stretch:normal;font-size:61.2195282px;line-height:1.25;font-family:'小赖字体 SC';-inkscape-font-specification:'小赖字体 SC';stroke-width:1;"
         x="716.99976"
         y="1692.6017"
         id="tspan4341-1">糟糕！</tspan></text>
    <text
       xml:space="preserve"
       style="font-style:normal;font-variant:normal;font-weight:normal;font-stretch:normal;line-height:0%;font-family:Lavi;-inkscape-font-specification:Lavi;letter-spacing:0px;word-spacing:0px;fill:#000000;fill-opacity:1;stroke:#000000;stroke-width:0;stroke-linecap:square;stroke-miterlimit:4;stroke-dasharray:none;stroke-opacity:1;filter:url(#filter4375-4-1-1-1-9-3)"
       x="787.65729"
       y="1584.5073"
       id="text4580-2-7"
       transform="matrix(2.6121838,-1.1716561,1.0024627,2.7172967,-3455.5516,-1335.5706)"><tspan
         sodipodi:role="line"
         id="tspan4582-9-0"
         x="787.65729"
         y="1584.5073"
         style="font-style:normal;font-variant:normal;font-weight:normal;font-stretch:normal;font-size:70px;line-height:1.25;font-family:ComicSpice;-inkscape-font-specification:ComicSpice;fill:#ffffff;stroke-width:0;stroke-linecap:square;stroke-miterlimit:4;stroke-dasharray:none">G</tspan></text>
    <text
       xml:space="preserve"
       style="font-style:normal;font-variant:normal;font-weight:normal;font-stretch:normal;line-height:0%;font-family:Lavi;-inkscape-font-specification:Lavi;letter-spacing:0px;word-spacing:0px;fill:#000000;fill-opacity:1;stroke:#000000;stroke-width:0;stroke-linecap:square;stroke-miterlimit:4;stroke-dasharray:none;stroke-opacity:1;filter:url(#filter4375-4-1-1-1-9-3-7)"
       x="787.65729"
       y="1584.5073"
       id="text4580-2-7-3"
       transform="matrix(2.105461,-1.3533418,0.65169544,2.2011566,-2378.9992,-304.63645)"
       inkscape:transform-center-x="13.043478"
       inkscape:transform-center-y="-54.347827"><tspan
         sodipodi:role="line"
         id="tspan4582-9-0-2"
         x="787.65729"
         y="1584.5073"
         style="font-style:normal;font-variant:normal;font-weight:normal;font-stretch:normal;font-size:70px;line-height:1.25;font-family:ComicSpice;-inkscape-font-specification:ComicSpice;fill:#ffffff;stroke-width:0;stroke-linecap:square;stroke-miterlimit:4;stroke-dasharray:none">Z</tspan></text>
    <text
       xml:space="preserve"
       style="font-style:normal;font-variant:normal;font-weight:normal;font-stretch:normal;line-height:0%;font-family:Lavi;-inkscape-font-specification:Lavi;letter-spacing:0px;word-spacing:0px;fill:#000000;fill-opacity:1;stroke:#000000;stroke-width:0;stroke-linecap:square;stroke-miterlimit:4;stroke-dasharray:none;stroke-opacity:1;filter:url(#filter4375-4-1-1-1-9-3-7-6)"
       x="787.65729"
       y="1584.5073"
       id="text4580-2-7-3-4"
       transform="matrix(1.7444703,-1.5088795,0.53995933,2.0548705,-1812.631,136.11639)"><tspan
         sodipodi:role="line"
         id="tspan4582-9-0-2-9"
         x="787.65729"
         y="1584.5073"
         style="font-style:normal;font-variant:normal;font-weight:normal;font-stretch:normal;font-size:70px;line-height:1.25;font-family:ComicSpice;-inkscape-font-specification:ComicSpice;fill:#ffffff;stroke-width:0;stroke-linecap:square;stroke-miterlimit:4;stroke-dasharray:none">Z</tspan></text>
    <text
       xml:space="preserve"
       style="font-style:normal;font-variant:normal;font-weight:normal;font-stretch:normal;line-height:0%;font-family:Lavi;-inkscape-font-specification:Lavi;text-align:center;letter-spacing:0px;word-spacing:0px;text-anchor:middle;opacity:1;fill:#ffffff;fill-opacity:1;stroke:none"
       x="1374.4739"
       y="1679.2043"
       id="text4180-5"
       transform="scale(0.99830099,1.0017019)"
       sodipodi:linespacing="0%"><tspan
         sodipodi:role="line"
         x="1374.4739"
         y="1679.2043"
         style="font-style:normal;font-variant:normal;font-weight:normal;font-stretch:normal;font-size:50.4467392px;line-height:1.25;font-family:'小赖字体 SC';-inkscape-font-specification:'小赖字体 SC'"
         id="tspan955">最低品质！</tspan></text>
    <text
       xml:space="preserve"
       style="font-style:normal;font-variant:normal;font-weight:normal;font-stretch:normal;font-size:10.4618578px;line-height:0%;font-family:Lavi;-inkscape-font-specification:Lavi;text-align:center;letter-spacing:0px;word-spacing:0px;text-anchor:middle;fill:#000000;fill-opacity:1;stroke:none;stroke-width:0.87182146"
       x="1250.5232"
       y="3039.0745"
       id="text4246-4-9-8-0-3"
       transform="matrix(0.83492136,-0.87630452,0.22267567,0.96400493,0,0)"><tspan
         sodipodi:role="line"
         style="font-size:122.96389008px;line-height:1.25;stroke-width:0.87182146"
         x="1250.5232"
         y="3039.0745"
         id="tspan4205-3-3"><tspan
   style="font-size:105.88557434px;stroke-width:0.87182146"
   id="tspan4438">!</tspan>!</tspan></text>
    <text
       xml:space="preserve"
       style="font-style:normal;font-variant:normal;font-weight:normal;font-stretch:normal;line-height:0%;font-family:Lavi;-inkscape-font-specification:Lavi;text-align:center;letter-spacing:0px;word-spacing:0px;text-anchor:middle;fill:#000000;fill-opacity:1;stroke:none"
       x="393.20367"
       y="3300.2261"
       id="text4246-4-81"
       inkscape:transform-center-x="87.405444"
       inkscape:transform-center-y="69.597214"
       sodipodi:linespacing="0%"><tspan
         sodipodi:role="line"
         style="font-size:45px;line-height:1.25;-inkscape-font-specification:'小赖字体 SC';font-family:'小赖字体 SC';font-weight:normal;font-style:normal;font-stretch:normal;font-variant:normal;"
         x="393.20367"
         y="3300.2261"
         id="tspan4466-1">啊呃…</tspan></text>
    <text
       xml:space="preserve"
       style="font-style:normal;font-variant:normal;font-weight:normal;font-stretch:normal;font-size:9.69269562px;line-height:0%;font-family:Lavi;-inkscape-font-specification:Lavi;text-align:center;letter-spacing:0px;word-spacing:0px;text-anchor:middle;fill:#202020;fill-opacity:1;stroke:none;stroke-width:1"
       x="1105.3096"
       y="2389.5967"
       id="text4246-39"><tspan
         sodipodi:role="line"
         style="font-style:normal;font-variant:normal;font-weight:normal;font-stretch:normal;font-size:36.34761047px;line-height:1.25;font-family:'Noto Sans';-inkscape-font-specification:'Noto Sans';fill:#202020;fill-opacity:1;stroke-width:1"
         x="1105.3096"
         y="2389.5967"
         id="tspan105">2019-12-20-E31P03_V15-final.jpg</tspan></text>
    <text
       xml:space="preserve"
       style="font-style:normal;font-variant:normal;font-weight:normal;font-stretch:normal;font-size:9.69269562px;line-height:0%;font-family:Lavi;-inkscape-font-specification:Lavi;text-align:center;letter-spacing:0px;word-spacing:0px;text-anchor:middle;fill:#202020;fill-opacity:1;stroke:none;stroke-width:1"
       x="1095.345"
       y="2734.948"
       id="text4246-39-9"
       sodipodi:linespacing="0%"><tspan
         sodipodi:role="line"
         style="font-style:normal;font-variant:normal;font-weight:normal;font-stretch:normal;font-size:36.34761047px;line-height:1.25;font-family:'WenQuanYi Micro Hei Mono';-inkscape-font-specification:'WenQuanYi Micro Hei Mono';fill:#202020;fill-opacity:1;stroke-width:1"
         x="1095.345"
         y="2734.948"
         id="tspan1139">文件导入</tspan><tspan
         sodipodi:role="line"
         style="font-style:normal;font-variant:normal;font-weight:normal;font-stretch:normal;font-size:36.34761047px;line-height:1.25;font-family:'WenQuanYi Micro Hei Mono';-inkscape-font-specification:'WenQuanYi Micro Hei Mono';fill:#202020;fill-opacity:1;stroke-width:1"
         x="1095.345"
         y="2780.3826"
         id="tspan3471">错误</tspan></text>
    <text
       xml:space="preserve"
       style="font-style:normal;font-variant:normal;font-weight:normal;font-stretch:normal;line-height:0%;font-family:Lavi;-inkscape-font-specification:Lavi;letter-spacing:0px;word-spacing:0px;display:inline;fill:#ffffff;fill-opacity:1;stroke:#000000;stroke-width:0.57581621;stroke-miterlimit:4;stroke-dasharray:none;stroke-opacity:1;filter:url(#filter4375-4-1-1-1-9-5-8-3)"
       x="787.65729"
       y="1584.5073"
       id="text4580-6-0-8"
       transform="matrix(1.0449753,-0.15646471,0.20111908,1.8995105,440.93764,294.0481)"
       sodipodi:linespacing="0%"><tspan
         sodipodi:role="line"
         id="tspan4582-1-1-8"
         x="787.65729"
         y="1584.5073"
         style="font-style:normal;font-variant:normal;font-weight:normal;font-stretch:normal;font-size:70px;line-height:1.25;font-family:zcoolqingkehuangyouti;-inkscape-font-specification:zcoolqingkehuangyouti;fill:#ffffff;fill-opacity:1;stroke:#000000;stroke-width:0.57581621;stroke-opacity:1"><tspan
           style="font-style:normal;font-variant:normal;font-weight:normal;font-stretch:normal;font-size:93.14950562px;font-family:'小赖字体 SC';-inkscape-font-specification:'小赖字体 SC';fill:#ffffff;fill-opacity:1;stroke:#000000;stroke-width:0.57581621;stroke-opacity:1;"
           id="tspan4315-8-97">嗖!</tspan><tspan
           style="font-style:normal;font-variant:normal;font-weight:normal;font-stretch:normal;font-size:114.73223114px;font-family:'小赖字体 SC';-inkscape-font-specification:'小赖字体 SC';fill:#ffffff;fill-opacity:1;stroke:#000000;stroke-width:0.57581621;stroke-opacity:1;"
           id="tspan4313-2-76">!!</tspan></tspan></text>
  </g>
</svg>
