<?xml version="1.0" encoding="UTF-8" standalone="no"?>
<svg
   xmlns:dc="http://purl.org/dc/elements/1.1/"
   xmlns:cc="http://creativecommons.org/ns#"
   xmlns:rdf="http://www.w3.org/1999/02/22-rdf-syntax-ns#"
   xmlns:svg="http://www.w3.org/2000/svg"
   xmlns="http://www.w3.org/2000/svg"
   xmlns:xlink="http://www.w3.org/1999/xlink"
   xmlns:sodipodi="http://sodipodi.sourceforge.net/DTD/sodipodi-0.dtd"
   xmlns:inkscape="http://www.inkscape.org/namespaces/inkscape"
   id="svg2"
   version="1.1"
   inkscape:version="1.0.2-2 (e86c870879, 2021-01-15)"
   width="2481"
   height="3503"
   sodipodi:docname="E34P03.svg">
  <metadata
     id="metadata8">
    <rdf:RDF>
      <cc:Work
         rdf:about="">
        <dc:format>image/svg+xml</dc:format>
        <dc:type
           rdf:resource="http://purl.org/dc/dcmitype/StillImage" />
        <dc:title />
      </cc:Work>
    </rdf:RDF>
  </metadata>
  <defs
     id="defs6" />
  <sodipodi:namedview
     pagecolor="#ffffff"
     bordercolor="#666666"
     borderopacity="1"
     objecttolerance="10"
     gridtolerance="10"
     guidetolerance="10"
     inkscape:pageopacity="0"
     inkscape:pageshadow="2"
     inkscape:window-width="1366"
     inkscape:window-height="745"
     id="namedview4"
     showgrid="false"
     inkscape:zoom="0.40000002"
     inkscape:cx="894.5446"
     inkscape:cy="2571.4817"
     inkscape:window-x="-8"
     inkscape:window-y="-8"
     inkscape:window-maximized="1"
     inkscape:current-layer="layer1"
     inkscape:document-rotation="0"
     borderlayer="true" />
  <g
     inkscape:groupmode="layer"
     id="layer2"
     inkscape:label="artwork"
     sodipodi:insensitive="true">
    <image
       sodipodi:absref="C:\Users\quentinlipeck\Downloads\webcomics-master-ec7d62e6553c2c63bb1cf2e799ee31f9cb9ce5e2\webcomics-master-ec7d62e6553c2c63bb1cf2e799ee31f9cb9ce5e2\ep34_The-Knighting-of-Shichimi\lang\gfx_Pepper-and-Carrot_by-David-Revoy_E34P03.png"
       xlink:href="../gfx_Pepper-and-Carrot_by-David-Revoy_E34P03.png"
       y="0"
       x="0"
       id="image10"
       height="3503"
       width="2481" />
  </g>
  <g
     inkscape:groupmode="layer"
     id="layer3"
     inkscape:label="speechbubbles"
     style="display:inline">
    <path
       style="color:#000000;display:inline;overflow:visible;visibility:visible;fill:#ffffff;fill-opacity:1;fill-rule:nonzero;stroke:none;stroke-width:1.21589px;marker:none;enable-background:accumulate"
       d="m 1133.9371,2202.5409 c -70.1469,2.1554 -139.70524,9.213 -208.67416,17.6633 -27.28619,4.5916 -53.80663,13.2948 -72.6642,27.4043 -18.69673,14.3097 -28.34057,32.8522 -32.09678,51.3765 -5.16943,24.3603 4.23906,49.5076 23.26684,70.4681 12.56077,15.0687 30.23819,28.8341 53.58593,36.8947 29.97787,11.068 63.45876,16.8632 96.4225,22.6354 31.29037,5.0808 63.21347,8.2325 95.15777,10.8688 39.4792,2.9043 79.42,3.5551 118.9768,0.9058 30.1044,-1.9615 60.2021,-4.8942 89.3367,-10.3909 35.1242,-6.786 68.9451,-17.9338 95.5991,-34.7287 19.8727,-12.5745 34.8784,-28.5374 42.5414,-46.0291 8.4253,-18.299 11.2691,-37.7729 7.8032,-56.7759 -3.9876,-19.4585 -17.6229,-38.3931 -40.3103,-51.3264 -21.2063,-12.2167 -47.906,-19.1416 -74.5143,-24.4454 -31.4379,-6.2442 -64.1388,-9.0515 -96.7775,-10.7628 -20.8589,-1.0903 -41.7091,-2.2847 -62.5939,-3.137 -11.6743,-0.4322 -23.3659,-0.673 -35.0591,-0.6207 z"
       id="path4546-6-08-2"
       inkscape:connector-curvature="0"
       sodipodi:nodetypes="cssssc" />
    <path
       style="color:#000000;display:inline;overflow:visible;visibility:visible;fill:#ffffff;fill-opacity:1;fill-rule:nonzero;stroke:none;stroke-width:0.603779px;marker:none;enable-background:accumulate"
       d="m 770.20107,2165.5123 c 5.32683,-42.62 50.006,-72.3401 162.46922,-60.2559 60.24146,6.4733 128.73241,11.7571 121.63011,74.2181 -7.1025,62.4603 -105.64951,57.3161 -126.06907,58.0513 -20.41969,0.7346 -126.17596,-9.6322 -143.82526,-31.5981 -11.04802,-13.7499 -15.09278,-27.1885 -14.205,-40.4154 z"
       id="path4546-6-08"
       inkscape:connector-curvature="0"
       sodipodi:nodetypes="cssssc" />
    <path
       style="fill:#ffffff;fill-rule:evenodd;stroke:none;stroke-width:1.25695px;stroke-linecap:butt;stroke-linejoin:miter;stroke-opacity:1"
       d="m 1471.3459,2456.5997 c -67.1764,-16.6519 -104.4231,-46.199 -116.7263,-96.6707 l -26.7459,22.416 c 34.4783,64.0674 88.4565,69.7439 143.4722,74.2547 z"
       id="path1291"
       inkscape:connector-curvature="0"
       sodipodi:nodetypes="cccc" />
    <path
       style="fill:#ffffff;stroke:none;stroke-width:0.768747"
       d="m 2125.3872,294.17773 c -24.7718,0.87259 -49.4949,4.12342 -74.1051,8.63598 -17.5368,3.45619 -35.4156,8.7612 -50.9866,22.80258 -10.6962,9.86351 -19.3182,25.65948 -23.7598,44.13553 -2.0261,8.45302 -3.184,17.61391 -2.2921,26.6585 1.6163,20.45788 10.1793,38.69489 21.5682,48.01837 14.7221,13.04305 31.5597,17.35954 47.851,22.56825 33.9158,10.19294 68.5802,12.72511 103.021,11.01783 16.0439,-0.94521 32.0914,-2.71212 48.0022,-6.20311 14.7334,-3.55066 29.6063,-9.33854 42.4977,-21.70917 11.0689,-11.42475 18.7792,-31.58925 18.8134,-52.91361 0.3013,-26.36472 -9.1965,-51.3424 -22.5861,-65.9823 -6.7716,-7.63135 -14.6356,-12.19522 -22.5563,-15.7183 -23.5595,-11.56823 -48.0011,-18.49494 -72.5901,-20.92918 -4.289,-0.32876 -8.5838,-0.44763 -12.8774,-0.38137 z"
       id="path3100-2-0"
       inkscape:connector-curvature="0" />
    <path
       style="fill:#ffffff;stroke:none;stroke-width:1.04757"
       d="m 2137.2803,267.4485 c -5.918,58.07386 -90.2378,73.80425 -150.232,73.87191 -102.0251,4.35437 -205.4126,-2.91346 -304.9346,-21.54286 -64.2666,-16.08413 -95.5031,-90.80562 -42.1864,-128.46041 54.6853,-29.32136 124.9273,-26.7993 188.034,-32.43727 89.2559,-2.96731 181.7055,2.45137 265.2851,29.62082 37.234,14.78235 50.1351,47.65096 44.0339,78.94781 z"
       id="path3100-2"
       inkscape:connector-curvature="0" />
    <path
       style="color:#000000;display:inline;overflow:visible;visibility:visible;fill:#ffffff;fill-opacity:1;fill-rule:nonzero;stroke:none;stroke-width:0.987239px;marker:none;enable-background:accumulate"
       d="m 954.3418,240.40171 c -45.87505,1.78095 -90.50389,13.35142 -132.65874,28.76745 -15.88073,5.4544 -32.79797,10.0267 -45.81804,20.11502 -14.02348,11.08457 -22.59215,26.42194 -28.17223,41.99439 -8.54435,25.09223 -10.7449,51.41935 -11.54367,77.46902 -0.41844,12.82522 -0.22398,25.72893 2.27607,38.405 2.82333,14.63237 7.67467,29.04108 15.09561,42.40348 11.30881,19.11158 30.71463,33.68919 52.13963,43.75386 21.39559,10.04404 45.2899,15.4219 69.33549,17.65934 23.84715,2.4404 47.88886,3.26907 71.88735,3.10357 32.30255,-0.55192 64.91303,-4.09935 95.38533,-13.86151 26.8709,-9.45237 48.2885,-28.87594 60.4625,-51.67315 13.0838,-23.2853 21.7985,-48.4595 25.7259,-74.17895 3.6767,-26.04163 1.7999,-53.08146 -8.6815,-77.82349 -8.6775,-19.84468 -24.0909,-37.2747 -43.5152,-49.96674 -22.4585,-15.41102 -47.7099,-27.44715 -73.7901,-37.44405 -15.25658,-5.3871 -31.57975,-9.03689 -48.1284,-8.72324 z"
       id="path4040-40"
       inkscape:connector-curvature="0"
       sodipodi:nodetypes="zssssz" />
    <path
       style="fill:#ffffff;stroke:none;stroke-width:1.63174"
       d="m 950.78447,110.82633 c -40.82678,0.33691 -82.11376,3.36385 -120.96423,13.3977 -23.16024,5.96492 -46.02495,13.84832 -64.48905,26.26982 -12.9577,8.95523 -22.57398,20.99968 -25.29968,34.25248 -4.10413,17.39156 2.26142,35.79962 16.10207,49.90043 19.10568,20.82892 50.79933,34.44258 83.9992,36.76059 50.7755,5.3918 102.17052,4.07814 153.28464,4.28932 39.83948,-0.11683 80.10298,-0.50982 119.13288,-7.2605 26.6518,-4.74747 52.8147,-13.23746 73.151,-27.44646 15.0658,-10.80905 25.1043,-26.23856 24.431,-42.17946 -0.4099,-19.07421 -13.0717,-37.26922 -31.7733,-49.721 -20.8694,-14.31521 -47.3743,-22.89254 -74.2681,-28.36665 -39.2911,-7.93564 -80.1883,-8.99712 -120.61104,-9.72949 -10.89689,-0.16019 -21.79662,-0.24382 -32.69539,-0.16678 z"
       id="path3280-1"
       inkscape:connector-curvature="0"
       sodipodi:nodetypes="csssc" />
    <path
       style="color:#000000;display:inline;overflow:visible;visibility:visible;fill:#ffffff;fill-opacity:1;fill-rule:nonzero;stroke:none;stroke-width:0.990091px;marker:none;enable-background:accumulate"
       d="m 488.9942,566.25992 c -18.78498,50.92279 -2.84901,105.08842 13.19711,114.63467 -28.06687,-12.75099 -51.50197,-72.60161 -41.41962,-110.56135 11.40195,-31.85325 28.22251,-4.07332 28.22251,-4.07332 z"
       id="path4480-2"
       inkscape:connector-curvature="0"
       sodipodi:nodetypes="cccc"
       inkscape:transform-center-x="54.91025"
       inkscape:transform-center-y="-145.58616" />
    <path
       style="color:#000000;display:inline;overflow:visible;visibility:visible;fill:#ffffff;fill-opacity:1;fill-rule:nonzero;stroke:none;stroke-width:1.04446px;marker:none;enable-background:accumulate"
       d="m 500.64648,341.07721 c -34.49589,0.93426 -69.4681,2.07609 -102.8418,10.20182 -15.69075,3.81701 -30.64795,10.07113 -43.11437,19.0563 -13.48066,9.49596 -23.69532,21.97872 -30.65054,35.53967 -11.02599,21.27395 -14.66035,45.03864 -12.04685,68.08277 2.84889,21.74209 14.42686,42.31808 31.07411,58.91554 7.8848,7.7211 17.65056,13.99054 28.4604,18.49954 20.1191,8.87261 41.73212,15.23273 63.82625,19.51607 28.80114,5.46557 58.32381,8.22155 87.8365,8.3474 18.75376,0.0426 37.60238,-1.19963 55.84896,-5.01839 24.70365,-4.94898 48.64801,-12.88213 70.44929,-23.91416 21.52208,-11.71119 38.73713,-29.80322 45.07535,-50.98076 8.56816,-25.79736 9.14614,-53.45625 1.87645,-79.5248 -3.77229,-12.97472 -10.90739,-25.331 -21.51688,-35.29503 -10.29623,-9.95999 -23.62623,-17.44459 -38.04559,-22.45027 -25.65476,-9.566 -53.41879,-14.01042 -80.94724,-17.75645 -18.30362,-2.20199 -36.79545,-3.29596 -55.28404,-3.21925 z"
       id="path4546-6-5-5"
       inkscape:connector-curvature="0"
       sodipodi:nodetypes="cssssc" />
    <path
       style="color:#000000;display:inline;overflow:visible;visibility:visible;fill:#ffffff;fill-opacity:1;fill-rule:nonzero;stroke:none;stroke-width:0.955284px;marker:none;enable-background:accumulate"
       d="m 307.27843,122.38281 c -39.94905,0.68643 -80.41813,4.60046 -117.94161,16.78803 -20.37014,6.90084 -39.22875,18.89121 -49.22662,35.74547 -11.68262,20.64639 -12.35635,45.06065 -4.25564,66.71181 5.35636,13.43431 16.27424,25.42778 31.06436,32.30259 23.04004,11.5596 49.38519,17.42486 75.74008,20.50986 20.29798,2.38165 40.73666,3.75524 61.12429,5.44806 37.31851,2.56675 74.97605,2.91769 112.18305,-1.01693 34.15752,-3.55299 68.37066,-9.01684 100.41594,-19.92043 17.31395,-5.90857 34.37061,-13.59551 46.86677,-25.60571 17.14831,-16.00103 22.33243,-39.42064 16.60171,-60.13619 -4.25577,-15.96647 -15.26513,-30.7211 -31.20134,-40.14017 -19.41756,-11.79649 -43.05362,-16.96784 -66.19226,-20.73869 -35.69362,-5.68926 -72.06072,-7.12509 -108.24766,-8.89364 -22.29052,-0.90071 -44.61565,-1.35513 -66.93107,-1.05406 z"
       id="path4546-6-5-3"
       inkscape:connector-curvature="0"
       sodipodi:nodetypes="cssssc" />
    <path
       id="path1081"
       style="fill:#ffffff;fill-rule:evenodd;stroke:none;stroke-width:1px;stroke-linecap:butt;stroke-linejoin:miter;stroke-opacity:1"
       d="m 293.67188,278.28125 c -10.34602,0.0639 -20.49884,2.27426 -30.72657,3.55078 -2.69982,4.93778 -4.08222,10.48922 -6.23101,15.68234 -5.67931,15.85263 -11.23804,31.88728 -14.15471,48.50943 -1.55744,12.04107 -0.85288,24.84605 5.20433,35.64519 9.1497,17.95023 22.70579,33.83652 27.94646,53.6304 3.09231,10.90551 5.52274,22.36337 4.35032,33.73572 -2.11881,9.59327 -8.21891,17.62309 -11.87847,26.63366 -6.87167,15.32803 -10.49807,32.77889 -6.43519,49.37594 1.01596,4.68537 2.40213,9.28257 3.95804,13.81467 -2.44284,-26.62563 4.52474,-54.43511 21.1636,-75.60842 5.87927,-7.58781 10.3557,-16.41037 11.5087,-26.03213 2.42129,-15.20105 -1.52987,-30.55332 -7.50308,-44.47184 -6.35087,-15.65438 -14.74681,-30.53834 -19.38839,-46.84497 -2.53518,-14.1623 4.48464,-27.52853 11.07638,-39.5497 6.64471,-12.19187 14.72253,-23.64193 20.19033,-36.44305 2.35665,-5.59735 -3.25033,-12.19349 -9.08074,-11.62802 z" />
    <path
       style="color:#000000;display:inline;overflow:visible;visibility:visible;fill:#ffffff;fill-opacity:1;fill-rule:nonzero;stroke:none;stroke-width:0.747612px;marker:none;enable-background:accumulate"
       d="m 899.59119,531.93304 c -2.31202,46.97432 46.46212,99.91514 106.27011,73.88577 -68.51547,11.60614 -80.86302,-50.88993 -74.49691,-77.22915 6.052,-16.0625 -31.7732,3.34338 -31.7732,3.34338 z"
       id="path3978-4"
       inkscape:connector-curvature="0"
       sodipodi:nodetypes="cccc" />
    <path
       style="fill:#ffffff;fill-rule:evenodd;stroke:none;stroke-width:1.17292px;stroke-linecap:butt;stroke-linejoin:miter;stroke-opacity:1"
       d="m 2105.6372,449.67287 c 46.9908,56.36735 25.0644,96.94489 0.9732,119.18809 57.8143,-39.15954 50.7085,-84.22782 24.8731,-138.46075 -6.4903,-8.77797 -25.8463,19.27266 -25.8463,19.27266 z"
       id="path1359"
       inkscape:connector-curvature="0"
       sodipodi:nodetypes="cccc" />
    <path
       style="color:#000000;display:inline;overflow:visible;visibility:visible;fill:#ffffff;fill-opacity:1;fill-rule:nonzero;stroke:none;stroke-width:0.548604px;marker:none;enable-background:accumulate"
       d="m 744.76298,1784.4258 c -23.02506,0.867 -46.48161,5.9216 -66.15692,18.3531 -13.76056,9.5893 -21.22853,26.9834 -19.51803,43.572 0.55586,13.3373 5.069,27.3028 15.40829,36.2633 11.35879,9.28 26.10401,12.594 40.21935,15.0694 20.44819,3.3542 41.14494,5.3796 61.8703,5.6186 27.626,-0.1737 55.35589,-5.0256 81.04299,-15.3087 10.63803,-4.6176 20.97892,-11.9976 25.494,-23.0724 9.52705,-22.3457 0.0239,-50.8982 -20.95407,-63.133 -15.20341,-9.2197 -33.11596,-12.1995 -50.49797,-14.2998 -22.2016,-2.4933 -44.57871,-3.2792 -66.90794,-3.0625 z"
       id="path4546-6-5-3-5"
       inkscape:connector-curvature="0"
       sodipodi:nodetypes="cssssc" />
    <path
       style="color:#000000;display:inline;overflow:visible;visibility:visible;fill:#ffffff;fill-opacity:1;fill-rule:nonzero;stroke:none;stroke-width:0.710537px;marker:none;enable-background:accumulate"
       d="m 849.98651,1849.2956 c 26.9288,18.2447 60.46856,37.1401 111.40082,-0.4118 -51.33263,27.0778 -81.7058,-0.5873 -98.47579,-20.0818 -9.1535,-13.7188 -12.92502,20.4935 -12.92503,20.4936 z"
       id="path3978-4-3"
       inkscape:connector-curvature="0"
       sodipodi:nodetypes="cccc" />
  </g>
  <g
     inkscape:groupmode="layer"
     id="layer1"
     inkscape:label="txt">
    <text
       xml:space="preserve"
       style="font-style:normal;font-variant:normal;font-weight:normal;font-stretch:normal;font-size:45px;line-height:1.25;font-family:Lavi;-inkscape-font-specification:Lavi;text-align:center;letter-spacing:0px;word-spacing:0px;text-anchor:middle;fill:#000000;fill-opacity:1;stroke:none"
       x="350.19693"
       y="194.99399"
       id="text4246-3-2-2-6-3-7-9-3"><tspan
         style="font-size:45px"
         sodipodi:role="line"
         x="350.19693"
         y="194.99399"
         id="tspan850">ona li kama tan </tspan><tspan
         style="font-size:45px"
         sodipodi:role="line"
         x="350.19693"
         y="251.24399"
         id="tspan60">wile sina anu seme?</tspan></text>
    <text
       xml:space="preserve"
       style="font-style:normal;font-variant:normal;font-weight:normal;font-stretch:normal;font-size:45px;line-height:1.25;font-family:Lavi;-inkscape-font-specification:Lavi;text-align:center;letter-spacing:0px;word-spacing:0px;text-anchor:middle;fill:#000000;fill-opacity:1;stroke:none"
       x="513.4679"
       y="424.7894"
       id="text4246-3-2-2-6-3-7-9-3-3"><tspan
         style="font-size:45px"
         sodipodi:role="line"
         x="513.4679"
         y="424.7894"
         id="tspan886">kama. ona li jan </tspan><tspan
         style="font-size:45px"
         sodipodi:role="line"
         x="513.4679"
         y="481.0394"
         id="tspan64">pona mi Pepa.</tspan><tspan
         style="font-size:45px"
         sodipodi:role="line"
         x="513.4679"
         y="537.28943"
         id="tspan890">ale li pona.</tspan></text>
    <text
       xml:space="preserve"
       style="font-style:normal;font-variant:normal;font-weight:normal;font-stretch:normal;font-size:45px;line-height:1.25;font-family:Lavi;-inkscape-font-specification:Lavi;text-align:center;letter-spacing:0px;word-spacing:0px;text-anchor:middle;fill:#000000;fill-opacity:1;stroke:none"
       x="977.74799"
       y="184.51166"
       id="text4246-3-2-2-6-3-7-9-3-3-5"><tspan
         style="font-size:45px"
         sodipodi:role="line"
         x="977.74799"
         y="184.51166"
         id="tspan878">soweli Kawa o, sina </tspan><tspan
         style="font-size:45px"
         sodipodi:role="line"
         x="977.74799"
         y="240.76166"
         id="tspan70">pona ala pona?</tspan></text>
    <text
       xml:space="preserve"
       style="font-style:normal;font-variant:normal;font-weight:normal;font-stretch:normal;font-size:40px;line-height:1.25;font-family:Lavi;-inkscape-font-specification:Lavi;text-align:center;letter-spacing:0px;word-spacing:0px;text-anchor:middle;fill:#000000;fill-opacity:1;stroke:none"
       x="933.35266"
       y="331.34482"
       id="text4246-3-2-2-6-3-7-9-3-3-5-9"><tspan
         sodipodi:role="line"
         x="933.35266"
         y="331.34482"
         style="font-size:40px"
         id="tspan897">kama mi li kiwen </tspan><tspan
         sodipodi:role="line"
         x="933.35266"
         y="381.34482"
         style="font-size:40px"
         id="tspan88">tan ike mi. mi sona </tspan><tspan
         sodipodi:role="line"
         x="933.35266"
         y="431.34482"
         style="font-size:40px"
         id="tspan92">mute ala e ni </tspan><tspan
         sodipodi:role="line"
         x="933.35266"
         y="481.34482"
         style="font-size:40px"
         id="tspan94">kepeken </tspan><tspan
         sodipodi:role="line"
         x="933.35266"
         y="531.34485"
         style="font-size:40px"
         id="tspan83">tawa suli.</tspan></text>
    <text
       xml:space="preserve"
       style="font-style:normal;font-variant:normal;font-weight:normal;font-stretch:normal;font-size:45px;line-height:1.25;font-family:Lavi;-inkscape-font-specification:Lavi;text-align:center;letter-spacing:0px;word-spacing:0px;text-anchor:middle;fill:#000000;fill-opacity:1;stroke:none"
       x="1884.1462"
       y="237.09926"
       id="text4246-3-2-2-6-3-7-9-3-3-5-9-2"><tspan
         style="font-size:45px"
         sodipodi:role="line"
         x="1884.1462"
         y="237.09926"
         id="tspan1045">mi toki sin e ni: </tspan><tspan
         style="font-size:45px"
         sodipodi:role="line"
         x="1884.1462"
         y="293.34924"
         id="tspan98">pakala li tan ike mi.</tspan></text>
    <text
       xml:space="preserve"
       style="font-style:normal;font-variant:normal;font-weight:normal;font-stretch:normal;font-size:45px;line-height:1.25;font-family:Lavi;-inkscape-font-specification:Lavi;text-align:center;letter-spacing:0px;word-spacing:0px;text-anchor:middle;fill:#000000;fill-opacity:1;stroke:none"
       x="2127.0015"
       y="372.36926"
       id="text4246-3-2-2-6-3-7-9-3-3-5-9-2-6"><tspan
         style="font-size:45px"
         sodipodi:role="line"
         x="2127.0015"
         y="372.36926"
         id="tspan8459">sama la, </tspan><tspan
         style="font-size:45px"
         sodipodi:role="line"
         x="2127.0015"
         y="428.61926"
         id="tspan102">len mi...</tspan></text>
    <text
       xml:space="preserve"
       style="font-style:normal;font-variant:normal;font-weight:normal;font-stretch:normal;font-size:45px;line-height:1.25;font-family:Lavi;-inkscape-font-specification:Lavi;text-align:center;letter-spacing:0px;word-spacing:0px;text-anchor:middle;fill:#000000;fill-opacity:1;stroke:none"
       x="767.77356"
       y="1855.4686"
       id="text4246-3-2-2-6-3-7-9-3-3-5-9-2-6-3"><tspan
         style="font-size:45px"
         sodipodi:role="line"
         x="767.77356"
         y="1855.4686"
         id="tspan8459-7">aa aa aa</tspan></text>
    <text
       xml:space="preserve"
       style="font-style:normal;font-variant:normal;font-weight:normal;font-stretch:normal;font-size:45px;line-height:1.25;font-family:Lavi;-inkscape-font-specification:Lavi;text-align:center;letter-spacing:0px;word-spacing:0px;text-anchor:middle;fill:#000000;fill-opacity:1;stroke:none"
       x="920.21698"
       y="2185.4609"
       id="text4246-3-2-2-6-3-7-9-3-3-5-9-2-6-1"><tspan
         style="font-size:45px"
         sodipodi:role="line"
         x="920.21698"
         y="2185.4609"
         id="tspan1077-7">jan Sisimi o,</tspan></text>
    <text
       xml:space="preserve"
       style="font-style:normal;font-variant:normal;font-weight:normal;font-stretch:normal;font-size:45px;line-height:1.25;font-family:Lavi;-inkscape-font-specification:Lavi;text-align:center;letter-spacing:0px;word-spacing:0px;text-anchor:middle;fill:#000000;fill-opacity:1;stroke:none"
       x="1139.0643"
       y="2275.6545"
       id="text4246-3-2-2-6-3-7-9-3-3-5-9-2-6-1-9"><tspan
         style="font-size:45px"
         x="1139.0643"
         y="2275.6545"
         sodipodi:role="line"
         id="tspan69">jan lili ni pi wawa nasa li </tspan><tspan
         style="font-size:45px"
         x="1139.0643"
         y="2331.9045"
         sodipodi:role="line"
         id="tspan75">jan pona sina la, sina </tspan><tspan
         style="font-size:45px"
         x="1139.0643"
         y="2388.1545"
         sodipodi:role="line"
         id="tspan81">sona ala sona wawa e ni?</tspan></text>
  </g>
</svg>
