<?xml version="1.0" encoding="UTF-8" standalone="no"?>
<svg
   xmlns:dc="http://purl.org/dc/elements/1.1/"
   xmlns:cc="http://creativecommons.org/ns#"
   xmlns:rdf="http://www.w3.org/1999/02/22-rdf-syntax-ns#"
   xmlns:svg="http://www.w3.org/2000/svg"
   xmlns="http://www.w3.org/2000/svg"
   xmlns:xlink="http://www.w3.org/1999/xlink"
   xmlns:sodipodi="http://sodipodi.sourceforge.net/DTD/sodipodi-0.dtd"
   xmlns:inkscape="http://www.inkscape.org/namespaces/inkscape"
   id="svg2"
   version="1.1"
   inkscape:version="0.48.5 r10040"
   width="2481"
   height="3503"
   sodipodi:docname="E34P01.svg">
  <metadata
     id="metadata8">
    <rdf:RDF>
      <cc:Work
         rdf:about="">
        <dc:format>image/svg+xml</dc:format>
        <dc:type
           rdf:resource="http://purl.org/dc/dcmitype/StillImage" />
        <dc:title />
      </cc:Work>
    </rdf:RDF>
  </metadata>
  <defs
     id="defs6">
    <marker
       style="overflow:visible"
       id="Arrow1Lstart"
       refX="0.0"
       refY="0.0"
       orient="auto"
       inkscape:stockid="Arrow1Lstart"
       inkscape:isstock="true">
      <path
         transform="scale(0.8) translate(12.5,0)"
         style="fill-rule:evenodd;stroke:none;stroke-width:1pt;stroke-opacity:1;fill:#ffffff;fill-opacity:1"
         d="M 0.0,0.0 L 5.0,-5.0 L -12.5,0.0 L 5.0,5.0 L 0.0,0.0 z "
         id="path1345" />
    </marker>
    <filter
       inkscape:collect="always"
       style="color-interpolation-filters:sRGB"
       id="filter4744"
       x="-0.0083712088"
       width="1.0167423"
       y="-0.031193376"
       height="1.0623868">
      <feGaussianBlur
         inkscape:collect="always"
         stdDeviation="1.9569632"
         id="feGaussianBlur4746" />
    </filter>
    <linearGradient
       inkscape:collect="always"
       xlink:href="#linearGradient4446"
       id="linearGradient4438"
       gradientUnits="userSpaceOnUse"
       x1="130.64951"
       y1="265.53693"
       x2="156.72107"
       y2="266.27182"
       gradientTransform="translate(-1.41409,0.20198)" />
    <linearGradient
       id="linearGradient4446"
       inkscape:collect="always">
      <stop
         style="stop-color:#603f17;stop-opacity:1"
         offset="0"
         id="stop4448" />
      <stop
         style="stop-color:#e9ddaf;stop-opacity:1;"
         offset="1"
         id="stop4450" />
    </linearGradient>
    <linearGradient
       inkscape:collect="always"
       xlink:href="#linearGradient4440"
       id="linearGradient4253"
       gradientUnits="userSpaceOnUse"
       x1="126.72245"
       y1="251.56125"
       x2="156.72107"
       y2="266.27182"
       gradientTransform="translate(-0.40403,-0.60607)" />
    <linearGradient
       id="linearGradient4440"
       inkscape:collect="always">
      <stop
         style="stop-color:#300e08;stop-opacity:1"
         offset="0"
         id="stop4442" />
      <stop
         style="stop-color:#e9ddaf;stop-opacity:1;"
         offset="1"
         id="stop4444" />
    </linearGradient>
    <linearGradient
       gradientTransform="translate(0,-2.9998079e-5)"
       inkscape:collect="always"
       xlink:href="#linearGradient4201"
       id="linearGradient4209"
       x1="635.87195"
       y1="213.15028"
       x2="669.13959"
       y2="212.33302"
       gradientUnits="userSpaceOnUse" />
    <linearGradient
       inkscape:collect="always"
       id="linearGradient4201">
      <stop
         id="stop4205"
         offset="0"
         style="stop-color:#8c7727;stop-opacity:1" />
      <stop
         id="stop4203"
         offset="1"
         style="stop-color:#e9ddaf;stop-opacity:1;" />
    </linearGradient>
    <filter
       inkscape:collect="always"
       style="color-interpolation-filters:sRGB"
       id="filter4409"
       x="-0.01122263"
       width="1.0224453"
       y="-0.045443319"
       height="1.0908866">
      <feGaussianBlur
         inkscape:collect="always"
         stdDeviation="2.3996645"
         id="feGaussianBlur4411" />
    </filter>
  </defs>
  <sodipodi:namedview
     pagecolor="#ffffff"
     bordercolor="#666666"
     borderopacity="1"
     objecttolerance="10"
     gridtolerance="10"
     guidetolerance="10"
     inkscape:pageopacity="0"
     inkscape:pageshadow="2"
     inkscape:window-width="1276"
     inkscape:window-height="676"
     id="namedview4"
     showgrid="false"
     inkscape:zoom="0.52873892"
     inkscape:cx="1741.4356"
     inkscape:cy="679.70087"
     inkscape:window-x="232"
     inkscape:window-y="233"
     inkscape:window-maximized="0"
     inkscape:current-layer="layer1"
     inkscape:document-rotation="0"
     borderlayer="true" />
  <g
     inkscape:groupmode="layer"
     id="layer2"
     inkscape:label="artwork"
     sodipodi:insensitive="true">
    <image
       sodipodi:absref="/Users/su_huynh/Downloads/lang 6/vi/../gfx_Pepper-and-Carrot_by-David-Revoy_E34P01.png"
       xlink:href="../gfx_Pepper-and-Carrot_by-David-Revoy_E34P01.png"
       y="0"
       x="0"
       id="image10"
       height="3503"
       width="2481" />
  </g>
  <g
     inkscape:groupmode="layer"
     id="layer3"
     inkscape:label="speechbubbles-whisper"
     style="display:inline;opacity:0.5">
    <path
       id="path1299"
       style="fill:#ffffff;fill-rule:evenodd;stroke:none;stroke-width:1.26088px;stroke-linecap:butt;stroke-linejoin:miter;stroke-opacity:1"
       d="m 1502.543,2601.5117 c -40.3006,1.7667 -80.9491,2.7942 -120.5042,11.4572 -32.6793,8.7004 -64.1791,22.7944 -91.2672,43.1843 -21.7814,18.0336 -36.8137,44.8798 -38.2826,73.3558 -1.2961,32.0099 17.0597,63.5213 44.7554,79.2879 20.492,12.2853 42.9246,20.7726 65.0624,29.5424 32.2185,11.689 66.5678,16.4753 100.7249,17.1415 41.664,1.2857 83.3211,-0.9592 124.9417,-2.6097 33.0873,-1.5231 66.5512,-3.6874 98.4742,-13.1588 19.0829,-5.9054 36.9467,-16.2075 50.8151,-30.6795 11.1665,-11.0745 21.7038,-23.7987 25.8896,-39.2672 4.4606,-17.1417 1.8841,-35.2596 -3.0867,-51.9898 -6.4099,-20.7869 -19.1671,-39.2294 -35.1124,-53.8724 -17.5605,-16.2567 -37.3913,-30.3682 -59.5533,-39.6248 -11.2301,-4.8141 -23.0673,-8.0447 -35.0671,-10.2553 -30.4014,-6.1338 -61.3373,-9.0026 -92.2106,-11.5284 -11.8436,-0.7445 -23.7132,-1.0269 -35.5792,-0.9832 z" />
    <path
       style="fill:#ffffff;fill-rule:evenodd;stroke:none;stroke-width:1.25067px;stroke-linecap:butt;stroke-linejoin:miter;stroke-opacity:1"
       d="m 1306.3364,2527.3438 c -17.1459,0.5342 -34.5792,2.9201 -50.2357,9.8794 -18.5089,8.726 -31.3408,27.6642 -31.2962,47.3402 0.4163,10.2585 5.6086,19.9548 12.9008,27.3822 5.239,5.3075 11.816,9.2171 18.6754,12.3675 13.8104,6.5551 29.2872,9.598 44.6812,9.766 24.5284,1.2893 49.34,-0.3224 73.212,-5.9786 11.2344,-2.7773 22.4195,-7.209 30.7449,-15.1075 8.522,-7.8014 14.7684,-18.3436 15.5055,-29.6956 0.2261,-10.1772 -4.4309,-19.8405 -10.4948,-28.0169 -7.7274,-10.8585 -19.5361,-19.3418 -33.1181,-22.2848 -16.5237,-4.286 -33.763,-4.7744 -50.7763,-5.4676 -6.5977,-0.1818 -13.1987,-0.2052 -19.7987,-0.1843 z"
       id="path1285"
       inkscape:connector-curvature="0" />
    <path
       style="font-variation-settings:normal;vector-effect:none;fill:#ffffff;fill-opacity:1;stroke:none;stroke-width:1.28082px;stroke-linecap:butt;stroke-linejoin:miter;stroke-miterlimit:4;stroke-dasharray:none;stroke-dashoffset:0;stroke-opacity:1;stop-color:#000000"
       d="m 244.95117,2505.8457 c -28.38432,1.2291 -56.8822,10.5086 -78.9986,28.6668 -18.63166,14.7836 -34.2286,34.2765 -41.45298,57.1712 -11.99049,41.1822 2.65545,88.8641 36.08198,115.8559 18.12316,14.8981 40.5932,23.2898 63.17043,28.7186 38.16304,8.8386 78.09262,9.8436 116.69462,3.2781 23.38738,-4.6715 46.32127,-14.492 63.70922,-31.142 18.85509,-18.074 31.17186,-43.3618 32.0321,-69.6182 0.60108,-14.7078 -1.15573,-29.4332 -4.02795,-43.8387 -4.90025,-22.4903 -16.81391,-43.7064 -34.75204,-58.3422 -11.96137,-9.8917 -26.3247,-16.6035 -41.32397,-20.4038 -25.60296,-7.1055 -52.26838,-9.146 -78.71986,-10.0843 -10.80183,-0.2861 -21.60826,-0.2664 -32.41295,-0.2614 z"
       id="path3280-8-90"
       inkscape:connector-curvature="0"
       sodipodi:nodetypes="csssc" />
    <path
       style="fill:#ffffff;fill-opacity:1;fill-rule:evenodd;stroke:none;stroke-width:1.28082px;stroke-linecap:butt;stroke-linejoin:miter;stroke-opacity:1"
       d="m 407.04431,2631.7996 c 42.85265,-5.0607 58.06957,-2.3086 68.49973,0.7202 10.42915,3.0295 34.5561,33.0962 43.85358,53.3011 -34.06156,-36.1486 -48.52756,-39.3772 -65.05064,-34.4498 -16.52311,4.9273 -63.29994,23.4366 -63.29994,23.4366 L 402.14,2629.4036 Z"
       id="path1291"
       inkscape:connector-curvature="0"
       sodipodi:nodetypes="csccccc" />
    <path
       style="fill:#ffffff;fill-rule:evenodd;stroke:none;stroke-width:0.964753px;stroke-linecap:butt;stroke-linejoin:miter;stroke-opacity:1"
       d="m 1466.3357,3005.9612 c 43.411,-42.7178 71.4657,-88.7733 56.0462,-180.1909 l 30.2156,-6.9146 c 3.6458,67.7575 0.1036,145.6466 -86.2618,187.1055 z"
       id="path1291-6"
       inkscape:connector-curvature="0"
       sodipodi:nodetypes="cccc" />
  </g>
  <g
     inkscape:groupmode="layer"
     id="layer4"
     inkscape:label="speechbubbles"
     style="display:inline">
    <g
       style="display:inline"
       id="g4748"
       transform="matrix(0.76789852,0,0,0.73129251,31.637784,38.306321)">
      <path
         inkscape:connector-curvature="0"
         id="path4413-0"
         d="m 169.69978,135.83332 c -9.13146,0 -30.90519,4.62722 -30.90519,16.52765 0,0 -2.10781,5.2891 -1.40539,9.25591 0.70241,3.96681 2.95944,42.47553 2.95944,49.08687 0,6.61134 -5.57718,29.12456 -4.42469,35.68451 0.42916,2.44143 0.21219,16.6004 0.0772,23.57042 l -0.19112,3.91932 c 1.9218,0.266 3.44637,0.45533 5.0656,0.66321 -0.10716,1.46088 -0.44476,2.9825 -1.18146,4.60797 0.0428,0.0461 0.0746,0.0758 0.11583,0.11992 -9.9e-4,-2e-4 -0.0386,-0.006 -0.0386,-0.006 l 0.10811,0.0781 c 0.80525,0.8603 1.355,1.34809 2.20847,1.61715 l 0.82818,0.60506 6.98451,0.32888 8.92079,-2.43844 1.95365,-0.40701 0.12549,-1.26647 0.6911,-4.52984 0.68147,-5.50013 c 21.233,0.93786 83.17662,2.77829 91.7175,1.62988 9.83388,-1.32227 160.1525,0.002 167.87911,-0.65959 7.72662,-0.66112 188.24718,1.98341 196.67621,0 7.56041,-1.779 1.82294,-0.89389 25.84924,0.73772 -0.58197,4.37957 0.5397,11.34192 1.32238,14.18913 l 1.70655,0.11447 c -0.0262,0.0567 -0.0531,0.10633 -0.0792,0.16353 0.059,-0.0555 0.12032,-0.10145 0.17954,-0.15626 l 14.74121,0.98664 28.63686,1.64441 c 0,0 3.84167,-1.64367 3.84167,-3.61588 0,-1.9722 -11.49003,-7.33912 -8.38218,-7.88951 3.04515,-0.5393 7.06542,-8.65421 9.79723,-9.16325 3.23188,-0.60222 -6.30593,-4.96956 -8.05206,-4.96956 -1.74614,0 -7.68142,-7.56063 -7.68142,-7.56063 0,0 7.33315,-8.54618 9.42851,-9.86098 2.09536,-1.31481 5.23839,-5.58825 3.49225,-7.23175 -1.74612,-1.64351 -10.12674,-1.64314 -12.57134,-2.62923 -2.44458,-0.98611 -3.14322,-7.55972 -3.84167,-9.20322 -0.69846,-1.64351 1.74457,-8.54691 4.18916,-7.88952 2.44458,0.65742 11.8752,-7.23064 13.27211,-8.54545 1.39691,-1.31481 -3.14284,-5.91623 -3.14284,-5.91623 l -7.33392,-5.91804 3.84167,-5.91623 c 0,0 -4.8909,-8.54527 -6.63702,-8.21657 -1.74614,0.3287 -2.09458,-5.58916 -2.09458,-5.58916 l 10.12734,-6.90288 4.19109,-1.97147 c 0,0 -0.69805,-3.28718 -2.79341,-3.61587 -2.07016,-0.32474 -26.23912,-1.92555 -35.24107,-1.9642 -0.71784,-9.95803 -1.51246,-16.58487 -2.34747,-16.74205 -3.5121,-0.66114 -22.47697,0 -28.09633,0 -5.61936,0 -61.11073,-7.27355 -68.83735,-7.27355 -7.72661,0 -103.95846,1.3228 -108.17298,1.3228 -4.21451,0 -100.44553,-1.32306 -106.06488,-1.98419 -5.61935,-0.66113 -106.76816,2.6e-4 -113.08993,0.66139 -6.32178,0.66114 -49.87199,-1.98237 -59.00344,-1.98237 z"
         style="color:#000000;clip-rule:nonzero;display:inline;overflow:visible;visibility:visible;opacity:0.377;isolation:auto;mix-blend-mode:normal;color-interpolation:sRGB;color-interpolation-filters:linearRGB;solid-color:#000000;solid-opacity:1;fill:#000000;fill-opacity:1;fill-rule:evenodd;stroke:none;stroke-width:1.6;stroke-linecap:butt;stroke-linejoin:miter;stroke-miterlimit:4;stroke-dasharray:none;stroke-dashoffset:0;stroke-opacity:1;filter:url(#filter4744);color-rendering:auto;image-rendering:auto;shape-rendering:auto;text-rendering:auto;enable-background:accumulate" />
      <path
         sodipodi:nodetypes="ccccccc"
         inkscape:connector-curvature="0"
         id="path4413"
         d="m 129.5391,273.61804 c 2.83704,-6.6506 -0.0722,-11.70499 -0.10868,-17.5574 l 23.44397,-2.6056 -1.38884,13.4491 -0.61801,6.60482 -10.98825,2.436 c -8.201,-0.0115 -8.14527,0.183 -10.34019,-2.32692 z"
         style="color:#000000;clip-rule:nonzero;display:inline;overflow:visible;visibility:visible;opacity:1;isolation:auto;mix-blend-mode:normal;color-interpolation:sRGB;color-interpolation-filters:linearRGB;solid-color:#000000;solid-opacity:1;fill:url(#linearGradient4438);fill-opacity:1;fill-rule:evenodd;stroke:#8c7159;stroke-width:1.5614;stroke-linecap:butt;stroke-linejoin:miter;stroke-miterlimit:4;stroke-dasharray:none;stroke-dashoffset:0;stroke-opacity:1;color-rendering:auto;image-rendering:auto;shape-rendering:auto;text-rendering:auto;enable-background:accumulate" />
      <path
         sodipodi:nodetypes="csscccccccc"
         inkscape:connector-curvature="0"
         id="path4185"
         d="m 125.60947,267.95172 c 24.02587,3.53321 23.67937,2.03169 23.67937,2.03169 1.4128,0.0371 -5.53764,4.11073 -9.7775,4.46405 -4.23986,0.35332 -9.89301,-0.70664 -9.89301,-0.70664 l 3.1799,2.47325 7.06643,0.35332 10.95297,-3.17989 0.87669,-6.10834 4.06981,-34.87697 -29.16208,14.01619 z"
         style="color:#000000;clip-rule:nonzero;display:inline;overflow:visible;visibility:visible;opacity:0.785;isolation:auto;mix-blend-mode:normal;color-interpolation:sRGB;color-interpolation-filters:linearRGB;solid-color:#000000;solid-opacity:1;fill:url(#linearGradient4253);fill-opacity:1;fill-rule:evenodd;stroke:#5d3b2a;stroke-width:3.33613;stroke-linecap:butt;stroke-linejoin:miter;stroke-miterlimit:4;stroke-dasharray:none;stroke-dashoffset:0;stroke-opacity:0.567697;color-rendering:auto;image-rendering:auto;shape-rendering:auto;text-rendering:auto;enable-background:accumulate" />
      <path
         sodipodi:nodetypes="cscccscccsssssscssssccccccc"
         inkscape:connector-curvature="0"
         id="path4183"
         d="m 650.81845,147.50439 c 8.83304,0 33.91888,1.76661 36.03881,2.11993 2.11993,0.35332 2.82657,3.88654 2.82657,3.88654 l -4.23986,2.11993 -10.24632,7.41975 c 0,0 0.35332,6.35979 2.11993,6.00647 1.7666,-0.35332 6.71311,8.83304 6.71311,8.83304 l -3.88654,6.35979 7.41975,6.35979 c 0,0 4.59319,4.9465 3.1799,6.35979 -1.41329,1.41329 -10.95297,9.89301 -13.42622,9.18636 -2.47325,-0.70664 -4.94651,6.71311 -4.23986,8.47972 0.70664,1.76661 1.41328,8.83304 3.88653,9.89301 2.47326,1.05996 10.95298,1.05996 12.71958,2.82657 1.76661,1.76661 -1.41328,6.35979 -3.53321,7.77308 -2.11993,1.41328 -9.53969,10.59965 -9.53969,10.59965 0,0 6.00647,8.12639 7.77308,8.12639 1.76661,0 11.41595,4.69541 8.14617,5.34274 -2.76384,0.54717 -6.83192,9.2704 -9.91278,9.85009 -3.14429,0.59162 8.47972,6.35979 8.47972,8.47972 0,2.11993 -3.88654,3.88654 -3.88654,3.88654 l -28.97237,-1.76661 -16.74159,-1.19279 c -0.84611,-3.27016 -2.08482,-11.59085 -1.1928,-16.17837 l -2.20495,-17.961 -1.41328,-99.28338 z"
         style="fill:url(#linearGradient4209);fill-opacity:1;fill-rule:evenodd;stroke:#5d3b2a;stroke-width:3.33613;stroke-linecap:butt;stroke-linejoin:miter;stroke-miterlimit:4;stroke-dasharray:none;stroke-opacity:0.567697" />
      <path
         sodipodi:nodetypes="cssssssssccssssccccsssc"
         inkscape:connector-curvature="0"
         id="path4181"
         d="m 128.62874,137.3331 c 0,-12.79181 22.03033,-17.7664 31.26886,-17.7664 9.23853,0 53.2992,2.84262 59.69511,2.13196 6.3959,-0.71065 108.73037,-1.42131 114.41562,-0.71065 5.68524,0.71065 103.04512,2.13197 107.30905,2.13197 4.26394,0 101.62381,-1.42132 109.44103,-1.42132 7.81722,0 63.95904,7.81722 69.64429,7.81722 5.68525,0 24.87296,-0.71066 28.42624,0 3.55328,0.71066 6.3959,122.23283 5.68525,132.18202 -0.71066,9.94918 -6.39591,12.08115 -11.3705,17.05574 4.26394,-9.94918 9.94919,-12.08115 6.39591,-14.92377 -35.53281,-2.13197 -27.00493,-3.55328 -35.53281,-1.42132 -8.52787,2.13197 -191.16646,-0.71065 -198.98368,0 -7.81721,0.71066 -159.8976,-0.71065 -169.84679,0.71066 -9.94918,1.42131 -91.67462,-1.42131 -99.49184,-2.13197 -7.81721,-0.71065 -21.31968,4.97459 -16.34509,4.97459 4.26394,1.42132 19.99401,4.23193 19.99401,4.23193 l -1.078,0.19967 -22.5333,-2.48329 c 0,0 0.58201,-26.0002 0.002,-29.50588 -1.16601,-7.05131 4.47729,-31.25122 4.47729,-38.35778 0,-7.10656 -2.28362,-48.50026 -2.99427,-52.7642 -0.71066,-4.26394 1.42131,-9.94918 1.42131,-9.94918 z"
         style="fill:#e9ddaf;fill-rule:evenodd;stroke:#5d3b2a;stroke-width:3.33613;stroke-linecap:butt;stroke-linejoin:miter;stroke-miterlimit:4;stroke-dasharray:none;stroke-opacity:0.567697" />
      <path
         sodipodi:nodetypes="csssssssscccssssscscssc"
         inkscape:connector-curvature="0"
         id="path4303"
         d="m 139.71309,136.98919 c 6.98566,-4.83623 22.03168,-10.74716 29.55469,-8.59773 7.52302,2.14943 53.73581,6.98565 58.03467,6.44829 4.29887,-0.53735 53.19845,-4.83622 57.49731,-5.37358 4.29887,-0.53735 87.58936,3.22415 93.5003,4.29887 5.91094,1.07471 71.46862,1.61207 77.91692,1.07471 6.4483,-0.53735 80.06635,-1.61207 84.36521,-2.14943 4.29887,-0.53736 18.27018,-1.07471 23.1064,1.61208 4.83622,2.68679 73.08069,4.83622 76.30484,4.83622 3.22415,0 4.29886,9.13509 4.29886,9.13509 l 10e-6,99.41124 -2.14944,5.37358 c 0,0 -8.06036,0 -17.19545,0 -9.13509,0 -9.13509,-1.07472 -18.27018,-1e-5 -9.13509,1.07472 -284.2624,0.53736 -290.17334,-2.14943 -5.91094,-2.68679 -139.71309,0.53736 -142.93724,0 -3.22415,-0.53736 -22.56904,-4.29886 -29.55469,-2.68679 -6.98566,1.61208 -12.8966,6.4483 -12.8966,6.4483 0,0 3.22415,-42.45129 7.52302,-49.43694 l 4.29886,-6.98566 c 0,0 -4.83622,-15.58338 -4.83622,-20.4196 0,-4.83622 -0.53736,-19.34489 0.53736,-23.64376 1.07471,-4.29886 1.07471,-17.19545 1.07471,-17.19545 z"
         style="fill:#fff6d5;fill-rule:evenodd;stroke:none;stroke-width:1px;stroke-linecap:butt;stroke-linejoin:miter;stroke-opacity:1;filter:url(#filter4409)" />
    </g>
    <path
       id="path4040-4-1"
       style="color:#000000;fill:#ffffff;fill-opacity:1;fill-rule:nonzero;stroke:none;stroke-width:0.86459899px;marker:none;visibility:visible;display:inline;overflow:visible;enable-background:accumulate"
       d="m 361.43413,1783.3072 c -32.04553,1.1743 -64.48637,1.0906 -95.93363,8.7249 -32.64216,10.9263 -61.97301,37.7844 -73.46497,73.616 -11.36361,35.1586 -10.28208,74.7997 1.83882,109.5306 9.39669,26.7344 29.79911,47.9691 54.32353,57.6466 46.67817,17.6982 96.70451,18.684 145.58225,18.941 41.15166,-0.2561 82.833,1.4802 123.33882,-7.9338 20.79969,-5.2931 41.80203,-12.9465 59.02515,-27.1531 13.97904,-14.496 20.66789,-35.3115 25.2671,-55.2878 7.70751,-37.1491 3.16203,-78.0341 -16.20003,-110.1888 -8.52392,-15.2558 -19.29811,-29.5896 -34.05507,-37.9082 -34.33244,-20.9178 -74.12623,-26.7775 -112.82136,-28.4277 -25.61023,-1.4399 -51.26235,-1.6021 -76.90061,-1.5597 z"
       inkscape:connector-curvature="0" />
    <path
       style="color:#000000;display:inline;overflow:visible;visibility:visible;fill:#ffffff;fill-opacity:1;fill-rule:nonzero;stroke:none;stroke-width:1.80075px;marker:none;enable-background:accumulate"
       d="m 565.96797,1846.3391 c 17.04495,-42.1537 82.66677,-83.3109 147.60614,-30.1818 -75.30599,-33.5913 -113.09434,15.0104 -121.78801,56.4339 -7.69468,36.6635 -19.68081,13.2256 -19.68081,13.2256 z"
       id="path4440-1"
       inkscape:connector-curvature="0"
       sodipodi:nodetypes="ccscc" />
    <path
       style="color:#000000;fill:#ffffff;fill-opacity:1;fill-rule:nonzero;stroke:none;stroke-width:0.82768202px;marker:none;visibility:visible;display:inline;overflow:visible;enable-background:accumulate"
       d="m 1802.3392,2840.4514 c -21.0554,1.0769 -42.3016,2.9158 -62.5538,9.119 -10.6808,3.5246 -19.6922,11.3406 -25.447,20.9209 -4.4972,7.526 -7.0607,16.4623 -5.9371,25.2536 1.6481,14.3581 10.968,27.6097 24.0072,33.8867 12.3944,6.4689 26.2587,9.2822 39.9508,11.4674 31.5696,4.8315 47.5903,4.7997 79.3565,7.5335 13.9621,1.1352 28.3673,0.133 41.4976,-5.0552 11.0683,-4.285 21.2399,-11.63 27.5205,-21.8402 4.5334,-7.1159 6.6822,-15.7826 5.6087,-24.1825 -0.8057,-7.5575 -4.0116,-14.7513 -8.7617,-20.652 -7.2352,-9.3523 -17.6145,-15.8261 -28.6124,-19.8668 -14.8358,-5.7914 -30.3966,-9.4917 -46.0335,-12.3595 -18.6757,-3.2154 -21.6619,-4.3528 -40.5958,-4.2249 z"
       id="path4040-2"
       inkscape:connector-curvature="0"
       sodipodi:nodetypes="csssszcccccccc" />
    <path
       style="color:#000000;display:inline;overflow:visible;visibility:visible;fill:#ffffff;fill-opacity:1;fill-rule:nonzero;stroke:none;stroke-width:0.811733px;marker:none;enable-background:accumulate"
       d="m 1944.6654,2991.2579 c 32.0122,61.3059 76.766,62.3389 113.9111,36.9776 -29.131,29.6394 -80.709,55.7301 -141.9226,-25.8655 -11.7205,-15.623 28.0115,-11.1121 28.0115,-11.1121 z"
       id="path5010-4"
       inkscape:connector-curvature="0"
       sodipodi:nodetypes="ccsc" />
  </g>
  <g
     inkscape:groupmode="layer"
     id="layer1"
     inkscape:label="txt">
    <text
       xml:space="preserve"
       style="font-size:45px;font-style:normal;font-variant:normal;font-weight:normal;font-stretch:normal;text-align:center;line-height:1.25000000000000000;letter-spacing:0px;word-spacing:0px;text-anchor:middle;fill:#000000;fill-opacity:1;stroke:none;font-family:ComicSpice;-inkscape-font-specification:ComicSpice"
       x="314.39679"
       y="197.03821"
       id="text4246-3-3-1-2"><tspan
         x="314.39679"
         y="197.03821"
         style="font-size:45px;fill:#000000;fill-opacity:1;-inkscape-font-specification:ComicSpice;font-family:ComicSpice;font-weight:normal;font-style:normal;font-stretch:normal;font-variant:normal"
         id="tspan923"
         sodipodi:role="line">Ngày sau...</tspan></text>
    <text
       xml:space="preserve"
       style="font-size:45px;font-style:normal;font-variant:normal;font-weight:normal;font-stretch:normal;text-align:center;line-height:1.25;letter-spacing:0px;word-spacing:0px;text-anchor:middle;fill:#000000;fill-opacity:1;stroke:none;font-family:ComicSpice;-inkscape-font-specification:ComicSpice"
       x="385.39996"
       y="1845.84"
       id="text4246-3-2-2"><tspan
         style="font-size:45px;font-style:normal;font-variant:normal;font-weight:normal;font-stretch:normal;font-family:ComicSpice;-inkscape-font-specification:ComicSpice"
         sodipodi:role="line"
         id="tspan1091"
         x="385.39996"
         y="1845.84">... và tối nay,</tspan><tspan
         style="font-size:45px;font-style:normal;font-variant:normal;font-weight:normal;font-stretch:normal;font-family:ComicSpice;-inkscape-font-specification:ComicSpice"
         sodipodi:role="line"
         id="tspan1093"
         x="385.39996"
         y="1902.09"> chúng tôi nhận Thất Vị</tspan><tspan
         style="font-size:45px;font-style:normal;font-variant:normal;font-weight:normal;font-stretch:normal;font-family:ComicSpice;-inkscape-font-specification:ComicSpice"
         sodipodi:role="line"
         x="385.39996"
         y="1958.34"
         id="tspan3983">làm Hiệp Sĩ trẻ</tspan><tspan
         style="font-size:45px;font-style:normal;font-variant:normal;font-weight:normal;font-stretch:normal;font-family:ComicSpice;-inkscape-font-specification:ComicSpice"
         sodipodi:role="line"
         x="385.39996"
         y="2014.59"
         id="tspan3987">nhất của An.</tspan></text>
    <text
       xml:space="preserve"
       style="font-size:45px;font-style:normal;font-variant:normal;font-weight:normal;font-stretch:normal;text-align:center;line-height:1.25;letter-spacing:0px;word-spacing:0px;text-anchor:middle;fill:#000000;fill-opacity:0.7;stroke:none;font-family:ComicSpice;-inkscape-font-specification:ComicSpice"
       x="279.41687"
       y="2578.2507"
       id="text4246-3-2-2-3"><tspan
         style="font-size:45px;font-style:normal;font-variant:normal;font-weight:normal;font-stretch:normal;fill:#000000;fill-opacity:0.7;font-family:ComicSpice;-inkscape-font-specification:ComicSpice"
         sodipodi:role="line"
         x="279.41687"
         y="2578.2507"
         id="tspan1165">... Vẫn chưa</tspan><tspan
         style="font-size:45px;font-style:normal;font-variant:normal;font-weight:normal;font-stretch:normal;fill:#000000;fill-opacity:0.7;font-family:ComicSpice;-inkscape-font-specification:ComicSpice"
         sodipodi:role="line"
         x="279.41687"
         y="2634.5007"
         id="tspan5462">có dấu vết</tspan><tspan
         style="font-size:45px;font-style:normal;font-variant:normal;font-weight:normal;font-stretch:normal;fill:#000000;fill-opacity:0.7;font-family:ComicSpice;-inkscape-font-specification:ComicSpice"
         sodipodi:role="line"
         x="279.41687"
         y="2690.7507"
         id="tspan5464">của Hạt Tiêu?</tspan></text>
    <text
       xml:space="preserve"
       style="font-size:45px;font-style:normal;font-variant:normal;font-weight:normal;font-stretch:normal;text-align:center;line-height:1.25;letter-spacing:0px;word-spacing:0px;text-anchor:middle;fill:#000000;fill-opacity:0.7;stroke:none;font-family:ComicSpice;-inkscape-font-specification:ComicSpice"
       x="1320.327"
       y="2594.489"
       id="text4246-3-2-2-3-5"><tspan
         x="1320.327"
         y="2594.489"
         id="tspan5447"
         style="font-style:normal;font-variant:normal;font-weight:normal;font-stretch:normal;font-family:ComicSpice;-inkscape-font-specification:ComicSpice"><tspan
           style="font-size:45px;font-style:normal;font-variant:normal;font-weight:normal;font-stretch:normal;fill:#000000;fill-opacity:0.7;font-family:ComicSpice;-inkscape-font-specification:ComicSpice"
           id="tspan5449">Chưa!</tspan></tspan></text>
    <text
       xml:space="preserve"
       style="font-size:45px;font-style:normal;font-variant:normal;font-weight:normal;font-stretch:normal;text-align:center;line-height:1.25;letter-spacing:0px;word-spacing:0px;text-anchor:middle;fill:#000000;fill-opacity:0.7;stroke:none;font-family:ComicSpice;-inkscape-font-specification:ComicSpice"
       x="1511.5565"
       y="2678.2178"
       id="text4246-3-2-2-3-5-1"><tspan
         style="font-size:45px;font-style:normal;font-variant:normal;font-weight:normal;font-stretch:normal;fill:#000000;fill-opacity:0.7;font-family:ComicSpice;-inkscape-font-specification:ComicSpice"
         sodipodi:role="line"
         x="1515.8632"
         y="2678.2178"
         id="tspan1165-9-2">Nó nên nhanh lên, </tspan><tspan
         style="font-size:45px;font-style:normal;font-variant:normal;font-weight:normal;font-stretch:normal;fill:#000000;fill-opacity:0.7;font-family:ComicSpice;-inkscape-font-specification:ComicSpice"
         sodipodi:role="line"
         x="1511.5565"
         y="2734.4678"
         id="tspan5468">nó sẽ mất cơ hội nghe bài</tspan><tspan
         style="font-size:45px;font-style:normal;font-variant:normal;font-weight:normal;font-stretch:normal;fill:#000000;fill-opacity:0.7;font-family:ComicSpice;-inkscape-font-specification:ComicSpice"
         sodipodi:role="line"
         x="1511.5565"
         y="2790.7178"
         id="tspan3997">phát biểu của Thất Vị.</tspan></text>
    <text
       xml:space="preserve"
       style="font-size:45px;font-style:normal;font-variant:normal;font-weight:normal;font-stretch:normal;text-align:center;line-height:1.25;letter-spacing:0px;word-spacing:0px;text-anchor:middle;fill:#000000;fill-opacity:1;stroke:none;font-family:ComicSpice;-inkscape-font-specification:ComicSpice"
       x="1821.5945"
       y="2905.9734"
       id="text4246-3-2-2-3-5-1-7"><tspan
         style="font-size:45px;font-style:normal;font-variant:normal;font-weight:normal;font-stretch:normal;font-family:ComicSpice;-inkscape-font-specification:ComicSpice"
         sodipodi:role="line"
         x="1821.5945"
         y="2905.9734"
         id="tspan1269">Cám ơn.</tspan></text>
    <path
       style="color:#000000;fill:#ffffff;stroke:none;stroke-width:3;marker:none;visibility:visible;display:inline;overflow:visible;enable-background:accumulate"
       d="m 1878.6371,2922.6717 c -54.6722,-1.0029 -114.0927,17.346 -111.0435,61.0033 2.7262,39.0335 56.6106,65.6169 127.674,62.4914 69.5355,-3.0583 109.8459,-11.5175 100.2245,-74.8914 -6.3576,-41.876 -50.7369,-47.3905 -116.855,-48.6033 z"
       id="path3989"
       inkscape:connector-curvature="0"
       sodipodi:nodetypes="sssss" />
    <text
       id="text3991"
       y="2996.8643"
       x="1894.2246"
       style="font-size:45px;font-style:normal;font-variant:normal;font-weight:normal;font-stretch:normal;text-align:center;line-height:1.25;letter-spacing:0px;word-spacing:0px;text-anchor:middle;fill:#000000;fill-opacity:1;stroke:none;font-family:ComicSpice;-inkscape-font-specification:ComicSpice"
       xml:space="preserve"><tspan
         id="tspan3993"
         y="2996.8643"
         x="1894.2246"
         sodipodi:role="line"
         style="font-size:45px;font-style:normal;font-variant:normal;font-weight:normal;font-stretch:normal;font-family:ComicSpice;-inkscape-font-specification:ComicSpice">Con muốn...</tspan></text>
  </g>
</svg>
