<?xml version="1.0" encoding="UTF-8" standalone="no"?>
<!-- Created with Inkscape (http://www.inkscape.org/) -->

<svg
   xmlns:dc="http://purl.org/dc/elements/1.1/"
   xmlns:cc="http://creativecommons.org/ns#"
   xmlns:rdf="http://www.w3.org/1999/02/22-rdf-syntax-ns#"
   xmlns:svg="http://www.w3.org/2000/svg"
   xmlns="http://www.w3.org/2000/svg"
   xmlns:xlink="http://www.w3.org/1999/xlink"
   xmlns:sodipodi="http://sodipodi.sourceforge.net/DTD/sodipodi-0.dtd"
   xmlns:inkscape="http://www.inkscape.org/namespaces/inkscape"
   id="svg2"
   version="1.1"
   inkscape:version="0.91 r"
   width="2481"
   height="3503"
   sodipodi:docname="Pepper-and-Carrot_by-David-Revoy_E01P03.svg"
   enable-background="new">
  <metadata
     id="metadata8">
    <rdf:RDF>
      <cc:Work
         rdf:about="">
        <dc:format>image/svg+xml</dc:format>
        <dc:type
           rdf:resource="http://purl.org/dc/dcmitype/StillImage" />
        <dc:title />
      </cc:Work>
    </rdf:RDF>
  </metadata>
  <defs
     id="defs6">
    <filter
       inkscape:collect="always"
       id="filter4386">
      <feBlend
         inkscape:collect="always"
         mode="screen"
         in2="BackgroundImage"
         id="feBlend4388" />
    </filter>
  </defs>
  <sodipodi:namedview
     pagecolor="#ffffff"
     bordercolor="#666666"
     borderopacity="1"
     objecttolerance="10"
     gridtolerance="10"
     guidetolerance="10"
     inkscape:pageopacity="0"
     inkscape:pageshadow="2"
     inkscape:window-width="1920"
     inkscape:window-height="1056"
     id="namedview4"
     showgrid="false"
     inkscape:zoom="0.29230459"
     inkscape:cx="528.46663"
     inkscape:cy="1455.4121"
     inkscape:window-x="0"
     inkscape:window-y="24"
     inkscape:window-maximized="1"
     inkscape:current-layer="layer3"
     inkscape:snap-global="false">
    <inkscape:grid
       type="xygrid"
       id="grid4282" />
  </sodipodi:namedview>
  <flowRoot
     xml:space="preserve"
     id="flowRoot2987"
     style="font-style:normal;font-variant:normal;font-weight:normal;font-stretch:normal;font-size:8.52000046px;line-height:125%;font-family:Lavi;-inkscape-font-specification:Lavi;letter-spacing:0px;word-spacing:0px;fill:#000000;fill-opacity:1;stroke:none;stroke-width:1px;stroke-linecap:butt;stroke-linejoin:miter;stroke-opacity:1"
     transform="translate(193.86219,-9458.7162)"><flowRegion
       id="flowRegion2989"><rect
         id="rect2991"
         width="721.75812"
         height="55.156185"
         x="723.17682"
         y="3883.7747"
         style="font-style:normal;font-variant:normal;font-weight:normal;font-stretch:normal;font-family:Lavi;-inkscape-font-specification:Lavi" /></flowRegion><flowPara
       id="flowPara2993" /></flowRoot>  <g
     inkscape:groupmode="layer"
     id="layer1"
     inkscape:label="artwork"
     style="display:inline"
     sodipodi:insensitive="true">
    <image
       sodipodi:absref="/home/deevad/peppercarrot/webcomics/New/lang/el/../gfx_Pepper-and-Carrot_by-David-Revoy_E01P03.png"
       xlink:href="../gfx_Pepper-and-Carrot_by-David-Revoy_E01P03.png"
       width="2481"
       height="3503"
       id="image3084"
       x="0"
       y="0" />
  </g>
  <g
     inkscape:groupmode="layer"
     id="layer2"
     inkscape:label="speechbubble"
     style="opacity:0.70232556;display:inline">
    <path
       style="color:#000000;display:inline;overflow:visible;visibility:visible;fill:#dfffd4;fill-opacity:1;fill-rule:nonzero;stroke:none;stroke-width:1px;marker:none;enable-background:accumulate"
       d="m 687.78546,1442.2976 c -2.148,-66.871 103.10486,-87.767 131.0291,-91.947 27.92426,-4.181 281.39044,14.628 292.13044,79.409 10.7401,64.782 -122.4371,100.307 -251.31808,87.769 -128.8811,-12.539 -173.98946,-48.063 -171.84146,-75.231 z"
       id="path3145"
       inkscape:connector-curvature="0"
       sodipodi:nodetypes="ccssc" />
    <path
       style="color:#000000;display:inline;overflow:visible;visibility:visible;fill:#dfffd4;fill-opacity:1;fill-rule:nonzero;stroke:none;stroke-width:1px;marker:none;enable-background:accumulate"
       d="m 891.32682,1487.7306 c 40.882,34.217 -63.2768,105.761 -60.9462,132.634 0.7821,9.018 4.0527,27.784 12.1054,34.422 13.5869,11.2 39.3854,4.716 9.4435,96.118 -7.8795,20.486 26.1088,43.059 59.2026,41.482 12.6071,1.577 32.1991,15.25 3.833,73.558 -4.7276,17.334 7.7905,38.331 25.5994,42.164 9.4554,1.575 27.98088,14.568 23.25328,35.055 6.3035,-33.094 -27.55438,-48.13 -33.34848,-56.691 -6.3035,-11.031 8.7586,-45.6 15.0622,-67.663 6.3035,-22.062 -26.3222,-39.471 -37.3534,-44.199 -11.0312,-4.728 -29.6849,-4.051 -32.8367,-16.658 -3.1517,-12.607 18.3677,-58.409 15.2159,-82.048 -3.1518,-23.638 -31.0188,-28.959 -32.5947,-51.022 -1.5759,-22.062 56.8392,-69.737 66.262,-93.238 11.6711,-24.83 4.9236,-56.521 4.9236,-56.521 z"
       id="path3153"
       inkscape:connector-curvature="0"
       sodipodi:nodetypes="cssccccccsscssccc" />
    <flowRoot
       xml:space="preserve"
       id="flowRoot3115"
       style="font-style:normal;font-weight:normal;font-size:40px;line-height:125%;font-family:Sans;letter-spacing:0px;word-spacing:0px;fill:#000000;fill-opacity:1;stroke:none"
       transform="matrix(0.71,0,0,0.71,321.35222,-5889.9935)"><flowRegion
         id="flowRegion3117"><rect
           id="rect3119"
           width="639.91162"
           height="234.82996"
           x="419.75854"
           y="1171.8798" /></flowRegion><flowPara
         id="flowPara3121" /></flowRoot>    <text
       xml:space="preserve"
       style="font-style:normal;font-variant:normal;font-weight:normal;font-stretch:expanded;font-size:53.25px;line-height:100%;font-family:Pecita;-inkscape-font-specification:'Pecita Expanded';text-align:center;letter-spacing:0px;word-spacing:0px;writing-mode:lr-tb;text-anchor:middle;fill:#000000;fill-opacity:1;stroke:none"
       x="1836.5044"
       y="-1905.7336"
       id="text3937"
       sodipodi:linespacing="100%"><tspan
         sodipodi:role="line"
         id="tspan3939"
         x="1836.5044"
         y="-1905.7336" /></text>
    <text
       xml:space="preserve"
       style="font-style:normal;font-variant:normal;font-weight:normal;font-stretch:expanded;font-size:53.25px;line-height:100%;font-family:Pecita;-inkscape-font-specification:'Pecita Expanded';text-align:center;letter-spacing:0px;word-spacing:0px;writing-mode:lr-tb;text-anchor:middle;fill:#000000;fill-opacity:1;stroke:none"
       x="1991.7826"
       y="-2071.79"
       id="text3971"
       sodipodi:linespacing="100%"><tspan
         sodipodi:role="line"
         id="tspan3973"
         x="1991.7826"
         y="-2071.79" /></text>
  </g>
  <g
     inkscape:groupmode="layer"
     id="layer3"
     inkscape:label="txt"
     style="display:inline;opacity:1">
    <flowRoot
       xml:space="preserve"
       id="flowRoot3063-8-6-1-9-0"
       style="color:#000000;font-style:normal;font-variant:normal;font-weight:normal;font-stretch:normal;font-size:72px;line-height:125%;font-family:Arial;-inkscape-font-specification:Arial;letter-spacing:0px;word-spacing:0px;display:inline;overflow:visible;visibility:visible;opacity:0.34883722;fill:#9adbf1;fill-opacity:1;fill-rule:nonzero;stroke:#95cde0;stroke-width:2.16507292;stroke-opacity:1;marker:none;enable-background:accumulate"
       transform="matrix(0.3931901,0,-0.11464216,0.86351947,1638.8331,2419.6468)"><flowRegion
         id="flowRegion3065-8-1-1-1-7"
         style="stroke-width:2.16507292"><rect
           id="rect3067-6-3-8-9-84"
           width="615.07123"
           height="310.30325"
           x="92.642677"
           y="425.30325"
           style="color:#000000;font-size:72px;display:inline;overflow:visible;visibility:visible;fill:#9adbf1;fill-opacity:1;fill-rule:nonzero;stroke:#95cde0;stroke-width:2.16507292;stroke-opacity:1;marker:none;enable-background:accumulate" /></flowRegion><flowPara
         style="color:#000000;font-style:normal;font-variant:normal;font-weight:normal;font-stretch:normal;font-size:31.05892754px;font-family:Lavi;-inkscape-font-specification:Lavi;text-align:end;letter-spacing:7.18542147px;text-anchor:end;display:inline;overflow:visible;visibility:visible;fill:#9adbf1;fill-opacity:1;fill-rule:nonzero;stroke:#95cde0;stroke-width:2.80495787;stroke-miterlimit:4;stroke-dasharray:none;stroke-opacity:1;marker:none;enable-background:accumulate"
         id="flowPara3300-48">WWW.PEPPERCARROT.COM</flowPara><flowPara
         style="color:#000000;font-style:normal;font-variant:normal;font-weight:normal;font-stretch:normal;font-size:31.05892754px;font-family:Lavi;-inkscape-font-specification:Lavi;text-align:end;letter-spacing:7.18542147px;text-anchor:end;display:inline;overflow:visible;visibility:visible;fill:#9adbf1;fill-opacity:1;fill-rule:nonzero;stroke:#95cde0;stroke-width:2.80495787;stroke-miterlimit:4;stroke-dasharray:none;stroke-opacity:1;marker:none;enable-background:accumulate"
         id="flowPara4439">05/2014</flowPara></flowRoot>    <flowRoot
       xml:space="preserve"
       id="flowRoot3913"
       style="font-style:normal;font-variant:normal;font-weight:normal;font-stretch:expanded;font-size:75px;line-height:100%;font-family:Pecita;-inkscape-font-specification:'Pecita Expanded';text-align:center;letter-spacing:0px;word-spacing:0px;writing-mode:lr-tb;text-anchor:middle;fill:#000000;fill-opacity:1;stroke:none"
       transform="matrix(0.71,0,0,0.71,321.35222,-5889.9935)"><flowRegion
         id="flowRegion3915"><rect
           id="rect3917"
           width="512.22278"
           height="218.68506"
           x="1203.5035"
           y="2277.0483" /></flowRegion><flowPara
         id="flowPara3919" /></flowRoot>    <flowRoot
       xml:space="preserve"
       id="flowRoot3921"
       style="font-style:normal;font-variant:normal;font-weight:normal;font-stretch:expanded;font-size:75px;line-height:100%;font-family:Pecita;-inkscape-font-specification:'Pecita Expanded';text-align:center;letter-spacing:0px;word-spacing:0px;writing-mode:lr-tb;text-anchor:middle;fill:#000000;fill-opacity:1;stroke:none"
       transform="matrix(0.71,0,0,0.71,321.35222,-5889.9935)"><flowRegion
         id="flowRegion3923"><rect
           id="rect3925"
           width="290.60208"
           height="211.34695"
           x="1458.8811"
           y="2326.9497" /></flowRegion><flowPara
         id="flowPara3927" /></flowRoot>    <flowRoot
       xml:space="preserve"
       id="flowRoot3929"
       style="font-style:normal;font-variant:normal;font-weight:normal;font-stretch:expanded;font-size:75px;line-height:100%;font-family:Pecita;-inkscape-font-specification:'Pecita Expanded';text-align:center;letter-spacing:0px;word-spacing:0px;writing-mode:lr-tb;text-anchor:middle;fill:#000000;fill-opacity:1;stroke:none"
       transform="matrix(0.71,0,0,0.71,321.35222,-5889.9935)"><flowRegion
         id="flowRegion3931"><rect
           id="rect3933"
           width="579.73645"
           height="306.74643"
           x="1169.7467"
           y="2233.0178" /></flowRegion><flowPara
         id="flowPara3935" /></flowRoot>    <text
       xml:space="preserve"
       style="font-style:normal;font-variant:normal;font-weight:normal;font-stretch:expanded;font-size:53.25px;line-height:100%;font-family:Pecita;-inkscape-font-specification:'Pecita Expanded';text-align:center;letter-spacing:0px;word-spacing:0px;writing-mode:lr-tb;text-anchor:middle;fill:#000000;fill-opacity:1;stroke:none"
       x="599.88013"
       y="1732.5476"
       id="text4023"
       sodipodi:linespacing="100%"><tspan
         sodipodi:role="line"
         id="tspan4025"
         x="599.88013"
         y="1732.5476" /></text>
    <text
       xml:space="preserve"
       style="font-style:normal;font-variant:normal;font-weight:normal;font-stretch:expanded;font-size:53.25px;line-height:100%;font-family:Pecita;-inkscape-font-specification:'Pecita Expanded';text-align:center;letter-spacing:0px;word-spacing:0px;writing-mode:lr-tb;text-anchor:middle;fill:#000000;fill-opacity:1;stroke:none"
       x="896.21228"
       y="1448.2239"
       id="text4027"
       sodipodi:linespacing="100%"><tspan
         sodipodi:role="line"
         x="908.74475"
         y="1448.2239"
         id="tspan4031"
         style="fill:#3c4036;fill-opacity:1">Ευχαριστημένος;;! </tspan></text>
  </g>
</svg>
