<?xml version="1.0" encoding="UTF-8" standalone="no"?>
<!-- Created with Inkscape (http://www.inkscape.org/) -->

<svg
   id="svg2"
   version="1.1"
   inkscape:version="1.2.2 (732a01da63, 2022-12-09)"
   width="2481"
   height="663"
   sodipodi:docname="E15P00.svg"
   xml:space="preserve"
   xmlns:inkscape="http://www.inkscape.org/namespaces/inkscape"
   xmlns:sodipodi="http://sodipodi.sourceforge.net/DTD/sodipodi-0.dtd"
   xmlns:xlink="http://www.w3.org/1999/xlink"
   xmlns="http://www.w3.org/2000/svg"
   xmlns:svg="http://www.w3.org/2000/svg"
   xmlns:rdf="http://www.w3.org/1999/02/22-rdf-syntax-ns#"
   xmlns:cc="http://creativecommons.org/ns#"
   xmlns:dc="http://purl.org/dc/elements/1.1/"><sodipodi:namedview
     pagecolor="#ffffff"
     bordercolor="#666666"
     inkscape:pageopacity="0"
     inkscape:pageshadow="2"
     inkscape:window-width="1920"
     inkscape:window-height="1017"
     id="namedview70"
     showgrid="false"
     inkscape:zoom="0.56568542"
     inkscape:cx="903.32891"
     inkscape:cy="525.02679"
     inkscape:current-layer="layer1"
     borderopacity="0.25"
     inkscape:showpageshadow="2"
     inkscape:pagecheckerboard="0"
     inkscape:deskcolor="#d1d1d1"
     inkscape:window-x="-8"
     inkscape:window-y="-8"
     inkscape:window-maximized="1" /><metadata
     id="metadata8"><rdf:RDF><cc:Work
         rdf:about=""><dc:format>image/svg+xml</dc:format><dc:type
           rdf:resource="http://purl.org/dc/dcmitype/StillImage" /><dc:title /></cc:Work></rdf:RDF></metadata><defs
     id="defs6" /><sodipodi:namedview
     pagecolor="#ffffff"
     bordercolor="#666666"
     borderopacity="1"
     objecttolerance="10"
     gridtolerance="10"
     guidetolerance="10"
     inkscape:pageopacity="0"
     inkscape:pageshadow="2"
     inkscape:window-width="1920"
     inkscape:window-height="1025"
     id="namedview4"
     showgrid="false"
     inkscape:zoom="0.40071843"
     inkscape:cx="983.63007"
     inkscape:cy="-338.68782"
     inkscape:window-x="0"
     inkscape:window-y="26"
     inkscape:window-maximized="1"
     inkscape:current-layer="layer1" /><g
     inkscape:groupmode="layer"
     id="layer2"
     inkscape:label="artwork"
     sodipodi:insensitive="true"><image
       xlink:href="../gfx_Pepper-and-Carrot_by-David-Revoy_E15P00.png"
       y="0"
       x="0"
       id="image10"
       height="663"
       width="2481" /></g><g
     inkscape:groupmode="layer"
     id="layer1"
     inkscape:label="txt"
     style="display:inline"><text
       xml:space="preserve"
       style="font-style:normal;font-variant:normal;font-weight:normal;font-stretch:normal;line-height:0%;font-family:Arial;-inkscape-font-specification:Arial;letter-spacing:0px;word-spacing:0px;display:inline;fill:#2b1100;fill-opacity:1;stroke:#000000;stroke-width:2;stroke-miterlimit:4;stroke-dasharray:none;stroke-opacity:1"
       x="837.11255"
       y="582.47577"
       id="episode-title"><tspan
         sodipodi:role="line"
         id="tspan4180"
         style="font-style:normal;font-variant:normal;font-weight:normal;font-stretch:normal;font-size:72.5px;line-height:1.25;font-family:Lavi;-inkscape-font-specification:Lavi;fill:#2b1100;stroke:none"
         x="837.11255"
         y="582.47577">Epizodas 15: Krištolinis rutulys</tspan></text><path
       style="fill:#2b1100;fill-opacity:1;stroke-width:1.00142"
       d="m 557.84049,514.37444 c -6.16967,-2.80574 -7.18974,-5.89827 -6.17076,-18.70912 0.44522,-5.59824 0.91739,-21.38615 1.04918,-35.08423 l 0.23964,-24.90571 -6.91929,-0.55271 c -11.29465,-0.90227 -24.42683,-9.17985 -24.42683,-15.39688 0,-2.19316 0.24036,-2.24951 7.75336,-1.81755 10.2126,0.5871 14.95605,-0.81183 20.48489,-6.0416 l 4.50211,-4.25862 0.64875,-46.61195 c 0.35681,-25.63653 0.9351,-53.41073 1.28511,-61.72048 l 0.63634,-15.10856 -9.40171,-2.43355 c -9.13429,-2.36426 -9.41021,-2.52056 -9.70048,-5.4941 -0.19251,-1.97173 0.46877,-4.03839 1.85884,-5.809 1.94374,-2.47601 2.58439,-2.6843 6.46274,-2.10155 3.86594,0.58083 4.47603,0.38541 5.98074,-1.91559 0.92161,-1.40932 1.3794,-3.04278 1.01725,-3.6299 -0.83996,-1.36172 4.19429,-3.47927 12.22023,-5.1403 5.4784,-1.13378 6.64966,-1.08881 9.70813,0.3725 3.91399,1.87017 6.2008,5.58825 7.16924,11.65638 0.7181,4.49962 1.4831,4.81601 6.53303,2.70182 9.41524,-3.94167 28.34066,-2.55942 39.36408,2.87507 11.99016,5.91112 22.30713,18.82809 27.54153,34.48252 5.50146,16.45319 5.27526,43.25483 -0.50888,60.29442 -4.68906,13.81368 -15.00052,31.06661 -18.56733,31.06661 -2.22734,0 -4.94015,3.65777 -4.94015,6.66098 0,2.77728 -8.3163,10.21041 -15.94521,14.25185 -3.06027,1.62116 -11.19161,4.61065 -18.0696,6.64335 -18.96884,5.60594 -17.00737,1.61365 -17.00737,34.61619 v 28.04423 h 7.96849 c 5.08423,0 13.13724,-1.10423 22.24823,-3.05075 15.06088,-3.2176 19.12405,-3.41697 19.54549,-0.95888 0.30106,1.75623 -12.50135,10.6968 -20.74963,14.49061 -5.16005,2.37327 -5.57806,2.42231 -6.71877,0.78639 -2.407,-3.45181 -3.39431,-4.25052 -5.25443,-4.25052 -2.66323,0 -5.03417,2.69255 -5.03417,5.71712 0,3.65809 -5.97979,8.93687 -12.23076,10.79683 -7.23103,2.15166 -17.2726,1.94466 -22.57203,-0.46532 z m 35.22485,-116.30496 c 4.90917,-1.08739 10.85905,-2.91489 13.22201,-4.06094 9.02758,-4.37883 19.01744,-18.50449 24.69663,-34.92113 6.33737,-18.3193 2.93293,-41.92345 -7.48803,-51.91634 -7.06399,-6.77397 -21.4217,-10.94659 -29.02024,-8.43384 -1.90172,0.62879 -5.06775,2.82786 -7.0356,4.88671 l -3.57794,3.7434 -1.125,33.58064 c -1.49954,44.76015 -1.46258,59.14827 0.15186,59.12029 0.68782,-0.012 5.26715,-0.91135 10.17631,-1.99879 z m 524.05586,90.61879 c -2.889,-2.51714 -5.2523,-5.05643 -5.2523,-5.64274 0,-0.58642 1.848,-2.77559 4.1063,-4.8648 l 4.1069,-3.79872 0.4148,-10.33159 c 0.2278,-5.68244 0.8423,-22.78933 1.3657,-38.01527 0.8002,-23.27849 1.2282,-28.16684 2.6908,-30.71996 2.4417,-4.26312 0.6592,-6.25171 -5.6037,-6.25171 -2.5738,0 -5.2201,-0.54129 -5.8801,-1.20291 -2.0996,-2.10383 -1.3165,-5.53808 1.8775,-8.23082 2.4731,-2.08533 4.131,-2.59515 8.4381,-2.59515 6.7428,0 9.241,0.95632 13.8315,5.29399 2.9291,2.76828 3.665,4.20343 3.665,7.15201 v 3.68884 l 4.5358,-3.12711 c 3.1451,-2.16798 6.5583,-3.44255 11.1274,-4.15538 6.0317,-0.94077 6.833,-0.84944 9.4293,1.0742 1.5612,1.15625 4.2061,2.10233 5.8777,2.10233 3.8623,0 10.0179,5.40376 12.5403,11.00862 1.6035,3.56294 1.6578,4.38141 0.442,6.6586 -1.264,2.36586 -1.1894,2.7567 0.8403,4.40347 5.2472,4.25712 0.6229,14.60678 -8.8905,19.89937 l -4.6144,2.56737 -2.3884,-2.77016 c -2.4888,-2.88684 -4.8626,-3.51983 -8.5937,-2.29141 -1.8653,0.61408 -2.5188,0.10779 -4.2519,-3.29669 -5.0706,-9.95904 0.096,-17.47414 6.9557,-10.11659 2.3106,2.47812 3.5943,3.0072 7.2974,3.0072 2.6746,0 4.6868,-0.5073 4.9697,-1.253 1.4889,-3.92043 -5.8776,-11.0044 -13.2976,-12.78802 -6.5337,-1.57037 -11.6668,-0.014 -17.4436,5.28783 l -4.6221,4.24237 -0.2066,30.76276 c -0.1436,21.35026 0.1308,31.10458 0.8968,31.88016 0.6072,0.61466 6.2349,2.03167 12.5055,3.14904 6.2704,1.11727 11.6958,2.3336 12.0559,2.70278 0.3608,0.36931 -1.5454,2.619 -4.2358,4.99961 -4.6622,4.12631 -4.9953,4.25492 -7.1302,2.75663 -2.9949,-2.10226 -3.8849,-2.0009 -8.2016,0.93432 -3.3436,2.27358 -4.6331,2.50384 -13.8958,2.48158 l -10.2096,-0.024 -5.2525,-4.57658 z m -36.9075,0.18164 c -5.1848,-2.2804 -5.7637,-5.82178 -4.9969,-30.55469 0.6109,-19.68491 0.8369,-21.67521 2.6533,-23.37069 2.5192,-2.35196 2.4926,-3.22785 -0.1732,-5.71663 -2.1083,-1.96763 -2.1445,-2.4555 -1.5478,-20.83902 0.3356,-10.35328 1.1303,-20.30386 1.7667,-22.11249 2.2369,-6.36349 11.9936,-8.14446 15.4727,-2.82438 2.2878,3.4986 2.6799,14.82169 1.7471,50.45503 -0.6023,23.01235 -1.1961,32.66383 -2.0606,33.5305 -1.5214,1.52427 -1.5839,5.48127 -0.1011,6.39937 1.8211,1.12771 0.5364,11.26406 -1.7011,13.42404 -2.6617,2.56925 -7.3311,3.24859 -11.0591,1.60896 z m 768.4757,-42.54814 c -7.6404,-3.51225 -16.7791,-15.28723 -32.7437,-42.18881 -4.2521,-7.165 -6.574,-12.07318 -6.1638,-13.03131 1.6507,-3.85815 -1.0604,-9.05501 -4.7241,-9.05501 -2.0095,0 -4.3441,-2.79383 -12.1051,-14.48598 -2.9093,-4.38373 -5.7707,-8.11519 -6.3575,-8.29221 -0.5868,-0.17704 -4.3009,3.68643 -8.2537,8.58551 -6.7115,8.31936 -7.1865,9.23086 -7.197,13.80546 -0.02,9.00531 -1.043,12.5414 -4.1374,14.30473 -3.5884,2.045 -3.7023,5.23668 -0.3798,10.64144 4.6599,7.58012 2.9309,18.52837 -3.9785,25.1964 -6.1717,5.95649 -12.3866,7.82047 -26.1881,7.85505 -11.0265,0.027 -11.228,-0.014 -14.2564,-2.91619 -1.6894,-1.61928 -3.0718,-3.67341 -3.0718,-4.56476 0,-1.89736 4.2419,-6.06247 12.1669,-11.9481 7.9197,-5.8816 8.8408,-8.34575 9.894,-26.48147 0.4863,-8.36458 0.8986,-17.06244 0.9167,-19.3286 0.022,-2.70048 0.8943,-5.39293 2.5336,-7.81314 3.1119,-4.59438 3.1075,-5.14155 -0.065,-8.08774 l -2.5665,-2.38341 1.5671,-61.9734 c 0.8614,-34.08537 1.5661,-62.94421 1.5658,-64.13073 -4e-4,-1.48054 0.9115,-2.47588 2.9064,-3.17273 5.2653,-1.83903 4.8885,-8.46422 -0.5593,-9.83422 -4.728,-1.18892 -18.9628,0.44787 -26.7892,3.08026 -4.1878,1.40866 -7.9527,2.56118 -8.3661,2.56118 -0.4138,0 -1.6152,-1.6062 -2.6707,-3.56934 l -1.9184,-3.56934 2.9418,-2.36575 c 6.2433,-5.02161 27.6657,-17.86953 34.6403,-20.77564 13.5855,-5.66052 24.1623,-3.91285 26.0772,4.30894 0.4374,1.87936 0.5042,33.30123 0.1483,69.82642 -0.3561,36.52515 -0.3898,66.40945 -0.075,66.40945 1.0751,0 38.4851,-53.82294 45.0235,-64.77813 4.1868,-7.0147 22.3561,-25.06691 26.2032,-26.03439 4.2275,-1.06301 5.4826,0.99798 5.476,8.9885 0,4.72437 -0.975,10.71033 -2.8675,17.66998 -3.3628,12.36647 -5.1372,16.81846 -9.2839,23.29361 -2.7739,4.33058 -3.4126,4.77377 -6.8835,4.77377 -3.8925,0 -6.9704,2.00249 -6.9704,4.53527 0,0.76165 0.5335,2.55758 1.1853,3.99077 1.3894,3.05538 0.8831,4.07861 -8.8733,17.94762 l -6.2829,8.93146 1.8696,3.09741 c 6.759,11.19821 27.3888,47.29166 30.011,52.50777 2.5943,5.16111 3.0215,6.89115 2.3485,9.52286 -0.4518,1.76874 -0.6635,4.21554 -0.4704,5.43715 0.4579,2.89628 5.7272,7.30162 8.7336,7.30162 1.8017,0 3.7615,1.94631 8.3274,8.26987 7.2438,10.03169 9.4753,12.17913 17.4693,16.81018 5.6992,3.30171 6.2083,3.87778 6.2083,7.02152 0,5.08232 -2.586,5.96175 -17.5074,5.9531 -9.9999,-0.01 -13.3077,-0.37577 -16.507,-1.8469 z m -541.0329,-3.57169 c -15.0487,-5.37863 -31.7163,-27.58924 -31.7163,-42.26408 0,-4.23364 0.1522,-4.49667 2.2508,-3.88945 3.8077,1.10187 7.126,4.00464 9.8426,8.60987 l 2.5986,4.4064 6.5912,-0.26713 c 3.6884,-0.1495 6.8669,0.1815 7.219,0.75181 0.8794,1.42568 3.4893,1.27276 3.9942,-0.23406 0.2306,-0.68917 0.9038,-3.15141 1.4963,-5.47166 0.7721,-3.02326 1.8491,-4.58753 3.8013,-5.52023 3.4237,-1.63613 4.286,-6.97074 1.6051,-9.93839 -1.6833,-1.86408 -1.6243,-2.60154 1.377,-17.19778 7.1657,-34.84694 21.2399,-102.62183 21.745,-104.71485 0.3176,-1.31636 1.3053,-2.25543 2.371,-2.25543 1.005,0 2.6826,-0.9471 3.7276,-2.1047 2.0006,-2.21495 2.1214,-4.68749 0.8778,-17.94346 -0.4418,-4.70344 -0.028,-9.38141 1.4862,-16.81914 4.489,-22.04873 10.9966,-32.27872 17.0448,-26.79463 4.3823,3.97419 7.3337,14.61564 24.0483,86.71722 5.0484,21.77732 9.3287,39.75336 9.5118,39.94693 0.511,0.53997 1.5963,-3.93413 12.969,-53.47935 12.0517,-52.50324 15.5714,-65.5745 19.1141,-70.97979 2.1525,-3.28335 2.9514,-3.77512 5.7011,-3.50848 2.86,0.2774 3.5674,1.04997 6.6993,7.3138 3.1048,6.20944 3.5016,7.88969 3.5016,14.8173 0,5.32111 0.4141,8.07165 1.2988,8.62251 2.2206,1.38337 2.3075,1.79213 25.0941,117.9859 0.747,3.80672 0.6091,4.19325 -2.0415,5.71717 -2.1243,1.22168 -2.8417,2.39076 -2.8417,4.62916 0,3.29923 0.8799,4.1389 5.2846,5.04159 l 2.9583,0.60624 4.2117,21.03611 c 2.3169,11.5699 4.7546,22.05104 5.4175,23.29153 1.125,2.10353 1.8667,2.25542 11.02,2.25542 8.6052,0 10.042,0.25181 11.6601,2.04308 1.7998,1.99279 1.7816,2.17325 -0.7371,7.31809 -3.5506,7.25343 -11.8274,16.0347 -18.0366,19.13486 -4.0945,2.04428 -6.6263,2.57556 -12.2209,2.56383 -8.1212,-0.017 -11.1346,-1.23547 -14.1523,-5.72184 -2.8174,-4.18976 -4.8639,-17.22753 -3.2582,-20.75942 0.9222,-2.02707 0.7496,-3.38103 -0.9294,-7.29292 -2.3663,-5.51374 -5.3005,-22.78499 -15.2045,-89.50708 -3.8874,-26.18789 -7.2204,-48.06539 -7.4065,-48.61672 -0.5983,-1.76951 -2.4365,6.16751 -11.2594,48.61672 -8.7592,42.14155 -8.9324,42.71183 -13.8786,45.63975 -2.2166,1.31226 -2.2922,6.42875 -0.1186,8.02137 0.8939,0.65508 1.6258,2.18886 1.6258,3.4085 0,3.73226 -6.1196,30.46182 -7.6558,33.4411 -1.8839,3.65272 -5.3969,5.2997 -8.153,3.82194 -2.7865,-1.49446 -4.3652,-7.11748 -24.2199,-86.27484 -6.6656,-26.57519 -12.4965,-49.29652 -12.957,-50.49173 -1.2225,-3.17123 -1.4852,-2.04784 -5.5859,23.88936 -2.0049,12.68047 -4.5309,27.11513 -5.614,32.077 -1.083,4.96194 -2.5882,14.43467 -3.3462,21.05057 -1.7263,15.07556 -7.976,56.70392 -10.6102,70.66965 -2.8392,15.05504 -3.4556,16.60427 -7.344,18.45292 -4.0885,1.94386 -13.6248,2.01946 -18.857,0.14946 z m 731.6154,0.091 c -6.1697,-1.67163 -12.9117,-5.59846 -15.401,-8.97045 -1.5434,-2.09051 -2.169,-4.71452 -2.4493,-10.27467 -0.207,-4.10693 -0.6143,-7.46722 -0.9052,-7.46722 -0.2908,0 -2.5264,1.84455 -4.9673,4.09894 -7.1226,6.5781 -12.1419,8.3557 -23.2976,8.25043 -12.8344,-0.12119 -19.1096,-2.51765 -27.0962,-10.34838 -6.392,-6.2663 -10.6665,-14.08148 -13.4313,-24.55512 -3.0426,-11.52616 -4.3429,-54.95918 -2.6409,-88.22052 0.5975,-11.67994 0.9013,-13.2743 2.91,-15.28669 2.694,-2.69981 2.8035,-4.49309 0.5115,-8.38111 -2.0476,-3.47323 -1.2921,-5.22928 3.7231,-8.65113 5.084,-3.4689 12.9582,-3.17263 17.2257,0.64817 l 3.2436,2.9036 0.6823,13.38553 c 0.3757,7.36208 0.753,26.69251 0.8385,42.95656 0.2117,40.16401 1.0198,51.28751 4.1901,57.66654 4.8252,9.70809 12.8957,12.03368 22.536,6.49376 11.3246,-6.50762 15.9047,-17.22693 16.9873,-39.75676 l 0.6335,-13.18664 2.7966,-0.56046 c 5.7294,-1.14815 6.182,-7.9611 0.6572,-9.89083 l -3.0607,-1.06899 0.6254,-24.65787 c 0.3444,-13.56189 1.1015,-26.32049 1.6833,-28.35249 2.8898,-10.08977 18.2089,-12.90585 24.4146,-4.48798 2.0304,2.75443 2.0883,3.76463 1.8405,32.07704 -0.4146,47.30676 -1.9335,81.73481 -3.7283,84.47931 -1.9126,2.92464 -1.9283,5.47525 -0.049,7.96443 0.9344,1.23825 1.48,4.33472 1.5002,8.51577 0.034,7.01351 1.8895,10.9998 9.5359,20.48748 6.6115,8.20419 7.0121,12.46704 1.3574,14.44225 -4.1002,1.43225 -15.1405,1.29864 -20.8656,-0.2525 z M 754.02105,434.42285 c -9.71572,-10.37371 -10.12637,-13.33348 -2.62719,-18.93665 4.99662,-3.73339 5.14752,-3.99209 5.75926,-9.8739 0.41896,-4.02818 3.62884,-106.63895 3.5771,-114.35029 -0.0117,-1.74727 -1.17315,-2.34598 -7.40718,-3.81852 -4.06631,-0.96055 -8.23061,-2.3966 -9.25404,-3.19119 -1.79052,-1.39021 -1.76636,-1.52616 0.64036,-3.60115 3.84074,-3.31144 16.37329,-8.81899 22.77311,-10.00795 7.20502,-1.3385 15.85976,-0.67761 17.90017,1.36679 0.9177,0.91952 2.02418,5.05649 2.70038,10.09649 l 1.14569,8.53858 3.00131,-2.50672 c 1.65071,-1.3787 5.47738,-3.69077 8.5037,-5.13773 4.67783,-2.23677 6.87978,-2.63606 14.69438,-2.66441 8.2662,-0.03 9.40378,0.19384 11.29391,2.22201 1.15601,1.24049 3.22419,2.25543 4.59599,2.25543 6.00532,0 13.87153,5.47839 18.60518,12.9572 3.57437,5.64749 3.94384,13.9111 0.83228,18.61861 -1.09329,1.654 -1.99068,4.04464 -1.99428,5.31247 -0.0161,5.4144 -6.67679,14.72657 -12.39587,17.3288 -6.18741,2.81536 -15.19361,2.57501 -19.74968,-0.52706 -3.97995,-2.70982 -7.23576,-8.48605 -6.24343,-11.07699 0.71391,-1.86428 1.51677,-1.72643 8.98582,1.54233 7.1778,3.14123 9.57925,2.3085 12.88889,-4.46966 2.5174,-5.15537 2.56972,-5.57126 1.06816,-8.48076 -2.47627,-4.79804 -9.48081,-8.33903 -17.65486,-8.92505 -6.29785,-0.45149 -7.52407,-0.20557 -13.37832,2.68205 -3.82287,1.88576 -8.0302,4.98354 -10.34119,7.6142 l -3.89619,4.43491 -0.6551,15.82692 c -0.36036,8.7048 -0.65668,29.21447 -0.65848,45.57695 0,32.34683 0.091,32.90036 5.60264,32.90036 1.35398,0 4.09286,0.68295 6.08656,1.51756 2.47436,1.03587 5.13572,1.31668 8.38612,0.88463 4.56177,-0.60637 14.08003,0.55964 22.3154,2.73375 l 3.87727,1.02364 -3.67038,2.49904 c -3.95622,2.69364 -5.42856,2.96921 -10.12419,1.89524 -3.93372,-0.89988 -7.36811,1.76293 -8.32592,6.4552 -0.55405,2.71421 -1.31869,3.58309 -3.67149,4.1718 -3.92721,0.98276 -30.31214,2.87689 -40.07346,2.87689 h -7.71417 z m 862.69775,-0.50119 c -8.212,-12.91413 -8.284,-15.02606 -0.655,-19.18637 l 5.0263,-2.74107 v -6.50284 c 0,-3.8771 0.6184,-7.70076 1.5312,-9.4694 1.2231,-2.36963 1.2931,-3.41213 0.3477,-5.18129 -1.2823,-2.40154 -1.2926,-17.32627 -0.047,-68.43678 0.3898,-15.98841 0.5485,-31.6148 0.3522,-34.72537 l -0.3564,-5.65559 -6.8981,-0.39064 c -8.8519,-0.50108 -9.7609,-1.3823 -7.5114,-7.28472 2.9026,-7.61407 9.1004,-10.58444 22.0866,-10.58444 6.8577,0 8.7567,0.37129 11.5525,2.25881 5.2574,3.55033 7.7009,8.96722 9.4878,21.03619 l 0.5546,3.74796 5.0058,-3.9644 c 6.3577,-5.03571 10.0399,-6.02516 22.4479,-6.03206 9.3846,0 10.4977,0.21774 17.2328,3.45195 13.6694,6.56359 20.3082,15.77116 21.0441,29.18408 0.5411,9.87513 -0.9742,13.42213 -9.7097,22.7304 l -5.8899,6.27598 h -7.3513 c -6.0421,0 -8.3757,-0.50445 -13.1091,-2.83313 -6.4127,-3.15534 -8.3813,-5.63452 -6.8102,-8.57658 1.2915,-2.41812 2.3155,-2.77788 10.3586,-3.64093 6.6272,-0.71113 6.6478,-0.72313 8.7542,-5.08325 2.2779,-4.71522 2.079,-6.70416 -1.2175,-12.16085 -1.5853,-2.6242 -2.5486,-3.2024 -5.1727,-3.10357 -1.7735,0.067 -5.0507,-0.93195 -7.2838,-2.21943 l -4.0594,-2.3408 -4.6819,2.93831 c -10.2001,6.4009 -15.0877,10.11178 -17.8441,13.54802 l -2.8824,3.59295 -0.9612,45.36744 c -0.5284,24.9521 -0.7454,45.71745 -0.4814,46.14521 0.2637,0.42782 2.1796,1.05021 4.2576,1.3831 2.0778,0.33289 4.5949,1.56156 5.5937,2.73024 1.6711,1.9554 1.9562,1.99749 3.5761,0.52869 3.4582,-3.13572 17.8947,-1.40286 24.0768,2.89004 5.0772,3.52515 4.8513,3.8376 -8.4196,11.63794 l -10.0528,5.90907 -24.2727,0.01 -24.2728,0.01 -3.3465,-5.26264 z m 489.5819,0.56474 c -5.234,-0.86888 -15.7371,-4.61708 -21.4309,-7.64786 -4.3222,-2.30032 -7.1345,-4.7862 -10.3952,-9.18704 -7.5395,-10.17592 -9.1904,-14.85055 -10.3565,-29.32591 -1.2295,-15.26446 -0.1552,-20.60137 4.2522,-21.11463 3.2929,-0.38359 4.4233,1.07269 5.7564,7.41433 1.4895,7.08508 4.7871,15.60959 7.7074,19.92122 1.3517,1.9955 2.4571,4.70357 2.4571,6.01805 0,3.70009 2.7436,5.85053 6.4144,5.02797 3.3211,-0.74409 4.5552,-0.75952 23.5991,-0.29431 13.8998,0.33953 16.4904,-0.4165 21.3813,-6.24089 3.7666,-4.48527 6.0869,-13.0881 4.681,-17.35676 -2.2854,-6.93856 -8.7506,-10.82371 -26.0623,-15.66201 -10.0793,-2.81688 -11.885,-3.65745 -14.568,-6.78169 -2.7625,-3.2159 -3.4125,-3.5006 -6.6188,-2.89792 -3.2563,0.61203 -3.8691,0.32004 -7.2886,-3.47216 -5.5551,-6.1609 -6.7497,-9.92524 -7.3066,-23.01517 -0.3863,-9.08891 -0.1228,-12.86018 1.2266,-17.54211 2.7332,-9.48669 7.5025,-17.44008 15.1323,-25.23598 9.6071,-9.81627 17.4137,-13.5471 29.5629,-14.12914 7.6628,-0.36707 9.3159,-0.12119 14.1776,2.1088 3.0265,1.3884 6.6986,3.86918 8.1601,5.51271 1.7516,1.96971 4.0062,3.2045 6.6143,3.62231 2.7809,0.44553 5.0669,1.78125 7.6933,4.49597 6.5545,6.77407 17.1986,27.25004 15.9126,30.60922 -0.5753,1.50067 -0.9685,1.47294 -4.4031,-0.30997 -2.074,-1.07679 -6.472,-4.28458 -9.7737,-7.12842 -6.8108,-5.86667 -16.9805,-11.38665 -24.1532,-13.10943 -2.6728,-0.64207 -6.3483,-2.01398 -8.168,-3.04874 -4.1342,-2.35083 -4.3608,-2.34393 -7.293,0.22261 -1.322,1.15732 -4.5468,3.19689 -7.1654,4.53252 -5.6208,2.86663 -10.1666,8.71269 -12.2559,15.76232 -2.503,8.44548 -2.078,10.48238 3.2614,15.63332 4.1305,3.98488 6.1496,5.01063 15.4423,7.84526 8.1094,2.47363 10.8432,3.74266 11.3223,5.25551 0.3868,1.22044 1.5145,1.9945 2.906,1.9945 4.194,0 14.8091,6.24868 21.7341,12.79431 8.2637,7.81114 9.8718,12.01345 9.8718,25.79835 0,15.64686 -4.0463,24.90779 -15.3691,35.17456 -12.6032,11.42772 -29.9242,16.53447 -46.6582,13.7563 z M 494.79056,432.1418 c -4.38815,-2.68072 -6.28667,-7.60746 -6.50941,-16.89266 -0.29304,-12.21471 1.43926,-98.58246 2.26633,-112.9945 0.66121,-11.52096 1.01755,-13.39684 2.90365,-15.2867 2.43693,-2.44174 2.53698,-3.00872 1.16749,-6.61776 -0.79011,-2.08223 -0.60452,-2.96806 0.9477,-4.52325 2.66003,-2.66531 8.94412,-4.2282 12.59541,-3.13254 9.6343,2.89092 9.66277,2.98896 10.22229,35.17466 l 0.46184,26.56378 -2.61845,2.43013 c -3.13373,2.90839 -3.32268,5.3847 -0.61762,8.09511 1.89444,1.89816 1.9977,3.29833 1.94117,26.31317 -0.0884,35.99663 -1.20391,53.40202 -3.63531,56.72683 -4.33426,5.92663 -13.09815,7.82548 -19.12509,4.14373 z m 202.73974,0.50283 c -4.42867,-2.41022 -7.15535,-7.84215 -6.41998,-12.78962 0.34559,-2.32498 0.54386,-5.35498 0.44062,-6.73328 -0.10322,-1.3783 -0.0995,-21.67702 0.008,-45.10827 0.23445,-50.96981 1.42588,-83.98848 3.15141,-87.3348 3.78581,-7.34209 10.46224,-10.13308 17.65543,-7.38056 7.24228,2.77128 7.77806,4.64486 8.16635,28.5565 0.32099,19.76965 0.24786,20.70743 -1.92809,24.71442 -2.15295,3.96462 -2.18105,4.28839 -0.58378,6.73098 1.4718,2.25061 1.67209,5.98827 1.63011,30.41793 -0.0697,40.56948 -1.23545,60.98081 -3.67309,64.31492 -4.03261,5.51552 -12.77191,7.70037 -18.44723,4.61178 z m 840.8096,0.12751 c -12.6052,-4.1089 -26.6922,-18.20676 -34.2878,-34.31472 -5.8613,-12.42994 -7.4427,-21.03361 -7.4385,-40.46806 0,-20.61578 1.361,-26.97796 9.309,-43.64816 6.357,-13.33505 11.4172,-20.68165 19.3927,-28.15724 8.6145,-8.0743 14.044,-10.62509 23.822,-11.19223 26.2218,-1.52093 45.7003,14.01916 52.8935,42.19921 4.6391,18.17621 5.1187,45.59015 1.13,64.67685 -2.0568,9.84205 -3.2285,12.20821 -6.0487,12.20821 -2.133,0 -5.0345,3.08633 -5.0345,5.35518 0,0.9289 0.5363,2.54913 1.1915,3.60055 1,1.60404 0.718,2.60263 -1.7509,6.20529 -7.8918,11.51654 -19.3002,20.02518 -30.4539,22.71302 -8.0314,1.93527 -18.182,2.30254 -22.7244,0.8221 z m 22.352,-29.48229 c 9.348,-4.78269 17.2106,-18.47018 19.2986,-33.59469 0.5951,-4.31266 1.0667,-13.33428 1.0474,-20.04811 -0.085,-29.8744 -7.861,-45.8963 -23.0296,-47.45387 -11.7499,-1.20637 -19.9022,4.01636 -25.6468,16.43159 -1.8443,3.98594 -3.6346,8.65587 -3.9781,10.37763 -0.4558,2.28507 -1.4154,3.40657 -3.552,4.15285 -4.1464,1.44839 -5.3309,5.14097 -2.9355,9.15296 1.5316,2.5649 2.075,6.60086 2.92,21.69559 1.177,21.01788 2.6703,26.70973 8.9333,34.04065 5.9014,6.90818 8.7303,8.25633 16.3103,7.77305 3.9176,-0.24981 8.1444,-1.25459 10.6324,-2.52765 z m 323.8777,28.95873 c -2.0322,-1.24158 -3.7587,-3.54926 -4.9046,-6.55546 -1.6129,-4.23236 -1.719,-7.81193 -1.2071,-40.8128 0.5372,-34.6667 0.6477,-36.29153 2.6532,-39.00966 2.6431,-3.58136 2.6478,-6.2567 0.017,-9.82117 -2.0363,-2.7597 -2.0563,-3.27785 -1.0588,-27.35818 1.142,-27.58853 2.0482,-31.76148 7.5107,-34.60326 4.0683,-2.1166 10.2757,-2.07152 14.461,0.10509 6.4112,3.33468 6.4905,4.03293 5.9324,52.22043 -0.4553,39.29491 -0.6635,43.44269 -2.353,46.9418 -1.7638,3.65279 -1.77,3.98368 -0.1299,6.84741 1.3432,2.34516 1.7161,5.36959 1.6898,13.70393 -0.051,16.13593 -1.6058,30.8232 -3.6266,34.25065 -3.2637,5.53668 -13.1363,7.66419 -18.9843,4.09122 z m -960.37724,-1.22186 c -2.49238,-2.8027 -7.82109,-5.02324 -10.10348,-4.21008 -0.99374,0.35394 -2.59353,1.32054 -3.55514,2.14802 -1.5597,1.34213 -2.16295,1.31728 -5.58634,-0.22945 -5.02238,-2.26923 -17.64057,-13.29591 -25.3231,-22.12912 -3.70411,-4.25901 -7.85361,-10.61126 -10.5576,-16.16241 l -4.45492,-9.14552 0.036,-19.92425 c 0.033,-18.63054 0.2248,-20.67276 2.94827,-31.4519 5.00219,-19.79814 11.0213,-30.71188 24.95796,-45.25307 10.3586,-10.80783 15.33575,-13.3376 26.2412,-13.33765 6.55095,-3e-5 8.48178,0.46083 15.07526,3.59824 10.05745,4.78571 19.8288,13.91149 24.01222,22.42599 4.5927,9.3475 6.27202,22.06216 5.54511,41.98478 -0.31975,8.76362 -0.79645,16.14936 -1.05936,16.41279 -0.4527,0.4537 -13.26736,3.60365 -53.8376,13.23379 l -17.75771,4.21509 v 3.74283 c 0,10.38131 9.27403,23.01504 19.43656,26.47776 5.7549,1.96092 17.71448,2.18063 28.08409,0.51603 3.85168,-0.61826 9.31515,-1.06826 12.14118,-0.9999 4.92343,0.11911 5.18735,-0.011 6.31755,-3.11616 0.64869,-1.78232 1.72905,-4.36823 2.40084,-5.74653 1.51096,-3.09993 16.41824,-15.30211 17.71409,-14.49961 0.51893,0.32139 0.94351,3.86868 0.94351,7.88303 0,10.3614 -3.6792,17.42384 -14.95629,28.70952 -9.77645,9.78399 -16.0921,13.32985 -27.70844,15.55679 -9.39599,1.80131 -8.69008,1.8464 -10.95358,-0.69901 z m -3.40648,-90.67209 c 11.27991,-1.43282 20.94431,-3.02087 21.47653,-3.52885 1.16491,-1.11217 -1.94144,-20.71103 -4.11288,-25.9495 -1.93494,-4.66784 -7.62311,-10.38919 -12.53545,-12.60871 -3.52584,-1.59299 -4.45703,-1.64495 -8.15583,-0.45477 -2.29661,0.73886 -6.48393,1.29009 -9.30526,1.22494 -6.57005,-0.152 -9.38267,2.31227 -7.70915,6.75449 0.8951,2.37603 0.60438,3.92352 -1.79607,9.56149 -3.6707,8.62149 -5.87405,17.17983 -5.87405,22.81578 0,5.38239 0.4791,5.9557 4.43042,5.30013 1.69003,-0.2804 12.30185,-1.68218 23.58174,-3.115 z m -579.02287,84.04419 c -10.07918,-12.88434 -8.45999,-21.96845 4.41026,-24.74359 l 3.13853,-0.67675 0.72698,-17.95723 c 0.66254,-16.36428 0.89449,-18.01041 2.61512,-18.55755 4.22816,-1.34462 4.74932,-7.41437 0.81773,-9.52266 -1.77305,-0.95078 -1.9313,-2.21672 -1.91145,-15.2857 l 0.0216,-14.24898 3.16399,-1.50361 c 5.38133,-2.55735 5.53974,-3.91192 1.46325,-12.51279 l -3.67007,-7.74345 v -31.27509 -31.27516 l -3.33627,-3.24 c -2.19981,-2.13632 -4.67047,-3.42051 -7.25312,-3.76998 -2.15432,-0.29151 -4.92985,-0.73488 -6.16791,-0.98535 -3.71471,-0.75148 -2.7573,-4.30639 2.53689,-9.41933 8.43317,-8.14452 28.05829,-13.05619 52.11787,-13.0438 33.29377,0.0171 57.61348,12.33198 67.62513,34.24353 5.43184,11.88797 6.86279,19.92855 6.92764,38.9251 0.0509,14.9359 -0.26981,18.84886 -2.15875,26.33755 -5.51421,21.86088 -16.96066,40.33467 -30.97968,49.99895 -9.86502,6.80074 -28.63072,12.95541 -44.29658,14.52809 -3.57657,0.35906 -6.83358,1.14955 -7.23782,1.75663 -1.18241,1.77575 -0.87435,18.57086 0.38455,20.96733 1.55221,2.95481 2.79187,3.65956 6.46825,3.67774 1.71406,0.01 4.32292,0.9662 5.79748,2.12841 2.03545,1.60425 3.33264,1.92462 5.38718,1.33049 3.34712,-0.96783 17.65293,-0.7097 21.70142,0.39163 2.93159,0.79753 2.82701,0.90096 -5.5115,5.45528 -12.46914,6.81037 -17.84696,8.9911 -22.0293,8.93326 -2.71171,-0.037 -4.36227,0.62078 -6.03807,2.4081 -3.02164,3.22281 -9.71601,5.13051 -24.39026,6.95087 -16.93532,2.10076 -16.89932,2.10477 -20.32309,-2.27194 z m 67.5781,-79.99878 c 1.22294,-0.85825 2.22348,-2.16149 2.22348,-2.89613 0,-2.85356 3.60948,-5.81548 7.45993,-6.12159 4.71212,-0.37463 5.76637,-1.79562 5.151,-6.943 -0.35263,-2.95009 0.26622,-5.69086 2.3766,-10.52525 5.29845,-12.13745 6.44157,-18.23872 6.48341,-34.60402 0.0436,-17.06753 -1.87428,-25.68869 -7.42164,-33.36169 -3.35689,-4.64322 -11.68961,-9.92086 -17.05059,-10.79926 -5.32417,-0.87238 -7.7652,-2.12439 -8.46809,-4.34335 -1.35427,-4.27535 -8.76199,-3.29508 -10.54159,1.39503 -0.62305,1.64182 -1.98408,2.74977 -3.83327,3.1203 l -2.8673,0.57463 -0.65073,13.59581 c -0.35791,7.47775 -0.65079,30.85154 -0.65079,51.94184 v 38.34608 l 4.09481,0.69316 c 2.25211,0.38134 6.43413,0.40041 9.29349,0.042 2.85927,-0.35796 6.30647,-0.20774 7.66033,0.33379 3.44101,1.3764 4.2136,1.32495 6.74095,-0.44869 z m 671.55629,9.735 c -4.4288,-4.22163 -5.0082,-6.92775 -2.6794,-12.51269 1.8159,-4.35465 5.6179,-6.69173 10.856,-6.67302 5.6094,0.02 7.163,1.13194 7.2318,5.17565 0.046,2.6685 0.5033,3.39313 2.3074,3.64986 1.8489,0.26313 2.2508,0.95238 2.2508,3.85927 0,2.68814 -0.8174,4.35825 -3.4015,6.94706 -2.873,2.87901 -4.1093,3.40819 -7.9612,3.40819 -3.921,0 -5.1265,-0.53988 -8.6039,-3.85432 z M 912.23957,249.86636 c -10.3694,-6.33584 -12.33855,-19.81789 -4.12419,-28.23629 3.96363,-4.0621 6.4391,-4.98053 13.42404,-4.98053 7.05705,0 11.15924,2.59001 14.84634,9.37376 6.52674,12.00833 -2.05599,25.7113 -16.10009,25.70517 -3.10836,-10e-4 -6.15468,-0.70633 -8.0461,-1.86211 z M 500.72363,238.9927 c -4.15294,-2.04992 -8.6766,-8.11029 -9.55476,-12.80056 -1.57111,-8.39104 5.29938,-19.08584 13.18602,-20.52589 7.95205,-1.45203 17.62061,1.99885 14.46347,5.16216 -1.5494,1.55246 -1.5532,5.07397 -0.007,6.62309 0.66024,0.66157 2.68613,1.20291 4.50192,1.20291 3.1756,0 3.30145,0.15027 3.30145,3.94433 0,5.0865 -1.46369,8.87602 -4.8157,12.46819 -5.22472,5.59899 -14.27144,7.28418 -21.07526,3.92577 z m 202.1761,0.0427 c -4.90764,-2.42345 -7.21166,-5.9168 -7.21166,-10.93428 0,-2.37403 -0.45021,-4.59524 -1.00045,-4.93602 -3.17256,-1.9646 1.593,-12.25047 7.4605,-16.10259 3.19863,-2.09996 13.21736,-2.18096 17.15883,-0.13876 8.54343,4.42667 11.97076,16.38929 7.15523,24.97423 -4.38457,7.81667 -15.4187,11.15909 -23.56245,7.13746 z m 1186.23497,-1.12707 c -2.646,-1.70357 -5.2816,-4.43943 -6.253,-6.48965 -3.4037,-7.18681 -1.3976,-16.98575 4.632,-22.62302 4.8666,-4.55069 14.9439,-4.86712 21.3365,-0.67007 2.121,1.39246 2.5082,2.28195 2.1144,4.86338 -0.6361,4.17698 -0.026,5.60916 2.8577,6.70764 4.9009,1.86693 1.8553,13.39284 -4.7921,18.13533 -2.2919,1.6353 -4.9884,2.4096 -9.2767,2.66354 -5.3168,0.31491 -6.5956,0.003 -10.6188,-2.58715 z"
       id="path916" /></g></svg>
