<?xml version="1.0" encoding="UTF-8" standalone="no"?>
<!-- Created with Inkscape (http://www.inkscape.org/) -->

<svg
   xmlns:dc="http://purl.org/dc/elements/1.1/"
   xmlns:cc="http://creativecommons.org/ns#"
   xmlns:rdf="http://www.w3.org/1999/02/22-rdf-syntax-ns#"
   xmlns:svg="http://www.w3.org/2000/svg"
   xmlns="http://www.w3.org/2000/svg"
   xmlns:xlink="http://www.w3.org/1999/xlink"
   xmlns:sodipodi="http://sodipodi.sourceforge.net/DTD/sodipodi-0.dtd"
   xmlns:inkscape="http://www.inkscape.org/namespaces/inkscape"
   id="svg2"
   version="1.1"
   inkscape:version="0.92.2 (5c3e80d, 2017-08-06)"
   width="2481"
   height="3503"
   sodipodi:docname="E21P05.svg"
   inkscape:export-filename="E:\Users\jamesmichael\Downloads\Compressed\eps\ep21_The-Magic-Contest_lang-pack\lang\ph\E21P05.png"
   inkscape:export-xdpi="96"
   inkscape:export-ydpi="96">
  <sodipodi:namedview
     pagecolor="#ffffff"
     bordercolor="#666666"
     inkscape:pageopacity="0"
     inkscape:pageshadow="2"
     inkscape:window-width="1813"
     inkscape:window-height="955"
     id="namedview70"
     showgrid="false"
     inkscape:zoom="0.28284271"
     inkscape:cx="923.84573"
     inkscape:cy="2396.5393"
     inkscape:current-layer="layer4"
     inkscape:snap-grids="false"
     inkscape:snap-to-guides="false"
     inkscape:snap-others="false"
     inkscape:snap-nodes="false"
     inkscape:snap-global="false" />
  <metadata
     id="metadata8">
    <rdf:RDF>
      <cc:Work
         rdf:about="">
        <dc:format>image/svg+xml</dc:format>
        <dc:type
           rdf:resource="http://purl.org/dc/dcmitype/StillImage" />
        <dc:title />
      </cc:Work>
    </rdf:RDF>
  </metadata>
  <defs
     id="defs6">
    <filter
       style="color-interpolation-filters:sRGB"
       id="filter4375-4-1-1-1-9-6-9-2-2"
       inkscape:label="deevad outline effect">
      <feFlood
         id="feFlood4377-7-9-0-8-1-0-2-2-0"
         flood-opacity="1"
         flood-color="rgb(0,0,0)"
         result="flood" />
      <feComposite
         id="feComposite4379-3-8-8-2-77-6-0-8-6"
         in2="SourceGraphic"
         in="flood"
         operator="in"
         result="composite1" />
      <feMorphology
         id="feMorphology4393-1-0-49-8-9-2-2-9-1"
         operator="dilate"
         radius="4"
         result="result3" />
      <feComposite
         id="feComposite4385-9-5-7-0-8-6-3-7-5"
         in2="result3"
         in="SourceGraphic"
         operator="over"
         result="composite2" />
    </filter>
    <filter
       style="color-interpolation-filters:sRGB"
       id="filter4375-4-1-1-1-9-6-9-2"
       inkscape:label="deevad outline effect">
      <feFlood
         id="feFlood4377-7-9-0-8-1-0-2-2"
         flood-opacity="1"
         flood-color="rgb(0,0,0)"
         result="flood" />
      <feComposite
         id="feComposite4379-3-8-8-2-77-6-0-8"
         in2="SourceGraphic"
         in="flood"
         operator="in"
         result="composite1" />
      <feMorphology
         id="feMorphology4393-1-0-49-8-9-2-2-9"
         operator="dilate"
         radius="4"
         result="result3" />
      <feComposite
         id="feComposite4385-9-5-7-0-8-6-3-7"
         in2="result3"
         in="SourceGraphic"
         operator="over"
         result="composite2" />
    </filter>
    <filter
       style="color-interpolation-filters:sRGB"
       id="filter4375-4-1-1-1-9-6-9"
       inkscape:label="deevad outline effect">
      <feFlood
         id="feFlood4377-7-9-0-8-1-0-2"
         flood-opacity="1"
         flood-color="rgb(0,0,0)"
         result="flood" />
      <feComposite
         id="feComposite4379-3-8-8-2-77-6-0"
         in2="SourceGraphic"
         in="flood"
         operator="in"
         result="composite1" />
      <feMorphology
         id="feMorphology4393-1-0-49-8-9-2-2"
         operator="dilate"
         radius="4"
         result="result3" />
      <feComposite
         id="feComposite4385-9-5-7-0-8-6-3"
         in2="result3"
         in="SourceGraphic"
         operator="over"
         result="composite2" />
    </filter>
    <filter
       style="color-interpolation-filters:sRGB"
       id="filter4375-4-1-1-1-9"
       inkscape:label="deevad outline effect">
      <feFlood
         id="feFlood4377-7-9-0-8-1"
         flood-opacity="1"
         flood-color="rgb(0,0,0)"
         result="flood" />
      <feComposite
         id="feComposite4379-3-8-8-2-77"
         in2="SourceGraphic"
         in="flood"
         operator="in"
         result="composite1" />
      <feMorphology
         id="feMorphology4393-1-0-49-8-9"
         operator="dilate"
         radius="4"
         result="result3" />
      <feComposite
         id="feComposite4385-9-5-7-0-8"
         in2="result3"
         in="SourceGraphic"
         operator="over"
         result="composite2" />
    </filter>
    <filter
       style="color-interpolation-filters:sRGB"
       id="filter4375-4-1-1-1-9-6-9-2-3"
       inkscape:label="deevad outline effect">
      <feFlood
         id="feFlood4377-7-9-0-8-1-0-2-2-6"
         flood-opacity="1"
         flood-color="rgb(0,0,0)"
         result="flood" />
      <feComposite
         id="feComposite4379-3-8-8-2-77-6-0-8-7"
         in2="SourceGraphic"
         in="flood"
         operator="in"
         result="composite1" />
      <feMorphology
         id="feMorphology4393-1-0-49-8-9-2-2-9-5"
         operator="dilate"
         radius="4"
         result="result3" />
      <feComposite
         id="feComposite4385-9-5-7-0-8-6-3-7-3"
         in2="result3"
         in="SourceGraphic"
         operator="over"
         result="composite2" />
    </filter>
    <filter
       style="color-interpolation-filters:sRGB"
       id="filter4375-4-1-1-1-9-6-9-2-1"
       inkscape:label="deevad outline effect">
      <feFlood
         id="feFlood4377-7-9-0-8-1-0-2-2-2"
         flood-opacity="1"
         flood-color="rgb(0,0,0)"
         result="flood" />
      <feComposite
         id="feComposite4379-3-8-8-2-77-6-0-8-70"
         in2="SourceGraphic"
         in="flood"
         operator="in"
         result="composite1" />
      <feMorphology
         id="feMorphology4393-1-0-49-8-9-2-2-9-9"
         operator="dilate"
         radius="4"
         result="result3" />
      <feComposite
         id="feComposite4385-9-5-7-0-8-6-3-7-36"
         in2="result3"
         in="SourceGraphic"
         operator="over"
         result="composite2" />
    </filter>
    <filter
       style="color-interpolation-filters:sRGB"
       id="filter4375-4-1-1-1-9-6-9-2-2-0"
       inkscape:label="deevad outline effect">
      <feFlood
         id="feFlood4377-7-9-0-8-1-0-2-2-0-6"
         flood-opacity="1"
         flood-color="rgb(0,0,0)"
         result="flood" />
      <feComposite
         id="feComposite4379-3-8-8-2-77-6-0-8-6-2"
         in2="SourceGraphic"
         in="flood"
         operator="in"
         result="composite1" />
      <feMorphology
         id="feMorphology4393-1-0-49-8-9-2-2-9-1-6"
         operator="dilate"
         radius="4"
         result="result3" />
      <feComposite
         id="feComposite4385-9-5-7-0-8-6-3-7-5-1"
         in2="result3"
         in="SourceGraphic"
         operator="over"
         result="composite2" />
    </filter>
    <filter
       style="color-interpolation-filters:sRGB"
       id="filter4375-4-1-1-1-9-6-9-8"
       inkscape:label="deevad outline effect">
      <feFlood
         id="feFlood4377-7-9-0-8-1-0-2-7"
         flood-opacity="1"
         flood-color="rgb(0,0,0)"
         result="flood" />
      <feComposite
         id="feComposite4379-3-8-8-2-77-6-0-9"
         in2="SourceGraphic"
         in="flood"
         operator="in"
         result="composite1" />
      <feMorphology
         id="feMorphology4393-1-0-49-8-9-2-2-2"
         operator="dilate"
         radius="4"
         result="result3" />
      <feComposite
         id="feComposite4385-9-5-7-0-8-6-3-0"
         in2="result3"
         in="SourceGraphic"
         operator="over"
         result="composite2" />
    </filter>
    <filter
       style="color-interpolation-filters:sRGB"
       id="filter4375-4-1-1-1-9-6-9-2-3-2"
       inkscape:label="deevad outline effect">
      <feFlood
         id="feFlood4377-7-9-0-8-1-0-2-2-6-3"
         flood-opacity="1"
         flood-color="rgb(0,0,0)"
         result="flood" />
      <feComposite
         id="feComposite4379-3-8-8-2-77-6-0-8-7-7"
         in2="SourceGraphic"
         in="flood"
         operator="in"
         result="composite1" />
      <feMorphology
         id="feMorphology4393-1-0-49-8-9-2-2-9-5-5"
         operator="dilate"
         radius="4"
         result="result3" />
      <feComposite
         id="feComposite4385-9-5-7-0-8-6-3-7-3-9"
         in2="result3"
         in="SourceGraphic"
         operator="over"
         result="composite2" />
    </filter>
    <filter
       style="color-interpolation-filters:sRGB"
       id="filter4375-4-1-1-1-9-6-9-2-1-3"
       inkscape:label="deevad outline effect">
      <feFlood
         id="feFlood4377-7-9-0-8-1-0-2-2-06"
         flood-opacity="1"
         flood-color="rgb(0,0,0)"
         result="flood" />
      <feComposite
         id="feComposite4379-3-8-8-2-77-6-0-8-3"
         in2="SourceGraphic"
         in="flood"
         operator="in"
         result="composite1" />
      <feMorphology
         id="feMorphology4393-1-0-49-8-9-2-2-9-2"
         operator="dilate"
         radius="4"
         result="result3" />
      <feComposite
         id="feComposite4385-9-5-7-0-8-6-3-7-0"
         in2="result3"
         in="SourceGraphic"
         operator="over"
         result="composite2" />
    </filter>
    <filter
       inkscape:label="Swirl"
       inkscape:menu="Distort"
       inkscape:menu-tooltip="Paint objects with a transparent turbulence which wraps around color edges"
       height="1.4"
       y="-0.2"
       width="1.4"
       x="-0.2"
       style="color-interpolation-filters:sRGB;"
       id="filter5020">
      <feGaussianBlur
         stdDeviation="0.01"
         result="result10"
         id="feGaussianBlur5002" />
      <feBlend
         in2="result10"
         mode="normal"
         in="result10"
         result="fbSourceGraphic"
         id="feBlend5004" />
      <feGaussianBlur
         stdDeviation="3"
         result="result8"
         in="fbSourceGraphic"
         id="feGaussianBlur5006" />
      <feTurbulence
         seed="0"
         result="result7"
         type="fractalNoise"
         numOctaves="1"
         baseFrequency="0.0090000000000000011"
         id="feTurbulence5008" />
      <feComposite
         in2="result8"
         result="result6"
         operator="over"
         in="result8"
         id="feComposite5010" />
      <feDisplacementMap
         in2="result6"
         in="result7"
         xChannelSelector="R"
         yChannelSelector="G"
         scale="65.833333333333329"
         result="result4"
         id="feDisplacementMap5012" />
      <feComposite
         in2="result4"
         result="result2"
         operator="arithmetic"
         in="result8"
         k1="1"
         k3="1"
         id="feComposite5014" />
      <feComposite
         in2="result2"
         result="fbSourceGraphic"
         in="fbSourceGraphic"
         operator="in"
         id="feComposite5016" />
      <feDisplacementMap
         in2="result4"
         yChannelSelector="G"
         scale="39.600000000000001"
         xChannelSelector="R"
         id="feDisplacementMap5018" />
    </filter>
  </defs>
  <sodipodi:namedview
     pagecolor="#ffffff"
     bordercolor="#666666"
     borderopacity="1"
     objecttolerance="10"
     gridtolerance="10"
     guidetolerance="10"
     inkscape:pageopacity="0"
     inkscape:pageshadow="2"
     inkscape:window-width="1920"
     inkscape:window-height="1025"
     id="namedview4"
     showgrid="false"
     inkscape:zoom="0.71817042"
     inkscape:cx="1437.3736"
     inkscape:cy="1138.574"
     inkscape:window-x="0"
     inkscape:window-y="26"
     inkscape:window-maximized="1"
     inkscape:current-layer="layer1"
     showguides="false" />
  <g
     inkscape:groupmode="layer"
     id="layer2"
     inkscape:label="artwork"
     sodipodi:insensitive="true">
    <image
       sodipodi:absref="E:\Users\jamesmichael\Downloads\Compressed\eps\ep21_The-Magic-Contest_lang-pack\lang\ph\../gfx_Pepper-and-Carrot_by-David-Revoy_E21P05.png"
       xlink:href="../gfx_Pepper-and-Carrot_by-David-Revoy_E21P05.png"
       width="2481"
       height="3503"
       id="image10"
       x="0"
       y="0" />
  </g>
  <g
     inkscape:groupmode="layer"
     id="layer4"
     inkscape:label="transla-notes"
     style="display:inline">
    <path
       style="color:#000000;clip-rule:nonzero;display:inline;overflow:visible;visibility:visible;opacity:0.481;isolation:auto;mix-blend-mode:normal;color-interpolation:sRGB;color-interpolation-filters:linearRGB;solid-color:#000000;solid-opacity:1;fill:#ffe680;fill-opacity:1;fill-rule:nonzero;stroke:#565656;stroke-width:1.20000005;stroke-linecap:butt;stroke-linejoin:miter;stroke-miterlimit:4;stroke-dasharray:none;stroke-dashoffset:0;stroke-opacity:1;marker:none;color-rendering:auto;image-rendering:auto;shape-rendering:auto;text-rendering:auto;enable-background:accumulate"
       d="m -465.52729,1467.3488 v 189.0351 h 203.83 v -90.9805 h 10 v 15.6308 l 30.9825,-26.9824 -30.9825,-26.9804 v 16.6171 h -10 v -76.3397 z"
       id="rect4191-6"
       inkscape:connector-curvature="0" />
    <flowRoot
       xml:space="preserve"
       id="flowRoot4212-7"
       style="font-style:normal;font-variant:normal;font-weight:normal;font-stretch:normal;line-height:0.01%;font-family:Lavi;-inkscape-font-specification:'Lavi, Normal';text-align:center;letter-spacing:0px;word-spacing:0px;writing-mode:lr-tb;text-anchor:middle;display:inline;opacity:0.481;fill:#000000;fill-opacity:1;stroke:none;stroke-width:1px;stroke-linecap:butt;stroke-linejoin:miter;stroke-opacity:1"
       transform="translate(-235.83689,459.1052)"><flowRegion
         id="flowRegion4214-5"><rect
           id="rect4216-3"
           width="291.95547"
           height="247.52747"
           x="-275.14545"
           y="1061.6674" /></flowRegion><flowPara
         id="flowPara4218-5"
         style="font-size:25.3241539px;line-height:1.25">Edit this one,</flowPara><flowPara
         id="flowPara4562"
         style="font-size:25.3241539px;line-height:1.25">all other one</flowPara><flowPara
         id="flowPara4564"
         style="font-size:25.3241539px;line-height:1.25">are linked</flowPara></flowRoot>    <text
       xml:space="preserve"
       style="font-style:normal;font-variant:normal;font-weight:normal;font-stretch:normal;line-height:0%;font-family:Lavi;-inkscape-font-specification:Lavi;letter-spacing:0px;word-spacing:0px;display:inline;fill:#000000;fill-opacity:1;stroke:#ffffff;stroke-width:0.992451;stroke-miterlimit:4;stroke-dasharray:none;stroke-opacity:1;filter:url(#filter4375-4-1-1-1-9-6-9-2-1-3)"
       x="787.65729"
       y="1584.5073"
       id="text4580-1-7-3-6"
       transform="matrix(0.96380061,-0.56217228,-0.1779318,1.4896521,-681.35295,-300.2468)"><tspan
         sodipodi:role="line"
         id="tspan4582-8-5-6-1"
         x="787.65729"
         y="1584.5073"
         style="font-size:70px;line-height:1.25;fill:#ffffff;stroke:#ffffff;stroke-opacity:1;stroke-width:0.992451;stroke-miterlimit:4;stroke-dasharray:none">Clap</tspan></text>
  </g>
  <g
     inkscape:groupmode="layer"
     id="layer3"
     inkscape:label="speechbubbles"
     style="display:inline">
    <path
       style="fill:#ffffff;stroke:none"
       d="m 736.51191,1188.4171 c -45.48157,-7.8653 -49.80145,-21.3317 -53.4388,-37.0835 -3.6374,-15.7517 -5.16203,-30.4687 -14.32474,-35.8289 -9.16272,-5.3602 -23.37699,-6.6454 -34.06986,-6.2062 -10.69301,0.4392 -13.97989,-8.9853 -18.62286,-19.1174 -4.64306,-10.1321 -41.97641,-56.8354 -41.97641,-56.8354 0,0 -1.20376,45.2512 2.94367,59.0698 4.14744,13.8186 5.59223,18.8919 8.79041,23.9507 3.19826,5.0588 12.93629,16.3762 24.00316,18.7395 11.06682,2.3635 22.61467,-0.7131 31.38172,-0.7856 8.76701,-0.073 19.23906,8.8101 24.59357,20.1638 5.35451,11.3537 21.40439,35.2793 39.65729,37.2326 18.25291,1.9532 31.06285,-3.2994 31.06285,-3.2994 z"
       id="path3023"
       inkscape:connector-curvature="0"
       sodipodi:nodetypes="csssscssssssc" />
    <g
       transform="matrix(1.7927593,-0.49837586,0.59120619,1.6370034,-2718.3033,-2671.4408)"
       id="g3487">
      <g
         style="display:inline;opacity:1;fill:#ffffff;fill-opacity:1"
         transform="matrix(1.1175556,0.1528418,-0.22733454,1.1392281,200.31774,-1231.9554)"
         id="g5381">
        <path
           sodipodi:nodetypes="csccccccccsccccssccccccsssssscssscc"
           style="color:#000000;display:inline;overflow:visible;visibility:visible;fill:#ffffff;fill-opacity:1;fill-rule:nonzero;stroke:none;stroke-width:1px;marker:none;enable-background:accumulate"
           d="m 1225.2771,3157.962 c -4.7051,-6.6655 -4.7051,-15.2915 -4.7051,-16.8598 0,-1.5684 0.3921,-7.4497 0.3921,-7.4497 l -3.1367,-1.1763 2.7446,-5.0971 -3.1367,0.3921 c 0,0 7.4497,-9.0181 9.018,-11.7627 1.5684,-2.7446 4.313,-9.018 4.313,-9.018 0,0 14.5073,-1.9605 17.644,-3.1368 3.1367,-1.1762 12.5468,-11.3705 12.5468,-11.3705 0,0 11.3706,5.4892 15.6836,6.2734 4.3129,0.7842 24.3095,1.9604 27.8383,0 3.5288,-1.9605 7.0576,-4.7051 7.0576,-4.7051 0,0 9.018,-0.7841 11.3705,-1.9604 2.3526,-1.1763 6.6655,-3.9209 6.6655,-3.9209 0,0 7.4497,0.7842 10.5864,0.3921 3.1367,-0.3921 17.644,0 19.2124,0 1.5683,0 12.5468,6.6655 12.5468,6.6655 l 7.0576,6.6655 c 0,0 5.8813,-0.3921 8.626,-1.1763 2.7446,-0.7841 5.0971,3.1367 5.0971,3.1367 0,0 10.5864,23.9175 12.1548,28.6225 1.5683,4.7051 2.3525,14.1152 2.3525,14.1152 0,0 -4.313,7.4497 -6.6655,10.5864 -2.3525,3.1367 -9.018,10.5864 -12.5468,13.331 -3.5288,2.7446 -7.8418,7.0576 -12.1548,4.313 -4.313,-2.7446 -8.6259,-2.3525 -10.1943,-0.3921 -1.5684,1.9604 -11.8039,13.5779 -15.7248,12.0095 -3.9209,-1.5684 -10.9988,-3.9226 -14.9197,-7.4514 -3.9209,-3.5288 -17.5824,6.8125 -20.327,4.4599 -2.7446,-2.3525 -6.6655,-6.6655 -9.4102,-6.6655 -2.7446,0 -35.68,9.8023 -39.6009,8.2339 -3.9209,-1.5684 -24.7016,-14.5073 -27.0541,-16.0756 -2.3526,-1.5684 -8.2339,-10.9785 -8.2339,-10.9785 z"
           id="path5263"
           inkscape:connector-curvature="0" />
        <path
           sodipodi:nodetypes="cccccccccc"
           style="color:#000000;font-style:normal;font-variant:normal;font-weight:normal;font-stretch:normal;font-size:medium;line-height:normal;font-family:Sans;-inkscape-font-specification:Sans;text-indent:0;text-align:start;text-decoration:none;text-decoration-line:none;letter-spacing:normal;word-spacing:normal;text-transform:none;direction:ltr;block-progression:tb;writing-mode:lr-tb;baseline-shift:baseline;text-anchor:start;display:inline;overflow:visible;visibility:visible;fill:#ffffff;fill-opacity:1;fill-rule:nonzero;stroke:none;stroke-width:1px;marker:none;enable-background:accumulate"
           d="m 1236.8125,3095.4062 c -0.053,0.01 -0.1046,0.019 -0.1563,0.031 l -9.875,1.375 c -0.5664,0.074 -1.0819,0.3653 -1.4374,0.8125 l -12.9688,16.3438 c -1.8333,2.3125 1.6355,5.0625 3.4688,2.75 l 12.375,-15.6876 9.111,-3.4944 c 2.7893,-0.3937 2.2948,-2.297 -0.5173,-2.1306 z"
           id="path5271"
           inkscape:connector-curvature="0" />
        <path
           sodipodi:nodetypes="cccccccccccc"
           style="color:#000000;font-style:normal;font-variant:normal;font-weight:normal;font-stretch:normal;font-size:medium;line-height:normal;font-family:Sans;-inkscape-font-specification:Sans;text-indent:0;text-align:start;text-decoration:none;text-decoration-line:none;letter-spacing:normal;word-spacing:normal;text-transform:none;direction:ltr;block-progression:tb;writing-mode:lr-tb;baseline-shift:baseline;text-anchor:start;display:inline;overflow:visible;visibility:visible;fill:#ffffff;fill-opacity:1;fill-rule:nonzero;stroke:none;stroke-width:1px;marker:none;enable-background:accumulate"
           d="m 1252.1562,3077.3125 c -0.649,0.047 -1.244,0.3788 -1.625,0.9063 l -7.8124,10.5312 -11.3438,-5.0625 c -0.7671,-0.3468 -1.6649,-0.2255 -2.3125,0.3125 l -14.6563,12.2812 c -2.4947,1.8493 0.5439,5.4954 2.8126,3.375 l 13.5937,-11.4062 11.7187,5.25 c 0.9445,0.412 2.0484,0.1133 2.6563,-0.7188 l 8.037,-13.4205 c 1.1526,-1.5067 0.8237,-2.1851 -1.0683,-2.0482 z"
           id="path5273"
           inkscape:connector-curvature="0" />
        <path
           sodipodi:nodetypes="cccccccccccc"
           style="color:#000000;font-style:normal;font-variant:normal;font-weight:normal;font-stretch:normal;font-size:medium;line-height:normal;font-family:Sans;-inkscape-font-specification:Sans;text-indent:0;text-align:start;text-decoration:none;text-decoration-line:none;letter-spacing:normal;word-spacing:normal;text-transform:none;direction:ltr;block-progression:tb;writing-mode:lr-tb;baseline-shift:baseline;text-anchor:start;display:inline;overflow:visible;visibility:visible;fill:#ffffff;fill-opacity:1;fill-rule:nonzero;stroke:none;stroke-width:1px;marker:none;enable-background:accumulate"
           d="m 1267.9375,3079.7188 c -0.351,0.013 -0.6939,0.109 -1,0.2812 l -10.2187,5.4375 c -2.8742,1.2804 -0.605,5.544 2.0624,3.875 l 8.8126,-4.6563 6.3437,6.3438 c 0.3294,0.3327 0.7563,0.5516 1.2187,0.625 l 3.1345,-1.3807 c 3.0849,0.6795 3.0481,-2.4327 -0.1032,-2.6505 l -1.6875,-0.25 -6.9688,-6.9688 c -0.4199,-0.4264 -0.9953,-0.6633 -1.5937,-0.6562 z"
           id="path5275"
           inkscape:connector-curvature="0" />
        <path
           sodipodi:nodetypes="cccccccccc"
           style="color:#000000;font-style:normal;font-variant:normal;font-weight:normal;font-stretch:normal;font-size:medium;line-height:normal;font-family:Sans;-inkscape-font-specification:Sans;text-indent:0;text-align:start;text-decoration:none;text-decoration-line:none;letter-spacing:normal;word-spacing:normal;text-transform:none;direction:ltr;block-progression:tb;writing-mode:lr-tb;baseline-shift:baseline;text-anchor:start;display:inline;overflow:visible;visibility:visible;fill:#ffffff;fill-opacity:1;fill-rule:nonzero;stroke:none;stroke-width:1px;marker:none;enable-background:accumulate"
           d="m 1265.2812,3072.9062 c -2.5126,0.2333 -2.7193,3.8238 -0.25,4.3438 l 14.375,3.8438 6.8551,8.543 c 1.3125,2.6249 3.0824,1.4256 1.7699,-1.1993 l -5.125,-10.2187 c -0.2798,-0.5704 -0.7925,-0.992 -1.4062,-1.1563 L 1266.1562,3073 c -0.2824,-0.09 -0.58,-0.1219 -0.875,-0.094 z"
           id="path5277"
           inkscape:connector-curvature="0" />
        <path
           sodipodi:nodetypes="cccccc"
           style="color:#000000;font-style:normal;font-variant:normal;font-weight:normal;font-stretch:normal;font-size:medium;line-height:normal;font-family:Sans;-inkscape-font-specification:Sans;text-indent:0;text-align:start;text-decoration:none;text-decoration-line:none;letter-spacing:normal;word-spacing:normal;text-transform:none;direction:ltr;block-progression:tb;writing-mode:lr-tb;baseline-shift:baseline;text-anchor:start;display:inline;overflow:visible;visibility:visible;fill:#ffffff;fill-opacity:1;fill-rule:nonzero;stroke:none;stroke-width:1px;marker:none;enable-background:accumulate"
           d="m 1343.875,3078.6875 c -0.2717,0.024 -0.5366,0.098 -0.7812,0.2187 l -4.4376,2.0626 c -3.0843,1.0553 -1.8531,3.8515 0.9426,2.175 l 5.3387,-0.2376 c 2.3246,-0.9763 1.4472,-4.46 -1.0625,-4.2187 z"
           id="path5279"
           inkscape:connector-curvature="0" />
        <path
           sodipodi:nodetypes="sscccccs"
           style="color:#000000;font-style:normal;font-variant:normal;font-weight:normal;font-stretch:normal;font-size:medium;line-height:normal;font-family:Sans;-inkscape-font-specification:Sans;text-indent:0;text-align:start;text-decoration:none;text-decoration-line:none;letter-spacing:normal;word-spacing:normal;text-transform:none;direction:ltr;block-progression:tb;writing-mode:lr-tb;baseline-shift:baseline;text-anchor:start;display:inline;overflow:visible;visibility:visible;fill:#ffffff;fill-opacity:1;fill-rule:nonzero;stroke:none;stroke-width:1px;marker:none;enable-background:accumulate"
           d="m 1353.5625,3079.375 c -2.9375,0 -3.1534,5.1954 -0.2229,5.0779 l 16.7542,-0.6717 9.7927,7.1201 c 2.1875,1.9588 4.2702,-0.4741 2.0823,-2.4325 l -9.5626,-8.5313 c -0.4035,-0.362 -0.9266,-0.5624 -1.4687,-0.5625 z"
           id="path5281"
           inkscape:connector-curvature="0" />
        <path
           sodipodi:nodetypes="cccccccccc"
           style="color:#000000;font-style:normal;font-variant:normal;font-weight:normal;font-stretch:normal;font-size:medium;line-height:normal;font-family:Sans;-inkscape-font-specification:Sans;text-indent:0;text-align:start;text-decoration:none;text-decoration-line:none;letter-spacing:normal;word-spacing:normal;text-transform:none;direction:ltr;block-progression:tb;writing-mode:lr-tb;baseline-shift:baseline;text-anchor:start;display:inline;overflow:visible;visibility:visible;fill:#ffffff;fill-opacity:1;fill-rule:nonzero;stroke:none;stroke-width:1px;marker:none;enable-background:accumulate"
           d="m 1365,3069.8438 c -2.9378,0.062 -2.8438,4.4693 0.094,4.4062 l 10,0.3125 6.2206,4.1383 c 1.998,2.1997 3.8644,0.1343 1.8106,-2.0133 l -5.4688,-5.8125 c -0.3995,-0.4225 -0.95,-0.6697 -1.5312,-0.6875 l -10.9062,-0.3437 c -0.073,0 -0.1459,0 -0.2188,0 z"
           id="path5283"
           inkscape:connector-curvature="0" />
        <path
           sodipodi:nodetypes="cccccccccc"
           style="color:#000000;font-style:normal;font-variant:normal;font-weight:normal;font-stretch:normal;font-size:medium;line-height:normal;font-family:Sans;-inkscape-font-specification:Sans;text-indent:0;text-align:start;text-decoration:none;text-decoration-line:none;letter-spacing:normal;word-spacing:normal;text-transform:none;direction:ltr;block-progression:tb;writing-mode:lr-tb;baseline-shift:baseline;text-anchor:start;display:inline;overflow:visible;visibility:visible;fill:#ffffff;fill-opacity:1;fill-rule:nonzero;stroke:none;stroke-width:1px;marker:none;enable-background:accumulate"
           d="m 1397.4375,3095.0625 c -2.6759,0.091 -2.5495,2.1775 0.099,2.5732 l 15.1514,4.3018 2.125,12.0937 c 0.5208,2.8958 4.8645,2.1146 4.3437,-0.7812 l -2.4062,-13.625 c -0.1656,-0.9179 -0.8919,-1.6317 -1.8125,-1.7812 l -17.0625,-2.75 c -0.1444,-0.025 -0.291,-0.035 -0.4375,-0.031 z"
           id="path5285"
           inkscape:connector-curvature="0" />
        <path
           sodipodi:nodetypes="ccccccccc"
           style="color:#000000;font-style:normal;font-variant:normal;font-weight:normal;font-stretch:normal;font-size:medium;line-height:normal;font-family:Sans;-inkscape-font-specification:Sans;text-indent:0;text-align:start;text-decoration:none;text-decoration-line:none;letter-spacing:normal;word-spacing:normal;text-transform:none;direction:ltr;block-progression:tb;writing-mode:lr-tb;baseline-shift:baseline;text-anchor:start;display:inline;overflow:visible;visibility:visible;fill:#ffffff;fill-opacity:1;fill-rule:nonzero;stroke:none;stroke-width:1px;marker:none;enable-background:accumulate"
           d="m 1397.875,3101.1875 c -2.3206,-0.025 -3.0946,3.0941 -1.0312,4.1563 l 3.5937,1.9062 5.875,22.9688 c 0.7292,2.8542 3.3019,2.1492 2.5727,-0.705 l -4.4477,-24.2638 c -0.1578,-0.5903 -0.554,-1.0884 -1.0937,-1.375 l -4.4063,-2.4062 c -0.3247,-0.1821 -0.6902,-0.2789 -1.0625,-0.2813 z"
           id="path5287"
           inkscape:connector-curvature="0" />
        <path
           sodipodi:nodetypes="ccccccccc"
           style="color:#000000;font-style:normal;font-variant:normal;font-weight:normal;font-stretch:normal;font-size:medium;line-height:normal;font-family:Sans;-inkscape-font-specification:Sans;text-indent:0;text-align:start;text-decoration:none;text-decoration-line:none;letter-spacing:normal;word-spacing:normal;text-transform:none;direction:ltr;block-progression:tb;writing-mode:lr-tb;baseline-shift:baseline;text-anchor:start;display:inline;overflow:visible;visibility:visible;fill:#ffffff;fill-opacity:1;fill-rule:nonzero;stroke:none;stroke-width:1px;marker:none;enable-background:accumulate"
           d="m 1412.125,3144.4688 c -0.9591,0.041 -1.7811,0.6982 -2.0312,1.625 l -2.9688,10.1874 -3.875,5.5313 c -1.8826,2.4274 0.2658,3.9104 1.9173,1.3203 l 5.7702,-4.5703 c 0.1398,-0.1999 0.2454,-0.4217 0.3125,-0.6563 l 3.0625,-10.5937 c 0.4441,-1.4482 -0.6739,-2.9015 -2.1875,-2.8437 z"
           id="path5289"
           inkscape:connector-curvature="0" />
        <path
           sodipodi:nodetypes="ccccccccc"
           style="color:#000000;font-style:normal;font-variant:normal;font-weight:normal;font-stretch:normal;font-size:medium;line-height:normal;font-family:Sans;-inkscape-font-specification:Sans;text-indent:0;text-align:start;text-decoration:none;text-decoration-line:none;letter-spacing:normal;word-spacing:normal;text-transform:none;direction:ltr;block-progression:tb;writing-mode:lr-tb;baseline-shift:baseline;text-anchor:start;display:inline;overflow:visible;visibility:visible;fill:#ffffff;fill-opacity:1;fill-rule:nonzero;stroke:none;stroke-width:1px;marker:none;enable-background:accumulate"
           d="m 1417.4062,3142.0938 c -1.0392,0.1213 -1.8492,0.9575 -1.9374,2 l -1,9.5624 -3.2813,7.9063 c -1.2238,2.7484 0.9066,3.9744 1.9903,1.1678 l 5.4784,-7.6678 c 0.083,-0.1995 0.1351,-0.4101 0.1563,-0.625 l 1.0313,-9.875 c 0.1844,-1.4201 -1.0153,-2.6351 -2.4376,-2.4687 z"
           id="path5291"
           inkscape:connector-curvature="0" />
        <path
           sodipodi:nodetypes="ccccccccc"
           style="color:#000000;font-style:normal;font-variant:normal;font-weight:normal;font-stretch:normal;font-size:medium;line-height:normal;font-family:Sans;-inkscape-font-specification:Sans;text-indent:0;text-align:start;text-decoration:none;text-decoration-line:none;letter-spacing:normal;word-spacing:normal;text-transform:none;direction:ltr;block-progression:tb;writing-mode:lr-tb;baseline-shift:baseline;text-anchor:start;display:inline;overflow:visible;visibility:visible;fill:#ffffff;fill-opacity:1;fill-rule:nonzero;stroke:none;stroke-width:1px;marker:none;enable-background:accumulate"
           d="m 1390.5662,3179.5714 c -0.351,0.013 -1,0.2813 -1,0.2813 l -7.125,3.875 -7.3437,0.6562 c -3.1313,0.063 -2.7214,4.8457 0.375,4.375 l 7.8437,-0.6875 c 0.3059,-0.021 0.6039,-0.1066 0.875,-0.25 l 8.0065,-5.119 c 2.1196,-1.0821 0.7445,-3.2657 -1.6315,-3.131 z"
           id="path5293"
           inkscape:connector-curvature="0" />
        <path
           sodipodi:nodetypes="cccccccccccc"
           style="color:#000000;font-style:normal;font-variant:normal;font-weight:normal;font-stretch:normal;font-size:medium;line-height:normal;font-family:Sans;-inkscape-font-specification:Sans;text-indent:0;text-align:start;text-decoration:none;text-decoration-line:none;letter-spacing:normal;word-spacing:normal;text-transform:none;direction:ltr;block-progression:tb;writing-mode:lr-tb;baseline-shift:baseline;text-anchor:start;display:inline;overflow:visible;visibility:visible;fill:#ffffff;fill-opacity:1;fill-rule:nonzero;stroke:none;stroke-width:1px;marker:none;enable-background:accumulate"
           d="m 1280.7221,3188.5748 c -0.4982,-0.2647 -1.0898,0.1011 -1.6873,0.2377 l -9.4568,5.0098 -11.166,-4.9199 -7.8481,-7.3221 c -0.8757,-2.5874 -2.2771,-0.2485 -1.4013,2.3389 l 5.8014,8.0075 c 0.108,0.3279 0.5511,0.4423 0.829,0.6681 l 12.6908,5.6184 c 0.5337,0.4324 1.3256,0.06 2.0722,-0.1113 3.6662,-1.0699 3.4682,-3.4305 9.9622,-6.6196 2.0978,-0.4518 1.9543,-1.9874 0.2039,-2.9075 z"
           id="path5295"
           inkscape:connector-curvature="0" />
        <path
           sodipodi:nodetypes="cccccccccccc"
           style="color:#000000;font-style:normal;font-variant:normal;font-weight:normal;font-stretch:normal;font-size:medium;line-height:normal;font-family:Sans;-inkscape-font-specification:Sans;text-indent:0;text-align:start;text-decoration:none;text-decoration-line:none;letter-spacing:normal;word-spacing:normal;text-transform:none;direction:ltr;block-progression:tb;writing-mode:lr-tb;baseline-shift:baseline;text-anchor:start;display:inline;overflow:visible;visibility:visible;fill:#ffffff;fill-opacity:1;fill-rule:nonzero;stroke:none;stroke-width:1px;marker:none;enable-background:accumulate"
           d="m 1299.0938,3181.6562 c -1.9894,0.1923 -2.7125,2.7233 -1.125,3.9376 l 11.9374,9.5312 c 0.4208,0.3468 0.9553,0.525 1.5,0.5 l 5.4688,-0.3438 c 0.5905,-0.034 1.1423,-0.3044 1.5312,-0.75 l 2.375,-2.7187 c 1.9375,-2.2083 -0.191,-3.9463 -2.1285,-1.7381 l -2.9652,0.8631 -3.6875,0.2187 -11.2812,-9 c -0.4528,-0.3777 -1.0382,-0.5578 -1.625,-0.5 z"
           id="path5297"
           inkscape:connector-curvature="0" />
        <path
           style="color:#000000;font-style:normal;font-variant:normal;font-weight:normal;font-stretch:normal;font-size:medium;line-height:normal;font-family:Sans;-inkscape-font-specification:Sans;text-indent:0;text-align:start;text-decoration:none;text-decoration-line:none;letter-spacing:normal;word-spacing:normal;text-transform:none;direction:ltr;block-progression:tb;writing-mode:lr-tb;baseline-shift:baseline;text-anchor:start;display:inline;overflow:visible;visibility:visible;fill:#ffffff;fill-opacity:1;fill-rule:nonzero;stroke:none;stroke-width:1px;marker:none;enable-background:accumulate"
           d="m 1229.0625,3164.9375 a 2.20022,2.20022 0 0 0 -1.3125,3.9375 l 3.4062,2.75 a 2.201074,2.201074 0 1 0 2.75,-3.4375 l -3.4062,-2.75 a 2.20022,2.20022 0 0 0 -1.4375,-0.5 z"
           id="path5301"
           inkscape:connector-curvature="0" />
      </g>
      <path
         inkscape:connector-curvature="0"
         id="path4295"
         d="m 1040.7186,2593.0113 c -5.5317,9.4907 -18.0351,11.6413 -21.4746,15.2859 5.7949,6.8978 14.8495,-2.0477 20.5137,-5.6272 2.9757,-2.0944 5.2706,-7.1056 0.9609,-9.6587 z"
         style="color:#000000;clip-rule:nonzero;display:inline;overflow:visible;visibility:visible;opacity:1;isolation:auto;mix-blend-mode:normal;color-interpolation:sRGB;color-interpolation-filters:linearRGB;solid-color:#000000;solid-opacity:1;fill:#ffffff;fill-opacity:1;fill-rule:nonzero;stroke:none;stroke-width:2.80699992;stroke-linecap:round;stroke-linejoin:round;stroke-miterlimit:4;stroke-dasharray:none;stroke-dashoffset:0;stroke-opacity:1;marker:none;color-rendering:auto;image-rendering:auto;shape-rendering:auto;text-rendering:auto;enable-background:accumulate"
         sodipodi:nodetypes="cccc" />
      <path
         inkscape:connector-curvature="0"
         id="path4297"
         d="m 838.01363,2551.4901 c -3.91523,-6.7821 -5.95361,-15.045 -3.86702,-22.5868 2.65752,-5.6153 5.33509,-2.5587 4.02293,2.0566 0.10065,6.6089 1.23208,13.1512 1.85409,19.7253 -0.67001,0.2683 -1.34,0.5365 -2.01,0.8049 z"
         style="color:#000000;clip-rule:nonzero;display:inline;overflow:visible;visibility:visible;opacity:1;isolation:auto;mix-blend-mode:normal;color-interpolation:sRGB;color-interpolation-filters:linearRGB;solid-color:#000000;solid-opacity:1;fill:#ffffff;fill-opacity:1;fill-rule:nonzero;stroke:none;stroke-width:2.80699992;stroke-linecap:round;stroke-linejoin:round;stroke-miterlimit:4;stroke-dasharray:none;stroke-dashoffset:0;stroke-opacity:1;marker:none;color-rendering:auto;image-rendering:auto;shape-rendering:auto;text-rendering:auto;enable-background:accumulate" />
    </g>
    <path
       style="fill:#ffffff;fill-rule:evenodd;stroke:none;stroke-width:1.09688997"
       d="m 1326.5474,319.47299 c 28.1609,10.38325 53.6166,16.83881 44.9621,-26.22739 49.8469,58.46877 42.6963,18.4256 50.5826,4.37119 29.6356,41.30213 55.1347,35.41628 77.2785,-8.7424 12.5185,63.69682 38.7141,32.8353 61.8231,23.31324 -0.057,17.91255 -6.3662,38.45246 61.8231,27.68453 -19.497,16.17812 -26.7696,30.86477 16.8606,39.34121 -30.3075,13.00773 -46.9519,26.84893 -14.0506,43.71248 -17.4786,24.56617 -5.7882,39.16577 18.2659,49.54074 -56.3207,1.43672 -42.7573,14.95192 -33.7217,27.68452 -47.9509,-26.17816 -54.6599,-15.69741 -50.5824,4.37121 -22.3184,-11.51233 -38.8145,-38.72288 -78.6836,-2.91407 -11.8576,-11.8844 -22.7878,-26.89446 -49.1775,10.19953 -1.8615,-32.35613 -21.1559,-31.13893 -49.1775,-13.1137 -7.3908,-30.34406 -35.1436,-14.93739 -64.6331,4.37129 24.0701,-29.61643 25.8143,-54.35857 -21.076,-68.48285 45.4407,-16.94276 37.1664,-30.60889 19.671,-43.7124 17.2848,-12.32196 28.5548,-25.74453 -16.8608,-49.54081 26.5533,3.69944 54.8265,8.469 26.6963,-21.85632 z"
       id="path4582-1"
       inkscape:connector-curvature="0"
       sodipodi:nodetypes="ccccccccccccccccccc" />
    <path
       style="fill:#ffffff;fill-rule:evenodd;stroke:none;stroke-width:1px;stroke-linecap:butt;stroke-linejoin:miter;stroke-opacity:1"
       d="m 1340.1288,214.08205 c 29.7678,8.78625 47.2775,10.11348 38.1293,-26.32889 52.6911,49.47596 45.1326,15.59163 53.4688,3.69888 31.3268,34.94964 58.281,29.96907 81.6884,-7.39778 13.2326,53.89992 40.923,27.78505 65.3507,19.72754 -0.06,15.15751 -6.7293,32.53826 65.3507,23.42651 -20.6095,13.68983 -28.297,26.1176 17.8229,33.29031 -32.0369,11.00707 -55.2703,24.09791 -20.4915,38.36775 -41.3111,16.61386 -25.188,28.8075 1.4512,38.47494 -29.4595,3.28345 -14.1824,18.16611 -4.6311,28.94037 -50.6872,-22.15183 -65.2976,-16.72923 -60.9874,0.25272 -23.592,-9.74169 -41.0295,-32.76709 -83.1736,-2.46587 -12.5342,-10.05651 -24.0879,-22.75794 -51.9836,8.63079 -1.9678,-27.37959 -22.363,-26.3496 -51.9835,-11.09675 -7.8126,-25.67698 -37.1491,-12.63992 -68.3213,3.69897 25.4436,-25.06128 27.2874,-45.99795 -22.2786,-57.94983 48.0336,-14.33688 39.2871,-25.90109 20.7934,-36.9892 18.2712,-10.42679 30.1842,-21.78488 -17.8229,-41.92118 28.0686,3.13046 67.3535,11.30185 37.6181,-14.35928 z"
       id="path4582"
       inkscape:connector-curvature="0"
       sodipodi:nodetypes="ccccccccccccccccccc" />
    <path
       style="fill:#ffffff;fill-rule:evenodd;stroke:none;stroke-width:1.17656064px;stroke-linecap:butt;stroke-linejoin:miter;stroke-opacity:1"
       d="m 1634.3902,282.88741 c -27.0193,-17.60207 -33.9185,-39.68813 -2.0474,-41.21257 -29.0969,-9.81211 -16.8627,-16.65032 -0.3584,-20.02475 -30.0673,-43.0607 -8.4327,-53.0046 9.9611,-77.11391 -45.3635,8.25243 -41.6917,-14.09483 -48.7588,-29.74082 -16.7294,28.80108 -16.7248,9.49162 -12.051,-23.242294 -19.0895,37.403944 -26.5288,39.907914 -23.344,10.586424 -15.1342,23.42288 -29.2717,31.75936 -42.2633,22.75479 -33.8109,20.27266 -36.7496,-11.39748 -49.6668,-26.278848 -13.2318,24.699728 -26.3109,24.441538 -39.341,16.226328 -9.8973,10.10933 -19.4064,25.20309 -31.9863,0.8696 -9.9417,20.46965 -15.396,4.99823 -22.2293,0.57164 6.3872,12.54559 -11.1573,14.57492 -56.2296,4.50767 16.4285,7.58709 12.799,15.61415 -14.5035,24.16063 24.257,13.06992 20.4819,25.88831 1.9805,38.57451 25.4732,23.10389 -1.3267,25.98671 -36.5897,43.74968 40.7275,0.75304 63.7062,10.82225 61.0627,41.68056 54.4639,-19.9976 43.7492,-7.55544 36.006,3.40779 37.5994,-26.24926 28.9608,-1.30033 34.0909,8.40287 91.2965,-28.90611 78.4116,6.81168 89.8991,27.41112 18.1354,-40.66939 30.9078,-23.5356 43.658,-6.16281 9.0343,-34.84288 16.628,-23.96778 24.2519,-14.04834 5.4802,-14.91756 16.8063,-18.5607 36.0145,-7.00254 -12.274,-13.44218 -1.9901,-14.86081 42.4444,1.92334 z"
       id="path4289"
       inkscape:connector-curvature="0"
       sodipodi:nodetypes="ccccccccccccccccccccccccc"
       inkscape:transform-center-x="80.206472"
       inkscape:transform-center-y="48.006442" />
    <path
       style="fill:#ffffff;fill-rule:evenodd;stroke:none;stroke-width:1.04477704"
       d="m 1338.6854,679.56072 c 23.0371,2.95137 38.6275,-27.87557 21.472,-81.13481 63.6791,50.26018 87.5233,28.15662 165.7529,-25.40537 -6.5008,74.6294 28.4638,67.65676 59.9852,53.32883 -30.2517,25.11334 19.3075,51.12794 48.5178,52.53862 -25.9419,32.78677 -44.253,83.13913 -19.9051,103.59777 -40.4636,-4.37071 -30.4526,17.32715 -37.7059,34.66998 -52.094,-39.2945 -89.9784,-29.96857 -119.9083,6.57516 -15.6536,-19.87352 -20.5672,-60.94851 -78.2733,2.19167 21.22,-54.50815 -6.5947,-48.78679 -51.6272,-21.91703 7.0576,-18.56622 49.0039,-46.79881 -21.65,-43.83432 44.1317,-17.65002 47.7616,-54.43131 33.3419,-80.6105 z"
       id="path4584"
       inkscape:connector-curvature="0"
       sodipodi:nodetypes="cccccccccccc" />
    <path
       style="color:#000000;display:inline;overflow:visible;visibility:visible;fill:#ffffff;fill-opacity:1;fill-rule:nonzero;stroke:none;stroke-width:1px;marker:none;enable-background:accumulate"
       d="m 1391.2861,635.82925 c 5.5403,-10.4024 29.4845,-40.898 25.9626,-3.098 38.4692,-43.6161 65.3028,-21.1504 92.7977,-2.4408 9.5286,-13.5107 13.287,-36.0725 37.4567,-26.6174 -1.647,-15.2365 7.9802,-23.918 27.6673,-26.751 -24.0567,-13.0401 -27.531,-22.9407 20.4263,-24.9964 -35.4372,-6.8651 -68.3719,-14.3367 -22.4597,-40.915 -12.9857,-2.988 -47.5375,19.8163 -22.8115,-59.6234 -25.7852,22.459 -51.5974,32.9257 -74.8351,-26.9701 -11.9681,20.1327 -27.6325,32.4653 -50.5506,-1.5323 -8.3872,20.5642 -40.7328,17.001 -52.0069,10.6621 20.8163,28.0281 18.1259,42.8398 -14.5187,39.7796 48.8273,52.3955 5.3069,38.4815 -4.8157,48.0242 40.731,22.0328 19.3434,37.4375 9.4399,54.6929 48.8879,8.7813 29.144,35.8023 28.2477,59.7856 z"
       id="path3549-3"
       inkscape:connector-curvature="0"
       sodipodi:nodetypes="ccccccccccccccc" />
    <rect
       style="color:#000000;clip-rule:nonzero;display:inline;overflow:visible;visibility:visible;opacity:1;isolation:auto;mix-blend-mode:normal;color-interpolation:sRGB;color-interpolation-filters:linearRGB;solid-color:#000000;solid-opacity:1;fill:#550000;fill-opacity:1;fill-rule:nonzero;stroke:none;stroke-width:2.5999999;stroke-linecap:butt;stroke-linejoin:miter;stroke-miterlimit:4;stroke-dasharray:none;stroke-dashoffset:0;stroke-opacity:1;marker:none;color-rendering:auto;image-rendering:auto;shape-rendering:auto;text-rendering:auto;enable-background:accumulate"
       id="rect4632-8"
       width="665.28882"
       height="327.01712"
       x="1672.5833"
       y="125.86807"
       ry="15.618866"
       rx="18.118896" />
    <path
       style="color:#000000;display:inline;overflow:visible;visibility:visible;fill:#550000;fill-opacity:1;fill-rule:nonzero;stroke:none;stroke-width:1px;marker:none;enable-background:accumulate"
       d="m 1968.112,396.19642 c -7.7341,16.23212 -51.3553,17.59325 -67.4135,14.29379 32.3696,18.15861 31.2411,29.44085 -12.7076,31.19263 73.7027,32.72657 13.4738,27.77427 1.594,36.0728 57.8704,11.27829 31.9786,25.31442 21.6758,39.28713 66.5161,0.47994 44.7484,22.87774 47.552,40.71615 5.6389,-8.37058 32.4281,-33.85431 34.04,-5.47988 43.9966,-27.07074 96.9894,-44.55708 101.1972,2.81681 17.7269,-23.83251 35.4007,-33.9051 34.0401,-5.47988 43.9219,-36.97058 96.5496,-32.12149 140.0128,-4.75505 -22.4665,-20.55702 -5.2741,-36.76001 28.4629,-32.74268 -4.7303,-11.06017 6.6607,-18.66289 32.3855,-23.1777 -34.1841,-6.68113 -40.4841,-13.57256 22.9881,-20.9888 -48.2987,-0.71736 -93.3375,-2.18707 -36.6727,-27.47863 -17.7773,-0.61198 -59.9558,20.49198 -40.2906,-41.26923 -30.5691,19.77192 -63.1835,30.68462 -104.0851,-10.73251 -19.3566,20.69118 -52.9303,30.93 -67.5366,5.08507 -5.2497,11.01815 -27.0182,15.1619 -45.4978,15.66442 -7.1461,-4.37663 -14.5166,-10.32118 -22.208,-18.10951 -12.5708,16.35342 -31.3755,27.3978 -67.5365,5.08507 z"
       id="path3549-3-7"
       inkscape:connector-curvature="0"
       sodipodi:nodetypes="cccccccccccccccccccc" />
    <path
       style="display:inline;fill:#ffffff;fill-rule:evenodd;stroke:none;stroke-width:1.25132656px;stroke-linecap:butt;stroke-linejoin:miter;stroke-opacity:1"
       d="m 1065.3362,2252.5437 c 67.0756,19.2257 69.1978,0.041 0.5673,-51.0103 85.3,44.6335 99.8923,44.5714 96.3783,4.8757 47.3957,25.244 65.7957,11.8232 74.2552,-14.8527 17.9252,28.5455 27.1837,13.7277 38.6269,9.8428 6.5476,5.9598 -0.6033,25.4504 45.7172,-7.8776 6.9858,8.2246 14.7296,14.9616 39.2821,-11.282 22.2513,34.6031 34.288,-9.0228 45.9621,-55.4271 2.2521,53.729 12.0538,59.421 26.462,35.8034 -2.0136,22.7145 -1.8181,39.9471 22.5495,-2.7977 1.7157,40.8395 25.6495,7.7844 59.4628,-58.1277 -11.8753,46.0978 -58.4266,129.0998 -12.6424,113.8322 -2.0941,13.3084 -21.9491,28.5101 56.3721,33.2457 -41.1626,3.4127 -85.8503,14.9982 -3.9428,20.3224 -86.9628,1.828 -29.8536,11.1453 20.5663,27.7234 -86.5087,-11.9176 -112.9217,-10.0897 -5.0995,19.8559 -83.514,-13.884 -13.5129,19.5007 17.4138,35.9012 -119.5268,-41.7675 -86.4795,-19.6462 -51.3827,3.4283 -70.63,-25.3712 -98.6017,-12.4279 -82.7087,4.4913 -23.9842,-12.7016 -48.3017,-1.7882 -60.1646,44.6348 -16.9847,-24.0006 -38.9746,-40.6915 -93.0692,-10.494 14.3604,-37.7277 -15.8285,-9.4827 -39.8924,9.6917 0.4605,-43.6348 -29.9113,-8.9829 -66.1771,40.6347 11.6257,-50.4089 -14.8532,-27.7436 -51.0953,13.6449 10.6757,-60.8804 -17.1837,-90.7214 -108.3285,-50.2511 49.5085,-31.4319 70.919,-59.0749 -8.9025,-75.2756 43.9363,2.5701 52.0736,-9.6079 8.9779,-42.8924 55.7669,23.2403 84.9185,-3.6822 30.8122,-37.6402 z"
       id="path4508"
       inkscape:connector-curvature="0"
       sodipodi:nodetypes="cccccccccccccccccccccccccccc" />
    <path
       style="display:inline;fill:#ffffff;fill-rule:evenodd;stroke:none;stroke-width:1px;stroke-linecap:butt;stroke-linejoin:miter;stroke-opacity:1"
       d="m 1443.025,2352.7152 -82.1467,-100.338 -11.5302,24.9569 -58.2718,-67.6007 -15.4563,18.9483 76.7395,76.6314 14.3318,-27.9374 z"
       id="path4667"
       inkscape:connector-curvature="0" />
    <path
       style="display:inline;fill:#ffffff;fill-rule:evenodd;stroke:none;stroke-width:1.04477704"
       d="m 824.9108,1309.307 c -2.9513,23.0371 27.8756,38.6275 81.1348,21.472 -50.2601,63.6791 -28.1566,87.5233 25.4054,165.7529 -74.6294,-6.5008 -67.6567,28.4638 -53.3288,59.9852 -25.1134,-30.2517 -51.128,19.3075 -52.5386,48.5178 -32.7868,-25.9419 -83.1392,-44.253 -103.5978,-19.9051 4.3707,-40.4636 -17.3272,-30.4526 -34.67,-37.7059 39.2945,-52.094 29.9686,-89.9784 -6.5751,-119.9083 19.8735,-15.6536 60.9485,-20.5672 -2.1917,-78.2733 54.5081,21.22 48.7868,-6.5947 21.917,-51.6272 18.5662,7.0576 46.7988,49.0039 43.8343,-21.65 17.6501,44.1317 54.4313,47.7616 80.6105,33.3419 z"
       id="path4584-2"
       inkscape:connector-curvature="0"
       sodipodi:nodetypes="cccccccccccc" />
  </g>
  <g
     inkscape:groupmode="layer"
     id="layer1"
     inkscape:label="txt"
     style="display:inline">
    <text
       xml:space="preserve"
       style="color:#000000;font-style:normal;font-variant:normal;font-weight:normal;font-stretch:normal;line-height:0%;font-family:Arial;-inkscape-font-specification:Arial;letter-spacing:0px;word-spacing:0px;display:inline;overflow:visible;visibility:visible;opacity:1;fill:#000000;fill-opacity:1;fill-rule:nonzero;stroke:#000000;stroke-width:5.04432487;stroke-miterlimit:4;stroke-dasharray:none;stroke-opacity:1;marker:none;enable-background:accumulate"
       x="577.47418"
       y="1102.7402"
       id="text4190-8"
       transform="matrix(0.95367168,-0.22417593,-0.04967286,1.0602553,0,0)"><tspan
         sodipodi:role="line"
         id="tspan4192-5"
         x="581.39874"
         y="1102.7402"
         style="font-style:normal;font-variant:normal;font-weight:normal;font-stretch:normal;font-size:98.82511902px;line-height:1.25;font-family:Lavi;-inkscape-font-specification:Lavi;text-align:center;letter-spacing:7.84904623px;text-anchor:middle;fill:#000000;fill-opacity:1;stroke:#000000;stroke-width:5.04432487;stroke-miterlimit:4;stroke-dasharray:none;stroke-opacity:1">Gro<tspan
   style="font-size:81.25px"
   id="tspan4479">o</tspan><tspan
   id="tspan4483"
   style="font-size:62.5px">o</tspan><tspan
   id="tspan4487"
   style="font-size:50px">o</tspan></tspan></text>
    <text
       xml:space="preserve"
       style="font-style:normal;font-variant:normal;font-weight:normal;font-stretch:normal;line-height:0%;font-family:Lavi;-inkscape-font-specification:Lavi;text-align:center;letter-spacing:0px;word-spacing:0px;text-anchor:middle;fill:#000000;fill-opacity:1;stroke:#000000;stroke-width:3.29278421;stroke-miterlimit:4;stroke-dasharray:none;stroke-opacity:1"
       x="1620.5413"
       y="176.48445"
       id="text4246-2-3-1-3-9-3-7-9-9"
       transform="matrix(0.91522609,0,-0.12030087,1.0926262,0,0)"><tspan
         sodipodi:role="line"
         style="font-size:56.9905014px;line-height:1.25;stroke:#000000;stroke-width:3.29278421;stroke-miterlimit:4;stroke-dasharray:none;stroke-opacity:1"
         x="1620.5413"
         y="176.48445"
         id="tspan4814-3-4">Carrot!</tspan></text>
    <text
       xml:space="preserve"
       style="font-style:normal;font-variant:normal;font-weight:normal;font-stretch:normal;line-height:1;font-family:Lavi;-inkscape-font-specification:Lavi;text-align:center;letter-spacing:0px;word-spacing:0px;text-anchor:middle;fill:#000000;fill-opacity:1;stroke:none"
       x="1475.12"
       y="247.3622"
       id="text4246-2-3-1-3-9-3-7-6-7"><tspan
         sodipodi:role="line"
         style="font-size:45px;line-height:0.89999998"
         x="1483.0302"
         y="247.3622"
         id="tspan4219">Malapit </tspan><tspan
         sodipodi:role="line"
         style="font-size:45px;line-height:0.89999998"
         x="1483.0302"
         y="287.86218"
         id="tspan4877">na tayo </tspan><tspan
         sodipodi:role="line"
         style="font-size:45px;line-height:0.89999998"
         x="1483.0302"
         y="328.36218"
         id="tspan4556">tawagin! </tspan></text>
    <text
       xml:space="preserve"
       style="font-style:normal;font-variant:normal;font-weight:normal;font-stretch:normal;line-height:0%;font-family:Lavi;-inkscape-font-specification:Lavi;text-align:center;letter-spacing:0px;word-spacing:0px;text-anchor:middle;fill:#000000;fill-opacity:1;stroke:none"
       x="1485.4822"
       y="408.20331"
       id="text4246-2-3-1-3-9-3-7-6-7-0"><tspan
         sodipodi:role="line"
         style="font-size:45px;line-height:0.89999998"
         x="1493.3923"
         y="408.20331"
         id="tspan4225">konting hintay </tspan><tspan
         sodipodi:role="line"
         style="font-size:45px;line-height:0.89999998"
         x="1493.3923"
         y="448.70331"
         id="tspan4889">na lang! </tspan><tspan
         sodipodi:role="line"
         style="font-size:45px;line-height:0.89999998"
         x="1493.3923"
         y="489.20331"
         id="tspan4556-1"> </tspan></text>
    <text
       xml:space="preserve"
       style="font-style:normal;font-variant:normal;font-weight:normal;font-stretch:normal;line-height:0%;font-family:Lavi;-inkscape-font-specification:Lavi;text-align:center;letter-spacing:0px;word-spacing:0px;text-anchor:middle;fill:#000000;fill-opacity:1;stroke:none"
       x="798.75354"
       y="1422.9216"
       id="text4246-2-3-1-3-9-3-7-6-7-0-0"><tspan
         sodipodi:role="line"
         style="font-size:45px;line-height:1.25"
         x="806.6637"
         y="1422.9216"
         id="tspan3466">Oiii! </tspan><tspan
         sodipodi:role="line"
         style="font-size:45px;line-height:1.25"
         x="798.75354"
         y="1479.1716"
         id="tspan4953">Shichimi!!!</tspan><tspan
         sodipodi:role="line"
         style="font-size:45px;line-height:1.25"
         x="806.6637"
         y="1535.4216"
         id="tspan4556-1-2"> </tspan></text>
    <text
       xml:space="preserve"
       style="font-style:normal;font-variant:normal;font-weight:normal;font-stretch:normal;line-height:0%;font-family:Lavi;-inkscape-font-specification:Lavi;text-align:center;letter-spacing:0px;word-spacing:0px;text-anchor:middle;fill:#000000;fill-opacity:1;stroke:#000000;stroke-width:2.78762341;stroke-miterlimit:4;stroke-dasharray:none;stroke-opacity:1"
       x="1570.9233"
       y="668.04852"
       id="text4246-2-3-1-3-9-3-7-9-9-0"
       transform="matrix(0.98883458,0,-0.12997626,1.0112915,0,0)"><tspan
         sodipodi:role="line"
         style="font-size:48.24732971px;line-height:1;stroke:#000000;stroke-width:2.78762341;stroke-miterlimit:4;stroke-dasharray:none;stroke-opacity:1"
         x="1579.4043"
         y="668.04852"
         id="tspan4229">Kahit </tspan><tspan
         sodipodi:role="line"
         style="font-size:48.24732971px;line-height:1;stroke:#000000;stroke-width:2.78762341;stroke-miterlimit:4;stroke-dasharray:none;stroke-opacity:1"
         x="1579.4043"
         y="716.29584"
         id="tspan4885">ngayon </tspan><tspan
         sodipodi:role="line"
         style="font-size:48.24732971px;line-height:1;stroke:#000000;stroke-width:2.78762341;stroke-miterlimit:4;stroke-dasharray:none;stroke-opacity:1"
         x="1570.9233"
         y="764.54321"
         id="tspan4887">lang !</tspan></text>
    <text
       xml:space="preserve"
       style="font-style:normal;font-variant:normal;font-weight:normal;font-stretch:normal;line-height:1;font-family:Lavi;-inkscape-font-specification:Lavi;text-align:center;letter-spacing:0px;word-spacing:0px;text-anchor:middle;fill:#fddabb;fill-opacity:1;stroke:none"
       x="2010.5286"
       y="203.95871"
       id="text4246-2-3-1-3-9-3-7-6"><tspan
         sodipodi:role="line"
         style="font-size:45px;line-height:1;fill:#fddabb;fill-opacity:1"
         x="2018.4387"
         y="203.95871"
         id="tspan4235">Ang Witch mula sa </tspan><tspan
         sodipodi:role="line"
         style="font-size:45px;line-height:1;fill:#fddabb;fill-opacity:1"
         x="2010.5286"
         y="248.95871"
         id="tspan4986">payak na kabanalan na</tspan><tspan
         sodipodi:role="line"
         style="font-size:45px;line-height:1;fill:#fddabb;fill-opacity:1"
         x="2018.4387"
         y="293.95871"
         id="tspan4988">&quot;Mahika ng Ah&quot;, </tspan><tspan
         sodipodi:role="line"
         style="font-size:45px;line-height:1;fill:#fddabb;fill-opacity:1"
         x="2018.4387"
         y="338.95871"
         id="tspan4996">ikinararangal namin   </tspan><tspan
         sodipodi:role="line"
         style="font-size:45px;line-height:1;fill:#fddabb;fill-opacity:1"
         x="2018.4387"
         y="383.95871"
         id="tspan4915">ipakilala... si          </tspan><tspan
         sodipodi:role="line"
         style="font-size:45px;line-height:1.29999995;fill:#fddabb;fill-opacity:1"
         x="2018.4387"
         y="435.70871"
         id="tspan4904">Ms.    </tspan></text>
    <text
       xml:space="preserve"
       style="font-style:normal;font-variant:normal;font-weight:normal;font-stretch:normal;line-height:0%;font-family:Lavi;-inkscape-font-specification:Lavi;text-align:center;letter-spacing:0px;word-spacing:0px;text-anchor:middle;fill:#fddabb;fill-opacity:1;stroke:#fddabb;stroke-width:3.5321846;stroke-miterlimit:4;stroke-dasharray:none;stroke-opacity:1;"
       x="2282.416"
       y="467.53278"
       id="text4246-2-3-1-3-9-3-7-9"
       transform="matrix(0.93835319,0,-0.12334078,1.0656968,0,0)"><tspan
         sodipodi:role="line"
         style="font-size:61.13397217px;line-height:1.25;stroke:#fddabb;stroke-width:3.5321846;stroke-miterlimit:4;stroke-dasharray:none;stroke-opacity:1;fill:#fddabb;fill-opacity:1;"
         x="2282.416"
         y="467.53278"
         id="tspan4814-3"> SHICHIMI!</tspan></text>
    <use
       x="0"
       y="0"
       xlink:href="#text4580-1-7-3-6"
       id="use4348"
       transform="matrix(0.76815873,-8.499295e-5,9.2939206e-5,0.83999533,328.18729,191.98041)"
       width="100%"
       height="100%" />
    <use
       x="0"
       y="0"
       xlink:href="#use4348"
       id="use4352"
       transform="matrix(1.2869892,-0.13005214,0.1168656,1.1564957,-95.028073,-226.53505)"
       width="100%"
       height="100%" />
    <use
       x="0"
       y="0"
       xlink:href="#use4352"
       id="use4354"
       transform="matrix(0.90888933,0,0,0.92156478,-21.137187,247.94912)"
       width="100%"
       height="100%" />
    <use
       x="0"
       y="0"
       xlink:href="#use4354"
       id="use4356"
       transform="matrix(0.83539183,0,0,0.82928292,195.10667,199.84211)"
       width="100%"
       height="100%" />
    <use
       x="0"
       y="0"
       xlink:href="#use4356"
       id="use4358"
       transform="matrix(0.79958346,0,0,0.84858719,850.96564,377.52491)"
       width="100%"
       height="100%" />
    <use
       x="0"
       y="0"
       xlink:href="#use4358"
       id="use4360"
       transform="matrix(1.1302563,0,0,1.1533505,-87.515462,-230.41211)"
       width="100%"
       height="100%" />
    <text
       xml:space="preserve"
       style="font-style:normal;font-variant:normal;font-weight:normal;font-stretch:normal;line-height:0%;font-family:Lavi;-inkscape-font-specification:Lavi;text-align:center;letter-spacing:0px;word-spacing:0px;text-anchor:middle;fill:#ff0000;fill-opacity:1;stroke:#ff0000;stroke-width:3.16285157;stroke-miterlimit:4;stroke-dasharray:none;stroke-opacity:1;"
       x="1028.5089"
       y="2415.623"
       id="text4246-2-3-1-3-9-3-7-9-9-3"
       transform="matrix(0.91245012,-0.23803313,0.14775007,1.0574064,0,0)"><tspan
         sodipodi:role="line"
         style="font-size:54.74166489px;line-height:1.25;stroke:#ff0000;stroke-width:3.16285157;stroke-miterlimit:4;stroke-dasharray:none;stroke-opacity:1;fill:#ff0000;"
         x="1028.5089"
         y="2415.623"
         id="tspan4769"><tspan
   style="font-size:42.66666794px;fill:#ff0000;stroke:#ff0000;"
   id="tspan4905">C<tspan
   style="font-size:32px;fill:#ff0000;stroke:#ff0000;"
   id="tspan4907">A</tspan><tspan
   style="font-size:37.33333206px;fill:#ff0000;stroke:#ff0000;"
   id="tspan4911">R</tspan>R</tspan><tspan
   style="font-size:29.33333397px;fill:#ff0000;stroke:#ff0000;"
   id="tspan4903">O</tspan><tspan
   style="font-size:37.33333206px;fill:#ff0000;stroke:#ff0000;"
   id="tspan4901">OO</tspan><tspan
   style="font-size:48px;fill:#ff0000;stroke:#ff0000;"
   id="tspan4899">O</tspan>O<tspan
   style="font-size:42.66666794px;fill:#ff0000;stroke:#ff0000;"
   id="tspan4897">T</tspan><tspan
   style="font-size:48px;fill:#ff0000;stroke:#ff0000;"
   id="tspan4893">T</tspan>T!!!</tspan></text>
    <text
       xml:space="preserve"
       style="font-style:normal;font-variant:normal;font-weight:normal;font-stretch:normal;line-height:0%;font-family:Lavi;-inkscape-font-specification:Lavi;text-align:center;letter-spacing:0px;word-spacing:0px;text-anchor:middle;display:inline;fill:#000000;fill-opacity:1;stroke:none"
       x="1468.3899"
       y="542.54102"
       id="text4246-2-3-1-3-9-3-7-6-7-0-0-2"><tspan
         sodipodi:role="line"
         style="font-size:45px;line-height:1.25"
         x="1468.3899"
         y="542.54102"
         id="tspan3466-9">Please!</tspan><tspan
         sodipodi:role="line"
         style="font-size:45px;line-height:1.25"
         x="1476.3"
         y="598.79102"
         id="tspan4556-1-2-2"> </tspan></text>
    <text
       xml:space="preserve"
       style="font-style:normal;font-variant:normal;font-weight:normal;font-stretch:normal;line-height:0%;font-family:Lavi;-inkscape-font-specification:Lavi;text-align:center;letter-spacing:0px;word-spacing:0px;text-anchor:middle;display:inline;fill:#916f6f;fill-opacity:1;stroke:none;filter:url(#filter5020);"
       x="1610.3406"
       y="1596.6084"
       id="text4246-2-3-1-3-9-3-7-6-7-0-0-6"
       transform="matrix(0.98175424,0,0,1.3657398,29.393722,-572.71427)"><tspan
         sodipodi:role="line"
         style="font-size:45px;line-height:1.25;fill:#916f6f;"
         x="1610.3406"
         y="1596.6084"
         id="tspan4556-1-2-5">Meaaoooww!!!</tspan></text>
  </g>
</svg>
