<?xml version="1.0" encoding="UTF-8" standalone="no"?>
<!-- Created with Inkscape (http://www.inkscape.org/) -->

<svg
   id="svg2"
   version="1.1"
   inkscape:version="1.1.1 (3bf5ae0d25, 2021-09-20)"
   width="2481"
   height="3503"
   sodipodi:docname="E26P03.svg"
   xmlns:inkscape="http://www.inkscape.org/namespaces/inkscape"
   xmlns:sodipodi="http://sodipodi.sourceforge.net/DTD/sodipodi-0.dtd"
   xmlns:xlink="http://www.w3.org/1999/xlink"
   xmlns="http://www.w3.org/2000/svg"
   xmlns:svg="http://www.w3.org/2000/svg"
   xmlns:rdf="http://www.w3.org/1999/02/22-rdf-syntax-ns#"
   xmlns:cc="http://creativecommons.org/ns#"
   xmlns:dc="http://purl.org/dc/elements/1.1/">
  <metadata
     id="metadata8">
    <rdf:RDF>
      <cc:Work
         rdf:about="">
        <dc:format>image/svg+xml</dc:format>
        <dc:type
           rdf:resource="http://purl.org/dc/dcmitype/StillImage" />
      </cc:Work>
    </rdf:RDF>
  </metadata>
  <defs
     id="defs6">
    <rect
       x="198.12102"
       y="628.02173"
       width="127.75641"
       height="45.263751"
       id="rect123297" />
  </defs>
  <sodipodi:namedview
     pagecolor="#ffffff"
     bordercolor="#666666"
     borderopacity="1"
     objecttolerance="10"
     gridtolerance="10"
     guidetolerance="10"
     inkscape:pageopacity="0"
     inkscape:pageshadow="2"
     inkscape:window-width="1336"
     inkscape:window-height="725"
     id="namedview4"
     showgrid="false"
     inkscape:zoom="0.43024952"
     inkscape:cx="1195.8177"
     inkscape:cy="3174.9019"
     inkscape:window-x="15"
     inkscape:window-y="15"
     inkscape:window-maximized="0"
     inkscape:current-layer="layer1"
     inkscape:pagecheckerboard="0" />
  <g
     inkscape:groupmode="layer"
     id="layer2"
     inkscape:label="artwork"
     sodipodi:insensitive="true">
    <image
       xlink:href="../gfx_Pepper-and-Carrot_by-David-Revoy_E26P03.png"
       y="0"
       x="0"
       id="image10"
       height="3503.9123"
       width="2481" />
  </g>
  <g
     inkscape:groupmode="layer"
     id="layer3"
     inkscape:label="speechbubbles"
     style="opacity:1">
    <path
       style="color:#000000;display:inline;overflow:visible;visibility:visible;fill:#ffffff;fill-opacity:1;fill-rule:nonzero;stroke:none;stroke-width:0.94309884px;marker:none;enable-background:accumulate"
       d="m 256.65846,623.49642 c 20.98345,-26.98761 279.83311,-46.20731 339.63027,14.82975 41.67263,42.5367 25.59663,124.10935 -10.12221,145.34442 -35.71877,21.23515 -208.16671,27.21564 -257.17939,16.40149 -44.07486,-9.7247 -90.33786,-30.6561 -92.77691,-86.36645 -0.99546,-22.73759 -0.53527,-63.22153 20.44824,-90.20921 z"
       id="path4040"
       inkscape:connector-curvature="0"
       sodipodi:nodetypes="zssssz" />
    <path
       style="fill:#ffffff;stroke:none;stroke-width:0.99999994"
       d="m 628.34471,847.51507 c -38.61917,12.80883 -55.09288,-0.0828 -66.95346,-14.05699 -11.86058,-13.97408 -28.36174,-20.89656 -39.29055,-22.32443 -10.92881,-1.42786 -28.67404,2.49427 -37.73175,7.41599 -9.05781,4.92182 -23.30007,-9.35873 -32.51481,-17.85685 -12.1752,-11.22835 -10.17368,-21.3089 -10.17368,-21.3089 0,0 -63.56569,-10.64656 -52.32882,1.21103 11.23688,11.85757 53.851,43.51663 59.4257,47.15218 5.57479,3.63555 23.61454,12.58563 34.54483,10.2648 10.93033,-2.32073 19.07986,-12.5098 32.07626,-12.9737 13.38845,-0.4779 22.37583,3.75223 33.30162,12.67727 10.92577,8.92503 37.52895,25.44728 54.48293,19.70573 16.95397,-5.74156 25.16173,-9.90613 25.16173,-9.90613 z"
       id="path3023"
       inkscape:connector-curvature="0"
       sodipodi:nodetypes="csssscssssssc" />
    <path
       style="color:#000000;display:inline;overflow:visible;visibility:visible;fill:#ffffff;fill-opacity:1;fill-rule:nonzero;stroke:none;stroke-width:1px;marker:none;enable-background:accumulate"
       d="m 232.67034,1785.6735 c -2.68476,-15.6414 20.91072,-100.9773 120.5528,-98.2199 99.64209,2.7575 123.14345,61.1522 123.74969,82.2405 0.60623,21.0882 -21.52489,55.5835 -35.7674,61.9839 -14.2424,6.4003 -51.50581,22.0026 -76.11721,19.7048 -24.61125,-2.2981 -57.55035,8.9837 -95.49777,-15.6682 -30.1609,-19.5937 -35.01483,-45.9633 -36.92011,-50.0411 z"
       id="path3365"
       inkscape:connector-curvature="0"
       sodipodi:nodetypes="cssccsc" />
    <path
       style="color:#000000;display:inline;overflow:visible;visibility:visible;fill:#ffffff;fill-opacity:1;fill-rule:nonzero;stroke:none;stroke-width:0.900889px;marker:none;enable-background:accumulate"
       d="m 1102.2198,2209.5526 c -4.418,-17.6803 -13.1391,-119.2767 182.4138,-112.5301 171.4874,5.9165 175.8006,70.6303 176.5675,94.4333 0.7668,23.8033 -13.9643,65.7612 -44.4162,79.7396 -32.6411,13.4017 -67.9941,20.6763 -110.35,17.806 -42.3556,-2.8705 -99.1414,-0.4475 -142.766,-14.1663 -30.0078,-9.4365 -56.6223,-40.5618 -61.4491,-65.2825 z"
       id="path3365-5"
       inkscape:connector-curvature="0"
       sodipodi:nodetypes="cssccsc" />
    <path
       style="color:#000000;display:inline;overflow:visible;visibility:visible;fill:#ffffff;fill-opacity:1;fill-rule:nonzero;stroke:none;stroke-width:1px;marker:none;enable-background:accumulate"
       d="m 377.75121,1797.7955 c 0.14136,37.7496 7.44343,98.937 94.82871,86.7057 -14.99489,10.61 -114.59779,34.3786 -127.13109,-74.0559 -3.63685,-31.4647 8.70865,-21.0527 15.81183,-23.0996 7.10319,-2.047 16.49055,10.4498 16.49055,10.4498 z"
       id="path4064"
       inkscape:connector-curvature="0"
       sodipodi:nodetypes="ccszc" />
    <path
       style="color:#000000;display:inline;overflow:visible;visibility:visible;fill:#ffffff;fill-opacity:1;fill-rule:nonzero;stroke:none;stroke-width:1px;marker:none;enable-background:accumulate"
       d="m 1237.4731,2165.1562 c 16.4769,-33.9641 36.832,-92.1267 -47.0265,-119.5779 18.1333,-2.9332 118.0386,19.5304 81.6003,122.4254 -10.5733,29.8573 -17.0809,15.0765 -24.3604,13.7904 -7.2795,-1.2859 -10.2134,-16.6379 -10.2134,-16.6379 z"
       id="path4064-3"
       inkscape:connector-curvature="0"
       sodipodi:nodetypes="ccszc" />
    <path
       style="fill:#ffffff;stroke:none;stroke-width:0.886267"
       d="M 48.798702,2668.5237 C 20.447459,2501.3422 109.22621,2520.2491 337.47473,2519.19 c 290.85617,-1.3497 292.6921,36.5821 290.27539,108.1278 -5.22774,154.765 -64.33156,199.4711 -365.22971,189.3807 C -1.5264349,2807.8439 20.956626,2761.4107 48.798702,2668.5237 Z"
       id="path3280-8"
       inkscape:connector-curvature="0"
       sodipodi:nodetypes="csssc" />
    <path
       style="color:#000000;display:inline;overflow:visible;visibility:visible;fill:#ffffff;fill-opacity:1;fill-rule:nonzero;stroke:none;stroke-width:1.17706px;marker:none;enable-background:accumulate"
       d="m 541.95047,2827.3296 c 14.75467,42.3582 56.10784,98.7134 132.56738,74.6591 -52.93998,28.0735 -112.04254,25.4055 -162.9129,-58.1769 -68.01242,-111.7476 -45.71056,-137.7675 -45.71056,-137.7675 z"
       id="path4064-6"
       inkscape:connector-curvature="0"
       sodipodi:nodetypes="ccscc" />
    <path
       style="color:#000000;display:inline;overflow:visible;visibility:visible;fill:#ffffff;fill-opacity:1;fill-rule:nonzero;stroke:none;stroke-width:0.98498011px;marker:none;enable-background:accumulate"
       d="m 1866.8691,2967.1271 c -2.2435,-17.8749 32.4697,-97.3439 169.3281,-85.4272 136.8583,11.9166 156.3236,54.5174 157.6876,94.0272 -2.3647,40.7155 -29.8036,70.4216 -49.9958,76.3799 -20.1922,5.9583 -50.5433,14.2286 -106.5701,15.4915 -64.7271,0.057 -102.8837,-2.4468 -143.8699,-34.9007 -39.0958,-28.7858 -24.3363,-60.8041 -26.5799,-65.5707 z"
       id="path3365-7"
       inkscape:connector-curvature="0"
       sodipodi:nodetypes="cscsccc" />
    <path
       style="color:#000000;display:inline;overflow:visible;visibility:visible;fill:#ffffff;fill-opacity:1;fill-rule:nonzero;stroke:none;stroke-width:1px;marker:none;enable-background:accumulate"
       d="m 1963.5548,2926.8144 c -22.0372,-41.7339 -131.901,-116.3258 -202.9973,-80.3598 84.8906,-21.0574 174.3494,70.9697 177.3562,85.6217 3.0068,14.6521 25.6411,-5.2619 25.6411,-5.2619 z"
       id="path3978"
       inkscape:connector-curvature="0"
       sodipodi:nodetypes="cccc" />
    <path
       style="color:#000000;display:inline;overflow:visible;visibility:visible;fill:#ffffff;fill-opacity:1;fill-rule:nonzero;stroke:none;stroke-width:0.652144px;marker:none;enable-background:accumulate"
       d="m 234.7553,502.9469 c 20.8349,-17.2704 181.53977,-30.67915 224.60435,9.84616 30.0117,28.24206 28.429,79.33038 2.7051,93.42932 -25.72387,14.09898 -149.91701,18.06971 -185.21484,10.8897 -31.74173,-6.45667 -65.05931,-20.35399 -66.81585,-57.34265 -0.71691,-15.09653 3.88634,-39.55213 24.72124,-56.82253 z"
       id="path4040-3"
       inkscape:connector-curvature="0"
       sodipodi:nodetypes="zssssz" />
  </g>
  <g
     inkscape:groupmode="layer"
     id="layer1"
     inkscape:label="txt">
    <text
       xml:space="preserve"
       style="font-style:normal;font-variant:normal;font-weight:normal;font-stretch:normal;font-size:39.7147px;line-height:0%;font-family:Lavi;-inkscape-font-specification:Lavi;text-align:center;letter-spacing:0px;word-spacing:0px;text-anchor:middle;white-space:pre;inline-size:284.534;fill:#000000;fill-opacity:1;stroke:none;stroke-width:0.88255"
       x="422.30801"
       y="672.22424"
       id="text4246-5"><tspan
         x="422.30801"
         y="672.22424"
         id="tspan53346"><tspan
   style="line-height:1.25"
   id="tspan53344">Bíi lothel le wa.</tspan><tspan
   y="672.22424"
   id="tspan53348"> </tspan></tspan><tspan
         x="422.30801"
         y="721.86759"
         id="tspan53352"><tspan
   style="line-height:1.25"
   id="tspan53350">Menéde menalili</tspan><tspan
   y="721.86759"
   id="tspan53354"> </tspan></tspan><tspan
         x="422.30801"
         y="771.51096"
         id="tspan53358"><tspan
           style="line-height:1.25"
           id="tspan53356">ra rul wi.</tspan></tspan></text>
    <text
       xml:space="preserve"
       style="font-style:normal;font-variant:normal;font-weight:normal;font-stretch:normal;font-size:45px;line-height:0%;font-family:Lavi;-inkscape-font-specification:Lavi;text-align:center;letter-spacing:0px;word-spacing:0px;text-anchor:middle;white-space:pre;inline-size:178.228;fill:#000000;fill-opacity:1;stroke:none"
       x="351.44214"
       y="1757.9678"
       id="text4246-1"
       transform="translate(4,8)"><tspan
         x="351.44214"
         y="1757.9678"
         id="tspan53362"><tspan
   style="font-weight:bold;line-height:1.25;-inkscape-font-specification:'Lavi Bold'"
   id="tspan53360">Bóo lhith</tspan><tspan
   y="1757.9678"
   id="tspan53364"> </tspan></tspan><tspan
         x="351.44214"
         y="1814.2178"
         id="tspan53368"><tspan
           style="font-weight:bold;line-height:1.25;-inkscape-font-specification:'Lavi Bold'"
           id="tspan53366">ra ne!</tspan></tspan></text>
    <text
       xml:space="preserve"
       style="font-style:normal;font-variant:normal;font-weight:normal;font-stretch:normal;font-size:50.6065px;line-height:0%;font-family:Lavi;-inkscape-font-specification:Lavi;text-align:center;letter-spacing:0px;word-spacing:0px;text-anchor:middle;white-space:pre;inline-size:313.718;fill:#000000;fill-opacity:1;stroke:none;stroke-width:1"
       x="1288.4023"
       y="2174.0071"
       id="text4246-1-3"
       transform="scale(0.99789912,1.0021053)"><tspan
         x="1288.4023"
         y="2174.0071"
         id="tspan53372"><tspan
   style="font-weight:bold;line-height:1.25;-inkscape-font-specification:'Lavi Bold'"
   id="tspan53370">Bíi methal</tspan><tspan
   y="2174.0071"
   id="tspan53374"> </tspan></tspan><tspan
         x="1288.4023"
         y="2237.2651"
         id="tspan53378"><tspan
           style="font-weight:bold;line-height:1.25;-inkscape-font-specification:'Lavi Bold'"
           id="tspan53376">áabe hiwan!</tspan></tspan></text>
    <text
       xml:space="preserve"
       style="font-style:normal;font-variant:normal;font-weight:normal;font-stretch:normal;font-size:42.7739px;line-height:0%;font-family:Lavi;-inkscape-font-specification:Lavi;text-align:center;letter-spacing:0px;word-spacing:0px;text-anchor:middle;white-space:pre;inline-size:491.157;fill:#000000;fill-opacity:1;stroke:none;stroke-width:0.95053"
       x="121.25092"
       y="2608.8384"
       id="text4246-5-5"
       transform="translate(244)"><tspan
         x="121.25092"
         y="2608.8384"
         id="tspan53382"><tspan
   style="line-height:1.25;text-align:start;text-anchor:start"
   id="tspan53380">Bíi eril meshóo áal thab,</tspan><tspan
   y="2608.8384"
   id="tspan53384"> </tspan></tspan><tspan
         x="121.25092"
         y="2662.3057"
         id="tspan53388"><tspan
   style="line-height:1.25;text-align:start;text-anchor:start"
   id="tspan53386">id ril wod le worashud</tspan><tspan
   y="2662.3057"
   id="tspan53390"> </tspan></tspan><tspan
         x="121.25092"
         y="2715.773"
         id="tspan53394"><tspan
   style="line-height:1.25;text-align:start;text-anchor:start"
   id="tspan53392">woshodeha, i bel le mith</tspan><tspan
   y="2715.773"
   id="tspan53396"> </tspan></tspan><tspan
         x="121.25092"
         y="2769.2403"
         id="tspan53400"><tspan
           style="line-height:1.25;text-align:start;text-anchor:start"
           id="tspan53398">Iliyáaninede wa.</tspan></tspan></text>
    <text
       xml:space="preserve"
       style="font-style:normal;font-variant:normal;font-weight:normal;font-stretch:normal;font-size:50.6065px;line-height:0%;font-family:Lavi;-inkscape-font-specification:Lavi;text-align:center;letter-spacing:0px;word-spacing:0px;text-anchor:middle;white-space:pre;inline-size:321.058;fill:#000000;fill-opacity:1;stroke:none;stroke-width:1"
       x="2037.9746"
       y="2955.3962"
       id="text4246-1-3-2"
       transform="matrix(0.99789912,0,0,1.0021053,-4,8)"><tspan
         x="2037.9746"
         y="2955.3962"
         id="tspan53404"><tspan
   style="font-weight:bold;line-height:1.25;-inkscape-font-specification:'Lavi Bold'"
   id="tspan53402">Meyahanesh</tspan><tspan
   y="2955.3962"
   id="tspan53406"> </tspan></tspan><tspan
         x="2037.9746"
         y="3018.6543"
         id="tspan53410"><tspan
           style="font-weight:bold;line-height:1.25;-inkscape-font-specification:'Lavi Bold'"
           id="tspan53408">áabe wa!</tspan></tspan></text>
    <text
       xml:space="preserve"
       style="font-style:normal;font-variant:normal;font-weight:normal;font-stretch:normal;font-size:39.7147px;line-height:0%;font-family:Lavi;-inkscape-font-specification:Lavi;text-align:center;letter-spacing:0px;word-spacing:0px;text-anchor:middle;white-space:pre;inline-size:193.923;fill:#000000;fill-opacity:1;stroke:none;stroke-width:0.88255"
       x="343.39139"
       y="579.64038"
       id="text4246-5-6"
       transform="translate(0,-36)"><tspan
         x="343.39139"
         y="579.64038"
         id="tspan53414"><tspan
           style="line-height:1.25"
           id="tspan53412">Bíida shud
</tspan></tspan><tspan
         x="343.39139"
         y="629.28373"
         id="tspan53418"><tspan
           style="line-height:1.25"
           id="tspan53416">Ámed wa;</tspan></tspan></text>
    <text
       xml:space="preserve"
       id="text123295"
       style="line-height:1.25;font-family:'Yanone Kaffeesatz';font-size:40px;-inkscape-font-specification:'Yanone Kaffeesatz';text-align:center;white-space:pre;shape-inside:url(#rect123297)" />
  </g>
</svg>
