<?xml version="1.0" encoding="UTF-8" standalone="no"?>
<svg
   id="svg2"
   version="1.1"
   inkscape:version="1.1 (c68e22c387, 2021-05-23)"
   width="2481"
   height="3503"
   sodipodi:docname="E35P07.svg"
   xmlns:inkscape="http://www.inkscape.org/namespaces/inkscape"
   xmlns:sodipodi="http://sodipodi.sourceforge.net/DTD/sodipodi-0.dtd"
   xmlns:xlink="http://www.w3.org/1999/xlink"
   xmlns="http://www.w3.org/2000/svg"
   xmlns:svg="http://www.w3.org/2000/svg"
   xmlns:rdf="http://www.w3.org/1999/02/22-rdf-syntax-ns#"
   xmlns:cc="http://creativecommons.org/ns#"
   xmlns:dc="http://purl.org/dc/elements/1.1/">
  <metadata
     id="metadata8">
    <rdf:RDF>
      <cc:Work
         rdf:about="">
        <dc:format>image/svg+xml</dc:format>
        <dc:type
           rdf:resource="http://purl.org/dc/dcmitype/StillImage" />
        <dc:title />
      </cc:Work>
    </rdf:RDF>
  </metadata>
  <defs
     id="defs6">
    <filter
       style="color-interpolation-filters:sRGB"
       id="filter4375-4-1-1-1-9-5-8-8-5-5-3-8"
       inkscape:label="soundFX1"
       x="-0.044300162"
       y="-0.0023842071"
       width="1.0466736"
       height="1.0447156">
      <feFlood
         id="feFlood4377-7-9-0-8-1-7-3-1-2-7-6-7"
         flood-opacity="1"
         flood-color="rgb(255,255,255)"
         result="flood" />
      <feComposite
         id="feComposite4379-3-8-8-2-77-4-1-0-6-4-7-9"
         in2="SourceGraphic"
         in="flood"
         operator="in"
         result="composite1"
         baseFrequency="0.053999999999999999 0.053999999999999999" />
      <feMorphology
         id="feMorphology4393-1-0-49-8-9-3-0-1-9-9-5-2"
         operator="dilate"
         radius="2.9756367599225957"
         result="result3" />
      <feComposite
         id="feComposite4385-9-5-7-0-8-8-7-5-4-9-3-0"
         in2="result3"
         in="SourceGraphic"
         operator="over"
         result="fbSourceGraphic" />
      <feColorMatrix
         result="fbSourceGraphicAlpha"
         in="fbSourceGraphic"
         values="0 0 0 -1 0 0 0 0 -1 0 0 0 0 -1 0 0 0 0 1 0"
         id="feColorMatrix4544-9-4-4-5-2" />
      <feTurbulence
         id="feTurbulence4546-3-6-5-6-3"
         type="fractalNoise"
         numOctaves="5"
         seed="174"
         baseFrequency="0.053999999999999999 0.054054054054054057"
         result="turbulence" />
      <feDisplacementMap
         id="feDisplacementMap4548-8-0-9-2-7"
         in2="turbulence"
         in="fbSourceGraphic"
         scale="6.6"
         yChannelSelector="G"
         xChannelSelector="R"
         result="fbSourceGraphic" />
      <feColorMatrix
         result="fbSourceGraphicAlpha"
         in="fbSourceGraphic"
         values="0 0 0 -1 0 0 0 0 -1 0 0 0 0 -1 0 0 0 0 1 0"
         id="feColorMatrix4670-7-7-3-9-5" />
      <feFlood
         id="feFlood4672-4-4-5-1-9"
         flood-opacity="1"
         flood-color="rgb(255,255,255)"
         result="flood"
         in="fbSourceGraphic" />
      <feComposite
         id="feComposite4674-8-3-7-2-22"
         in2="fbSourceGraphic"
         in="flood"
         operator="in"
         result="composite1" />
      <feGaussianBlur
         id="feGaussianBlur4676-3-7-08-7-8"
         in="composite1"
         stdDeviation="0"
         result="blur" />
      <feOffset
         id="feOffset4678-6-9-1-0-9"
         dx="-6.3258232761971414"
         dy="6"
         result="offset" />
      <feComposite
         id="feComposite4680-4-0-9-9-7"
         in2="offset"
         in="fbSourceGraphic"
         operator="over"
         result="composite2" />
    </filter>
  </defs>
  <sodipodi:namedview
     pagecolor="#ffffff"
     bordercolor="#666666"
     borderopacity="1"
     objecttolerance="10"
     gridtolerance="10"
     guidetolerance="10"
     inkscape:pageopacity="0"
     inkscape:pageshadow="2"
     inkscape:window-width="1920"
     inkscape:window-height="1017"
     id="namedview4"
     showgrid="false"
     inkscape:zoom="0.65423238"
     inkscape:cx="952.26102"
     inkscape:cy="2750.5517"
     inkscape:window-x="-8"
     inkscape:window-y="-8"
     inkscape:window-maximized="1"
     inkscape:current-layer="layer3"
     inkscape:document-rotation="0"
     inkscape:snap-global="false"
     inkscape:pagecheckerboard="0" />
  <g
     inkscape:groupmode="layer"
     id="layer2"
     inkscape:label="artwork"
     sodipodi:insensitive="true">
    <image
       xlink:href="../gfx_Pepper-and-Carrot_by-David-Revoy_E35P07.png"
       width="2481"
       height="3503"
       id="image10"
       x="0"
       y="0" />
  </g>
  <g
     inkscape:groupmode="layer"
     id="layer3"
     inkscape:label="speechbubbles">
    <path
       style="fill:#ffffff;stroke:none;stroke-width:1.1285"
       d="m 1992.2166,260.05078 c -36.1768,0.63805 -72.8447,11.34024 -99.5259,32.6875 -25.6367,20.78964 -41.498,49.02154 -49.8328,78.09168 -5.6423,19.2146 -8.6785,39.82592 -2.007,59.15283 8.0299,22.47178 27.9358,40.68173 51.2742,52.43274 34.5628,17.7576 75.6497,24.31775 115.5899,23.22087 41.8401,-0.8659 84.0274,-3.90683 124.3782,-13.91031 20.7548,-5.77776 40.8808,-16.09684 52.4925,-32.36245 10.868,-15.12264 13.5818,-33.44928 12.1806,-50.88476 -1.2164,-29.35963 -11.4896,-58.32322 -29.2183,-83.45897 -12.7867,-18.52769 -28.6929,-36.35246 -50.5756,-47.55439 -18.8672,-9.86954 -41.1281,-13.01382 -62.7678,-14.98265 -20.5685,-2.02151 -41.2997,-2.48281 -61.988,-2.43209 z"
       id="path3280-8"
       inkscape:connector-curvature="0"
       sodipodi:nodetypes="csssc" />
    <path
       style="fill:#ffffff;fill-rule:evenodd;stroke:none;stroke-width:0.934796px;stroke-linecap:butt;stroke-linejoin:miter;stroke-opacity:1"
       d="m 1937.2471,432.07438 c -6.2176,11.12141 -85.6078,33.31577 -108.1931,83.17757 30.1276,-36.25015 118.0705,-48.01797 132.9745,-62.07815 51.3058,-16.19189 -3.5494,-23.72277 -24.7814,-21.09942 z"
       id="path4186"
       inkscape:connector-curvature="0"
       sodipodi:nodetypes="cccc" />
    <path
       style="fill:#ffffff;fill-rule:evenodd;stroke:none;stroke-width:1px;stroke-linecap:butt;stroke-linejoin:miter;stroke-opacity:1"
       d="m 1557.7613,1692.8906 134.1326,-31.6108 -24.0947,-23.8017 91.2177,-24.1969 -16.3502,-24.7111 -106.501,38.013 26.5589,28.0558 z"
       id="path4667"
       inkscape:connector-curvature="0" />
    <path
       style="color:#000000;display:inline;overflow:visible;visibility:visible;fill:#ffffff;fill-opacity:1;fill-rule:nonzero;stroke:none;stroke-width:1.30308px;marker:none;enable-background:accumulate"
       d="m 381.60334,3154.4291 c -8.10742,22.217 -58.3101,12.2828 -75.14355,7.2249 33.93231,26.115 32.74934,41.688 -13.32118,42.7588 74.66738,39.8791 18.77767,40.5565 -4.90074,34.5157 38.28398,21.1346 40.55699,40.4393 1.61828,50.1668 69.72764,2.7095 52.84759,18.1495 26.4488,40.306 30.8725,-14.1075 78.49647,-23.506 80.18622,15.7958 44.73182,-32.9778 67.81127,-31.6328 83.9871,7.6163 13.51188,-33.0392 59.52055,-38.1242 77.11328,-1.5494 15.15504,-48.3561 69.22988,-39.8993 101.41868,-15.3041 -18.06929,-17.2217 -5.7477,-44.345 55.85697,-36.9796 -4.9586,-15.4465 2.83929,-34.53 33.94898,-31.0673 -35.8345,-10.2932 -42.43859,-20.0211 24.09791,-28.3288 -50.6304,-2.4764 -97.84362,-5.8951 -38.44315,-39.1404 -18.63552,-1.3934 -65.71751,36.5601 -45.10286,-48.2724 -54.5795,23.5918 -109.06481,24.7322 -106.24309,-28.1036 -20.29118,28.0281 -55.48579,41.1593 -70.79727,4.9579 -12.6396,33.027 -51.03092,17.9158 -70.97454,-5.4645 -13.17775,22.2351 -21.84301,62.8471 -59.74984,30.8679 z"
       id="path3549-3-7-8"
       inkscape:connector-curvature="0"
       sodipodi:nodetypes="ccccccccccccccccccc" />
    <path
       style="color:#000000;display:inline;overflow:visible;visibility:visible;fill:#ffffff;fill-opacity:1;fill-rule:nonzero;stroke:none;stroke-width:1.28386px;marker:none;enable-background:accumulate"
       d="m 345.10404,2971.7241 c 63.55884,46.6958 -63.9972,30.4543 -88.46389,24.0162 63.94808,16.4345 49.61051,43.8191 -16.67577,52.4096 114.44455,44.9742 24.68707,59.9513 2.09189,60.609 75.94093,18.9496 59.31234,33.4731 45.79219,56.9499 148.48771,-26.8552 44.9139,46.2035 45.05247,77.4707 7.39979,-14.0641 121.06862,-146.4956 44.66939,-9.2072 57.735,-45.484 127.27531,-74.8643 132.79702,4.7328 23.2624,-40.0433 46.45496,-56.9669 44.66938,-9.2073 57.63692,-62.1175 141.23397,-45.7552 193.3357,-28.1985 -67.6482,-47.1673 -26.42159,-43.654 48.73418,-30.5302 -87.44212,-32.3441 -80.01749,-47.1121 21.51212,-43.2174 -44.8584,-11.2255 -53.12569,-22.8046 30.16635,-35.2653 -64.00992,-2.0316 -134.31216,-19.2028 -48.12402,-46.1693 -32.4608,2.3658 -153.81625,-3.2773 -52.87168,-69.3398 -79.2256,24.8605 -160.78275,34.9112 -136.58671,-18.0328 -67.53593,32.1536 -74.61804,51.6485 -88.62553,8.5439 -23.88686,37.4088 -54.91187,14.2383 -88.84752,-4.1082 24.6939,29.2486 -30.46457,46.494 -88.62557,8.5439 z"
       id="path3549-3-7"
       inkscape:connector-curvature="0"
       sodipodi:nodetypes="ccccccccccccccccccc" />
    <path
       style="fill:#ffffff;fill-rule:evenodd;stroke:none;stroke-width:1.61403px;stroke-linecap:butt;stroke-linejoin:miter;stroke-opacity:1"
       d="m 559.65143,2966.4499 c 7.81388,-49.8207 8.23157,-62.9667 6.02019,-75.0728 -2.2114,-12.106 -16.03862,-8.1385 -26.02653,-3.643 -6.53887,2.9161 -28.34548,24.9309 -13.34891,-11.2886 14.99673,-36.2194 33.04009,-86.6247 37.65555,-102.5126 -15.5946,27.8024 -42.45502,71.0937 -50.25242,84.9947 -7.79723,13.9012 -19.54665,39.459 -22.39666,47.151 -3.46707,9.3577 -1.1372,19.0591 14.63013,17.8664 24.66487,-3.6362 41.86312,-37.8298 13.23772,21.5203 -28.62567,59.3501 4.95095,150.5651 4.95095,150.5651 z"
       id="path1089"
       inkscape:connector-curvature="0"
       sodipodi:nodetypes="csccccscccc" />
    <path
       style="color:#000000;display:inline;overflow:visible;visibility:visible;fill:#ffffff;fill-opacity:1;fill-rule:nonzero;stroke:none;stroke-width:1.28739px;marker:none;enable-background:accumulate"
       d="m 1752.5143,1467.1365 c -3,42.9443 -59.841,15.1499 -86.8331,4.2177 32.1716,24.197 56.5932,56.4974 -14.3038,54.4681 79.614,42.8848 26.3901,40.7867 13.5577,51.6602 62.5117,14.7793 44.5462,33.7054 4.4217,44.0017 71.851,0.629 54.457,15.7234 27.2542,37.4444 31.8128,-14.2208 80.887,-24.4468 82.6282,12.7343 46.0941,-32.4809 69.8764,-31.8482 86.5448,4.8807 13.9234,-31.6715 61.3331,-37.7668 79.4616,-3.6105 15.6167,-46.2259 71.3382,-39.7178 104.5072,-17.3148 -18.6195,-15.811 -5.9226,-41.8456 57.5582,-36.5806 -5.1096,-14.4939 2.9258,-32.7872 34.9828,-30.3716 -36.9258,-8.7543 -43.731,-17.7855 24.8318,-27.5037 -52.1723,-0.939 -100.8234,-2.8654 -39.6139,-36.0073 -19.203,-0.8019 -64.7645,26.8526 -43.522,-54.0769 -56.2417,23.8634 -115.3406,36.0628 -112.433,-14.0639 -20.9091,27.1133 -57.1755,40.5296 -72.9532,6.6637 -13.0247,31.6356 -52.5852,18.3885 -73.1361,-3.2039 -13.579,21.4281 -33.8919,35.9009 -72.9531,6.6624 z"
       id="path3549-3-7-8-6"
       inkscape:connector-curvature="0"
       sodipodi:nodetypes="ccccccccccccccccccc" />
  </g>
  <g
     inkscape:groupmode="layer"
     id="layer1"
     inkscape:label="txt">
    <text
       xml:space="preserve"
       style="font-style:normal;font-variant:normal;font-weight:normal;font-stretch:normal;font-size:45px;line-height:1.25;font-family:Lavi;-inkscape-font-specification:Lavi;text-align:center;letter-spacing:0px;word-spacing:0px;text-anchor:middle;fill:#000000;fill-opacity:1;stroke:none"
       x="2017.1112"
       y="339.53555"
       id="text4246-3-2-2"><tspan
         style="font-size:45px"
         sodipodi:role="line"
         x="2017.1112"
         y="339.53555"
         id="tspan873">Ótimo!</tspan><tspan
         style="font-size:45px"
         sodipodi:role="line"
         x="2017.1112"
         y="395.78555"
         id="tspan103073">Eles estão</tspan><tspan
         style="font-size:45px"
         sodipodi:role="line"
         x="2017.1112"
         y="452.03555"
         id="tspan886">nos seguindo!</tspan></text>
    <text
       xml:space="preserve"
       style="font-style:normal;font-variant:normal;font-weight:normal;font-stretch:normal;font-size:45px;line-height:1.25;font-family:Lavi;-inkscape-font-specification:Lavi;text-align:center;letter-spacing:0px;word-spacing:0px;text-anchor:middle;fill:#000000;fill-opacity:1;stroke:none"
       x="1895.5864"
       y="1547.5004"
       id="text4246-3-2-2-3"><tspan
         style="font-size:45px"
         sodipodi:role="line"
         x="1895.5864"
         y="1547.5004"
         id="tspan887">Em breve nos</tspan><tspan
         style="font-size:45px"
         sodipodi:role="line"
         x="1895.5864"
         y="1603.7504"
         id="tspan922">livraremos deles.</tspan></text>
    <text
       xml:space="preserve"
       style="font-style:normal;font-variant:normal;font-weight:normal;font-stretch:normal;font-size:50.2786px;line-height:1.25;font-family:Lavi;-inkscape-font-specification:Lavi;text-align:center;letter-spacing:0px;word-spacing:0px;text-anchor:middle;fill:#000000;fill-opacity:1;stroke:none;stroke-width:1.1173"
       x="531.13611"
       y="3059.8477"
       id="text4246-3-2-2-3-3"><tspan
         style="font-style:normal;font-variant:normal;font-weight:bold;font-stretch:normal;font-size:50.2786px;font-family:Lavi;-inkscape-font-specification:'Lavi Bold';stroke-width:1.1173"
         sodipodi:role="line"
         x="531.13611"
         y="3059.8477"
         id="tspan894">Eu mal posso</tspan><tspan
         style="font-style:normal;font-variant:normal;font-weight:bold;font-stretch:normal;font-size:50.2786px;font-family:Lavi;-inkscape-font-specification:'Lavi Bold';stroke-width:1.1173"
         sodipodi:role="line"
         x="531.13611"
         y="3122.7363"
         id="tspan896">esperar para ver!</tspan></text>
    <text
       xml:space="preserve"
       style="font-style:normal;font-variant:normal;font-weight:normal;font-stretch:normal;font-size:57.3248px;line-height:1.25;font-family:Lavi;-inkscape-font-specification:Lavi;text-align:center;letter-spacing:0px;word-spacing:0px;text-anchor:middle;fill:#000000;fill-opacity:1;stroke:none;stroke-width:1.27388"
       x="517.26379"
       y="3258.7009"
       id="text4246-3-2-2-3-3-3"><tspan
         style="font-style:normal;font-variant:normal;font-weight:bold;font-stretch:normal;font-size:57.3248px;font-family:Lavi;-inkscape-font-specification:'Lavi Bold';stroke-width:1.27388"
         sodipodi:role="line"
         x="517.26379"
         y="3258.7009"
         id="tspan1015">Muahahaha!</tspan></text>
    <text
       xml:space="preserve"
       style="font-style:normal;font-variant:normal;font-weight:normal;font-stretch:normal;font-size:105.817px;line-height:1.25;font-family:Lavi;-inkscape-font-specification:Lavi;letter-spacing:0px;word-spacing:0px;fill:#000000;fill-opacity:1;stroke:#030303;stroke-width:0.716208;stroke-miterlimit:4;stroke-dasharray:none;stroke-opacity:1;filter:url(#filter4375-4-1-1-1-9-5-8-8-5-5-3-8)"
       x="787.65729"
       y="1584.5073"
       id="text4580-6-0-0-0-9-3-36"
       transform="matrix(1.0545214,-0.26714456,-0.41513081,1.2309466,1890.7199,857.1408)"><tspan
         style="font-size:195.17px;fill:#000000;fill-opacity:1;stroke:#030303;stroke-width:0.716208;stroke-miterlimit:4;stroke-dasharray:none;stroke-opacity:1"
         sodipodi:role="line"
         id="tspan876-6-1"
         x="787.65729"
         y="1584.5073">!<tspan
   style="font-size:173.821px;fill:#000000;stroke:#030303;stroke-opacity:1"
   id="tspan1317">!</tspan><tspan
   id="tspan1322"
   style="font-size:152.472px;fill:#000000;stroke:#030303;stroke-opacity:1">!</tspan></tspan></text>
  </g>
</svg>
