<?xml version="1.0" encoding="UTF-8" standalone="no"?>
<!-- Created with Inkscape (http://www.inkscape.org/) -->

<svg
   id="svg2"
   version="1.1"
   inkscape:version="1.2.2 (b0a8486541, 2022-12-01)"
   width="2481"
   height="3503"
   sodipodi:docname="E28P07.svg"
   xmlns:inkscape="http://www.inkscape.org/namespaces/inkscape"
   xmlns:sodipodi="http://sodipodi.sourceforge.net/DTD/sodipodi-0.dtd"
   xmlns:xlink="http://www.w3.org/1999/xlink"
   xmlns="http://www.w3.org/2000/svg"
   xmlns:svg="http://www.w3.org/2000/svg"
   xmlns:rdf="http://www.w3.org/1999/02/22-rdf-syntax-ns#"
   xmlns:cc="http://creativecommons.org/ns#"
   xmlns:dc="http://purl.org/dc/elements/1.1/">
  <metadata
     id="metadata8">
    <rdf:RDF>
      <cc:Work
         rdf:about="">
        <dc:format>image/svg+xml</dc:format>
        <dc:type
           rdf:resource="http://purl.org/dc/dcmitype/StillImage" />
        <dc:title />
      </cc:Work>
    </rdf:RDF>
  </metadata>
  <defs
     id="defs6" />
  <sodipodi:namedview
     pagecolor="#ffffff"
     bordercolor="#666666"
     borderopacity="1"
     objecttolerance="10"
     gridtolerance="10"
     guidetolerance="10"
     inkscape:pageopacity="0"
     inkscape:pageshadow="2"
     inkscape:window-width="1920"
     inkscape:window-height="1003"
     id="namedview4"
     showgrid="false"
     inkscape:zoom="0.51498715"
     inkscape:cx="1198.0881"
     inkscape:cy="2602.0067"
     inkscape:window-x="0"
     inkscape:window-y="40"
     inkscape:window-maximized="1"
     inkscape:current-layer="layer1"
     inkscape:showpageshadow="2"
     inkscape:pagecheckerboard="0"
     inkscape:deskcolor="#d1d1d1" />
  <g
     inkscape:groupmode="layer"
     id="layer2"
     inkscape:label="artwork"
     sodipodi:insensitive="true">
    <image
       xlink:href="../gfx_Pepper-and-Carrot_by-David-Revoy_E28P07.png"
       width="2481"
       height="3503"
       id="image10"
       x="0"
       y="0" />
  </g>
  <g
     inkscape:groupmode="layer"
     id="layer3"
     inkscape:label="speechbubbles">
    <path
       style="fill:#ffffff;fill-rule:evenodd;stroke:none;stroke-width:1.02645px;stroke-linecap:butt;stroke-linejoin:miter;stroke-opacity:1"
       d="m 137.4192,124.03794 c 54.57534,-43.208412 150.14918,-43.082025 202.54607,-41.999976 52.3969,1.082049 180.36008,0.03 210.80999,26.521156 30.44989,26.49118 50.45745,28.75166 49.60761,87.84802 -0.84983,59.09637 -13.60344,88.38997 -49.47331,117.20617 -35.86987,28.81622 -177.7825,35.12212 -217.87727,36.14144 -40.09477,1.01931 -140.21218,-4.74284 -170.68865,-29.38725 -30.47646,-24.64438 -57.57861,-69.53952 -55.50639,-106.44293 2.07225,-36.9034 13.39098,-73.61586 30.58195,-89.88663 z"
       id="path1035"
       inkscape:connector-curvature="0" />
    <path
       style="fill:#ffffff;fill-rule:evenodd;stroke:none;stroke-width:1px;stroke-linecap:butt;stroke-linejoin:miter;stroke-opacity:1"
       d="m 196.4271,253.96422 c -32.89449,39.47339 -40.41323,56.39055 -51.69134,74.24756 -11.27811,17.85701 -8.45859,59.21009 6.57889,70.4882 15.03749,11.27811 23.49607,17.857 15.97733,33.83433 -7.51874,15.97732 -7.37083,33.58627 -0.79194,42.9847 6.5789,9.39842 29.92706,24.68396 29.92706,24.68396 0,0 -21.13136,-17.00501 -23.34412,-22.26143 -3.75295,-8.91514 -2.08603,-20.48379 2.61318,-28.94238 4.69922,-8.45858 19.28439,-35.64147 -2.76513,-53.11871 -14.61974,-11.58813 -21.61638,-35.71402 -1.87968,-65.78898 19.73669,-30.07496 90.22489,-81.76631 90.22489,-81.76631 z"
       id="path1037"
       inkscape:connector-curvature="0"
       sodipodi:nodetypes="csssccscsscc" />
    <path
       style="fill:#ffffff;fill-rule:evenodd;stroke:none;stroke-width:1.03738px;stroke-linecap:butt;stroke-linejoin:miter;stroke-opacity:1"
       d="m 130.35844,969.7685 c 21.57561,-63.25474 57.24044,-69.34094 111.48553,-73.7104 54.24509,-4.36946 250.01301,-11.93758 297.68294,4.88868 47.66992,16.82623 60.9673,38.18408 74.75356,80.59243 12.01477,36.95899 15.49807,114.95679 3.99153,141.39319 -11.50653,26.4367 -31.32227,60.3911 -80.63599,63.0717 -49.31371,2.6806 -291.42364,4.1885 -321.01187,3.6657 -29.58823,-0.5228 -87.21106,-17.6394 -98.71767,-65.7946 -11.50654,-48.1549 -9.12363,-90.852 12.45197,-154.1067 z"
       id="path1039"
       inkscape:connector-curvature="0"
       sodipodi:nodetypes="zsssccssz" />
    <path
       style="fill:#ffffff;fill-rule:evenodd;stroke:none;stroke-width:1px;stroke-linecap:butt;stroke-linejoin:miter;stroke-opacity:1"
       d="m 197.23517,923.5374 c -17.7664,-36.95411 -18.47706,-61.82707 -3.55328,-69.64429 14.92378,-7.81721 21.31968,-12.7918 12.79181,-21.31968 -8.52787,-8.52787 -16.34509,-27.71558 -9.94919,-39.08608 6.39591,-11.37049 16.34509,-17.05574 26.29428,-18.47705 -15.63444,9.23852 -19.89837,17.05574 -19.18772,25.58361 0.71066,8.52787 2.84263,19.18771 12.79181,25.58362 9.94919,6.3959 23.45165,22.74099 2.13197,39.08608 -21.31968,16.34509 43.35002,66.09101 43.35002,66.09101 z"
       id="path1041"
       inkscape:connector-curvature="0" />
    <path
       style="fill:#ffffff;fill-rule:evenodd;stroke:none;stroke-width:0.833974px;stroke-linecap:butt;stroke-linejoin:miter;stroke-opacity:1"
       d="m 1879.9845,188.73057 c 7.5281,-30.89516 24.2574,-41.58964 35.1314,-43.96619 10.874,-2.37655 38.4773,1.18827 54.37,2.37655 15.8927,1.18827 64.4076,1.18827 68.5898,0 4.1824,-1.18828 73.6087,7.12965 83.6462,4.7531 10.0376,-2.37655 35.2204,-4.4733 46.9309,-2.09675 11.7105,2.37655 30.9491,20.20068 32.622,29.70689 1.6729,9.5062 5.7662,25.86225 2.4203,41.30983 -3.3457,15.44758 -23.4208,32.08343 -43.4959,40.40137 -20.0751,8.31792 -77.7909,1.18827 -86.1556,-1.18829 -8.3646,-2.37654 -38.4772,-10.69447 -55.2065,-5.94136 -16.7292,4.75309 -64.4074,11.88274 -90.3378,7.12965 -25.9303,-4.75311 -47.6783,-19.01241 -48.5148,-33.27171 -0.8364,-14.25931 -2.5094,-10.69448 0,-39.21309 z"
       id="path1043"
       inkscape:connector-curvature="0"
       sodipodi:nodetypes="csscssccsccscc" />
    <path
       style="fill:#ffffff;fill-rule:evenodd;stroke:none;stroke-width:1px;stroke-linecap:butt;stroke-linejoin:miter;stroke-opacity:1"
       d="m 1944.3016,233.0595 c -22.8961,17.75617 -71.9593,58.40848 -78.0338,64.01569 -6.0744,5.60722 -9.8126,23.83066 4.2055,19.15798 14.018,-4.67267 32.2414,-13.0835 37.8487,-14.01803 5.6072,-0.93454 9.8126,-1.86907 13.5507,-1.4018 -18.2234,4.20541 -68.2211,21.49432 -96.7244,92.51903 35.5123,-65.4175 80.37,-77.0992 89.2481,-80.37007 8.8781,-3.27088 23.8307,-7.47629 24.298,-14.95257 0.4672,-7.47629 -9.8127,-14.95257 -27.5688,-10.27989 22.4288,-13.08351 59.343,-45.32499 73.8283,-45.32499 14.4853,0 -40.6523,-9.34535 -40.6523,-9.34535 z"
       id="path1045"
       inkscape:connector-curvature="0" />
    <path
       style="fill:#ffffff;fill-rule:evenodd;stroke:none;stroke-width:1.04479074px;stroke-linecap:butt;stroke-linejoin:miter;stroke-opacity:1"
       d="m 210.95062,1362.7906 c 37.22801,-28.0194 50.02516,-26.1515 65.14906,-28.9534 15.12387,-2.8018 130.29809,-6.5378 152.40224,-4.6699 22.10415,1.8681 120.9911,9.3398 152.40226,35.4912 31.41113,26.1515 61.65892,48.5669 58.1688,87.794 -3.49014,39.2271 -12.79715,110.2096 -33.73791,133.5589 -20.94078,23.3495 -66.31243,39.2272 -117.50097,47.633 -51.18855,8.4058 -198.93731,-3.7359 -221.04145,-5.6039 -22.10414,-1.8679 -75.61944,-19.6136 -93.07006,-42.963 -17.45065,-23.3495 -43.04493,-75.6523 -34.90129,-110.2095 8.14363,-34.5571 27.92102,-81.2562 72.12932,-112.0774 z"
       id="path1047"
       inkscape:connector-curvature="0" />
    <path
       style="fill:#ffffff;fill-rule:evenodd;stroke:none;stroke-width:1px;stroke-linecap:butt;stroke-linejoin:miter;stroke-opacity:1"
       d="m 271.50243,1608.4597 c 44.91316,-22.9051 72.62553,-25.7681 98.4267,-27.6769 25.80118,-1.9088 84.09273,0.9543 111.8051,13.3612 27.71238,12.4069 46.82436,36.2663 53.51355,48.6732 6.68919,12.4068 12.42279,52.4905 1.9112,70.6237 -10.51159,18.133 -45.86876,44.8555 -66.89194,53.4449 -21.02317,8.5894 -113.71629,11.4525 -151.94025,0 -38.22397,-11.4525 -65.93634,-29.5856 -75.49234,-55.3537 -9.55599,-25.7681 -9.55599,-82.0762 28.66798,-103.0724 z"
       id="path1049"
       inkscape:connector-curvature="0" />
    <path
       style="fill:#ffffff;fill-rule:evenodd;stroke:none;stroke-width:1px;stroke-linecap:butt;stroke-linejoin:miter;stroke-opacity:1"
       d="m 571.51827,1489.8102 c 22.69719,-37.8287 85.61623,-110.0078 124.52571,-129.4625 38.90949,-19.4548 94.88053,-25.0946 113.25446,-22.933 15.70987,1.7353 35.90084,19.0754 55.12176,42.152 -15.13146,-30.263 -47.25978,-48.6478 -52.66387,-49.7286 -18.40862,-4.2887 -108.87383,-25.5751 -222.35983,69.5369 -113.48599,95.1121 -51.38362,121.779 -51.38362,121.779 z"
       id="path1051"
       inkscape:connector-curvature="0"
       sodipodi:nodetypes="cccccscc" />
    <path
       style="fill:#ffffff;fill-rule:evenodd;stroke:none;stroke-width:1.06424px;stroke-linecap:butt;stroke-linejoin:miter;stroke-opacity:1"
       d="m 137.38372,2222.383 c -1.91283,-31.4542 36.34356,-42.3423 68.86148,-45.9716 32.51792,-3.6294 145.37425,-3.6294 164.50243,-1.2098 19.12819,2.4195 131.98451,0 154.93833,1.2098 22.95383,1.2097 97.55377,9.6782 110.94351,31.4543 13.38974,21.776 32.51791,27.8249 13.38974,48.3912 -19.1282,20.5663 -42.08202,38.713 -120.50761,43.5521 -78.42556,4.8392 -246.75364,1.2098 -317.52794,-10.888 -70.77431,-12.0978 -74.59994,-36.2934 -74.59994,-66.538 z"
       id="path1053"
       inkscape:connector-curvature="0" />
    <path
       style="fill:#ffffff;fill-rule:evenodd;stroke:none;stroke-width:1px;stroke-linecap:butt;stroke-linejoin:miter;stroke-opacity:1"
       d="m 348.19942,2246.5661 c -29.42116,45.7663 -39.16091,33.6645 -43.24718,61.4512 -4.08627,27.7866 9.73975,53.7817 22.81582,64.406 13.07607,10.6243 34.32468,25.3349 15.52783,41.68 -18.79685,16.3451 -40.04547,26.1521 -35.95919,72.7356 4.08627,46.5835 21.24861,49.0353 27.78665,53.1215 -25.33489,-10.1025 -30.23842,-73.5529 -15.52784,-93.167 14.71058,-19.6141 16.91712,-15.0754 32.69018,-26.1521 13.88076,-9.7478 27.00207,-30.3114 -3.85728,-57.4442 -30.85936,-27.1329 -14.46952,-78.6996 28.77766,-101.4055 85.22691,-44.7462 -29.00665,-15.2255 -29.00665,-15.2255 z"
       id="path1055"
       inkscape:connector-curvature="0"
       sodipodi:nodetypes="csssscsszsc" />
    <path
       style="fill:#ffffff;fill-rule:evenodd;stroke:none;stroke-width:0.932911px;stroke-linecap:butt;stroke-linejoin:miter;stroke-opacity:1"
       d="m 809.43922,2266.1009 c 25.53242,-45.7653 53.52609,-50.9068 91.72949,-58.1416 82.78977,-8.4037 153.09259,2.7382 232.52299,0.262 41.1247,-1.346 97.2884,17.4986 115.6921,41.7272 18.404,24.2287 46.8394,96.9147 40.321,119.7973 -6.5184,22.8827 -18.5233,83.4545 -46.1203,99.6068 -27.597,16.1524 -47.9854,30.959 -94.6021,34.9971 -46.6167,4.0381 -223.47398,6.7302 -244.82618,5.3841 -21.35224,-1.346 -82.80266,-21.5366 -100.31685,-63.2638 -17.51419,-41.7271 -19.65884,-139.9879 5.59985,-180.3691 z"
       id="path1057"
       inkscape:connector-curvature="0"
       sodipodi:nodetypes="cccscssssc" />
    <path
       style="fill:#ffffff;fill-rule:evenodd;stroke:none;stroke-width:1px;stroke-linecap:butt;stroke-linejoin:miter;stroke-opacity:1"
       d="m 1078.5698,2470.4285 c 7.4155,31.516 12.9772,52.5267 19.7748,59.9423 6.7976,7.4155 22.8646,14.2131 33.3699,15.449 10.5054,1.236 21.0107,6.1796 6.1796,23.4826 -14.831,17.3029 -1.8538,54.9986 45.1112,57.4704 -46.965,-11.7413 -43.8752,-47.583 -27.8082,-54.3806 16.067,-6.7976 20.3927,-39.5496 -16.685,-50.6729 -32.752,-8.6514 -11.1233,-129.7719 -11.1233,-129.7719 z"
       id="path1059"
       inkscape:connector-curvature="0" />
  </g>
  <g
     inkscape:groupmode="layer"
     id="layer1"
     inkscape:label="txt"
     style="opacity:1">
    <text
       xml:space="preserve"
       style="font-style:normal;font-variant:normal;font-weight:normal;font-stretch:normal;line-height:0%;font-family:Lavi;-inkscape-font-specification:Lavi;text-align:center;letter-spacing:0px;word-spacing:0px;text-anchor:middle;fill:#000000;fill-opacity:1;stroke:none"
       x="349.40958"
       y="145.38466"
       id="text4246"><tspan
         sodipodi:role="line"
         style="font-size:45px;line-height:1.2"
         x="349.40958"
         y="145.38466"
         id="tspan825">.i cizra fa le nu</tspan><tspan
         sodipodi:role="line"
         style="font-size:45px;line-height:1.2"
         x="349.40958"
         y="199.38466"
         id="tspan264">mi lebna le cidja</tspan><tspan
         sodipodi:role="line"
         style="font-size:45px;line-height:1.2"
         x="349.40958"
         y="253.38466"
         id="tspan266">ca le nu </tspan><tspan
         sodipodi:role="line"
         style="font-size:45px;line-height:1.2"
         x="349.40958"
         y="307.38467"
         id="tspan268">no drata cu zgana</tspan></text>
    <text
       xml:space="preserve"
       style="font-style:normal;font-variant:normal;font-weight:normal;font-stretch:normal;line-height:0%;font-family:Lavi;-inkscape-font-specification:Lavi;text-align:center;letter-spacing:0px;word-spacing:0px;text-anchor:middle;fill:#000000;fill-opacity:1;stroke:none"
       x="362.4762"
       y="959.95374"
       id="text4246-3"><tspan
         sodipodi:role="line"
         style="font-size:45px;line-height:1.2"
         x="362.4762"
         y="959.95374"
         id="tspan868">.i ku'i le ctuca be mi'a</tspan><tspan
         sodipodi:role="line"
         style="font-size:45px;line-height:1.2"
         x="362.4762"
         y="1013.9537"
         id="tspan337">cu djica le nu mi'a</tspan><tspan
         sodipodi:role="line"
         style="font-size:45px;line-height:1.2"
         x="362.4762"
         y="1067.9537"
         id="tspan347">simsa su'o pruxi</tspan><tspan
         sodipodi:role="line"
         style="font-size:45px;line-height:1.2"
         x="362.4762"
         y="1121.9537"
         id="tspan339">lo ka na tai nitcu</tspan><tspan
         sodipodi:role="line"
         style="font-size:45px;line-height:1.2"
         x="362.4762"
         y="1175.9537"
         id="tspan341">lo'e cidja</tspan></text>
    <text
       xml:space="preserve"
       style="font-style:normal;font-variant:normal;font-weight:normal;font-stretch:normal;line-height:0%;font-family:Lavi;-inkscape-font-specification:Lavi;text-align:center;letter-spacing:0px;word-spacing:0px;text-anchor:middle;fill:#000000;fill-opacity:1;stroke:none"
       x="2037.1042"
       y="217.40169"
       id="text4246-3-3"><tspan
         sodipodi:role="line"
         style="font-size:45px;line-height:1.2"
         x="2037.1042"
         y="217.40169"
         id="tspan868-9">ua do zvati ti</tspan></text>
    <text
       xml:space="preserve"
       style="font-style:normal;font-variant:normal;font-weight:normal;font-stretch:normal;line-height:0%;font-family:Lavi;-inkscape-font-specification:Lavi;text-align:center;letter-spacing:0px;word-spacing:0px;text-anchor:middle;fill:#000000;fill-opacity:1;stroke:none"
       x="391.99753"
       y="1404.5085"
       id="text4246-3-3-1"><tspan
         sodipodi:role="line"
         style="font-size:45px;line-height:1.2"
         x="391.99753"
         y="1404.5085"
         id="tspan928">.i ro mai mi kakne</tspan><tspan
         sodipodi:role="line"
         style="font-size:45px;line-height:1.2"
         x="391.99753"
         y="1458.5085"
         id="tspan411">lo ka na se zgana</tspan><tspan
         sodipodi:role="line"
         style="font-size:45px;line-height:1.2"
         x="391.99753"
         y="1512.5085"
         id="tspan413">le jansu be lo karni</tspan></text>
    <text
       xml:space="preserve"
       style="font-style:normal;font-variant:normal;font-weight:normal;font-stretch:normal;line-height:0%;font-family:Lavi;-inkscape-font-specification:Lavi;text-align:center;letter-spacing:0px;word-spacing:0px;text-anchor:middle;fill:#000000;fill-opacity:1;stroke:none"
       x="390.59467"
       y="1666.9772"
       id="text4246-3-3-1-7"><tspan
         sodipodi:role="line"
         style="font-size:45px;line-height:1.2"
         x="390.59467"
         y="1666.9772"
         id="tspan966">.i gau ra</tspan><tspan
         sodipodi:role="line"
         style="font-size:45px;line-height:1.2"
         x="390.59467"
         y="1720.9772"
         id="tspan417">mi tatpi</tspan></text>
    <text
       xml:space="preserve"
       style="font-style:normal;font-variant:normal;font-weight:normal;font-stretch:normal;line-height:0%;font-family:Lavi;-inkscape-font-specification:Lavi;text-align:center;letter-spacing:0px;word-spacing:0px;text-anchor:middle;fill:#000000;fill-opacity:1;stroke:none"
       x="384.32666"
       y="2251.155"
       id="text4246-3-3-1-7-0"><tspan
         sodipodi:role="line"
         style="font-size:45px;line-height:1.2"
         x="384.32666"
         y="2251.155"
         id="tspan966-2">le ti'e jansu be lo karni</tspan></text>
    <text
       xml:space="preserve"
       style="font-style:normal;font-variant:normal;font-weight:normal;font-stretch:normal;line-height:0%;font-family:Lavi;-inkscape-font-specification:Lavi;text-align:center;letter-spacing:0px;word-spacing:0px;text-anchor:middle;fill:#000000;fill-opacity:1;stroke:none"
       x="1033.3441"
       y="2301.0564"
       id="text4246-3-3-1-7-0-6"><tspan
         sodipodi:role="line"
         style="font-size:45px;line-height:1.2"
         x="1033.3441"
         y="2301.0564"
         id="tspan1023">.i pei troci lo ka rivbi</tspan><tspan
         sodipodi:role="line"
         style="font-size:45px;line-height:1.2"
         x="1033.3441"
         y="2355.0564"
         id="tspan537">lo nu do tavla lo turni</tspan><tspan
         sodipodi:role="line"
         style="font-size:45px;line-height:1.2"
         x="1033.3441"
         y="2409.0564"
         id="tspan539">ca lo nu do dasni ti voi</tspan><tspan
         sodipodi:role="line"
         style="font-size:45px;line-height:1.2"
         x="1033.3441"
         y="2463.0564"
         id="tspan541">taxfu le'e stedu</tspan></text>
    <text
       xml:space="preserve"
       style="font-style:normal;font-variant:normal;font-weight:normal;font-stretch:normal;font-size:13.6717px;line-height:0%;font-family:Lavi;-inkscape-font-specification:Lavi;text-align:center;letter-spacing:0px;word-spacing:0px;text-anchor:middle;fill:#ffffff;fill-opacity:0.431373;stroke:#ffffff;stroke-width:0.410156;stroke-miterlimit:4;stroke-dasharray:none;stroke-opacity:1"
       x="1673.4884"
       y="2527.4509"
       id="text4246-8"
       transform="matrix(0.89761483,-0.24846861,0.02683826,1.1066345,0,0)"><tspan
         sodipodi:role="line"
         style="font-size:35.0469px;line-height:1.25;fill:#ffffff;fill-opacity:0.431373;stroke:#ffffff;stroke-width:0.410156;stroke-miterlimit:4;stroke-dasharray:none;stroke-opacity:1"
         x="1673.4884"
         y="2527.4509"
         id="tspan4150-8">.srak.</tspan><tspan
         sodipodi:role="line"
         style="font-size:35.0469px;line-height:1.25;fill:#ffffff;fill-opacity:0.431373;stroke:#ffffff;stroke-width:0.410156;stroke-miterlimit:4;stroke-dasharray:none;stroke-opacity:1"
         x="1673.4884"
         y="2571.2595"
         id="tspan1033">srak.</tspan></text>
  </g>
</svg>
