<?xml version="1.0" encoding="UTF-8" standalone="no"?>
<!-- Created with Inkscape (http://www.inkscape.org/) -->

<svg
   xmlns:dc="http://purl.org/dc/elements/1.1/"
   xmlns:cc="http://creativecommons.org/ns#"
   xmlns:rdf="http://www.w3.org/1999/02/22-rdf-syntax-ns#"
   xmlns:svg="http://www.w3.org/2000/svg"
   xmlns="http://www.w3.org/2000/svg"
   xmlns:xlink="http://www.w3.org/1999/xlink"
   xmlns:sodipodi="http://sodipodi.sourceforge.net/DTD/sodipodi-0.dtd"
   xmlns:inkscape="http://www.inkscape.org/namespaces/inkscape"
   id="svg2"
   version="1.1"
   inkscape:version="0.92.2 2405546, 2018-03-11"
   width="2481"
   height="3503"
   sodipodi:docname="E16P02.svg">
  <metadata
     id="metadata8">
    <rdf:RDF>
      <cc:Work
         rdf:about="">
        <dc:format>image/svg+xml</dc:format>
        <dc:type
           rdf:resource="http://purl.org/dc/dcmitype/StillImage" />
        <dc:title></dc:title>
      </cc:Work>
    </rdf:RDF>
  </metadata>
  <defs
     id="defs6" />
  <sodipodi:namedview
     pagecolor="#ffffff"
     bordercolor="#666666"
     borderopacity="1"
     objecttolerance="10"
     gridtolerance="10"
     guidetolerance="10"
     inkscape:pageopacity="0"
     inkscape:pageshadow="2"
     inkscape:window-width="1920"
     inkscape:window-height="1033"
     id="namedview4"
     showgrid="false"
     inkscape:zoom="0.65053824"
     inkscape:cx="1089.3416"
     inkscape:cy="392.27376"
     inkscape:window-x="0"
     inkscape:window-y="47"
     inkscape:window-maximized="0"
     inkscape:current-layer="layer1" />
  <g
     inkscape:groupmode="layer"
     id="layer2"
     inkscape:label="artwork"
     sodipodi:insensitive="true">
    <image
       sodipodi:absref="/home/midgard/git/peppercarrot/comics/ep16_The-Sage-of-the-Mountain/lang/ca/../gfx_Pepper-and-Carrot_by-David-Revoy_E16P02.png"
       xlink:href="../gfx_Pepper-and-Carrot_by-David-Revoy_E16P02.png"
       y="0"
       x="0"
       id="image10"
       height="3503"
       width="2481" />
  </g>
  <g
     inkscape:groupmode="layer"
     id="layer3"
     inkscape:label="speechbubbles">
    <path
       style="fill:#ffffff;fill-rule:evenodd;stroke:none;stroke-width:1px;stroke-linecap:butt;stroke-linejoin:miter;stroke-opacity:1"
       d="m 159.47183,1204.4941 c 8.4673,-30.5523 31.2689,-53.7332 56.0849,-69.2079 11.8098,-7.471 25.3086,-12.9459 39.1219,-11.5058 13.7227,0.8605 27.1264,5.9979 41.0009,4.2135 16.871,-0.5894 34.0382,-3.1608 50.7155,0.5135 14.8255,4.0092 30.1,6.0856 45.3989,6.206 10.7929,-2.5448 20.6691,4.2379 30.3078,8.2947 8.6531,4.3821 17.4915,8.9796 24.7596,15.758 6.6961,9.5154 14.7138,17.7936 21.4881,27.2243 4.4326,5.1557 4.0067,12.2771 3.8025,18.8678 -0.5757,13.4964 -1.5506,27.2058 -5.1691,40.2084 -2.1654,8.2549 -10.1691,10.9868 -16.319,14.7801 -14.5516,8.0076 -30.0035,14.08 -43.8912,23.5033 -13.7587,4.8251 -28.3804,2.5682 -42.4906,1.839 -11.8234,-1.4363 -23.7171,-3.4392 -35.6421,-1.7689 -15.1777,1.2223 -30.3093,4.3872 -45.5413,3.9818 -19.0815,-2.7818 -37.3564,-9.6313 -55.848,-15.1258 -16.5903,-4.8429 -31.711,-13.9495 -46.2197,-23.6913 -7.75,-5.532 -15.9543,-11.9621 -18.6894,-22.1569 -2.2421,-7.02 -2.7704,-14.5367 -2.8697,-21.9338 z"
       id="path4365"
       inkscape:connector-curvature="0" />
    <path
       style="fill:#ffffff;stroke:none"
       d="m 526.05317,1332.6787 c -30.94804,-5.9742 -33.65755,-15.3739 -35.85896,-26.3529 -2.20164,-10.979 -2.97755,-21.2157 -9.14413,-25.0411 -6.16635,-3.8252 -15.85979,-4.8779 -23.17719,-4.6934 -7.31743,0.1844 -5.29357,-9.0401 -8.28411,-16.1281 -2.99067,-7.0881 -31.76642,-37.2963 -31.76642,-37.2963 0,0 -1.64154,31.4089 0.94371,41.0513 2.58502,9.6423 3.48097,13.1815 5.57556,16.7304 2.09482,3.5489 8.54676,11.5174 16.06913,13.2832 7.52237,1.7658 15.47204,-0.2404 21.46624,-0.192 5.99426,0.048 8.9236,8.3554 12.37845,16.2997 3.45476,7.9444 7.26292,13.1493 20.83234,18.6149 11.63149,4.6851 30.96538,3.7243 30.96538,3.7243 z"
       id="path3023-2"
       inkscape:connector-curvature="0"
       sodipodi:nodetypes="csssscssssssc" />
    <path
       style="color:#000000;fill:#ffffff;fill-opacity:1;fill-rule:nonzero;stroke:none;stroke-width:1px;marker:none;visibility:visible;display:inline;overflow:visible;enable-background:accumulate"
       d="m 1376.0536,1390.7278 c -57.0687,-47.6477 -102.9543,-164.5605 -86.6488,-186.0019 16.3053,-21.4414 46.725,-29.6035 124.1755,-29.6035 77.4503,0 779.5265,-26.6326 859.015,23.3974 79.4884,50.03 47.4504,140.9867 -21.8473,199.355 -69.2977,58.3683 -530.2442,46.4565 -530.2442,46.4565 0,0 -256.809,7.1471 -344.4502,-53.6035 z"
       id="path3992"
       inkscape:connector-curvature="0"
       sodipodi:nodetypes="csssscc" />
    <path
       style="fill:#ffffff;stroke:none"
       d="m 1730.4354,1511.1983 c -2.4933,-38.2437 42.2088,-133.9831 260.2629,-126.7818 218.0543,7.2012 286.3018,49.2679 292.6918,117.2462 10.1085,107.5396 -104.6097,136.2779 -269.3345,144.2432 -169.8135,8.2116 -286.2557,-65.6073 -283.6202,-134.7076 z"
       id="path3280-8"
       inkscape:connector-curvature="0"
       sodipodi:nodetypes="csssc" />
    <path
       style="color:#000000;display:inline;overflow:visible;visibility:visible;fill:#ffffff;fill-opacity:1;fill-rule:nonzero;stroke:none;stroke-width:1px;marker:none;enable-background:accumulate"
       d="m 1219.1793,1379.025 c 11.1145,-52.0341 49.4885,-48.0105 61.0024,-50.7043 11.5139,-2.6938 53.2465,-12.1003 59.6337,-55.0276 6.3873,-42.9274 50.5704,-62.6224 50.5704,-62.6224 l -8.1471,64.4127 c 0,0 -26.1867,43.4877 -51.8954,55.4317 -25.7088,11.9439 -66.72,11.6091 -78.3208,20.0382 -11.601,8.429 -26.2997,13.0823 -32.8432,28.4717 z"
       id="path4018"
       inkscape:connector-curvature="0" />
    <path
       style="color:#000000;display:inline;overflow:visible;visibility:visible;fill:#ffffff;fill-opacity:1;fill-rule:nonzero;stroke:none;stroke-width:1px;marker:none;enable-background:accumulate"
       d="M 177.96119,197.48784 C 182.94267,122.88885 230.74676,78.680011 462.09939,81.754231 653.33686,84.295391 746.84402,103.73769 737.9927,199.64957 725.70604,332.78635 563.95115,310.59438 450.63745,318.43093 376.20594,316.65876 180.36075,333.49284 177.96119,197.48784 Z"
       id="path4546"
       inkscape:connector-curvature="0"
       sodipodi:nodetypes="csscc" />
    <path
       style="color:#000000;display:inline;overflow:visible;visibility:visible;fill:#ffffff;fill-opacity:1;fill-rule:nonzero;stroke:none;stroke-width:1px;marker:none;enable-background:accumulate"
       d="m 1143.8843,418.22097 c -4.0501,99.82061 -64.1908,178.66345 -330.03707,173.51778 -219.75005,-4.25341 -329.97728,-47.52294 -330.7754,-176.42124 -0.9958,-160.8241 231.19778,-139.84438 350.01009,-139.88419 85.54647,2.70361 309.96808,-9.4207 310.80238,142.78765 z"
       id="path4546-3"
       inkscape:connector-curvature="0"
       sodipodi:nodetypes="csscc" />
    <path
       style="color:#000000;display:inline;overflow:visible;visibility:visible;fill:#ffffff;fill-opacity:1;fill-rule:nonzero;stroke:none;stroke-width:1px;marker:none;enable-background:accumulate"
       d="m 1212.2695,581.74978 c -67.2618,20.68446 -152.2854,0.78987 -192.165,-42.94991 -39.87945,-43.73978 14.3178,-40.84093 14.3178,-40.84093 0,0 77.3502,101.9849 177.8472,83.79084 z"
       id="path5002"
       inkscape:connector-curvature="0"
       sodipodi:nodetypes="cscc" />
    <path
       style="fill:#ffffff;fill-rule:evenodd;stroke:none;stroke-width:1px;stroke-linecap:butt;stroke-linejoin:miter;stroke-opacity:1"
       d="m 79.966435,2157.7131 23.546955,13.5354 5.77671,-17.5442 13.96365,5.3005 -8.37819,-61.3165 30.72004,56.4744 2.79273,-14.6852 12.56729,19.9102 36.42692,-10.1329 6.8604,-49.134 15.36001,41.5601 11.17093,-17.5607 7.8925,22.5476 c 0,0 1.88205,4.7806 15.8457,2.814 13.96366,-1.9665 141.79599,6.6271 167.56383,22.4258 l 22.98224,8.8489 22.56755,-12.8277 -6.45156,21.2425 47.36086,-36.4813 -27.28149,47.3055 17.92704,-8.6396 -8.71946,18.4316 c 0,0 4.22581,10.2725 8.41491,14.8906 40.49459,40.2003 60.14929,131.6167 67.33048,151.0157 l 30.72004,-3.3056 -20.94548,11.8174 c 9.14048,5.6227 41.99548,14.6576 111.3259,-9.04 0,0 -64.15436,38.3004 -108.60984,34.5867 -9.56642,4.382 39.34647,13.1761 39.34647,13.1761 l -53.28076,5.7378 -5.84311,41.0539 39.09823,14.8414 -44.68369,-7.2721 37.70186,35.5067 -46.80583,-8.5678 -4.82814,22.4111 -7.68395,8.2137 c -16.12139,9.8519 -39.33705,31.5934 -60.92293,36.3978 0,3.6335 23.38547,40.1318 23.38547,40.1318 l -52.01461,-24.0959 24.0873,29.2402 -56.27233,-24.7238 -14.37279,-0.3326 -8.37819,2.8756 c -43.28733,21.7204 -143.43861,9.2721 -160.19499,6.545 -1.39637,0.076 -18.15274,34.8949 -18.15274,34.8949 l -7.69184,-30.6433 -11.85728,12.3222 -6.95817,-8.3014 -51.07677,56.5822 17.83286,-67.0026 -35.99696,27.7819 5.36921,-37.9612 -27.96162,27.3765 4.93852,-34.9601 -16.109444,4.0738 z"
       id="path4603"
       inkscape:connector-curvature="0"
       sodipodi:nodetypes="cccccccccccccsscccccccccccccccccccccccccccccccccccccccccc" />
    <path
       style="color:#000000;display:inline;overflow:visible;visibility:visible;fill:#ffffff;fill-opacity:1;fill-rule:nonzero;stroke:none;stroke-width:1px;marker:none;enable-background:accumulate"
       d="m 888.98096,2904.0902 c 27.05469,-34.8264 84.97283,-64.7718 161.54074,-77.9072 76.5679,-13.1353 218.796,-12.6822 243.8602,-9.2521 25.0641,3.4299 162.7441,14.8881 192.9745,33.821 30.2302,18.9326 71.1354,42.3452 80.3618,67.1316 9.2267,24.7864 2.9425,84.9628 -24.6031,98.739 -27.5457,13.7761 -153.66,45.0002 -227.5829,47.9461 -73.9228,2.9461 -246.1447,-6.3046 -295.3306,-13.9622 -49.18593,-7.6575 -101.30798,-17.6 -117.31246,-44.5993 -16.00463,-26.9994 -45.65633,-62.3225 -13.90818,-101.9169 z"
       id="path3533"
       inkscape:connector-curvature="0" />
    <path
       style="fill:#ffffff;stroke:none"
       d="m 1665.3162,3027.9651 c -45.7195,6.3375 -53.9298,-5.1776 -62.1848,-19.0773 -8.2551,-13.8997 -14.1828,-27.4561 -24.5416,-29.7762 -10.3587,-2.3201 -24.2907,0.778 -34.3436,4.4479 -10.0531,3.6701 -16.0502,-4.3086 -23.5544,-12.549 -7.5042,-8.2404 -57.2715,-41.3793 -57.2715,-41.3793 0,0 12.6136,43.4743 20.7667,55.3773 8.1531,11.903 11.0722,16.2967 15.6572,20.1434 4.5852,3.8466 17.3035,11.6669 28.565,10.553 11.2614,-1.1138 21.3268,-7.5562 29.6567,-10.2912 8.3298,-2.7351 21.007,2.5425 29.5605,11.7303 8.5534,9.1878 31.1188,27.0998 49.1012,23.41 17.9825,-3.6897 28.5886,-12.5889 28.5886,-12.5889 z"
       id="path3023"
       inkscape:connector-curvature="0"
       sodipodi:nodetypes="csssscssssssc" />
  </g>
  <g
     inkscape:groupmode="layer"
     id="layer1"
     inkscape:label="txt"
     style="display:inline">
    <text
       xml:space="preserve"
       style="font-style:normal;font-variant:normal;font-weight:normal;font-stretch:normal;line-height:0%;font-family:Lavi;-inkscape-font-specification:Lavi;text-align:center;letter-spacing:0px;word-spacing:0px;text-anchor:middle;fill:#000000;fill-opacity:1;stroke:none"
       x="812.651"
       y="363.03253"
       id="text4246-4"><tspan
         sodipodi:role="line"
         style="font-size:45px;line-height:1.25"
         x="812.651"
         y="363.03253"
         id="tspan3099">No m'involucro mai com a</tspan><tspan
         sodipodi:role="line"
         style="font-size:45px;line-height:1.25"
         x="812.651"
         y="419.28253"
         id="tspan3111">mediadora, ni tan sols per</tspan><tspan
         sodipodi:role="line"
         style="font-size:45px;line-height:1.25"
         x="812.651"
         y="475.53253"
         id="tspan3103">una amiga. Aquestes coses</tspan><tspan
         sodipodi:role="line"
         style="font-size:45px;line-height:1.25"
         x="812.651"
         y="531.78253"
         id="tspan3119">mai acaben bé.</tspan></text>
    <text
       xml:space="preserve"
       style="font-style:normal;font-variant:normal;font-weight:normal;font-stretch:normal;line-height:0%;font-family:Lavi;-inkscape-font-specification:Lavi;text-align:center;letter-spacing:0px;word-spacing:0px;text-anchor:middle;fill:#000000;fill-opacity:1;stroke:none"
       x="459.47992"
       y="166.86148"
       id="text4246-42"><tspan
         sodipodi:role="line"
         style="font-size:45px;line-height:1.25"
         x="459.47992"
         y="166.86148"
         id="tspan3442">Això és una cosa</tspan><tspan
         sodipodi:role="line"
         style="font-size:45px;line-height:1.25"
         x="459.47992"
         y="223.11148"
         id="tspan3039">de la qual te n'hauràs</tspan><tspan
         sodipodi:role="line"
         style="font-size:45px;line-height:1.25"
         x="467.39008"
         y="279.36148"
         id="tspan3041">d'encarregar tu. </tspan></text>
    <text
       xml:space="preserve"
       style="font-style:normal;font-variant:normal;font-weight:normal;font-stretch:normal;line-height:0%;font-family:Lavi;-inkscape-font-specification:Lavi;text-align:center;letter-spacing:0px;word-spacing:0px;text-anchor:middle;fill:#000000;fill-opacity:1;stroke:none"
       x="322.12131"
       y="1139.8259"
       id="text4246-4-3"><tspan
         sodipodi:role="line"
         style="font-size:45px;line-height:1.25"
         x="330.03146"
         y="1139.8259"
         id="tspan4253-3"> </tspan><tspan
         sodipodi:role="line"
         style="font-size:45px;line-height:1.25"
         x="322.12131"
         y="1196.0759"
         id="tspan4261-5">Si us plau...</tspan><tspan
         sodipodi:role="line"
         style="font-size:45px;line-height:1.25"
         x="322.12131"
         y="1252.3259"
         id="tspan4324">Saffron...</tspan></text>
    <text
       xml:space="preserve"
       style="font-style:normal;font-variant:normal;font-weight:normal;font-stretch:normal;line-height:0%;font-family:Lavi;-inkscape-font-specification:Lavi;text-align:center;letter-spacing:0px;word-spacing:0px;text-anchor:middle;fill:#000000;fill-opacity:1;stroke:none"
       x="1789.4443"
       y="1233.8634"
       id="text4246-4-3-5"><tspan
         sodipodi:role="line"
         style="font-size:45px;line-height:1.25"
         x="1789.4443"
         y="1233.8634"
         id="tspan4322">No estic aprenent res amb les bruixes padrines,</tspan><tspan
         sodipodi:role="line"
         style="font-size:45px;line-height:1.25"
         x="1789.4443"
         y="1290.1134"
         id="tspan3484">tot el que fan es estar-se a casa meva,</tspan><tspan
         sodipodi:role="line"
         style="font-size:45px;line-height:1.25"
         x="1789.4443"
         y="1346.3634"
         id="tspan3476">rondinar sobre els seus vells ossos i</tspan><tspan
         sodipodi:role="line"
         style="font-size:45px;line-height:1.25"
         x="1789.4443"
         y="1402.6134"
         id="tspan3486">escridassar-me per tot el que faig...</tspan></text>
    <text
       xml:space="preserve"
       style="font-style:normal;font-variant:normal;font-weight:normal;font-stretch:normal;line-height:0%;font-family:Lavi;-inkscape-font-specification:Lavi;text-align:center;letter-spacing:0px;word-spacing:0px;text-anchor:middle;fill:#000000;fill-opacity:1;stroke:none"
       x="303.17224"
       y="2190.9766"
       id="text4246-4-3-4"><tspan
         sodipodi:role="line"
         style="font-size:45px;line-height:1.25"
         x="311.0824"
         y="2190.9766"
         id="tspan4253-3-4"> </tspan><tspan
         sodipodi:role="line"
         style="font-size:45px;line-height:1.25"
         x="303.17224"
         y="2247.2266"
         id="tspan3514">Escolta, ets una</tspan><tspan
         sodipodi:role="line"
         style="font-size:45px;line-height:1.25"
         x="303.17224"
         y="2303.4766"
         id="tspan3136">bruixa! Comença</tspan><tspan
         sodipodi:role="line"
         style="font-size:45px;line-height:1.25"
         x="303.17224"
         y="2359.7266"
         id="tspan3138">a actuar com una!</tspan></text>
    <text
       xml:space="preserve"
       style="font-style:normal;font-variant:normal;font-weight:normal;font-stretch:normal;line-height:0%;font-family:Lavi;-inkscape-font-specification:Lavi;text-align:center;letter-spacing:0px;word-spacing:0px;text-anchor:middle;fill:#000000;fill-opacity:1;stroke:none"
       x="301.6976"
       y="2522.071"
       id="text4246-4-3-4-7"><tspan
         sodipodi:role="line"
         style="font-size:45px;line-height:1.25"
         x="301.6976"
         y="2522.071"
         id="tspan4438">Com una noia gran!</tspan></text>
    <text
       xml:space="preserve"
       style="font-style:normal;font-variant:normal;font-weight:normal;font-stretch:normal;line-height:0%;font-family:Lavi;-inkscape-font-specification:Lavi;text-align:center;letter-spacing:0px;word-spacing:0px;text-anchor:middle;fill:#000000;fill-opacity:1;stroke:none"
       x="321.21371"
       y="2443.2759"
       id="text4246-4-3-4-7-0"><tspan
         sodipodi:role="line"
         style="font-size:45px;line-height:1.25"
         x="321.21371"
         y="2443.2759"
         id="tspan4434">Encara-les!</tspan></text>
    <text
       xml:space="preserve"
       style="font-style:normal;font-variant:normal;font-weight:normal;font-stretch:normal;line-height:0%;font-family:Lavi;-inkscape-font-specification:Lavi;text-align:center;letter-spacing:0px;word-spacing:0px;text-anchor:middle;fill:#000000;fill-opacity:1;stroke:none"
       x="2014.6814"
       y="1485.0845"
       id="text4246-4-3-5-1"><tspan
         sodipodi:role="line"
         style="font-size:45px;line-height:1.25"
         x="2014.6814"
         y="1485.0845"
         id="tspan3499">Realment no pots venir</tspan><tspan
         sodipodi:role="line"
         style="font-size:45px;line-height:1.25"
         x="2014.6814"
         y="1541.3345"
         id="tspan3126">i ajudar-me a parlar-ne</tspan><tspan
         sodipodi:role="line"
         style="font-size:45px;line-height:1.25"
         x="2014.6814"
         y="1597.5845"
         id="tspan3128">amb elles... ?</tspan></text>
    <text
       xml:space="preserve"
       style="font-style:normal;font-variant:normal;font-weight:normal;font-stretch:normal;line-height:0%;font-family:Lavi;-inkscape-font-specification:Lavi;text-align:center;letter-spacing:0px;word-spacing:0px;text-anchor:middle;fill:#000000;fill-opacity:1;stroke:none"
       x="1227.8911"
       y="2895.5386"
       id="text4246-4-3-5-1-7"><tspan
         sodipodi:role="line"
         style="font-size:45px;line-height:1.25"
         x="1227.8911"
         y="2895.5386"
         id="tspan4482-9">Molt bé, molt bé!</tspan><tspan
         sodipodi:role="line"
         style="font-size:45px;line-height:1.25"
         x="1227.8911"
         y="2951.7886"
         id="tspan3533">Suposo que puc acompanyar-te</tspan><tspan
         sodipodi:role="line"
         style="font-size:45px;line-height:1.25"
         x="1227.8911"
         y="3008.0386"
         id="tspan3142">i parlar-ne amb elles.</tspan></text>
  </g>
</svg>
