<?xml version="1.0" encoding="UTF-8" standalone="no"?>
<!-- Created With Inkscape (http://www.inkscape.org/) -->

<svg
   xmlns:dc="http://purl.org/dc/elements/1.1/"
   xmlns:cc="http://creativecommons.org/ns#"
   xmlns:rdf="http://www.w3.org/1999/02/22-rdf-syntax-ns#"
   xmlns:svg="http://www.w3.org/2000/svg"
   xmlns="http://www.w3.org/2000/svg"
   xmlns:xlink="http://www.w3.org/1999/xlink"
   xmlns:sodipodi="http://sodipodi.sourceforge.net/DTD/sodipodi-0.dtd"
   xmlns:inkscape="http://www.inkscape.org/namespaces/inkscape"
   id="svg2"
   version="1.1"
   inkscape:version="0.92.4 (5da689c313, 2019-01-14)"
   width="2481"
   height="663"
   sodipodi:docname="E02P00.svg">
  <metadata
     id="metadata8">
    <rdf:RDF>
      <cc:Work
         rdf:about="">
        <dc:format>image/svg+xml</dc:format>
        <dc:type
           rdf:resource="http://purl.org/dc/dcmitype/StillImage" />
        <dc:title />
      </cc:Work>
    </rdf:RDF>
  </metadata>
  <defs
     id="defs6" />
  <sodipodi:namedview
     pagecolor="#ffffff"
     bordercolor="#666666"
     borderopacity="1"
     objecttolerance="10"
     gridtolerance="10"
     guidetolerance="10"
     inkscape:pageopacity="0"
     inkscape:pageshadow="2"
     inkscape:window-width="1920"
     inkscape:window-height="1017"
     id="namedview4"
     showgrid="false"
     inkscape:zoom="0.59209996"
     inkscape:cx="1001.7539"
     inkscape:cy="331.5"
     inkscape:window-x="-8"
     inkscape:window-y="-8"
     inkscape:window-maximized="1"
     inkscape:current-layer="layer1" />
  <g
     inkscape:groupmode="layer"
     id="layer2"
     inkscape:label="artwork"
     sodipodi:insensitive="true">
    <image
       sodipodi:absref="/felles/omsetting/pepper-carrot/webcomics/ep02_Rainbow-potions/lang/nn/../gfx_Pepper-and-Carrot_by-David-Revoy_E02P00.png"
       xlink:href="../gfx_Pepper-and-Carrot_by-David-Revoy_E02P00.png"
       width="2481"
       height="663"
       id="image10"
       x="-1.6728083e-006"
       y="0" />
  </g>
  <g
     inkscape:groupmode="layer"
     id="layer1"
     inkscape:label="text"
     style="opacity:1">
    <path
       style="display:inline;fill:#562f13;fill-opacity:1;stroke-width:1.06920075;enable-background:new"
       d="m 744.66127,498.70917 c -5.40519,-5.40521 -5.77887,-6.11182 -5.77887,-10.92818 0,-6.45699 2.06993,-9.4922 7.46404,-10.94466 2.39231,-0.6442 4.77091,-2.14289 5.53309,-3.48626 0.95896,-1.69027 1.44212,-10.7937 1.70917,-32.20415 l 0.37231,-29.84784 -6.21018,-1.35802 c -8.55763,-1.87136 -15.24829,-4.93047 -15.24829,-6.97182 0,-0.92848 -0.71775,-1.96356 -1.59497,-2.30018 -0.87724,-0.33663 -1.59497,-1.30027 -1.59497,-2.14144 0,-1.19982 0.85925,-1.35799 3.98742,-0.734 5.80062,1.15705 8.03363,0.87379 14.61451,-1.85383 l 5.90366,-2.44694 -0.3854,-39.40243 c -0.21198,-21.67133 -0.75418,-40.94569 -1.20487,-42.83193 -0.97059,-4.06201 -3.76059,-4.89342 -16.79843,-5.0059 -10.24984,-0.0884 -10.71546,-1.54604 -2.66113,-8.33045 6.33623,-5.33721 8.13193,-6.36548 21.79035,-12.47811 6.84986,-3.06556 10.55535,-4.17784 12.22807,-3.67051 3.42623,1.03918 7.13655,4.70983 8.81843,8.72414 l 1.44787,3.45575 h 12.22743 c 18.72282,0 31.85783,4.60901 48.17485,16.90429 13.0516,9.83463 17.32791,17.58807 17.32791,31.41708 0,9.13392 -2.03711,16.5943 -7.2748,26.64208 -5.01373,9.61809 -20.07981,25.00396 -30.53843,31.18661 -7.61775,4.50326 -31.66337,14.00412 -35.44286,14.00412 -5.50667,0 -5.42891,-0.34537 -5.42891,24.10816 0,13.61609 0.44151,23.64226 1.09482,24.86304 1.27367,2.37982 6.39437,5.25766 9.3553,5.25766 1.12708,0 2.62337,0.6918 3.32509,1.53734 0.91521,1.10274 1.97489,1.27156 3.74853,0.59723 1.45293,-0.55241 5.40193,-0.52528 9.57544,0.0657 5.86851,0.83107 7.74244,0.70231 10.78412,-0.74106 2.68023,-1.27187 5.28725,-1.58119 9.58629,-1.13749 3.24771,0.33519 7.12048,0.14727 8.60615,-0.41758 3.31146,-1.259 3.98423,-0.72577 2.52472,2.00123 -1.17489,2.19535 -6.49823,3.87867 -6.49823,2.05486 0,-0.58375 -2.37194,1.15731 -5.271,3.86905 -2.89905,2.71171 -5.97504,4.93039 -6.83556,4.93039 -0.86053,0 -2.29972,0.73514 -3.19823,1.63364 -2.09311,2.09313 -7.60886,4.39153 -13.94818,5.81221 -2.74483,0.61513 -6.50981,2.27717 -8.36658,3.69339 -3.96603,3.02505 -12.0717,6.07918 -22.45751,8.46181 -4.09375,0.93915 -7.60266,2.1765 -7.7976,2.74966 -0.19494,0.57318 -2.49898,1.04214 -5.12007,1.04214 -4.35187,0 -5.26741,-0.50177 -10.5445,-5.77886 z m 46.13959,-111.70044 c 17.4504,-8.36288 34.63104,-23.89078 41.24864,-37.28063 3.43776,-6.95588 3.81,-8.50009 3.3591,-13.93719 -0.4696,-5.66226 -0.87148,-6.4445 -5.43314,-10.57444 -6.09819,-5.52102 -12.58353,-7.35726 -25.69945,-7.27642 -10.30931,0.0636 -22.06213,2.60575 -25.20788,5.45262 -1.7515,1.58507 -1.90654,4.28877 -1.90654,33.24726 0,32.3998 0.20783,34.07382 4.23009,34.07382 0.92295,0 5.15709,-1.66727 9.40918,-3.70502 z m 365.43104,83.04945 c -15.217,-4.97185 -22.0016,-9.95862 -27.3389,-20.0944 -1.8197,-3.45597 -2.3721,-6.32543 -2.399,-12.46434 -0.049,-11.25247 4.0358,-19.6545 15.0674,-30.99056 l 8.1859,-8.41175 -3.4163,-6.92765 c -2.648,-5.37008 -3.1741,-7.37975 -2.34,-8.93835 1.6299,-3.04539 1.3051,-4.27712 -1.1278,-4.27712 h -2.2038 l 2.2038,-2.80169 c 2.8605,-3.63646 2.8374,-6.80152 -0.055,-7.55795 -2.0475,-0.53544 -2.2041,-1.12381 -1.6715,-6.28349 1.6694,-16.17349 16.3035,-31.90754 31.5766,-33.94992 5.6079,-0.74989 13.8584,1.95937 21.617,7.09845 7.02,4.64979 12.7847,14.398 12.781,21.6127 -0.01,9.93055 -3.0691,17.20033 -11.5635,27.4341 -3.202,3.85742 -5.8216,7.7376 -5.8216,8.62262 0,0.88503 -1.9844,3.30779 -4.4099,5.38398 l -4.4101,3.77485 7.3341,8.14224 c 4.0338,4.47826 8.6848,9.75496 10.3356,11.72604 1.651,1.97106 3.3984,3.58375 3.8835,3.58375 0.9433,0 3.2165,-5.74823 3.2165,-8.1335 0,-0.97882 -1.4394,-1.44049 -4.5191,-1.44946 -4.0065,-0.0117 -4.7978,-0.44341 -6.9773,-3.80696 -3.5231,-5.43744 -2.4748,-9.28727 3.1408,-11.53417 10.906,-4.36373 24.8732,-7.12416 38.1283,-7.53551 7.3104,-0.22686 16.1624,-0.72482 19.6713,-1.10656 l 6.3798,-0.69411 -7.4431,7.85732 c -4.0938,4.32154 -8.3612,8.3218 -9.483,8.88949 -1.1216,0.56767 -2.5571,1.98912 -3.1899,3.15877 -0.6326,1.16964 -1.2693,2.32535 -1.4147,2.56826 -0.1454,0.24291 -3.4947,0.97076 -7.443,1.61744 l -7.1788,1.1758 -0.7154,7.21331 c -0.3933,3.96733 -1.6576,9.11815 -2.8094,11.44628 l -2.0944,4.23296 6.5313,4.37091 c 10.7285,7.18 10.4805,6.83175 8.0679,11.33309 -1.1378,2.1227 -2.0685,4.44814 -2.0685,5.16767 0,0.71953 -1.4194,2.7602 -3.1541,4.53481 -3.6618,3.74594 -7.4286,4.15134 -11.5681,1.245 -1.5523,-1.08988 -5.0335,-2.94962 -7.7359,-4.13275 -2.7024,-1.18313 -5.2576,-2.70781 -5.6781,-3.3882 -0.5366,-0.86813 -1.7666,-0.47415 -4.1246,1.32107 -5.0257,3.82613 -10.911,6.57572 -20.3731,9.51802 -13.0238,4.04988 -15.0498,4.1754 -23.3928,1.44951 z m 25.6261,-27.24178 c 2.2807,-1.37299 4.3222,-2.62874 4.5368,-2.7906 0.2147,-0.16185 -5.0326,-5.56748 -11.6607,-12.01252 l -12.0512,-11.71828 -2.4944,2.34341 c -1.3718,1.28887 -3.4606,3.90667 -4.6415,5.81732 -1.1807,1.91063 -2.7515,3.47389 -3.4903,3.47389 -2.1666,0 -5.1858,4.00514 -4.4549,5.90955 0.3663,0.95456 1.5612,1.96966 2.6554,2.2558 1.0943,0.28614 2.6107,1.68082 3.3698,3.09924 0.7591,1.41845 2.852,3.52285 4.6508,4.67644 4.7435,3.04205 17.7414,2.46092 23.5802,-1.05425 z m -7.6399,-64.42378 c 13.1882,-11.25285 15.3916,-17.25223 8.8624,-24.1307 -4.087,-4.30549 -9.9648,-5.83992 -14.3234,-3.73912 -4.282,2.0639 -8.949,9.39035 -9.5869,15.05 -0.8284,7.34863 2.9236,19.82439 5.9621,19.82439 0.482,0 4.5707,-3.15208 9.0858,-7.00457 z m 195.2076,62.69245 c -9.4959,-1.87956 -19.5732,-5.3926 -25.5842,-8.91888 -17.0567,-10.00619 -28.7457,-21.729 -36.0314,-36.13589 -4.695,-9.28387 -6.4325,-14.93926 -9.9885,-32.51353 -2.4534,-12.12391 -2.5197,-13.37294 -1.1843,-22.32953 3.411,-22.87795 11.3886,-51.78658 18.4796,-66.96538 8.848,-18.93968 27.7984,-46.2228 42.0806,-60.58416 11.2485,-11.31069 19.196,-17.24681 31.0806,-23.21471 l 9.8145,-4.9283 11.4518,0.006 c 10.817,0.005 12.058,0.24135 22.3868,4.25324 14.7079,5.71266 14.7377,5.7086 15.6464,-2.12001 0.4468,-3.85087 1.588,-7.44696 2.8876,-9.09903 2.004,-2.54754 2.5526,-2.68236 8.1378,-1.9999 6.9804,0.85294 17.2683,5.64457 22.2045,10.34173 2.9333,2.79149 3.4488,4.02028 3.4093,8.13062 -0.086,9.01794 -1.6049,13.83549 -5.6759,18.00454 -4.4428,4.5499 -5.0197,7.56057 -1.455,7.59581 1.3158,0.013 3.5393,0.90542 4.941,1.98315 l 2.5486,1.95953 -1.7548,19.03188 c -3.1127,33.76012 -13.8612,80.14292 -18.5716,80.14292 -1.2826,0 -2.3155,-5.29195 -2.3155,-11.86348 0,-2.86979 -0.6715,-6.82486 -1.4921,-8.78903 -0.8383,-2.00596 -1.8333,-9.79742 -2.2705,-17.77633 -0.7096,-12.94672 -1.1964,-15.42746 -5.4971,-28.00446 -9.0952,-26.59819 -19.0771,-42.03838 -27.1617,-42.01404 -8.5294,0.0258 -22.9999,9.54113 -37.6564,24.76199 -8.4347,8.75933 -11.2846,11.1033 -12.9656,10.66369 -1.42,-0.37138 -3.0814,0.36327 -4.8729,2.15482 -2.9178,2.91775 -3.3396,4.98377 -1.6587,8.12436 1.4289,2.66991 0.3267,5.12773 -2.4786,5.52734 -1.7393,0.24776 -2.335,1.10833 -2.4352,3.51793 -0.073,1.75446 -4.0873,11.5635 -8.9208,21.79788 -11.0481,23.39248 -19.7103,49.09067 -20.7883,61.67206 -0.6128,7.15109 -1.3109,9.7435 -3.344,12.41661 -2.4233,3.18597 -2.4772,3.55744 -0.9457,6.51905 0.8933,1.72729 3.0013,4.29933 4.6844,5.71564 1.6831,1.41629 4.4074,4.94234 6.0537,7.83566 4.1682,7.32549 11.7933,15.04206 18.0114,18.22743 4.9899,2.55631 5.9155,2.66573 18.6079,2.19997 12.2317,-0.44884 14.3868,-0.85323 25.5849,-4.8008 6.7254,-2.37088 14.0071,-5.07504 16.1812,-6.00923 2.1744,-0.93419 5.2618,-1.69852 6.8609,-1.69852 1.7157,0 4.2363,-1.23022 6.1484,-3.00091 1.7822,-1.65053 6.6538,-4.30266 10.8258,-5.89368 4.1719,-1.59099 8.4772,-3.87824 9.5672,-5.08277 1.0902,-1.2045 3.2567,-2.84921 4.8147,-3.65484 3.3189,-1.71624 3.0893,-4.22862 -0.7664,-8.38904 -2.345,-2.53013 -3.1166,-2.68817 -13.1269,-2.68817 -8.9157,0 -11.8039,-0.44938 -17.8613,-2.77898 -17.8069,-6.84847 -21.173,-7.79974 -27.6944,-7.82666 -3.6551,-0.015 -6.6291,-0.38633 -6.6087,-0.82496 0.02,-0.4386 4.5791,-3.83818 10.1311,-7.55463 5.8935,-3.94506 12.5945,-9.58711 16.1017,-13.55722 3.3039,-3.74003 6.5877,-6.80006 7.297,-6.80006 0.7093,0 5.759,2.93474 11.2217,6.52166 l 9.9318,6.52162 9.0584,-0.69536 c 4.982,-0.38246 12.1048,-1.35563 15.8285,-2.16263 6.3912,-1.38504 7.1772,-1.32893 14.0286,1.00146 3.9923,1.35777 8.2367,2.21285 9.4323,1.90019 3.1933,-0.83507 3.7448,1.92666 1.6464,8.24421 -1.4783,4.45119 -2.4793,5.7387 -5.415,6.96532 -4.0906,1.70921 -4.3127,2.90978 -1.8304,9.89883 l 1.7708,4.98642 -5.9488,10.59924 c -8.1942,14.59963 -21.2493,27.03068 -28.388,27.03068 -1.6009,0 -2.9687,1.58596 -5.08,5.89085 -2.6845,5.4738 -3.7402,6.41431 -14.9103,13.28414 -8.311,5.11138 -15.5384,8.57436 -23.4162,11.21997 -10.4323,3.50333 -12.6081,3.85738 -25.7498,4.18979 -7.8952,0.1997 -15.5509,0.12631 -17.0129,-0.16308 z M 486.49204,422.1967 c -8.03668,-3.01736 -14.09572,-11.26827 -15.21502,-20.71911 -0.50707,-4.28145 -0.21507,-5.48436 1.93937,-7.98902 2.06457,-2.40022 3.77559,-3.09477 9.19922,-3.73428 9.40093,-1.10844 10.22994,-2.23329 10.67863,-14.48934 0.35701,-9.75195 0.43978,-10.04182 2.70481,-9.47333 1.5654,0.39289 3.00824,-0.15583 4.37189,-1.66267 2.42388,-2.67833 1.46756,-4.859 -3.28602,-7.49297 l -3.09565,-1.71532 -0.28088,-32.39899 -0.28091,-32.39897 3.6056,0.42092 c 2.85405,0.3332 3.97219,-0.0987 5.36438,-2.07254 1.64721,-2.33531 1.637,-2.59466 -0.16107,-4.08846 -1.05592,-0.87722 -3.5373,-3.85815 -5.51419,-6.62427 l -3.59433,-5.02931 0.89884,-17.30021 c 0.49439,-9.51514 0.92744,-21.68863 0.96237,-27.0522 0.0575,-8.82648 -0.17419,-10.0048 -2.44101,-12.41589 -1.37748,-1.46518 -5.20539,-3.73141 -8.50649,-5.03613 -3.30108,-1.3047 -7.03991,-3.30085 -8.30848,-4.43587 -3.64918,-3.26498 -6.81501,-11.85794 -7.01401,-19.038 -0.16618,-5.99528 0.0567,-6.65704 3.18082,-9.44854 7.2676,-6.4936 40.85636,-14.34312 66.60959,-15.5663 14.22235,-0.6755 32.36427,0.69972 45.86118,3.47644 9.89518,2.03574 27.21183,10.70892 34.69169,17.37562 9.72193,8.66501 21.96176,27.94711 28.11166,44.2859 12.14716,32.27206 -2.63393,64.34653 -41.65746,90.39524 -14.20489,9.48196 -47.44781,24.02319 -64.25565,28.10696 -12.34405,2.9992 -14.76545,4.09357 -15.49578,7.00343 -1.00438,4.00181 0.0131,28.91225 1.23055,30.12913 0.60893,0.60859 3.37749,1.53067 6.15236,2.04909 2.7749,0.5184 5.90303,1.71883 6.95146,2.66763 1.32064,1.19517 3.90263,1.7251 8.40541,1.7251 3.57458,0 6.73134,0.37557 7.01506,0.83463 0.64504,1.04371 32.77523,0.88592 34.48269,-0.16935 0.68803,-0.42522 2.92836,-0.31 4.97848,0.25607 2.13859,0.5905 3.97529,0.62833 4.30877,0.0887 0.50614,-0.81899 6.68253,-0.25727 7.82764,0.71188 1.13779,0.96296 -2.67909,3.62182 -6.10658,4.25388 -2.1343,0.3936 -5.5124,1.58329 -7.50685,2.64377 -1.99446,1.0605 -3.99498,1.70032 -4.44559,1.42182 -0.45061,-0.2785 -2.01019,0.59734 -3.46575,1.94628 -1.51938,1.40814 -6.41866,3.48676 -11.50407,4.8808 -4.87168,1.3355 -10.42896,3.11056 -12.34947,3.94458 -1.92049,0.83402 -4.96227,1.51641 -6.7595,1.51641 -1.7972,0 -6.20701,1.38211 -9.79954,3.07136 -13.60959,6.39943 -48.96924,10.71923 -58.48817,7.14536 z m 71.62754,-115.452 c 2.63169,-0.72517 7.81903,-2.69363 11.52743,-4.37433 6.08193,-2.75644 7.01954,-2.91433 9.56981,-1.61166 5.24303,2.67818 9.61391,-1.10197 8.12653,-7.0282 -0.92897,-3.70127 2.99673,-7.13297 6.00828,-5.25222 3.1331,1.95665 5.56062,-0.30049 4.73937,-4.40674 -0.53133,-2.65668 0.21411,-4.0029 5.33201,-9.62934 7.19763,-7.91285 14.76666,-20.43584 17.04511,-28.20123 2.34269,-7.98427 1.58027,-18.19991 -1.92435,-25.78463 -8.38995,-18.15754 -25.86848,-25.35782 -53.03551,-21.84796 -12.21524,1.57817 -15.89518,1.1599 -15.89518,-1.80666 0,-0.75785 -1.24761,-2.04558 -2.77248,-2.86167 -2.55588,-1.36788 -2.93656,-1.28118 -4.87243,1.10953 -1.32147,1.63195 -1.94138,3.67366 -1.67221,5.50765 0.34674,2.36248 -0.11639,3.13973 -2.44582,4.10462 -4.6016,1.90604 -8.61874,6.86541 -9.60851,11.86223 -1.15381,5.82494 -2.6072,87.70925 -1.62615,91.61805 0.40244,1.60344 1.71503,3.27909 2.91688,3.72366 2.04194,0.75537 16.95892,-1.91685 28.58722,-5.1211 z m 107.92604,113.00003 c -15.61525,-2.07108 -21.4175,-7.18094 -28.15561,-24.79585 -4.52238,-11.8225 -4.6847,-12.66419 -5.11438,-26.52297 -0.82692,-26.67093 4.47701,-44.75784 18.72094,-63.84036 9.38738,-12.57627 15.08996,-17.66854 25.24031,-22.53901 15.48651,-7.43094 20.67063,-6.84301 33.58437,3.80883 7.63797,6.30017 12.67032,14.50238 14.62252,23.83323 1.48927,7.11819 1.52691,31.34867 0.0569,36.64196 -1.44708,5.21083 -4.08804,6.80266 -13.76636,8.29779 -11.28993,1.74408 -53.24862,12.69249 -55.83563,14.56936 -2.58966,1.87881 -3.23893,7.05321 -1.49656,11.92716 2.69464,7.5378 3.34845,8.8168 6.06606,11.86684 6.38333,7.16423 15.25771,6.83718 31.34492,-1.15515 16.50586,-8.20031 21.85894,-11.20588 24.68232,-13.85833 1.56064,-1.46612 3.25919,-2.15767 4.30962,-1.75459 2.06233,0.79138 1.47517,4.73662 -1.88351,12.65578 -1.6613,3.91715 -2.57878,4.94216 -4.01542,4.48621 -2.31147,-0.73363 -7.70918,5.30135 -7.00899,7.83645 0.26429,0.95686 0.79136,2.82069 1.17127,4.14187 0.62472,2.17247 -0.25678,2.8594 -9.2196,7.18467 -13.10416,6.32377 -23.32819,8.53911 -33.30318,7.21611 z m 7.97483,-77.98954 c 18.86582,-4.21618 27.2829,-7.05062 29.24159,-9.84704 1.2016,-1.71552 1.58184,-5.29612 1.54334,-14.53365 -0.0617,-14.79405 -1.69285,-19.50636 -6.92965,-20.01879 -7.84449,-0.76759 -27.98259,17.9037 -36.86293,34.1779 -2.76803,5.07275 -5.35062,10.48944 -5.73906,12.0371 -0.64553,2.57201 -0.48708,2.75283 1.84287,2.10323 1.40203,-0.3909 9.00875,-2.15434 16.90384,-3.91875 z m 267.95435,75.87426 c -3.13991,-1.2017 -5.3432,-3.92606 -6.42541,-7.94496 -0.60485,-2.24642 -1.69401,-4.0844 -2.42019,-4.0844 -0.72628,0 -5.37314,1.70989 -10.3263,3.79977 -37.34693,15.75744 -63.4559,6.95642 -61.37583,-20.68916 1.00931,-13.41461 9.08299,-26.75728 20.97452,-34.66278 10.38726,-6.9054 27.8011,-14.92655 38.01165,-17.50881 4.80856,-1.21609 10.01313,-2.69405 11.56573,-3.28435 l 2.82286,-1.07324 -0.71762,-8.74726 c -0.84214,-10.26627 -3.11763,-19.08042 -5.41888,-20.99029 -0.89893,-0.74606 -2.93733,-1.32314 -4.52981,-1.28237 -1.59238,0.0408 -5.20119,0.12689 -8.01958,0.1914 -6.49781,0.14871 -17.9262,5.59319 -28.24863,13.45765 -4.1325,3.1485 -7.95871,5.72456 -8.5027,5.72456 -0.54398,0 -2.76478,2.47177 -4.93526,5.49286 -3.38624,4.71346 -4.09183,5.23264 -4.97256,3.65885 -1.17459,-2.09885 2.53178,-12.35431 7.82257,-21.64488 6.29812,-11.05954 23.27249,-22.56701 36.45199,-24.71204 14.1527,-2.30341 28.84044,4.79144 35.14055,16.97457 3.8802,7.50342 6.8412,32.02725 6.90395,57.18069 0.0219,8.72924 0.68819,10.21824 3.21191,7.17737 0.72797,-0.87724 2.04398,-1.59497 2.9243,-1.59497 2.40986,0 0.91384,7.70647 -2.94458,15.16772 -2.86285,5.53623 -4.16911,11.41506 -2.53636,11.41506 0.34837,0 1.90346,-0.89446 3.45576,-1.98766 1.5523,-1.09321 5.69337,-3.27884 9.20233,-4.85697 3.50886,-1.57812 7.64992,-3.55462 9.20213,-4.39222 1.5523,-0.83759 3.10738,-1.52289 3.45585,-1.52289 1.62252,0 0.27836,3.57504 -3.46978,9.22879 -4.4954,6.78077 -5.67208,9.72318 -5.9931,14.98603 -0.28621,4.69444 -3.58067,7.90725 -12.62288,12.31039 -7.56022,3.68144 -14.6585,5.37249 -17.68663,4.21354 z M 904.53787,393.3081 c 13.69116,-2.77119 27.26348,-10.1096 30.58807,-16.53863 3.61179,-6.98447 0.35314,-16.89174 -5.55603,-16.89174 -1.7864,0 -2.86612,-0.70944 -3.23677,-2.12664 -0.66949,-2.56035 -2.15983,-2.70497 -4.65014,-0.45125 -1.01816,0.92145 -2.4913,1.78889 -3.27366,1.92766 -6.0131,1.0666 -13.6493,4.23673 -15.82634,6.57017 -1.43495,1.53812 -5.3619,4.73368 -8.72646,7.10128 -7.74023,5.44653 -12.88015,12.81921 -12.01236,17.23027 0.33952,1.72541 1.20811,3.51241 1.93031,3.97114 2.14153,1.36025 11.98421,0.98467 20.76338,-0.79226 z m 609.37153,23.05925 c -2.7011,-0.95101 -7.0076,-3.46629 -9.5697,-5.58952 -3.7843,-3.13603 -5.0077,-5.07272 -6.5193,-10.32123 -2.2562,-7.83356 -2.3681,-13.91355 -0.3453,-18.75474 0.8334,-1.99487 2.0632,-7.36251 2.7327,-11.9281 0.6695,-4.56558 1.8729,-12.36823 2.6745,-17.33923 1.4097,-8.74426 1.9512,-14.88108 3.3561,-38.04602 0.3648,-6.01238 1.0621,-11.17826 1.55,-11.47975 0.4879,-0.30151 1.8769,-0.0183 3.087,0.62926 1.8535,0.99184 2.7856,0.66348 5.9137,-2.08308 3.2671,-2.86858 4.2514,-3.18528 8.189,-2.63459 2.4618,0.34427 5.074,0.81027 5.805,1.03557 2.2527,0.69426 1.5109,9.15509 -1.7776,20.27519 -1.7088,5.77805 -3.4335,14.57271 -3.8327,19.54369 -0.3992,4.97099 -1.8553,14.54078 -3.2359,21.26621 -2.9445,14.34397 -4.1858,25.35784 -3.2693,29.00924 1.8453,7.35278 22.9601,5.68041 40.2862,-3.1909 5.1134,-2.61811 10.4225,-6.09775 11.7981,-7.73252 2.5504,-3.03102 4.1318,-10.2856 5.6229,-25.79482 0.3794,-3.94753 1.1025,-7.17734 1.6066,-7.17734 1.3618,0 1.1105,-6.13442 -0.2867,-6.99784 -1.504,-0.92957 -0.5867,-29.95513 1.1265,-35.64426 l 1.1537,-3.83126 11.309,-0.73116 c 10.7309,-0.69376 11.4374,-0.61073 13.8162,1.62415 3.0528,2.8679 3.1964,6.13811 0.4245,9.66212 -1.702,2.1638 -2.1953,4.95952 -2.6978,15.29558 -0.3383,6.95632 -1.0379,15.51878 -1.5546,19.0277 -0.5168,3.50893 -1.2679,11.64325 -1.6689,18.07629 -0.4531,7.26572 -1.4918,13.71039 -2.7421,17.01299 -2.4391,6.44302 -2.5127,7.97483 -0.3834,7.97483 1.8686,0 11.3607,-4.62765 15.5468,-7.57955 1.5523,-1.09464 4.0645,-1.99025 5.5824,-1.99025 3.8344,0 3.6357,3.23395 -0.6044,9.84168 -1.8505,2.88365 -3.73,7.555 -4.1767,10.3808 -0.4466,2.8258 -1.6154,6.36404 -2.5977,7.86278 -3.5389,5.40133 -18.7982,12.28419 -27.2888,12.30906 -3.2175,0.01 -4.4269,-0.63558 -6.6457,-3.54463 -1.4918,-1.95587 -2.7124,-4.28973 -2.7124,-5.18636 0,-3.84948 -2.6685,-4.11157 -10.2139,-1.0032 -14.6928,6.05276 -23.992,8.47965 -34.4451,8.98955 -7.6177,0.3716 -11.3091,0.0676 -15.0129,-1.23634 z m -527.09269,-3.26264 c -2.38926,-2.46197 -4.66068,-5.51655 -5.04754,-6.78795 -0.38696,-1.27139 -1.3004,-3.02938 -2.02985,-3.9066 -2.258,-2.71528 -2.82705,-7.13954 -1.13571,-8.83085 1.20522,-1.20529 3.61358,-1.42332 11.04263,-0.99975 l 9.50117,0.54174 0.40555,-22.43347 c 0.28751,-15.90515 0.78744,-22.81544 1.71794,-23.74598 0.9298,-0.92984 1.3126,-6.18705 1.3126,-18.03122 0,-16.10292 -0.094,-16.83062 -2.5557,-19.75594 -1.77315,-2.10722 -2.39361,-3.8847 -2.02644,-5.80515 0.69903,-3.65704 -1.24072,-4.69009 -4.63313,-2.46731 -2.09012,1.36949 -3.27964,1.53525 -5.00399,0.69739 -1.24411,-0.60454 -4.05643,-1.64809 -6.24948,-2.31902 -4.69142,-1.43522 -4.97942,-2.96293 -1.25953,-6.68278 3.13802,-3.13796 18.92189,-9.17154 25.98147,-9.93167 9.8676,-1.06252 15.945,5.37329 15.9481,16.88865 8e-4,3.36274 0.3952,6.11405 0.8761,6.11405 0.481,0 3.6183,-3.10592 6.9718,-6.90201 7.5027,-8.49305 13.8321,-12.40383 20.231,-12.50055 6.6266,-0.10017 11.183,1.94246 10.4642,4.69117 -0.4845,1.85271 -0.1169,2.09667 2.7124,1.79991 4.6777,-0.49069 8.0199,3.10884 13.5976,14.6449 5.2457,10.84938 5.3385,11.35035 3.0989,16.71052 -0.8773,2.09951 -1.595,5.74663 -1.595,8.10468 0,3.16321 -0.4321,4.28739 -1.6478,4.28739 -2.3572,0 -8.001,3.01012 -11.1418,5.94249 -2.4721,2.30804 -3.0276,2.40857 -6.9115,1.25039 -2.3228,-0.69266 -4.4626,-1.51781 -4.7549,-1.83369 -0.2925,-0.31585 -1.4888,-1.09974 -2.6584,-1.74195 -3.146,-1.72743 -4.8819,-5.70251 -3.5648,-8.16347 0.9908,-1.85114 1.2328,-1.72188 2.8553,1.52451 1.8784,3.75855 4.0103,4.68807 8.2889,3.61422 2.8668,-0.71952 6.7754,-8.20646 6.7754,-12.97862 0,-3.71098 -1.9931,-7.03225 -3.8033,-6.33765 -0.9809,0.37648 -1.5134,-0.1284 -1.5134,-1.43532 0,-3.37859 -4.9966,-6.42548 -10.5106,-6.40916 -2.6991,0.009 -6.0072,0.30914 -7.3515,0.66922 -2.6387,0.70678 -6.2024,6.87688 -10.3308,17.88654 -3.0592,8.15816 -7.9656,37.2213 -8.0748,47.82971 -0.1001,9.74271 1.4116,12.63037 8.1797,15.62418 3.24,1.4332 4.6952,2.72063 4.6952,4.15378 0,2.4934 2.3928,2.72369 4.3089,0.41471 1.2512,-1.50731 1.4663,-1.50731 2.3097,0 1.1594,2.07151 4.4078,2.15574 6.0664,0.15733 1.4975,-1.80448 7.3483,-0.51605 9.2302,2.03262 0.6492,0.87937 2.2043,1.59884 3.4558,1.59884 2.6948,0 2.9853,2.34013 0.5421,4.36786 -2.2506,1.86775 -12.8406,5.16616 -16.6514,5.18628 -1.6316,0.009 -4.981,1.06044 -7.4433,2.33739 -3.4513,1.78999 -7.2772,2.49762 -16.7047,3.08973 -6.7255,0.42242 -16.5925,1.11636 -21.9269,1.54211 l -9.69884,0.77407 z m 713.69479,2.30583 c -3.5813,-2.90625 -8.9027,-10.97123 -8.9027,-13.49264 0,-3.32714 5.1715,-7.72851 10.1015,-8.59735 8.3955,-1.47955 7.9748,0.79494 7.9748,-43.12511 0,-24.02278 -0.4437,-41.19412 -1.1496,-44.48479 -1.2915,-6.02328 -4.1166,-8.89402 -10.6908,-10.86367 -4.1864,-1.25429 -5.1656,-2.97655 -2.7801,-4.89056 1.3266,-1.06455 19.7366,-4.51048 24.0973,-4.51048 3.4539,0 10.7561,7.3398 11.6499,11.70991 1.1346,5.54762 3.3754,5.03362 8.6779,-1.99053 3.622,-4.79801 6.32,-7.07352 11.3387,-9.56323 6.4322,-3.19089 6.7051,-3.23163 11.7047,-1.74686 6.4978,1.92961 13.1899,6.82733 15.7018,11.49139 1.853,3.44106 1.8703,4.34264 0.3418,17.86205 -1.5999,14.14955 -1.6429,14.29093 -6.9216,22.74455 -2.9214,4.67857 -5.9779,8.50648 -6.7921,8.50648 -1.1289,0 -1.6156,-2.52684 -2.048,-10.63311 -0.6557,-12.29213 -2.2506,-16.17413 -8.0526,-19.5973 -6.3569,-3.75068 -7.9209,-2.8488 -11.7791,6.79249 -5.4936,13.72924 -11.8571,54.25528 -9.5139,60.59027 2.7528,7.44177 2.2991,7.25711 14.58,5.9358 6.0938,-0.65568 12.885,-1.58349 15.0915,-2.06187 2.4338,-0.5276 4.2628,-0.46393 4.6495,0.16191 0.3508,0.5674 -2.7308,4.45141 -6.8481,8.63113 -4.1169,4.17971 -8.188,9.32085 -9.0464,11.42478 -2.7201,6.66579 -6.4292,8.01943 -25.7295,9.39004 -9.3572,0.66451 -18.4484,1.42062 -20.203,1.68028 -2.0271,0.30001 -4.0145,-0.19701 -5.4519,-1.36358 z m 261.1782,0.82235 c -14.593,-1.25016 -23.5099,-10.17391 -26.9922,-27.01318 -1.3361,-6.46048 -1.7172,-14.74821 -1.7172,-37.3436 0,-15.97219 -0.2904,-29.79723 -0.6454,-30.72228 -0.5118,-1.33389 -2.354,-1.68195 -8.9027,-1.68195 h -8.2574 l -4.4754,-4.85525 c -2.7252,-2.95652 -4.2364,-5.47784 -3.8646,-6.44722 0.3362,-0.87557 -0.1,-2.9668 -0.9689,-4.64718 -0.8689,-1.68037 -1.3325,-3.69958 -1.0305,-4.48716 0.8185,-2.13248 15.227,-9.07752 20.5485,-9.90442 8.6343,-1.34171 8.7515,-1.71024 8.6175,-27.08195 -0.071,-13.47285 -0.5849,-23.49724 -1.3018,-25.39659 -1.3312,-3.52642 0.2185,-6.52842 3.335,-6.46081 2.7155,0.0589 14.6896,7.75956 17.3757,11.1744 2.2161,2.81719 2.481,4.5337 3.0668,19.86661 0.5387,14.09887 0.948,17.12211 2.5599,18.90334 2.46,2.71823 4.1126,2.65767 10.6584,-0.3905 3.4575,-1.61005 8.5193,-2.76679 14.3224,-3.27299 4.9361,-0.4306 10.1858,-1.39707 11.6655,-2.14771 1.4798,-0.75062 5.7023,-1.64964 9.3833,-1.99778 5.574,-0.52718 6.8032,-0.34465 7.3545,1.09193 0.4552,1.18633 -0.6342,2.75233 -3.4894,5.01534 -2.283,1.80971 -9.6769,8.12217 -16.4306,14.02767 -9.0773,7.93757 -13.8694,11.33224 -18.3779,13.01908 -3.3543,1.25499 -8.4092,3.45275 -11.2336,4.88386 l -5.1349,2.60205 -0.6988,31.16456 c -0.7889,35.1747 -0.2107,42.22144 3.7928,46.22499 2.5377,2.5375 2.8533,2.59764 5.7504,1.09528 1.686,-0.87433 9.4214,-7.61837 17.1897,-14.98674 14.9399,-14.17062 19.1365,-16.52154 17.7451,-9.94129 -1.7032,8.05549 -4.7012,14.60246 -8.0617,17.6051 -3.1217,2.78925 -3.3914,3.44592 -2.3521,5.72709 1.8998,4.16951 -2.6591,12.38779 -10.5114,18.94906 -8.8601,7.40338 -10.7138,8.13117 -18.919,7.42824 z m -137.9434,-1.62617 c -5.4734,-1.72333 -14.4481,-8.03805 -19.6012,-13.79152 -4.8312,-5.39424 -10.8983,-17.46613 -12.4512,-24.77432 -1.6205,-7.62675 -1.4482,-26.60737 0.3302,-36.36608 1.4174,-7.77745 6.2683,-22.19429 9.7021,-28.83477 4.1373,-8.00044 15.2843,-17.35649 28.6446,-24.0425 15.5125,-7.76296 41.2569,-3.44579 50.6533,8.4942 1.5425,1.95993 4.2316,6.40792 5.9757,9.88443 9.8754,19.68391 12.1689,38.51427 7.3098,60.01811 -1.8129,8.02295 -3.3702,12.59375 -4.5287,13.2914 -0.9712,0.58481 -2.8871,2.02029 -4.2574,3.18993 -2.3849,2.03541 -2.4204,2.2702 -0.8294,5.47529 1.5918,3.20621 1.5404,3.54197 -1.2062,7.89295 -4.4409,7.03459 -11.9348,14.51337 -18.0475,18.01064 -5.5148,3.15534 -5.6722,3.17795 -21.376,3.07359 -9.9265,-0.0659 -17.4959,-0.63272 -20.3181,-1.52135 z m 30.7665,-22.97344 c 9.784,-2.16796 17.0181,-13.888 18.4713,-29.92454 0.3962,-4.37046 0.3478,-16.73827 -0.1074,-27.48402 l -0.8274,-19.53773 -8.8694,-6.64568 c -9.8713,-7.39664 -11.8368,-7.84533 -21.7171,-4.95792 -9.5002,2.77632 -19.1083,13.98188 -21.7565,25.37371 -0.804,3.45855 -3.0148,7.95631 -5.6922,11.58076 -4.9406,6.68764 -5.214,8.09989 -2.3584,12.1739 1.1109,1.58458 2.2835,5.38469 2.606,8.44469 0.7394,7.01339 9.611,25.4452 13.629,28.31537 6.3797,4.55734 14.433,5.36244 26.6221,2.66146 z m -222.4412,19.29235 c -2.3179,-2.51071 -4.5208,-5.57341 -4.8953,-6.80602 -0.3746,-1.23262 -1.2779,-2.95885 -2.0075,-3.83607 -2.3669,-2.84629 -2.8241,-7.14242 -0.9586,-9.00799 1.3062,-1.30603 2.8209,-1.55332 6.3104,-1.03008 l 4.5914,0.68855 1.2601,-4.62921 c 0.693,-2.54607 1.1792,-8.55394 1.0803,-13.35083 -0.1267,-6.16411 0.3133,-9.67473 1.5013,-11.97187 1.3028,-2.51929 1.4144,-3.74783 0.4965,-5.4629 -1.6194,-3.02587 -1.4738,-9.16421 0.5079,-21.41535 0.9213,-5.6957 1.675,-12.33808 1.675,-14.76084 0,-2.65593 0.9107,-5.87843 2.2934,-8.11581 2.0079,-3.24866 2.1352,-4.14814 1.0236,-7.22273 -1.4542,-4.02146 -0.1386,-17.86809 2.5349,-26.6806 0.8625,-2.84314 1.5734,-7.72419 1.5798,-10.84681 0.01,-3.12264 1.4014,-11.73546 3.1001,-19.1396 1.6987,-7.40416 3.1249,-15.85458 3.1695,-18.77868 0.045,-2.92411 0.4543,-10.18046 0.9103,-16.12525 l 0.8292,-10.8087 -2.8657,1.6928 c -2.0701,1.22274 -3.2542,1.37942 -4.2646,0.56419 -0.7694,-0.62072 -2.9208,-1.45385 -4.7811,-1.85138 -10.191,-2.1778 -4.6998,-8.79957 11.8474,-14.28654 8.9645,-2.97257 11.4639,-3.39705 16.4695,-2.79713 7.5986,0.91068 17.3788,3.68321 18.371,5.2079 1.1482,1.76459 -0.1489,5.0062 -3.5749,8.93423 -1.6756,1.92101 -3.0466,4.20886 -3.0466,5.0841 0,0.87523 -0.8373,1.90554 -1.8607,2.28955 -4.3359,1.62694 -5.9429,7.5958 -2.9388,10.91536 1.732,1.9138 1.763,1.64629 -3.1967,27.6622 -1.3935,7.31027 -3.0609,18.0763 -3.7051,23.9245 -2.6697,24.23233 -5.5573,45.50376 -8.016,59.05158 -1.7903,9.86374 -2.6122,18.24805 -2.6122,26.64537 0,9.12739 -0.3982,12.77936 -1.5611,14.31689 -2.2202,2.93529 -2.2001,15.68421 0.029,17.53301 0.9111,0.75608 2.306,2.92938 3.0998,4.82952 1.8951,4.53545 5.2592,6.37539 8.7493,4.78521 3.4592,-1.57616 4.5708,-0.69931 4.5708,3.60598 0,2.97083 -0.9159,4.37755 -5.4093,8.30822 -5.8924,5.15462 -6.7181,5.3652 -26.555,6.77326 l -9.5355,0.67685 z m -563.8287,-6.13139 c -2.1696,-0.48198 -2.2315,-0.7681 -0.76,-3.51729 1.0456,-1.95377 5.2222,-2.82256 6.6595,-1.38527 0.8954,0.89549 -0.9704,4.27598 -2.6801,4.85542 -0.7472,0.25329 -2.1959,0.27449 -3.2194,0.0471 z"
       id="path8305"
       inkscape:connector-curvature="0" />
    <flowRoot
       xml:space="preserve"
       id="flowRoot12123"
       style="font-style:normal;font-weight:normal;font-size:40px;line-height:1.25;font-family:sans-serif;letter-spacing:0px;word-spacing:0px;fill:#000000;fill-opacity:1;stroke:none"><flowRegion
         id="flowRegion12125"><rect
           id="rect12127"
           width="1.688904"
           height="99.64534"
           x="1449.0796"
           y="740.97809" /></flowRegion><flowPara
         id="flowPara12129" /></flowRoot>    <flowRoot
       xml:space="preserve"
       id="episode-title"
       style="font-style:normal;font-variant:normal;font-weight:normal;font-stretch:normal;line-height:0.01%;font-family:Arial;-inkscape-font-specification:Arial;letter-spacing:0px;word-spacing:0px;display:inline;fill:#562f13;fill-opacity:1;stroke:none;"
       transform="translate(-700.70898,-120.8471)"><flowRegion
         id="flowRegion2989"
         style="fill:#562f13;fill-opacity:1;"><rect
           id="rect2991"
           width="2405.8"
           height="107.55731"
           x="739.22333"
           y="644.36664"
           style="fill:#562f13;fill-opacity:1;" /></flowRegion><flowPara
         id="flowPara2993"
         style="font-style:normal;font-variant:normal;font-weight:normal;font-stretch:normal;font-size:72px;line-height:1.25;font-family:Lavi;-inkscape-font-specification:Lavi;text-align:center;text-anchor:middle;fill:#562f13;fill-opacity:1;">Episode 2: Regnbogetrylledrikkar</flowPara></flowRoot>  </g>
</svg>
