<?xml version="1.0" encoding="UTF-8" standalone="no"?>
<!-- Created with Inkscape (http://www.inkscape.org/) -->

<svg
   id="svg2"
   version="1.1"
   inkscape:version="1.1.2 (0a00cf5339, 2022-02-04)"
   width="2481"
   height="3503"
   sodipodi:docname="E37P04.svg"
   xmlns:inkscape="http://www.inkscape.org/namespaces/inkscape"
   xmlns:sodipodi="http://sodipodi.sourceforge.net/DTD/sodipodi-0.dtd"
   xmlns:xlink="http://www.w3.org/1999/xlink"
   xmlns="http://www.w3.org/2000/svg"
   xmlns:svg="http://www.w3.org/2000/svg"
   xmlns:rdf="http://www.w3.org/1999/02/22-rdf-syntax-ns#"
   xmlns:cc="http://creativecommons.org/ns#"
   xmlns:dc="http://purl.org/dc/elements/1.1/">
  <metadata
     id="metadata8">
    <rdf:RDF>
      <cc:Work
         rdf:about="">
        <dc:format>image/svg+xml</dc:format>
        <dc:type
           rdf:resource="http://purl.org/dc/dcmitype/StillImage" />
        <dc:title />
      </cc:Work>
    </rdf:RDF>
  </metadata>
  <defs
     id="defs6">
    <filter
       inkscape:label="Ripple"
       inkscape:menu="Distort"
       inkscape:menu-tooltip="Horizontal rippling of edges"
       style="color-interpolation-filters:sRGB"
       id="filter4265-7-37"
       y="0"
       x="0"
       width="1"
       height="1">
      <feTurbulence
         numOctaves="1"
         baseFrequency="0.002 0.107"
         id="feTurbulence4267-7-7" />
      <feColorMatrix
         values="5 0 0 0 0 0 0 0 0 0 0 0 0 0 0 0 0 0 4 0 "
         result="result91"
         id="feColorMatrix4269-1-2" />
      <feDisplacementMap
         yChannelSelector="A"
         xChannelSelector="R"
         scale="14.3"
         in="SourceGraphic"
         in2="result91"
         id="feDisplacementMap4271-2-64" />
    </filter>
    <filter
       inkscape:label="Magmah-FX"
       inkscape:menu="Distort"
       inkscape:menu-tooltip="Horizontal rippling of edges"
       style="color-interpolation-filters:sRGB"
       id="filter4265-7"
       y="0"
       x="0"
       width="1"
       height="1">
      <feTurbulence
         numOctaves="1"
         baseFrequency="0.002 0.107"
         id="feTurbulence4267-7" />
      <feColorMatrix
         values="5 0 0 0 0 0 0 0 0 0 0 0 0 0 0 0 0 0 4 0 "
         result="result91"
         id="feColorMatrix4269-1" />
      <feDisplacementMap
         yChannelSelector="A"
         xChannelSelector="R"
         scale="14.3"
         in="SourceGraphic"
         in2="result91"
         id="feDisplacementMap4271-2" />
    </filter>
    <filter
       style="color-interpolation-filters:sRGB"
       inkscape:label="Magmah-spell-glow"
       id="filter4751"
       x="-0.035967053"
       y="-0.17833759"
       width="1.0719341"
       height="1.3566752">
      <feFlood
         flood-opacity="1"
         flood-color="rgb(255,255,255)"
         result="flood"
         id="feFlood4753" />
      <feComposite
         in="flood"
         in2="SourceGraphic"
         operator="in"
         result="composite1"
         id="feComposite4755" />
      <feGaussianBlur
         in="composite1"
         stdDeviation="5.4"
         result="blur"
         id="feGaussianBlur4757" />
      <feOffset
         dx="0"
         dy="0"
         result="offset"
         id="feOffset4759" />
      <feComposite
         in="SourceGraphic"
         in2="offset"
         operator="over"
         result="composite2"
         id="feComposite4761" />
    </filter>
  </defs>
  <sodipodi:namedview
     pagecolor="#ffffff"
     bordercolor="#666666"
     borderopacity="1"
     objecttolerance="10"
     gridtolerance="10"
     guidetolerance="10"
     inkscape:pageopacity="0"
     inkscape:pageshadow="2"
     inkscape:window-width="1846"
     inkscape:window-height="1016"
     id="namedview4"
     showgrid="false"
     inkscape:zoom="0.28063492"
     inkscape:cx="1769.2025"
     inkscape:cy="2713.4898"
     inkscape:window-x="0"
     inkscape:window-y="0"
     inkscape:window-maximized="1"
     inkscape:current-layer="layer1"
     inkscape:pagecheckerboard="0"
     inkscape:showpageshadow="0"
     inkscape:deskcolor="#d1d1d1" />
  <g
     inkscape:groupmode="layer"
     id="layer2"
     inkscape:label="artwork"
     sodipodi:insensitive="true">
    <image
       xlink:href="../gfx_Pepper-and-Carrot_by-David-Revoy_E37P04.png"
       y="0"
       x="0"
       id="image10"
       height="3503"
       width="2481" />
  </g>
  <g
     inkscape:groupmode="layer"
     id="layer3"
     inkscape:label="speechbubbles">
    <path
       style="color:#000000;display:inline;overflow:visible;visibility:visible;fill:#ffffff;fill-opacity:1;fill-rule:nonzero;stroke:none;stroke-width:1px;marker:none;enable-background:accumulate"
       d="m 199.57043,1456.7644 c 35.34251,-29.3422 341.31993,-47.0808 422.36525,1.141 67.64735,40.2503 41.25353,140.4884 -18.90801,163.5766 -60.16142,23.088 -260.29662,20.4081 -348.01132,9.94 -83.51651,-9.9659 -97.5402,-40.0493 -101.64834,-100.6193 -1.67668,-24.7223 10.85969,-44.6962 46.20242,-74.0383 z"
       id="path4040-4-4"
       inkscape:connector-curvature="0"
       sodipodi:nodetypes="zssssz" />
    <path
       style="color:#000000;display:inline;overflow:visible;visibility:visible;fill:#ffffff;fill-opacity:1;fill-rule:nonzero;stroke:none;stroke-width:1.10661px;marker:none;enable-background:accumulate"
       d="m 232.88521,1821.6545 c -15.49911,-4.3258 -30.36527,-25.9083 -39.85487,-45.1151 -2.6023,-5.5279 -4.9768,-11.4623 -5.91137,-17.7034 0.23014,-6.7406 4.6456,-11.9989 9.68489,-14.2208 7.08756,-3.8231 15.87763,-4.2925 21.36573,-11.5454 3.88883,-5.3975 2.44347,-12.8787 1.69304,-19.2745 -2.17932,-16.2588 -6.20379,-32.2732 -6.21379,-48.8483 -1.02235,-18.6687 -0.97071,-38.3918 6.06435,-55.4786 2.87848,-6.7043 6.67303,-13.2274 12.33892,-16.8574 14.17763,-10.1059 33.45012,-10.5499 47.30692,0.9314 8.26682,8.3259 10.21944,25.1454 2.569,34.7308 -3.97524,5.1331 -10.21215,6.1902 -15.7493,5.1661 -10.4586,0.3997 -20.04905,8.0914 -25.18673,18.8336 -4.36159,8.7814 -6.37218,19.1354 -6.13892,29.3576 -2.73879,13.9759 2.82926,27.469 5.69121,40.7504 1.23215,6.0908 2.19987,12.6668 0.87478,18.791 -3.62099,8.1775 -11.75152,10.5256 -18.8271,11.5577 -7.27261,1.2901 -15.83507,1.7981 -20.79951,9.2364 -4.02698,4.5998 -0.25135,11.0835 0.90045,16.2897 5.52666,16.1978 15.18264,30.1517 26.62182,40.8647 1.15331,0.9227 2.35952,1.7296 3.57048,2.5341 z"
       id="path4496-8"
       inkscape:connector-curvature="0"
       sodipodi:nodetypes="ccccccccccccccccccccc" />
    <path
       style="fill:#ffffff;stroke:none;stroke-width:0.999997"
       d="m 2077.6821,3138.6462 c -59.4798,0.1923 -119.8131,2.4797 -177.2103,17.2777 -27.3764,7.3238 -54.3892,19.1526 -72.7275,38.8741 -19.0853,21.3698 -26.3614,49.4057 -24.2117,76.1068 2.3015,25.7603 12.7571,51.6609 33.0808,70.8404 15.9635,14.9351 37.3338,24.4759 59.3095,30.8571 50.0348,14.7657 103.5563,14.6477 155.7641,14.4651 50.6811,-0.5375 101.4122,0.95 152.0506,-1.472 28.4615,-1.5776 57.1186,-3.8031 84.7066,-10.4256 24.5918,-5.9798 49.0062,-16.2579 65.1419,-34.0656 11.5027,-12.2548 18.6171,-27.2173 22.3227,-42.6306 5.4756,-21.908 5.3852,-44.7713 0.8751,-66.7999 -4.5968,-19.7815 -16.27,-38.7612 -34.8737,-51.1344 -23.9142,-16.6832 -53.7101,-25.1802 -83.2521,-30.7871 -41.7371,-7.6183 -84.5061,-9.0829 -126.9888,-10.5505 -17.9908,-0.4392 -35.99,-0.5782 -53.9872,-0.5555 z"
       id="path3280-10"
       inkscape:connector-curvature="0"
       sodipodi:nodetypes="csssc" />
    <path
       style="color:#000000;display:inline;overflow:visible;visibility:visible;fill:#ffffff;fill-opacity:1;fill-rule:nonzero;stroke:none;stroke-width:1px;marker:none;enable-background:accumulate"
       d="m 2241.4933,3042.882 c 29.4607,39.0283 37.4962,54.495 5.4884,103.1911 -32.008,48.6949 -12.3313,58.5128 -12.3313,58.5128 l 37.4463,-17.7293 c 0,0 60.5024,-107.9345 -30.6034,-143.9746 z"
       id="path3072-56"
       inkscape:connector-curvature="0" />
    <path
       style="display:inline;fill:#ffffff;stroke:none;stroke-width:0.870791"
       d="m 853.92827,1498.666 c -27.48885,0.8158 -55.355,5.6352 -80.49241,18.7455 -19.77335,10.7341 -35.33507,31.47 -40.41441,55.7155 -4.08982,18.9101 -3.59908,38.5479 -3.19337,57.8603 0.62537,17.3896 3.38492,35.261 11.59944,50.2737 10.46529,19.372 28.23578,32.796 47.41398,38.7855 26.41471,9.2357 54.31488,10.4375 81.76403,10.6224 32.34823,0.016 64.99984,0.383 96.88113,-6.695 18.19439,-4.9104 35.74484,-15.4898 47.40624,-32.3392 10.0717,-15.116 14.2757,-34.0598 15.9448,-52.5995 1.9675,-25.1579 -1.5667,-50.6806 -9.1046,-74.3864 -7.5986,-21.0474 -23.23594,-37.8005 -41.68662,-46.5471 -16.39551,-8.1285 -34.13087,-11.9479 -51.73695,-14.986 -24.62497,-3.9171 -49.54943,-4.5394 -74.38126,-4.4497 z"
       id="path3280-8-1"
       inkscape:connector-curvature="0"
       sodipodi:nodetypes="csssc" />
    <path
       style="display:inline;fill:#ffffff;stroke:none;stroke-width:0.87079"
       d="m 1313.7031,1598.9546 c -45.2996,0.1784 -91.3157,2.6201 -134.546,14.1637 -26.9476,7.5865 -52.0876,21.1089 -67.6074,40.4882 -4.0238,5.9369 -6.0586,12.5868 -7.8839,19.1283 -6.3326,25.5046 1.5608,53.6554 23.6977,73.1702 20.4238,18.1996 49.0018,29.5023 78.4365,35.406 36.1884,7.3348 73.8177,8.6166 110.9964,7.6825 53.3294,-0.6922 106.2343,-6.5856 159.0533,-11.9582 24.4756,-2.7764 49.2269,-6.5183 71.639,-15.133 24.5935,-9.9088 45.0557,-27.6651 51.5188,-49.2943 7.6982,-24.6034 0.2355,-52.3364 -21.1384,-71.3915 -11.313,-9.9144 -26.7533,-16.0104 -42.4283,-20.3844 -19.8535,-5.5282 -40.5327,-8.8719 -61.1367,-12.0826 -52.9201,-7.7257 -106.8749,-10.0011 -160.601,-9.7949 z"
       id="path3280-8-1-0"
       inkscape:connector-curvature="0"
       sodipodi:nodetypes="csssc" />
    <path
       style="display:inline;fill:#ffffff;stroke:none;stroke-width:0.87079"
       d="m 1862.2363,1651.2023 c -50.8635,0.6482 -101.994,2.0251 -152.2572,10.8462 -26.6456,5.7742 -52.6926,20.9362 -66.6355,46.1832 -16.1469,27.5793 -16.2568,61.2542 -14.059,92.4907 2.325,27.6156 8.081,55.3706 19.9364,80.2794 14.7896,26.1138 41.8202,42.3318 69.793,47.9076 44.4643,11.8564 90.5407,13.842 136.094,17.3304 89.9381,4.4347 180.0083,2.3387 269.9903,1.0048 62.4055,-2.4722 125.8801,-8.3299 184.7244,-31.7113 32.0542,-16.217 51.5346,-52.6204 54.0341,-89.0811 4.5436,-41.0711 -2.4156,-84.5978 -24.0863,-119.6117 -16.7415,-25.3442 -43.8018,-42.5329 -72.8689,-46.9111 -40.2898,-8.1048 -81.512,-4.0382 -122.2119,-6.9468 -85.9869,-2.3813 -172.0135,-0.7613 -258.0155,-1.8435 -8.1462,-0.013 -16.2921,-0.034 -24.4379,0.063 z"
       id="path3280-8-1-0-6"
       inkscape:connector-curvature="0"
       sodipodi:nodetypes="csssc" />
    <path
       style="color:#000000;display:inline;overflow:visible;visibility:visible;fill:#ffffff;fill-opacity:1;fill-rule:nonzero;stroke:none;stroke-width:0.999999px;marker:none;enable-background:accumulate"
       d="m 1778.817,1868.4621 c -12.833,-0.6526 -23.8662,8.7491 -27.831,19.5381 -19.6036,19.4059 -1.839,-8.6641 -6.4214,4.8364 -13.5019,11.0957 -15.4266,35.2523 -15.8537,65.4931 -5.2817,5.1994 -14.9376,-8.1861 -19.6475,-2.164 -4.937,10.3078 -6.0593,21.8252 -6.4897,33.0281 -0.3179,32.1806 14.1211,63.8185 37.0812,87.8622 7.5298,8.5773 15.2692,16.9924 22.966,25.4398 -17.5595,-23.2829 -32.5888,-49.3497 -36.2923,-77.8541 -1.1276,-8.6692 1.6106,-30.4788 3.0954,-39.0712 10.4198,2.2428 18.5432,14.1601 29.054,13.5885 -3.9254,-39.033 12.0854,-78.9568 32.5429,-100.807 3.2112,-8.5188 -4.1806,-18.0085 -1.2971,-26.6329 -3.0138,-2.4158 -7.0942,-3.0258 -10.9068,-3.257 z"
       id="path4456-8"
       inkscape:connector-curvature="0"
       inkscape:transform-center-x="-13.453102"
       inkscape:transform-center-y="80.02882"
       sodipodi:nodetypes="cccccccccccccc" />
    <path
       style="color:#000000;display:inline;overflow:visible;visibility:visible;fill:#ffffff;fill-opacity:1;fill-rule:nonzero;stroke:none;stroke-width:1px;marker:none;enable-background:accumulate"
       d="m 820.0369,1693.3353 c -3.48578,39.7252 -1.62886,86.2092 5.54134,93.7569 -12.06557,-4.746 -23.61413,-7.3843 -32.58824,-9.1289 -2.74679,19.0391 9.33544,52.9316 19.75971,79.3624 -34.85384,-28.0115 -46.11754,-83.8349 -45.91311,-113.8427 11.20297,7.5747 21.79689,11.4361 28.26889,11.3872 1.30177,-15.339 -8.85591,-66.1714 -9.7642,-66.4676 z"
       id="path5066-6"
       inkscape:connector-curvature="0"
       sodipodi:nodetypes="cccccccc" />
    <path
       style="display:inline;fill:#ffffff;stroke:none;stroke-width:1"
       d="m 1204.2177,1950.0192 c -44.4885,-30.4335 -65.5015,-120.9246 -25.0786,-163.4599 23.8495,-25.0955 36.2779,-40.3926 36.2779,-40.3926 l -33.7128,-17.199 c -98.5183,93.7979 -30.177,190.842 22.5135,221.0515 z"
       id="path3063-1-0"
       inkscape:connector-curvature="0"
       sodipodi:nodetypes="csccc" />
  </g>
  <g
     inkscape:groupmode="layer"
     id="layer1"
     inkscape:label="txt">
    <text
       xml:space="preserve"
       style="font-style:normal;font-variant:normal;font-weight:normal;font-stretch:normal;font-size:48.2957px;line-height:125%;font-family:Lavi;-inkscape-font-specification:Lavi;text-align:center;letter-spacing:0px;word-spacing:0px;text-anchor:middle;fill:#000000;fill-opacity:1;stroke:none;stroke-width:0.999999"
       x="408.42657"
       y="1502.5175"
       id="text4246-70-2-2-2-7-4"><tspan
         sodipodi:role="line"
         style="font-size:48.2957px;stroke-width:0.999999"
         x="408.42657"
         y="1502.5175"
         id="tspan2734">Hvorfor kommer du</tspan><tspan
         sodipodi:role="line"
         style="font-size:48.2957px;stroke-width:0.999999"
         x="408.42657"
         y="1562.8871"
         id="tspan2437">og forstyrrer mig,</tspan><tspan
         sodipodi:role="line"
         style="font-size:48.2957px;stroke-width:0.999999"
         x="408.42657"
         y="1623.2567"
         id="tspan374">menneske?</tspan></text>
    <text
       xml:space="preserve"
       style="font-style:normal;font-variant:normal;font-weight:normal;font-stretch:normal;font-size:49.0523px;line-height:125%;font-family:Lavi;-inkscape-font-specification:Lavi;text-align:center;letter-spacing:0px;word-spacing:0px;text-anchor:middle;fill:#000000;fill-opacity:1;stroke:none;stroke-width:1"
       x="885.45935"
       y="1575.3798"
       id="text4246-70-2-2-2-7-4-3"><tspan
         sodipodi:role="line"
         style="font-style:normal;font-variant:normal;font-weight:bold;font-stretch:normal;font-size:49.0523px;font-family:Lavi;-inkscape-font-specification:'Lavi Bold';stroke-width:1"
         x="885.45935"
         y="1575.3798"
         id="tspan989">Vær hilset,</tspan><tspan
         sodipodi:role="line"
         style="font-style:normal;font-variant:normal;font-weight:bold;font-stretch:normal;font-size:49.0523px;font-family:Lavi;-inkscape-font-specification:'Lavi Bold';stroke-width:1"
         x="885.45935"
         y="1636.6952"
         id="tspan13128">O store</tspan><tspan
         sodipodi:role="line"
         style="font-style:normal;font-variant:normal;font-weight:bold;font-stretch:normal;font-size:49.0523px;font-family:Lavi;-inkscape-font-specification:'Lavi Bold';stroke-width:1"
         x="885.45935"
         y="1698.0105"
         id="tspan2002">Føniks!</tspan></text>
    <text
       xml:space="preserve"
       style="font-style:normal;font-variant:normal;font-weight:normal;font-stretch:normal;font-size:45.3333px;line-height:125%;font-family:Lavi;-inkscape-font-specification:Lavi;text-align:center;letter-spacing:0px;word-spacing:0px;text-anchor:middle;fill:#000000;fill-opacity:1;stroke:none"
       x="1355.1672"
       y="1672.4227"
       id="text4246-70-2-2-2-7-4-3-5"><tspan
         sodipodi:role="line"
         style="font-size:45.3333px"
         x="1355.1672"
         y="1672.4227"
         id="tspan6941-5">Jeg hedder Pepper,</tspan><tspan
         sodipodi:role="line"
         style="font-size:45.3333px"
         x="1355.1672"
         y="1729.0894"
         id="tspan11204">og jeg er Kaosah-heks.</tspan></text>
    <text
       xml:space="preserve"
       style="font-style:normal;font-variant:normal;font-weight:normal;font-stretch:normal;font-size:45.3333px;line-height:125%;font-family:Lavi;-inkscape-font-specification:Lavi;text-align:center;letter-spacing:0px;word-spacing:0px;text-anchor:middle;fill:#000000;fill-opacity:1;stroke:none"
       x="1993.803"
       y="1721.134"
       id="text4246-70-2-2-2-7-4-3-5-6"><tspan
         sodipodi:role="line"
         style="font-size:45.3333px"
         x="1993.803"
         y="1721.134"
         id="tspan450">Jeg har for nylig modtaget</tspan><tspan
         sodipodi:role="line"
         style="font-size:45.3333px"
         x="1993.803"
         y="1777.8007"
         id="tspan15454">en kæmpe dosis drage-Rea,</tspan><tspan
         sodipodi:role="line"
         style="font-size:45.3333px"
         x="1993.803"
         y="1834.4673"
         id="tspan5788">og siden da er det her dukket op,</tspan><tspan
         sodipodi:role="line"
         style="font-size:45.3333px"
         x="1993.803"
         y="1891.1339"
         id="tspan18208">og vokser dag efter dag...</tspan></text>
    <text
       xml:space="preserve"
       style="font-style:normal;font-variant:normal;font-weight:normal;font-stretch:normal;font-size:45.3333px;line-height:125%;font-family:Lavi;-inkscape-font-specification:Lavi;text-align:center;letter-spacing:0px;word-spacing:0px;text-anchor:middle;fill:#000000;fill-opacity:1;stroke:none"
       x="2090.5232"
       y="3216.4944"
       id="text4246-70-2-2-2-7-4-3-5-6-2"><tspan
         sodipodi:role="line"
         style="font-size:45.3333px"
         x="2090.5232"
         y="3216.4944"
         id="tspan517">Det neutraliserer alle</tspan><tspan
         sodipodi:role="line"
         style="font-size:45.3333px"
         x="2090.5232"
         y="3273.1611"
         id="tspan88131">mine kræfter og kan ende</tspan><tspan
         sodipodi:role="line"
         style="font-size:45.3333px"
         x="2090.5232"
         y="3329.8276"
         id="tspan90607">med at tage livet af mig.</tspan></text>
  </g>
</svg>
