<?xml version="1.0" encoding="UTF-8" standalone="no"?>
<svg
   xmlns:dc="http://purl.org/dc/elements/1.1/"
   xmlns:cc="http://creativecommons.org/ns#"
   xmlns:rdf="http://www.w3.org/1999/02/22-rdf-syntax-ns#"
   xmlns:svg="http://www.w3.org/2000/svg"
   xmlns="http://www.w3.org/2000/svg"
   xmlns:xlink="http://www.w3.org/1999/xlink"
   xmlns:sodipodi="http://sodipodi.sourceforge.net/DTD/sodipodi-0.dtd"
   xmlns:inkscape="http://www.inkscape.org/namespaces/inkscape"
   id="svg2"
   version="1.1"
   inkscape:version="1.0.2 (e86c8708, 2021-01-15)"
   width="2481"
   height="3503"
   sodipodi:docname="E34P01.svg">
  <metadata
     id="metadata8">
    <rdf:RDF>
      <cc:Work
         rdf:about="">
        <dc:format>image/svg+xml</dc:format>
        <dc:type
           rdf:resource="http://purl.org/dc/dcmitype/StillImage" />
        <dc:title />
      </cc:Work>
    </rdf:RDF>
  </metadata>
  <defs
     id="defs6">
    <rect
       x="229.53696"
       y="1953.0429"
       width="277.02737"
       height="81.129443"
       id="rect68" />
    <filter
       inkscape:collect="always"
       style="color-interpolation-filters:sRGB"
       id="filter7961"
       x="-0.0038362744"
       width="1.0076725"
       y="-0.012583922"
       height="1.0251678"
       inkscape:label="blur-layer-whisper">
      <feGaussianBlur
         inkscape:collect="always"
         stdDeviation="2.6222679"
         id="feGaussianBlur7963" />
    </filter>
    <filter
       style="color-interpolation-filters:sRGB;"
       inkscape:label="narrator-drop-shadow"
       id="filter8274"
       width="1.3"
       height="1.5">
      <feFlood
         flood-opacity="0.603922"
         flood-color="rgb(0,21,64)"
         result="flood"
         id="feFlood8264" />
      <feComposite
         in="flood"
         in2="SourceGraphic"
         operator="in"
         result="composite1"
         id="feComposite8266" />
      <feGaussianBlur
         in="composite1"
         stdDeviation="2.0230825044646368"
         result="blur"
         id="feGaussianBlur8268" />
      <feOffset
         dx="-7.4077921838061513"
         dy="4.8380533854166714"
         result="offset"
         id="feOffset8270" />
      <feComposite
         in="SourceGraphic"
         in2="offset"
         operator="over"
         result="fbSourceGraphic"
         id="feComposite8272" />
      <feColorMatrix
         result="fbSourceGraphicAlpha"
         in="fbSourceGraphic"
         values="0 0 0 -1 0 0 0 0 -1 0 0 0 0 -1 0 0 0 0 1 0"
         id="feColorMatrix8420" />
      <feFlood
         id="feFlood8422"
         flood-opacity="0.061934527228860295"
         flood-color="rgb(0,12,37)"
         result="flood"
         in="fbSourceGraphic" />
      <feComposite
         in2="fbSourceGraphic"
         id="feComposite8424"
         in="flood"
         operator="in"
         result="composite1" />
      <feGaussianBlur
         id="feGaussianBlur8426"
         in="composite1"
         stdDeviation="1"
         result="blur" />
      <feOffset
         id="feOffset8428"
         dx="-3.3194756113327486"
         dy="-2.8318869588504754"
         result="offset" />
      <feComposite
         in2="offset"
         id="feComposite8430"
         in="fbSourceGraphic"
         operator="over"
         result="composite2" />
    </filter>
  </defs>
  <sodipodi:namedview
     pagecolor="#ffffff"
     bordercolor="#666666"
     borderopacity="1"
     objecttolerance="10"
     gridtolerance="10"
     guidetolerance="10"
     inkscape:pageopacity="0"
     inkscape:pageshadow="2"
     inkscape:window-width="960"
     inkscape:window-height="1129"
     id="namedview4"
     showgrid="false"
     inkscape:zoom="0.55222028"
     inkscape:cx="642.43188"
     inkscape:cy="2367.9371"
     inkscape:window-x="578"
     inkscape:window-y="30"
     inkscape:window-maximized="0"
     inkscape:current-layer="layer4"
     inkscape:document-rotation="0"
     borderlayer="true"
     inkscape:snap-global="false" />
  <g
     inkscape:groupmode="layer"
     id="layer2"
     inkscape:label="artwork"
     sodipodi:insensitive="true">
    <image
       sodipodi:absref="/Users/gand/Documents/Pepper&amp;Carrot/ep34_The-Knighting-of-Shichimi/lang/gfx_Pepper-and-Carrot_by-David-Revoy_E34P01.png"
       xlink:href="../gfx_Pepper-and-Carrot_by-David-Revoy_E34P01.png"
       y="0"
       x="0"
       id="image10"
       height="3503.7233"
       width="2481" />
  </g>
  <g
     inkscape:groupmode="layer"
     id="layer3"
     inkscape:label="speechbubbles-whisper"
     style="display:inline;opacity:0.65;filter:url(#filter7961)">
    <path
       id="path1299"
       style="fill:#e0ffff;fill-rule:evenodd;stroke:none;stroke-width:1.254px;stroke-linecap:butt;stroke-linejoin:miter;stroke-opacity:1"
       d="m 1493.8738,2593.9831 c -39.2719,2.5162 -78.8828,4.2884 -117.4283,13.7911 -31.845,9.4174 -62.5408,24.2883 -88.9374,45.4706 -21.2254,18.6953 -35.874,46.2146 -37.3054,75.1448 -1.2631,32.5142 16.6242,64.1698 43.6129,79.6764 19.9691,12.1023 41.829,20.3148 63.4018,28.8193 31.3959,11.2866 64.8685,15.5286 98.1536,15.592 40.6006,0.5577 81.1943,-2.4683 121.7525,-4.8903 32.2428,-2.1395 64.8525,-4.9366 95.9605,-15.123 18.5959,-6.3365 36.0037,-17.1139 49.5181,-32.0521 10.8815,-11.4412 21.1498,-24.5457 25.2288,-40.3218 4.3467,-17.4793 1.8359,-35.8231 -3.008,-52.7156 -6.2462,-20.9843 -18.6778,-39.475 -34.2161,-54.0521 -17.1123,-16.186 -36.4368,-30.1537 -58.0332,-39.1518 -10.9433,-4.6851 -22.4784,-7.7518 -34.1719,-9.7804 -29.6254,-5.6806 -59.7716,-8.0375 -89.8568,-10.0475 -11.5414,-0.5431 -23.1079,-0.6169 -34.6711,-0.3596 z" />
    <path
       style="fill:#e0ffff;fill-rule:evenodd;stroke:none;stroke-width:1.79893px;stroke-linecap:butt;stroke-linejoin:miter;stroke-opacity:1"
       d="m 1304.6772,2520.4406 c -33.1588,0.5715 -66.8737,3.124 -97.1524,10.569 -35.7948,9.335 -60.6109,29.5951 -60.5247,50.6444 0.8053,10.9745 10.8467,21.3476 24.9494,29.2934 10.1318,5.6779 22.8514,9.8604 36.1169,13.2307 26.7085,7.0126 56.6395,10.2679 86.4104,10.4477 47.4362,1.3792 95.4201,-0.345 141.5868,-6.3959 21.7267,-2.9712 43.358,-7.7122 59.4586,-16.162 16.4811,-8.3459 28.561,-19.6239 29.9865,-31.7683 0.4374,-10.8875 -8.5689,-21.2253 -20.2962,-29.9724 -14.9442,-11.6163 -37.7814,-20.6918 -64.0478,-23.8402 -31.956,-4.5851 -65.2954,-5.1076 -98.1981,-5.8492 -12.7594,-0.1945 -25.5255,-0.2195 -38.2894,-0.1972 z"
       id="path1285"
       inkscape:connector-curvature="0" />
    <path
       style="font-variation-settings:normal;vector-effect:none;fill:#e0ffff;fill-opacity:1;stroke:none;stroke-width:1.36508px;stroke-linecap:butt;stroke-linejoin:miter;stroke-miterlimit:4;stroke-dasharray:none;stroke-dashoffset:0;stroke-opacity:1;stop-color:#000000"
       d="m 248.06341,2520.078 c -32.24156,1.2291 -64.6121,10.5086 -89.73397,28.6668 -21.16358,14.7836 -38.88004,34.2765 -47.08617,57.1712 -13.619913,41.1822 3.01632,88.8641 40.98528,115.8559 20.58598,14.8981 46.10954,23.2898 71.75487,28.7186 43.34913,8.8386 88.70488,9.8436 132.55263,3.2781 26.56557,-4.6715 52.61602,-14.492 72.36687,-31.142 21.41738,-18.074 35.40791,-43.3618 36.38506,-69.6182 0.68276,-14.7078 -1.31279,-29.4332 -4.57533,-43.8387 -5.56617,-22.4903 -19.09881,-43.7064 -39.47461,-58.3422 -13.58683,-9.8917 -29.90205,-16.6035 -46.93962,-20.4038 -29.08223,-7.1055 -59.3713,-9.146 -89.41735,-10.0843 -12.26973,-0.2861 -24.54468,-0.2664 -36.81766,-0.2614 z"
       id="path3280-8-90"
       inkscape:connector-curvature="0"
       sodipodi:nodetypes="csssc" />
    <path
       style="fill:#e0ffff;fill-opacity:1;fill-rule:evenodd;stroke:none;stroke-width:1.28082px;stroke-linecap:butt;stroke-linejoin:miter;stroke-opacity:1"
       d="m 405.61348,2631.9631 c 42.85265,-5.0607 58.06957,-2.3086 68.49973,0.7202 10.42915,3.0295 34.5561,33.0962 43.85358,53.3011 -34.06156,-36.1486 -48.52756,-39.3772 -65.05064,-34.4498 -16.52311,4.9273 -63.29994,23.4366 -63.29994,23.4366 l 11.09296,-45.4041 z"
       id="path1291"
       inkscape:connector-curvature="0"
       sodipodi:nodetypes="csccccc" />
    <path
       style="fill:#e0ffff;fill-rule:evenodd;stroke:none;stroke-width:0.964753px;stroke-linecap:butt;stroke-linejoin:miter;stroke-opacity:1"
       d="m 1434.2038,2989.2388 c 48.3667,-37.0134 81.9085,-79.2404 77.928,-171.8638 l 30.8393,-3.1198 c -4.7727,67.6875 -17.9327,144.5385 -108.7673,174.9836 z"
       id="path1291-6"
       inkscape:connector-curvature="0"
       sodipodi:nodetypes="cccc" />
  </g>
  <g
     inkscape:groupmode="layer"
     id="layer4"
     inkscape:label="speechbubbles"
     style="display:inline">
    <path
       id="path4040-4-1"
       style="color:#000000;display:inline;overflow:visible;visibility:visible;fill:#ffffff;fill-opacity:1;fill-rule:nonzero;stroke:none;stroke-width:0.960718px;marker:none;enable-background:accumulate"
       d="m 413.34075,1883.1646 c -53.8529,0.707 -108.07837,0.4398 -161.30968,12.726 -31.49478,8.0269 -61.58474,28.8484 -82.7836,61.0729 -9.66133,14.8463 -16.47516,32.9246 -19.30987,52.1927 -4.99772,30.8106 -2.93782,62.969 2.73161,93.3514 6.01148,30.6522 17.81275,60.0781 36.3031,80.6529 16.7156,19.0523 37.65979,30.7335 59.23124,35.9547 21.43969,5.6773 43.20096,8.9722 64.9691,11.461 60.77572,6.3432 121.77197,2.6796 182.63651,1.5441 35.48686,-1.2405 71.43497,-5.7391 105.06393,-21.7094 18.70905,-8.4175 37.58744,-18.848 52.17466,-37.0218 13.08737,-17.8611 19.39537,-42.1287 23.79753,-65.8203 5.28426,-30.0568 6.95319,-61.4563 3.55969,-92.0562 -4.01411,-29.9645 -16.56266,-57.6246 -34.47503,-76.63 -15.19299,-16.6139 -33.68896,-26.9509 -52.57394,-33.6826 -53.74628,-21.1354 -110.34806,-21.987 -165.94894,-22.0754 -4.68884,-0.02 -9.37753,0.012 -14.06631,0.041 z" />
    <path
       style="color:#000000;display:inline;overflow:visible;visibility:visible;fill:#ffffff;fill-opacity:1;fill-rule:nonzero;stroke:none;stroke-width:1.80075px;marker:none;enable-background:accumulate"
       d="m 539.19946,1927.3519 c 7.55014,-44.8382 62.74837,-99.1824 137.61984,-61.3131 -80.77928,-16.5552 -107.19343,39.0539 -106.74645,81.3775 0.39562,37.4602 -16.36437,17.1598 -16.36437,17.1598 z"
       id="path4440-1"
       inkscape:connector-curvature="0"
       sodipodi:nodetypes="ccscc" />
    <path
       style="color:#000000;display:inline;overflow:visible;visibility:visible;fill:#ffffff;fill-opacity:1;fill-rule:nonzero;stroke:none;stroke-width:0.817482px;marker:none;enable-background:accumulate"
       d="m 1798.5829,2838.742 c -25.4806,2.5941 -51.1283,6.1471 -75.2006,15.0673 -12.674,5.0192 -22.9583,15.2749 -29.1383,27.5302 -4.8265,9.6259 -7.1854,20.8902 -5.0785,31.7544 3.2139,17.7548 15.6516,33.6763 32.0176,40.7039 15.5988,7.3046 32.6744,9.9763 49.4877,11.8771 38.7487,4.1258 77.6344,2.1775 116.4449,3.6831 17.0526,0.5793 34.4627,-1.5255 49.9712,-8.7592 13.0804,-5.9879 24.8136,-15.7271 31.5791,-28.7969 4.905,-9.1181 6.7829,-20.0225 4.7698,-30.4029 -1.6164,-9.349 -6.1173,-18.1027 -12.3846,-25.1567 -9.5766,-11.1973 -22.7288,-18.6282 -36.4267,-22.9969 -18.5067,-6.3166 -37.7175,-9.99 -56.9505,-12.6239 -22.9527,-2.8848 -46.1071,-3.1672 -69.0911,-1.8795 z"
       id="path4040-2"
       inkscape:connector-curvature="0"
       sodipodi:nodetypes="zssssz" />
    <path
       style="color:#000000;display:inline;overflow:visible;visibility:visible;fill:#ffffff;fill-opacity:1;fill-rule:nonzero;stroke:none;stroke-width:0.811733px;marker:none;enable-background:accumulate"
       d="m 1970.7532,2998.2521 c 42.5246,54.5422 86.7334,47.5024 118.7066,15.8691 -23.32,34.399 -69.359,69.3478 -144.2603,0.1036 -14.3413,-13.258 25.5537,-15.9727 25.5537,-15.9727 z"
       id="path5010-4"
       inkscape:connector-curvature="0"
       sodipodi:nodetypes="ccsc" />
    <path
       style="color:#000000;display:inline;overflow:visible;visibility:visible;fill:#ffffff;fill-opacity:1;fill-rule:nonzero;stroke:none;stroke-width:0.866707px;marker:none;enable-background:accumulate"
       d="M 1882.7598 2929.8555 C 1857.2423 2930.7872 1830.9583 2936.0641 1809.571 2950.6995 C 1796.3603 2960.1081 1789.0194 2975.2738 1783.5442 2990.0859 C 1777.0611 3007.1968 1774.2022 3026.7381 1780.7185 3044.2828 C 1787.4578 3062.4282 1802.7725 3075.9924 1819.4826 3084.9541 C 1855.9515 3104.6292 1899.262 3109.128 1939.7514 3102.1636 C 1952.8715 3099.9299 1966.1078 3096.55 1977.3758 3089.1873 C 1992.1403 3079.9899 2003.6727 3065.8018 2009.575 3049.4301 C 2018.9367 3024.6765 2016.5866 2995.0392 2000.8867 2973.3398 C 1988.1465 2955.4968 1968.0844 2944.1536 1947.1895 2938.5996 C 1926.31 2932.4846 1904.5082 2929.595 1882.7598 2929.8555 z "
       id="path4040-2-5"
       inkscape:connector-curvature="0"
       sodipodi:nodetypes="zssssz" />
    <rect
       style="color:#000000;overflow:visible;fill:#eeffdb;fill-opacity:0.89322;stroke:#807e00;stroke-width:8.05223;stroke-opacity:1;paint-order:stroke fill markers;filter:url(#filter8274);stop-color:#000000"
       id="rect8238"
       width="417.40149"
       height="86.261734"
       x="128.97966"
       y="127.99652"
       transform="matrix(1.1259496,0,0,0.95290787,-14.299566,8.668091)" />
    <text
       xml:space="preserve"
       style="font-style:normal;font-variant:normal;font-weight:normal;font-stretch:normal;font-size:45px;line-height:1.25;font-family:Lavi;-inkscape-font-specification:Lavi;text-align:center;letter-spacing:0px;word-spacing:0px;text-anchor:middle;fill:#000000;fill-opacity:1;stroke:none"
       x="411.55106"
       y="1956.545"
       id="text4246-3-2-2"><tspan
         style="font-size:45px"
         sodipodi:role="line"
         x="411.55106"
         y="1956.545"
         id="tspan68">...ed ora, in questa</tspan><tspan
         style="font-size:45px"
         sodipodi:role="line"
         x="411.55106"
         y="2012.795"
         id="tspan70">notte, ti diamo il</tspan><tspan
         style="font-size:45px"
         sodipodi:role="line"
         x="411.55106"
         y="2069.0449"
         id="tspan76">benvenuto, Shichimi,</tspan><tspan
         style="font-size:45px"
         sodipodi:role="line"
         x="411.55106"
         y="2125.2949"
         id="tspan81">come la più giovane tra</tspan><tspan
         style="font-size:45px"
         sodipodi:role="line"
         id="tspan1097"
         x="411.55106"
         y="2181.5449"> i Cavalieri di Ah.</tspan></text>
    <text
       xml:space="preserve"
       id="text66"
       style="line-height:1.25;font-family:sans-serif;font-size:40px;letter-spacing:0px;white-space:pre;shape-inside:url(#rect68);" />
  </g>
  <g
     inkscape:groupmode="layer"
     id="layer1"
     inkscape:label="txt">
    <text
       xml:space="preserve"
       style="font-style:normal;font-variant:normal;font-weight:normal;font-stretch:normal;font-size:45px;line-height:1.25;font-family:Lavi;-inkscape-font-specification:Lavi;text-align:center;letter-spacing:0px;word-spacing:0px;text-anchor:middle;fill:#000000;fill-opacity:0.7;stroke:none"
       x="291.41687"
       y="2590.2507"
       id="text4246-3-2-2-3"><tspan
         style="font-size:45px;fill:#000000;fill-opacity:0.7"
         sodipodi:role="line"
         id="tspan1097-3"
         x="291.41687"
         y="2590.2507">Ancora  </tspan><tspan
         style="font-size:45px;fill:#000000;fill-opacity:0.7"
         sodipodi:role="line"
         x="291.41687"
         y="2646.5007"
         id="tspan1163">nessuna traccia </tspan><tspan
         style="font-size:45px;fill:#000000;fill-opacity:0.7"
         sodipodi:role="line"
         x="291.41687"
         y="2702.7507"
         id="tspan1165">di Pepper?</tspan></text>
    <text
       xml:space="preserve"
       style="font-style:normal;font-variant:normal;font-weight:normal;font-stretch:normal;font-size:45px;line-height:1.25;font-family:Lavi;-inkscape-font-specification:Lavi;text-align:center;letter-spacing:0px;word-spacing:0px;text-anchor:middle;fill:#000000;fill-opacity:1;stroke:none"
       x="355.29865"
       y="186.49605"
       id="text4246-3-2-2-35"><tspan
         style="font-size:45px;"
         sodipodi:role="line"
         x="355.29865"
         y="186.49605"
         id="tspan905-2">Quella stessa notte...</tspan></text>
    <text
       xml:space="preserve"
       style="font-style:normal;font-variant:normal;font-weight:normal;font-stretch:normal;font-size:45px;line-height:1.25;font-family:Lavi;-inkscape-font-specification:Lavi;text-align:center;letter-spacing:0px;word-spacing:0px;text-anchor:middle;fill:#000000;fill-opacity:1;stroke:none"
       x="1506.9663"
       y="2681.9597"
       id="text4246-3-2-2-3-5-1"><tspan
         style="font-size:45px;fill:#000000;fill-opacity:1"
         sodipodi:role="line"
         x="1506.9663"
         y="2681.9597"
         id="tspan7590">Se non arriva in</tspan><tspan
         style="font-size:45px;fill:#000000;fill-opacity:1"
         sodipodi:role="line"
         x="1506.9663"
         y="2738.2097"
         id="tspan272">tempo si perderà il</tspan><tspan
         style="font-size:45px;fill:#000000;fill-opacity:1"
         sodipodi:role="line"
         x="1506.9663"
         y="2794.4597"
         id="tspan274">discorso di Shichimi</tspan></text>
    <text
       xml:space="preserve"
       style="font-style:normal;font-variant:normal;font-weight:normal;font-stretch:normal;font-size:45px;line-height:1.25;font-family:Lavi;-inkscape-font-specification:Lavi;text-align:center;letter-spacing:0px;word-spacing:0px;text-anchor:middle;fill:#000000;fill-opacity:1;stroke:none"
       x="1831.7936"
       y="2918.1755"
       id="text4246-3-2-2-3-5-1-7"><tspan
         style="font-size:45px"
         sodipodi:role="line"
         x="1831.7936"
         y="2918.1755"
         id="tspan7676">Grazie mille.</tspan></text>
    <text
       xml:space="preserve"
       style="font-style:normal;font-variant:normal;font-weight:normal;font-stretch:normal;font-size:45px;line-height:1.25;font-family:Lavi;-inkscape-font-specification:Lavi;text-align:center;letter-spacing:0px;word-spacing:0px;text-anchor:middle;fill:#000000;fill-opacity:1;stroke:none"
       x="1900.54"
       y="3013.3691"
       id="text4246-3-2-2-3-5-1-7-3"><tspan
         style="font-size:45px"
         sodipodi:role="line"
         x="1900.54"
         y="3013.3691"
         id="tspan7676-7">Io </tspan><tspan
         style="font-size:45px"
         sodipodi:role="line"
         x="1900.54"
         y="3069.6191"
         id="tspan7730">vorrei...</tspan></text>
    <text
       xml:space="preserve"
       style="font-style:normal;font-variant:normal;font-weight:normal;font-stretch:normal;font-size:45px;line-height:1.25;font-family:Lavi;-inkscape-font-specification:Lavi;text-align:center;letter-spacing:0px;word-spacing:0px;text-anchor:middle;fill:#000000;fill-opacity:0.7;stroke:none"
       x="1331.5165"
       y="2592.2329"
       id="text4246-3-2-2-3-5-1-6"><tspan
         style="font-size:45px;fill:#000000;fill-opacity:0.7"
         sodipodi:role="line"
         x="1331.5165"
         y="2592.2329"
         id="tspan1230-3">No, non ancora.</tspan></text>
  </g>
</svg>
