<?xml version="1.0" encoding="UTF-8" standalone="no"?>
<svg
   xmlns:dc="http://purl.org/dc/elements/1.1/"
   xmlns:cc="http://creativecommons.org/ns#"
   xmlns:rdf="http://www.w3.org/1999/02/22-rdf-syntax-ns#"
   xmlns:svg="http://www.w3.org/2000/svg"
   xmlns="http://www.w3.org/2000/svg"
   xmlns:xlink="http://www.w3.org/1999/xlink"
   xmlns:sodipodi="http://sodipodi.sourceforge.net/DTD/sodipodi-0.dtd"
   xmlns:inkscape="http://www.inkscape.org/namespaces/inkscape"
   id="svg2"
   version="1.1"
   inkscape:version="1.0.2 (e86c8708, 2021-01-15)"
   width="2481"
   height="3503"
   sodipodi:docname="E34P10.svg">
  <metadata
     id="metadata8">
    <rdf:RDF>
      <cc:Work
         rdf:about="">
        <dc:format>image/svg+xml</dc:format>
        <dc:type
           rdf:resource="http://purl.org/dc/dcmitype/StillImage" />
        <dc:title />
      </cc:Work>
    </rdf:RDF>
  </metadata>
  <defs
     id="defs6">
    <filter
       style="color-interpolation-filters:sRGB"
       id="filter4375-4-1-1-1-9-5-8-8-5-5-3-3-3-0"
       inkscape:label="soundFX1">
      <feFlood
         id="feFlood4377-7-9-0-8-1-7-3-1-2-7-6-6-5-96"
         flood-opacity="1"
         flood-color="rgb(52,52,52)"
         result="flood" />
      <feComposite
         id="feComposite4379-3-8-8-2-77-4-1-0-6-4-7-7-6-3"
         in2="SourceGraphic"
         in="flood"
         operator="in"
         result="composite1"
         baseFrequency="0.053999999999999999 0.053999999999999999" />
      <feMorphology
         id="feMorphology4393-1-0-49-8-9-3-0-1-9-9-5-5-2-8"
         operator="dilate"
         radius="2.5856550817276021"
         result="result3" />
      <feComposite
         id="feComposite4385-9-5-7-0-8-8-7-5-4-9-3-3-9-5"
         in2="result3"
         in="SourceGraphic"
         operator="over"
         result="fbSourceGraphic" />
      <feColorMatrix
         result="fbSourceGraphicAlpha"
         in="fbSourceGraphic"
         values="0 0 0 -1 0 0 0 0 -1 0 0 0 0 -1 0 0 0 0 1 0"
         id="feColorMatrix4544-9-4-4-5-5-1-6" />
      <feTurbulence
         id="feTurbulence4546-3-6-5-6-6-2-1"
         type="fractalNoise"
         numOctaves="4"
         seed="147"
         baseFrequency="0.046080819231719368"
         result="turbulence" />
      <feDisplacementMap
         id="feDisplacementMap4548-8-0-9-2-2-7-1"
         in2="turbulence"
         in="fbSourceGraphic"
         scale="13.20326"
         yChannelSelector="G"
         xChannelSelector="R"
         result="fbSourceGraphic" />
      <feColorMatrix
         result="fbSourceGraphicAlpha"
         in="fbSourceGraphic"
         values="0 0 0 -1 0 0 0 0 -1 0 0 0 0 -1 0 0 0 0 1 0"
         id="feColorMatrix4670-7-7-3-9-9-0-5" />
      <feFlood
         id="feFlood4672-4-4-5-1-1-9-9"
         flood-opacity="1"
         flood-color="rgb(28,28,28)"
         result="flood"
         in="fbSourceGraphic" />
      <feComposite
         id="feComposite4674-8-3-7-2-2-3-8"
         in2="fbSourceGraphic"
         in="flood"
         operator="in"
         result="composite1" />
      <feGaussianBlur
         id="feGaussianBlur4676-3-7-08-7-7-6-4"
         in="composite1"
         stdDeviation="0"
         result="blur" />
      <feOffset
         id="feOffset4678-6-9-1-0-0-0-8"
         dx="-8.3919392296330813"
         dy="1.5526614972014983"
         result="offset" />
      <feComposite
         id="feComposite4680-4-0-9-9-9-6-1"
         in2="offset"
         in="fbSourceGraphic"
         operator="over"
         result="composite2" />
    </filter>
    <filter
       style="color-interpolation-filters:sRGB"
       id="filter4375-4-1-1-1-9-5-8-8-5-5-3-8"
       inkscape:label="soundFX1">
      <feFlood
         id="feFlood4377-7-9-0-8-1-7-3-1-2-7-6-7"
         flood-opacity="1"
         flood-color="rgb(255,255,255)"
         result="flood" />
      <feComposite
         id="feComposite4379-3-8-8-2-77-4-1-0-6-4-7-9"
         in2="SourceGraphic"
         in="flood"
         operator="in"
         result="composite1"
         baseFrequency="0.053999999999999999 0.053999999999999999" />
      <feMorphology
         id="feMorphology4393-1-0-49-8-9-3-0-1-9-9-5-2"
         operator="dilate"
         radius="2.9756367599225957"
         result="result3" />
      <feComposite
         id="feComposite4385-9-5-7-0-8-8-7-5-4-9-3-0"
         in2="result3"
         in="SourceGraphic"
         operator="over"
         result="fbSourceGraphic" />
      <feColorMatrix
         result="fbSourceGraphicAlpha"
         in="fbSourceGraphic"
         values="0 0 0 -1 0 0 0 0 -1 0 0 0 0 -1 0 0 0 0 1 0"
         id="feColorMatrix4544-9-4-4-5-2" />
      <feTurbulence
         id="feTurbulence4546-3-6-5-6-3"
         type="fractalNoise"
         numOctaves="5"
         seed="174"
         baseFrequency="0.053999999999999999 0.054054054054054057"
         result="turbulence" />
      <feDisplacementMap
         id="feDisplacementMap4548-8-0-9-2-7"
         in2="turbulence"
         in="fbSourceGraphic"
         scale="6.6"
         yChannelSelector="G"
         xChannelSelector="R"
         result="fbSourceGraphic" />
      <feColorMatrix
         result="fbSourceGraphicAlpha"
         in="fbSourceGraphic"
         values="0 0 0 -1 0 0 0 0 -1 0 0 0 0 -1 0 0 0 0 1 0"
         id="feColorMatrix4670-7-7-3-9-5" />
      <feFlood
         id="feFlood4672-4-4-5-1-9"
         flood-opacity="1"
         flood-color="rgb(255,255,255)"
         result="flood"
         in="fbSourceGraphic" />
      <feComposite
         id="feComposite4674-8-3-7-2-22"
         in2="fbSourceGraphic"
         in="flood"
         operator="in"
         result="composite1" />
      <feGaussianBlur
         id="feGaussianBlur4676-3-7-08-7-8"
         in="composite1"
         stdDeviation="0"
         result="blur" />
      <feOffset
         id="feOffset4678-6-9-1-0-9"
         dx="-6.3258232761971414"
         dy="6"
         result="offset" />
      <feComposite
         id="feComposite4680-4-0-9-9-7"
         in2="offset"
         in="fbSourceGraphic"
         operator="over"
         result="composite2" />
    </filter>
    <filter
       style="color-interpolation-filters:sRGB"
       id="filter5561"
       inkscape:label="deevad outline effect">
      <feFlood
         id="feFlood5563"
         flood-opacity="1"
         flood-color="rgb(0,0,0)"
         result="flood" />
      <feComposite
         id="feComposite5565"
         in2="SourceGraphic"
         in="flood"
         operator="in"
         result="composite1" />
      <feMorphology
         id="feMorphology5567"
         operator="dilate"
         radius="1.8999999999999999 6.0999999999999996"
         result="result3" />
      <feComposite
         id="feComposite5569"
         in2="result3"
         in="SourceGraphic"
         operator="over"
         result="composite2" />
    </filter>
    <filter
       style="color-interpolation-filters:sRGB"
       id="filter4375-4-1-1-1-9-5-8-8-5-5-3-8-5"
       inkscape:label="soundFX1">
      <feFlood
         id="feFlood4377-7-9-0-8-1-7-3-1-2-7-6-7-6"
         flood-opacity="1"
         flood-color="rgb(52,52,52)"
         result="flood" />
      <feComposite
         id="feComposite4379-3-8-8-2-77-4-1-0-6-4-7-9-2"
         in2="SourceGraphic"
         in="flood"
         operator="in"
         result="composite1"
         baseFrequency="0.053999999999999999 0.053999999999999999" />
      <feMorphology
         id="feMorphology4393-1-0-49-8-9-3-0-1-9-9-5-2-9"
         operator="dilate"
         radius="2.9756367599225957"
         result="result3" />
      <feComposite
         id="feComposite4385-9-5-7-0-8-8-7-5-4-9-3-0-1"
         in2="result3"
         in="SourceGraphic"
         operator="over"
         result="fbSourceGraphic" />
      <feColorMatrix
         result="fbSourceGraphicAlpha"
         in="fbSourceGraphic"
         values="0 0 0 -1 0 0 0 0 -1 0 0 0 0 -1 0 0 0 0 1 0"
         id="feColorMatrix4544-9-4-4-5-2-2" />
      <feTurbulence
         id="feTurbulence4546-3-6-5-6-3-7"
         type="fractalNoise"
         numOctaves="5"
         seed="174"
         baseFrequency="0.053999999999999999 0.054054054054054057"
         result="turbulence" />
      <feDisplacementMap
         id="feDisplacementMap4548-8-0-9-2-7-0"
         in2="turbulence"
         in="fbSourceGraphic"
         scale="6.6"
         yChannelSelector="G"
         xChannelSelector="R"
         result="fbSourceGraphic" />
      <feColorMatrix
         result="fbSourceGraphicAlpha"
         in="fbSourceGraphic"
         values="0 0 0 -1 0 0 0 0 -1 0 0 0 0 -1 0 0 0 0 1 0"
         id="feColorMatrix4670-7-7-3-9-5-9" />
      <feFlood
         id="feFlood4672-4-4-5-1-9-3"
         flood-opacity="1"
         flood-color="rgb(28,28,28)"
         result="flood"
         in="fbSourceGraphic" />
      <feComposite
         id="feComposite4674-8-3-7-2-22-6"
         in2="fbSourceGraphic"
         in="flood"
         operator="in"
         result="composite1" />
      <feGaussianBlur
         id="feGaussianBlur4676-3-7-08-7-8-0"
         in="composite1"
         stdDeviation="0"
         result="blur" />
      <feOffset
         id="feOffset4678-6-9-1-0-9-6"
         dx="-6.3258232761971414"
         dy="6"
         result="offset" />
      <feComposite
         id="feComposite4680-4-0-9-9-7-2"
         in2="offset"
         in="fbSourceGraphic"
         operator="over"
         result="composite2" />
    </filter>
    <filter
       style="color-interpolation-filters:sRGB"
       id="filter4375-4-1-1-1-9-5-8-8-5-5-3-8-5-7"
       inkscape:label="soundFX1">
      <feFlood
         id="feFlood4377-7-9-0-8-1-7-3-1-2-7-6-7-6-4"
         flood-opacity="1"
         flood-color="rgb(52,52,52)"
         result="flood" />
      <feComposite
         id="feComposite4379-3-8-8-2-77-4-1-0-6-4-7-9-2-4"
         in2="SourceGraphic"
         in="flood"
         operator="in"
         result="composite1"
         baseFrequency="0.053999999999999999 0.053999999999999999" />
      <feMorphology
         id="feMorphology4393-1-0-49-8-9-3-0-1-9-9-5-2-9-9"
         operator="dilate"
         radius="2.9756367599225957"
         result="result3" />
      <feComposite
         id="feComposite4385-9-5-7-0-8-8-7-5-4-9-3-0-1-1"
         in2="result3"
         in="SourceGraphic"
         operator="over"
         result="fbSourceGraphic" />
      <feColorMatrix
         result="fbSourceGraphicAlpha"
         in="fbSourceGraphic"
         values="0 0 0 -1 0 0 0 0 -1 0 0 0 0 -1 0 0 0 0 1 0"
         id="feColorMatrix4544-9-4-4-5-2-2-5" />
      <feTurbulence
         id="feTurbulence4546-3-6-5-6-3-7-5"
         type="fractalNoise"
         numOctaves="5"
         seed="174"
         baseFrequency="0.053999999999999999 0.054054054054054057"
         result="turbulence" />
      <feDisplacementMap
         id="feDisplacementMap4548-8-0-9-2-7-0-5"
         in2="turbulence"
         in="fbSourceGraphic"
         scale="6.6"
         yChannelSelector="G"
         xChannelSelector="R"
         result="fbSourceGraphic" />
      <feColorMatrix
         result="fbSourceGraphicAlpha"
         in="fbSourceGraphic"
         values="0 0 0 -1 0 0 0 0 -1 0 0 0 0 -1 0 0 0 0 1 0"
         id="feColorMatrix4670-7-7-3-9-5-9-8" />
      <feFlood
         id="feFlood4672-4-4-5-1-9-3-2"
         flood-opacity="1"
         flood-color="rgb(28,28,28)"
         result="flood"
         in="fbSourceGraphic" />
      <feComposite
         id="feComposite4674-8-3-7-2-22-6-9"
         in2="fbSourceGraphic"
         in="flood"
         operator="in"
         result="composite1" />
      <feGaussianBlur
         id="feGaussianBlur4676-3-7-08-7-8-0-8"
         in="composite1"
         stdDeviation="0"
         result="blur" />
      <feOffset
         id="feOffset4678-6-9-1-0-9-6-2"
         dx="-6.3258232761971414"
         dy="6"
         result="offset" />
      <feComposite
         id="feComposite4680-4-0-9-9-7-2-0"
         in2="offset"
         in="fbSourceGraphic"
         operator="over"
         result="composite2" />
    </filter>
  </defs>
  <sodipodi:namedview
     pagecolor="#ffffff"
     bordercolor="#666666"
     borderopacity="1"
     objecttolerance="10"
     gridtolerance="10"
     guidetolerance="10"
     inkscape:pageopacity="0"
     inkscape:pageshadow="2"
     inkscape:window-width="960"
     inkscape:window-height="1130"
     id="namedview4"
     showgrid="false"
     inkscape:zoom="0.35454887"
     inkscape:cx="1161.7879"
     inkscape:cy="1218.1758"
     inkscape:window-x="960"
     inkscape:window-y="23"
     inkscape:window-maximized="0"
     inkscape:current-layer="layer1"
     inkscape:document-rotation="0"
     inkscape:snap-global="false"
     borderlayer="true" />
  <g
     inkscape:groupmode="layer"
     id="layer2"
     inkscape:label="artwork"
     sodipodi:insensitive="true">
    <image
       sodipodi:absref="/Users/gand/Documents/Pepper&amp;Carrot/ep34_The-Knighting-of-Shichimi/lang/gfx_Pepper-and-Carrot_by-David-Revoy_E34P10.png"
       xlink:href="../gfx_Pepper-and-Carrot_by-David-Revoy_E34P10.png"
       width="2481"
       height="3503"
       id="image10"
       x="0"
       y="0" />
  </g>
  <g
     inkscape:groupmode="layer"
     id="layer3"
     inkscape:label="speechbubbles">
    <path
       style="display:inline;fill:#ffffff;stroke:none;stroke-width:0.79213"
       d="m 2082.5127,1307.5287 c -21.7391,0.4465 -44.08,-0.01 -64.8937,6.4657 -15.0152,4.7067 -28.2513,13.7576 -37.1129,25.5637 -14.0722,18.124 -19.785,40.6976 -18.6586,62.5379 1.0298,17.338 6.774,34.8966 18.8492,48.7273 12.1306,13.3942 29.9278,21.6237 48.1421,26.5068 40.0863,11.2109 83.3492,13.2721 124.5564,6.0052 20.9082,-3.729 41.2501,-12.5302 55.4462,-26.9851 10.8791,-11.1313 15.6856,-25.7604 18.6905,-39.9977 2.8175,-14.7541 5.9584,-29.991 2.4479,-44.8776 -3.5628,-14.9538 -14.6649,-27.5055 -27.3385,-37.3593 -19.3931,-15.182 -44.5709,-24.1256 -70.2732,-25.6018 -16.5791,-1.2456 -33.2352,-1.0237 -49.8554,-0.9851 z"
       id="path3280-5-9"
       inkscape:connector-curvature="0"
       sodipodi:nodetypes="csssc" />
    <path
       style="color:#000000;display:inline;overflow:visible;visibility:visible;fill:#ffffff;fill-opacity:1;fill-rule:nonzero;stroke:none;stroke-width:1.13409px;marker:none;enable-background:accumulate"
       d="m 400.30725,1329.7174 c 0,0 52.24123,7.2764 60.53341,11.1947 8.29218,3.9179 25.65821,2.774 -32.39328,47.8158 100.47484,-31.5742 94.30932,-23.9308 111.72304,-22.2519 -7.46292,11.1947 -34.37546,31.4557 -34.37546,31.4557 0,0 79.42916,-29.5932 87.72142,-29.034 -2.48763,5.0375 -17.9029,15.9764 -17.9029,15.9764 l 58.99081,-7.4463 -41.13141,28.9462 c 0,0 126.79685,-33.4364 132.71915,-31.8789 6.73209,1.5575 -4.97519,32.4638 -4.97519,32.4638 l 37.81037,-22.9229 -2.15376,11.7288 28.19361,-19.0309 9.12138,10.6349 19.66807,-11.7679 0.23326,12.3277 31.51053,-16.2322 10.77982,1.6796 27.36442,25.7467 10.27099,-13.1813 12.118,-19.3082 48.9243,21.2954 c -0.85914,-7.6033 0.20322,-17.8933 -1.34423,-25.3954 l 24.56245,15.8803 -2.27165,-16.7789 23.00233,3.9052 c 13.90047,6.3795 32.33257,9.4968 46.12327,16.0832 l -10.0936,-19.8669 34.3451,11.1185 -16.6233,-19.0989 c 14.9074,3.5822 34.2729,5.4922 47.4138,12.8831 l -18.2235,-13.8184 c 38.1374,3.8351 66.8236,9.1136 102.8279,15.0036 l -46.4604,-28.6114 -11.6089,-7.8356 42.2904,-7.8361 -23.6451,-7.4097 27.2156,-18.4109 6.3356,-45.8169 -15.9265,-23.2018 -710.49631,-1.3435 25.02054,22.3211 -67.35884,-19.0191 46.46877,29.4105 -94.66796,-4.0075 81.77756,32.414 -35.12135,5.9578 36.48589,8.3961 -35.65662,12.8737 22.38899,8.9552 z"
       id="path3931-4"
       inkscape:connector-curvature="0"
       sodipodi:nodetypes="cccccccccccccccccccccccccccccccccccccccccccccccccccc" />
    <path
       style="color:#000000;display:inline;overflow:visible;visibility:visible;fill:#ffffff;fill-opacity:1;fill-rule:nonzero;stroke:none;stroke-width:0.680551px;marker:none;enable-background:accumulate"
       d="m 1923.0887,202.39557 c -22.0125,0.22177 -44.3827,3.51493 -64.5524,12.98896 -9.2859,4.62404 -18.2565,11.10022 -23.3784,20.56237 -4.4759,9.31926 -4.295,20.23841 -2.2047,30.19055 2.2198,9.20078 8.3452,17.23213 16.3971,21.787 11.7691,7.33207 25.4809,10.16601 38.8681,12.50271 22.8478,3.78188 46.0443,4.66027 69.1515,4.62757 22.0326,-0.25784 44.142,-1.8214 65.7687,-6.32841 10.4431,-2.63072 20.7746,-7.93638 27.2192,-17.08419 6.9792,-9.54682 9.6616,-22.83857 5.2434,-34.11842 -3.9768,-10.74423 -12.6972,-18.82802 -22.2375,-24.35386 -13.1153,-7.90797 -27.5999,-13.16293 -42.3322,-16.81414 -20.6572,-4.47668 -41.8828,-3.74962 -62.8651,-3.96138 -1.6925,4.1e-4 -3.3852,7.7e-4 -5.0777,0.002 z"
       id="path4040-2"
       inkscape:connector-curvature="0"
       sodipodi:nodetypes="zssssz" />
    <path
       style="display:inline;fill:#ffffff;fill-rule:evenodd;stroke:none;stroke-width:1.10287px;stroke-linecap:butt;stroke-linejoin:miter;stroke-opacity:1"
       d="m 1678.5604,240.7036 c -71.4838,-23.66588 -122.3211,-27.05183 -72.2737,24.0576 -72.8346,-51.72772 -109.485,-41.2779 -94.9911,-13.90333 -45.496,-26.04461 -73.1458,-17.58879 -94.6768,2.69356 -9.036,-25.03995 -26.417,-14.3375 -41.694,-12.64582 -5.2217,-5.57557 11.6634,-20.2747 -57.7456,0.6448 -4.7686,-7.43925 -11.0785,-13.78375 -51.5583,4.1633 -11.5743,-30.4188 -44.6488,2.97482 -78.487,38.63383 20.4305,-43.23745 11.2242,-49.00093 -16.0647,-31.89958 12.1633,-17.91223 19.3426,-31.71506 -28.0142,-0.55079 15.5243,-32.86524 -27.1494,-9.39591 -95.701,39.12358 33.9459,-35.38988 124.9928,-95.99765 63.9896,-89.45234 8.2136,-10.38173 38.3588,-20.08104 -52.7276,-33.55209 16.6983,-7.36202 68.6412,1.2237 24.6683,-26.68244 -5.8761,-3.24106 13.3774,-5.87041 -23.7696,-13.78914 21.7832,-0.008 35.063,-2.56821 14.603,-15.24466 39.75,-0.41471 24.4535,-13.921659 -5.2643,-30.858192 58.2381,21.153352 58.9842,-16.069651 60.4047,-25.238038 73.067,29.019936 76.9963,19.116846 86.529,12.36833 35.1376,-1.241915 70.404,1.670389 104.4751,-33.98028 9.8724,21.28992 28.8397,37.354536 106.1454,19.898739 -33.3004,28.390327 14.7415,9.53926 51.5999,-2.815818 -19.3141,34.831785 31.701,10.881131 96.1604,-24.306557 -35.5027,38.867074 5.7284,24.018828 66.6206,-4.591818 -22.1694,37.821774 18.5323,83.560864 109.3528,82.424344 -43.0324,14.63874 -67.8461,32.22728 -21.7899,61.28717 -51.1348,-7.48731 -66.0476,1.24304 -29.1223,33.18515 -56.3109,-25.47793 -67.0295,10.60915 -20.6687,41.03049 z"
       id="path4508-2"
       inkscape:connector-curvature="0"
       sodipodi:nodetypes="cccccccccccccccccccccccccccc" />
    <path
       style="fill:#ffffff;fill-rule:evenodd;stroke:none;stroke-width:0.948103px;stroke-linecap:butt;stroke-linejoin:miter;stroke-opacity:1"
       d="m 1769.5044,423.01474 c 63.9612,-15.98879 63.9232,-32.79495 71.6929,-40.62661 54.4882,-5.72993 87.7448,-47.55926 77.6703,-102.20871 -3.5879,-16.85606 18.9915,-15.2184 19.391,4.83139 -1.0987,60.691 -16.1574,91.15186 -91.941,107.14119 -13.3423,25.71642 -40.0046,26.09144 -76.8132,30.86274 z"
       id="path4272-2"
       inkscape:connector-curvature="0"
       sodipodi:nodetypes="cccccc" />
    <path
       style="color:#000000;display:inline;overflow:visible;visibility:visible;fill:#ffffff;fill-opacity:1;fill-rule:nonzero;stroke:none;stroke-width:1.15076px;marker:none;enable-background:accumulate"
       d="m 451.5565,1524.1672 c 77.73068,-52.6757 108.17029,-66.4987 176.8647,-111.3306 l -5.71608,28.8704 c 60.48451,-34.1783 93.06945,-54.7177 138.95581,-81.4871 l 64.72178,-3.0505 c -49.31969,23.1577 -186.82827,93.8637 -233.75953,124.887 l 2.854,-25.9346 c -80.19296,32.7945 -87.07813,44.4174 -143.92068,68.0454 z"
       id="path4032-1"
       inkscape:connector-curvature="0"
       sodipodi:nodetypes="cccccccc" />
    <path
       style="color:#000000;display:inline;overflow:visible;visibility:visible;fill:#ffffff;fill-opacity:1;fill-rule:nonzero;stroke:none;stroke-width:0.946773px;marker:none;enable-background:accumulate"
       d="m 1953.8541,1506.2575 c 74.843,1.2486 77.07,-86.4065 88.8547,-128.5666 l 26.4517,50.7412 c 0,0 -44.075,103.6484 -115.3064,77.8254 z"
       id="path3072-56"
       inkscape:connector-curvature="0"
       sodipodi:nodetypes="cccc" />
    <path
       style="color:#000000;display:inline;overflow:visible;visibility:visible;fill:#ffffff;fill-opacity:1;fill-rule:nonzero;stroke:none;stroke-width:0.667685px;marker:none;enable-background:accumulate"
       d="m 2129.0063,1363.3613 c 5.8992,-12.3381 36.4226,-12.1191 47.5434,-9.0971 -22.0659,-14.9996 -16.1643,-25.642 14.6,-25.7162 -39.6516,-19.339 -12.9017,-18.1248 -0.6014,-18.0491 -35.4044,-9.8371 -24.498,-22.4588 -5.7932,-29.1598 -35.5357,0.8481 -37.8962,-1.2993 -27.2796,-17.1189 -13.3967,6.1177 -46.0371,20.7234 -42.2288,-10.0418 -25.712,16.0988 -50.1216,25.7346 -66.3392,-2.0817 -13.1136,17.9298 -38.6233,22.102 -59.8713,-5.6943 4.9567,29.1751 -22.7412,19.2557 -50.1674,10.0092 14.1214,15.6483 -5.92,28.809 -32.7146,18.6728 17.9445,13.4109 -5.2232,14.2513 -23.3369,16.9951 23.6839,6.1686 27.8762,11.6865 -16.7034,15.5752 33.7287,1.9644 56.78,2.4468 24.7889,22.3394 19.3743,-4.9112 64.006,-9.7222 27.8092,29.4744 34.2161,-16.5278 52.1688,-20.101 38.9736,5.3582 14.1569,-15.4509 67.3152,-23.7983 76.7344,-3.3673 4.0042,-8.375 19.3418,-10.9476 32.2707,-10.7975 4.8603,3.5964 9.8296,8.4125 14.9668,14.6651 9.2828,-12.2907 22.7599,-20.2913 47.3488,-1.9657 z"
       id="path3549-3-7-1"
       inkscape:connector-curvature="0"
       sodipodi:nodetypes="cccccccccccccccccccc" />
  </g>
  <g
     inkscape:groupmode="layer"
     id="layer1"
     inkscape:label="txt">
    <text
       xml:space="preserve"
       style="font-style:normal;font-variant:normal;font-weight:normal;font-stretch:normal;font-size:105.817px;line-height:1.25;font-family:Lavi;-inkscape-font-specification:Lavi;letter-spacing:0px;word-spacing:0px;fill:#000000;fill-opacity:1;stroke:#030303;stroke-width:0.716208;stroke-miterlimit:4;stroke-dasharray:none;stroke-opacity:1;filter:url(#filter4375-4-1-1-1-9-5-8-8-5-5-3-8)"
       x="787.65729"
       y="1584.5073"
       id="text4580-6-0-0-0-9-3-36"
       transform="matrix(1.0231031,-0.37102511,-0.35076992,1.3038401,-25.652514,-621.71416)"><tspan
         style="font-size:152.472px;fill:#000000;fill-opacity:1;stroke:#030303;stroke-width:0.716208;stroke-miterlimit:4;stroke-dasharray:none;stroke-opacity:1"
         sodipodi:role="line"
         id="tspan876-6-1"
         x="787.65729"
         y="1584.5073">?<tspan
   style="font-size:127.883px"
   id="tspan925">!</tspan></tspan></text>
    <text
       xml:space="preserve"
       style="font-style:normal;font-variant:normal;font-weight:normal;font-stretch:normal;font-size:69.03660000000000707px;line-height:1.25;font-family:Lavi;-inkscape-font-specification:Lavi;text-align:center;letter-spacing:0px;word-spacing:0px;text-anchor:middle;fill:#000000;fill-opacity:1;stroke:none;stroke-width:1.53413"
       x="1419.605"
       y="191.08641"
       id="text4246-3-2-2-6-3-7-9-3-3-56-9-3-20-3-3-2-7-2"
       transform="matrix(0.99725425,0,-0.12471947,1.0027533,0,0)"><tspan
         style="font-style:normal;font-variant:normal;font-weight:bold;font-stretch:normal;font-size:69.03660000000000707px;font-family:Lavi;-inkscape-font-specification:'Lavi Bold';stroke-width:1.53413;"
         sodipodi:role="line"
         x="1419.605"
         y="191.08641"
         id="tspan1414-3">PRENDETELA!!!</tspan></text>
    <text
       xml:space="preserve"
       style="font-style:normal;font-variant:normal;font-weight:normal;font-stretch:normal;font-size:45px;line-height:1.25;font-family:Lavi;-inkscape-font-specification:Lavi;text-align:center;letter-spacing:0px;word-spacing:0px;text-anchor:middle;fill:#000000;fill-opacity:1;stroke:none"
       x="1943.2986"
       y="269.62378"
       id="text4246-3-2-2-6"><tspan
         style="font-size:45px"
         sodipodi:role="line"
         id="tspan1097-2"
         x="1943.2986"
         y="269.62378">Oh cielo!</tspan></text>
    <text
       xml:space="preserve"
       style="font-style:normal;font-variant:normal;font-weight:normal;font-stretch:normal;font-size:51.4356px;line-height:1.25;font-family:Lavi;-inkscape-font-specification:Lavi;text-align:center;letter-spacing:0px;word-spacing:0px;text-anchor:middle;fill:#000000;fill-opacity:1;stroke:none;stroke-width:1.14301"
       x="792.15143"
       y="1326.6313"
       id="text4246-3-2-2-6-3"><tspan
         style="font-size:51.4356px;stroke-width:1.14301"
         sodipodi:role="line"
         id="tspan1097-2-6"
         x="792.15143"
         y="1326.6313">Pepper, prendi la mia scopa!</tspan></text>
    <text
       xml:space="preserve"
       style="font-style:normal;font-variant:normal;font-weight:normal;font-stretch:normal;font-size:8.55136px;line-height:0%;font-family:Lavi;-inkscape-font-specification:Lavi;letter-spacing:0px;word-spacing:0px;fill:#000000;fill-opacity:1;stroke:#000000;stroke-width:8.1307;stroke-miterlimit:4;stroke-dasharray:none;stroke-opacity:1;paint-order:stroke fill markers"
       x="1769.7273"
       y="1956.4039"
       id="text4580-25"
       transform="matrix(1.0352599,-0.3538216,-0.45318147,1.1208252,0,0)"><tspan
         sodipodi:role="line"
         id="tspan4582-4"
         x="1769.7273"
         y="1956.4039"
         style="font-size:49.8829px;line-height:100%;letter-spacing:3.48001px;fill:#ffffff;stroke:#000000;stroke-width:8.1307;stroke-miterlimit:4;stroke-dasharray:none;stroke-opacity:1;paint-order:stroke fill markers"><tspan
           style="font-size:57.2942px;line-height:100%;letter-spacing:3.48001px;stroke:#000000;stroke-width:8.1307;stroke-miterlimit:4;stroke-dasharray:none;stroke-opacity:1;paint-order:stroke fill markers"
           id="tspan4617-9">Fizzz!</tspan></tspan></text>
    <text
       xml:space="preserve"
       style="font-style:normal;font-variant:normal;font-weight:normal;font-stretch:normal;font-size:53.122px;line-height:1.25;font-family:Lavi;-inkscape-font-specification:Lavi;text-align:center;letter-spacing:0px;word-spacing:0px;text-anchor:middle;fill:#000000;fill-opacity:1;stroke:none;stroke-width:1.18049"
       x="2036.292"
       y="1325.7084"
       id="text4246-3-2-2-6-0"><tspan
         style="font-size:53.122px;stroke-width:1.18049"
         sodipodi:role="line"
         x="2036.292"
         y="1325.7084"
         id="tspan1235">Oh wow!</tspan></text>
    <text
       xml:space="preserve"
       style="font-style:normal;font-variant:normal;font-weight:normal;font-stretch:normal;font-size:45px;line-height:1.25;font-family:Lavi;-inkscape-font-specification:Lavi;text-align:center;letter-spacing:0px;word-spacing:0px;text-anchor:middle;fill:#000000;fill-opacity:1;stroke:none"
       x="2097.4827"
       y="1394.8405"
       id="text4246-3-2-2-6-0-7"><tspan
         style="font-size:45px"
         sodipodi:role="line"
         x="2097.4827"
         y="1394.8405"
         id="tspan1235-3">Grazie mille</tspan><tspan
         style="font-size:45px"
         sodipodi:role="line"
         x="2097.4827"
         y="1451.0905"
         id="tspan196">Zafferano!</tspan></text>
    <text
       xml:space="preserve"
       style="font-style:normal;font-variant:normal;font-weight:normal;font-stretch:normal;font-size:7.13716px;line-height:0%;font-family:Lavi;-inkscape-font-specification:Lavi;letter-spacing:0px;word-spacing:0px;fill:#000000;fill-opacity:1;stroke:#000000;stroke-width:6.78607;stroke-miterlimit:4;stroke-dasharray:none;stroke-opacity:1;paint-order:stroke fill markers"
       x="2509.1191"
       y="2128.6602"
       id="text4580-25-7"
       transform="matrix(0.94891997,-0.36282871,-0.2498382,1.1493577,0,0)"><tspan
         sodipodi:role="line"
         id="tspan4582-4-5"
         x="2509.1191"
         y="2128.6602"
         style="font-size:41.6334px;line-height:100%;letter-spacing:2.9045px;fill:#ffffff;stroke:#000000;stroke-width:6.78607;stroke-miterlimit:4;stroke-dasharray:none;stroke-opacity:1;paint-order:stroke fill markers"><tspan
           style="font-size:47.819px;line-height:100%;letter-spacing:2.9045px;stroke:#000000;stroke-width:6.78607;stroke-miterlimit:4;stroke-dasharray:none;stroke-opacity:1;paint-order:stroke fill markers"
           id="tspan4617-9-3">Toc!</tspan></tspan></text>
    <text
       xml:space="preserve"
       style="font-style:normal;font-variant:normal;font-weight:normal;font-stretch:normal;font-size:99.1307px;line-height:1.25;font-family:Lavi;-inkscape-font-specification:Lavi;letter-spacing:0px;word-spacing:0px;fill:#ffffff;fill-opacity:1;stroke:#ffffff;stroke-width:0.716208;stroke-miterlimit:4;stroke-dasharray:none;stroke-opacity:1;filter:url(#filter4375-4-1-1-1-9-5-8-8-5-5-3-8-5)"
       id="text4580-6-0-0-0-9-3-36-6"
       transform="matrix(0.83569631,-0.05703359,0,0.91800268,450.98089,-394.64664)"><textPath
         xlink:href="#path974"
         id="textPath1153"><tspan
           style="font-size:99.1307px;fill:#ffffff;fill-opacity:1;stroke:#ffffff;stroke-width:0.716208;stroke-miterlimit:4;stroke-dasharray:none;stroke-opacity:1"
           id="tspan876-6-1-1"><tspan
             style="font-size:73.6547px;fill:#ffffff;fill-opacity:1;stroke-width:0.716208"
             id="tspan884-0-2"
             rotate="0 0 0 0"><tspan
   style="font-size:87.3025px;fill:#ffffff;stroke-width:0.716208"
   id="tspan976-9"
   rotate="0 0 0 0 0 0">fiuuu</tspan>U<tspan
   style="font-size:100.95px;fill:#ffffff;stroke-width:0.716208"
   id="tspan972-3"
   rotate="0 0">M</tspan></tspan><tspan
             id="tspan974-1"
             style="font-size:155.542px;fill:#ffffff;stroke-width:0.716208"
             rotate="0 0 0">MM</tspan><tspan
             style="font-size:182.838px;fill:#ffffff;stroke-width:0.716208"
             id="tspan958-9"
             rotate="20 0">!</tspan></tspan></textPath></text>
    <path
       style="fill:none;fill-rule:evenodd;stroke:none;stroke-width:0.989149px;stroke-linecap:butt;stroke-linejoin:miter;stroke-opacity:1"
       d="M 587.57621,4024.2799 C 1026.33,4092.146 1310.4295,3793.5377 1509.4977,3369.7215"
       id="path974"
       sodipodi:nodetypes="cc" />
    <text
       xml:space="preserve"
       style="font-style:normal;font-variant:normal;font-weight:normal;font-stretch:normal;font-size:46.9748px;line-height:1.25;font-family:Lavi;-inkscape-font-specification:Lavi;text-align:start;letter-spacing:0px;word-spacing:0px;text-anchor:start;fill:#000000;fill-opacity:1;stroke:none;stroke-width:1.04388"
       x="2588.9399"
       y="3161.5713"
       id="text4246-3-2-2-6-3-8"
       transform="matrix(0.91327378,0,-0.07872707,1.0949619,0,0)"><tspan
         style="font-style:normal;font-variant:normal;font-weight:bold;font-stretch:normal;font-size:46.9748px;font-family:Lavi;-inkscape-font-specification:'Lavi Bold';text-align:start;text-anchor:start;stroke-width:1.04388"
         sodipodi:role="line"
         id="tspan1097-2-6-7"
         x="2588.9399"
         y="3161.5713">CONTINUA...</tspan></text>
  </g>
</svg>
