<?xml version="1.0" encoding="UTF-8" standalone="no"?>
<svg
   xmlns:dc="http://purl.org/dc/elements/1.1/"
   xmlns:cc="http://creativecommons.org/ns#"
   xmlns:rdf="http://www.w3.org/1999/02/22-rdf-syntax-ns#"
   xmlns:svg="http://www.w3.org/2000/svg"
   xmlns="http://www.w3.org/2000/svg"
   xmlns:xlink="http://www.w3.org/1999/xlink"
   xmlns:sodipodi="http://sodipodi.sourceforge.net/DTD/sodipodi-0.dtd"
   xmlns:inkscape="http://www.inkscape.org/namespaces/inkscape"
   id="svg2"
   version="1.1"
   inkscape:version="1.0.2 (e86c8708, 2021-01-15)"
   width="2481"
   height="3503"
   sodipodi:docname="E34P09.svg">
  <metadata
     id="metadata8">
    <rdf:RDF>
      <cc:Work
         rdf:about="">
        <dc:format>image/svg+xml</dc:format>
        <dc:type
           rdf:resource="http://purl.org/dc/dcmitype/StillImage" />
        <dc:title />
      </cc:Work>
    </rdf:RDF>
  </metadata>
  <defs
     id="defs6">
    <filter
       style="color-interpolation-filters:sRGB"
       id="filter4375-4-1-1-1-9-5-8-8-5-5-3-3-3-0"
       inkscape:label="soundFX1">
      <feFlood
         id="feFlood4377-7-9-0-8-1-7-3-1-2-7-6-6-5-96"
         flood-opacity="1"
         flood-color="rgb(52,52,52)"
         result="flood" />
      <feComposite
         id="feComposite4379-3-8-8-2-77-4-1-0-6-4-7-7-6-3"
         in2="SourceGraphic"
         in="flood"
         operator="in"
         result="composite1"
         baseFrequency="0.053999999999999999 0.053999999999999999" />
      <feMorphology
         id="feMorphology4393-1-0-49-8-9-3-0-1-9-9-5-5-2-8"
         operator="dilate"
         radius="2.5856550817276021"
         result="result3" />
      <feComposite
         id="feComposite4385-9-5-7-0-8-8-7-5-4-9-3-3-9-5"
         in2="result3"
         in="SourceGraphic"
         operator="over"
         result="fbSourceGraphic" />
      <feColorMatrix
         result="fbSourceGraphicAlpha"
         in="fbSourceGraphic"
         values="0 0 0 -1 0 0 0 0 -1 0 0 0 0 -1 0 0 0 0 1 0"
         id="feColorMatrix4544-9-4-4-5-5-1-6" />
      <feTurbulence
         id="feTurbulence4546-3-6-5-6-6-2-1"
         type="fractalNoise"
         numOctaves="4"
         seed="147"
         baseFrequency="0.046080819231719368"
         result="turbulence" />
      <feDisplacementMap
         id="feDisplacementMap4548-8-0-9-2-2-7-1"
         in2="turbulence"
         in="fbSourceGraphic"
         scale="13.20326"
         yChannelSelector="G"
         xChannelSelector="R"
         result="fbSourceGraphic" />
      <feColorMatrix
         result="fbSourceGraphicAlpha"
         in="fbSourceGraphic"
         values="0 0 0 -1 0 0 0 0 -1 0 0 0 0 -1 0 0 0 0 1 0"
         id="feColorMatrix4670-7-7-3-9-9-0-5" />
      <feFlood
         id="feFlood4672-4-4-5-1-1-9-9"
         flood-opacity="1"
         flood-color="rgb(28,28,28)"
         result="flood"
         in="fbSourceGraphic" />
      <feComposite
         id="feComposite4674-8-3-7-2-2-3-8"
         in2="fbSourceGraphic"
         in="flood"
         operator="in"
         result="composite1" />
      <feGaussianBlur
         id="feGaussianBlur4676-3-7-08-7-7-6-4"
         in="composite1"
         stdDeviation="0"
         result="blur" />
      <feOffset
         id="feOffset4678-6-9-1-0-0-0-8"
         dx="-8.3919392296330813"
         dy="1.5526614972014983"
         result="offset" />
      <feComposite
         id="feComposite4680-4-0-9-9-9-6-1"
         in2="offset"
         in="fbSourceGraphic"
         operator="over"
         result="composite2" />
    </filter>
    <filter
       style="color-interpolation-filters:sRGB"
       id="filter4375-4-1-1-1-9-5-8-8-5-5-3-3-3-0-6"
       inkscape:label="soundFX1">
      <feFlood
         id="feFlood4377-7-9-0-8-1-7-3-1-2-7-6-6-5-96-3"
         flood-opacity="1"
         flood-color="rgb(52,52,52)"
         result="flood" />
      <feComposite
         id="feComposite4379-3-8-8-2-77-4-1-0-6-4-7-7-6-3-2"
         in2="SourceGraphic"
         in="flood"
         operator="in"
         result="composite1"
         baseFrequency="0.053999999999999999 0.053999999999999999" />
      <feMorphology
         id="feMorphology4393-1-0-49-8-9-3-0-1-9-9-5-5-2-8-0"
         operator="dilate"
         radius="2.5856550817276021"
         result="result3" />
      <feComposite
         id="feComposite4385-9-5-7-0-8-8-7-5-4-9-3-3-9-5-6"
         in2="result3"
         in="SourceGraphic"
         operator="over"
         result="fbSourceGraphic" />
      <feColorMatrix
         result="fbSourceGraphicAlpha"
         in="fbSourceGraphic"
         values="0 0 0 -1 0 0 0 0 -1 0 0 0 0 -1 0 0 0 0 1 0"
         id="feColorMatrix4544-9-4-4-5-5-1-6-1" />
      <feTurbulence
         id="feTurbulence4546-3-6-5-6-6-2-1-5"
         type="fractalNoise"
         numOctaves="4"
         seed="147"
         baseFrequency="0.046080819231719368"
         result="turbulence" />
      <feDisplacementMap
         id="feDisplacementMap4548-8-0-9-2-2-7-1-5"
         in2="turbulence"
         in="fbSourceGraphic"
         scale="13.20326"
         yChannelSelector="G"
         xChannelSelector="R"
         result="fbSourceGraphic" />
      <feColorMatrix
         result="fbSourceGraphicAlpha"
         in="fbSourceGraphic"
         values="0 0 0 -1 0 0 0 0 -1 0 0 0 0 -1 0 0 0 0 1 0"
         id="feColorMatrix4670-7-7-3-9-9-0-5-4" />
      <feFlood
         id="feFlood4672-4-4-5-1-1-9-9-7"
         flood-opacity="1"
         flood-color="rgb(28,28,28)"
         result="flood"
         in="fbSourceGraphic" />
      <feComposite
         id="feComposite4674-8-3-7-2-2-3-8-6"
         in2="fbSourceGraphic"
         in="flood"
         operator="in"
         result="composite1" />
      <feGaussianBlur
         id="feGaussianBlur4676-3-7-08-7-7-6-4-5"
         in="composite1"
         stdDeviation="0"
         result="blur" />
      <feOffset
         id="feOffset4678-6-9-1-0-0-0-8-6"
         dx="-8.3919392296330813"
         dy="1.5526614972014983"
         result="offset" />
      <feComposite
         id="feComposite4680-4-0-9-9-9-6-1-9"
         in2="offset"
         in="fbSourceGraphic"
         operator="over"
         result="composite2" />
    </filter>
  </defs>
  <sodipodi:namedview
     pagecolor="#ffffff"
     bordercolor="#666666"
     borderopacity="1"
     objecttolerance="10"
     gridtolerance="10"
     guidetolerance="10"
     inkscape:pageopacity="0"
     inkscape:pageshadow="2"
     inkscape:window-width="960"
     inkscape:window-height="1130"
     id="namedview4"
     showgrid="false"
     inkscape:zoom="0.35454887"
     inkscape:cx="1103.3796"
     inkscape:cy="1281.6277"
     inkscape:window-x="459"
     inkscape:window-y="23"
     inkscape:window-maximized="0"
     inkscape:current-layer="layer3"
     inkscape:document-rotation="0"
     inkscape:snap-global="false"
     borderlayer="true" />
  <g
     inkscape:groupmode="layer"
     id="layer2"
     inkscape:label="artwork"
     sodipodi:insensitive="true">
    <image
       sodipodi:absref="/Users/gand/Downloads/webcomics-master-new-ep34_The-Knighting-of-Shichimi/new-ep34_The-Knighting-of-Shichimi/lang/gfx_Pepper-and-Carrot_by-David-Revoy_E34P09.png"
       xlink:href="../gfx_Pepper-and-Carrot_by-David-Revoy_E34P09.png"
       y="0"
       x="0"
       id="image10"
       height="3503"
       width="2481" />
  </g>
  <g
     inkscape:groupmode="layer"
     id="layer3"
     inkscape:label="speechbubbles"
     style="display:inline">
    <path
       style="color:#000000;display:inline;overflow:visible;visibility:visible;fill:#ffffff;fill-opacity:1;fill-rule:nonzero;stroke:none;stroke-width:1.1619px;marker:none;enable-background:accumulate"
       d="m 1474.474,2288.6897 c -24.7956,-5.3737 -96.2924,-47.9371 -8.6048,-45.7139 -64.5358,-17.9093 -55.9568,-53.5519 -2.9227,-74.369 -69.5624,4.2548 -118.7358,0.6207 -82.8923,-36.1664 -93.521,3.5955 -144.9762,10.2673 -129.6244,-28.5578 -47.3992,42.6369 -92.8637,34.6793 -104.5756,-15.1981 -8.1782,35.2294 -96.451,33.1271 -198.33186,12.6992 9.80311,14.5849 104.45366,54.7735 -36.06693,45.7152 55.54384,26.0011 58.01262,39.3386 -36.5065,50.3382 48.17039,11.6971 78.88938,27.5422 3.8142,52.7159 48.64515,7.9508 125.60379,5.6199 32.14925,53.7673 61.61361,-22.7557 164.39204,-6.3139 120.09314,30.3911 120.7369,-41.2428 143.9585,-30.2458 162.1893,-0.6941 44.8924,-43.2711 109.7698,-38.37 147.5055,-13.2168 -18.3446,-38.3461 78.3323,-31.727 133.7737,-31.7108 z"
       id="path3549-3-78-5"
       inkscape:connector-curvature="0"
       sodipodi:nodetypes="ccccccccccccccc" />
    <path
       style="color:#000000;display:inline;overflow:visible;visibility:visible;fill:#ffffff;fill-opacity:1;fill-rule:nonzero;stroke:none;stroke-width:1.53798px;marker:none;enable-background:accumulate"
       d="M 1165.125 2415.5957 C 1130.4961 2415.3971 1095.0603 2423.1298 1065.7591 2442.1634 C 1034.0314 2463.018 1012.4338 2496.9293 1002.3955 2533.1554 C 992.59617 2568.5592 994.46263 2607.4336 1009.3327 2641.1701 C 1016.1701 2656.2876 1027.4362 2668.8862 1039.3142 2680.254 C 1046.8855 2687.8765 1055.8402 2694.0208 1065.5476 2698.6 C 1080.001 2705.4324 1095.4478 2709.892 1110.918 2713.7598 C 1137.2367 2719.946 1164.6219 2721.6842 1191.4772 2718.4018 C 1210.0229 2716.3248 1228.6862 2712.8862 1245.8592 2705.3477 C 1267.2776 2695.5069 1285.9394 2680.4166 1301.9961 2663.3125 C 1312.5213 2651.8799 1320.8033 2638.3469 1325.6024 2623.5344 C 1336.6453 2590.7606 1334.1192 2554.4228 1322.3121 2522.2219 C 1312.2354 2494.3965 1294.7895 2469.0929 1271.4314 2450.7849 C 1248.3998 2432.4135 1220.2152 2420.7112 1190.9864 2417.1249 C 1182.4155 2416.0108 1173.7662 2415.5389 1165.125 2415.5957 z "
       id="path3365-3"
       inkscape:connector-curvature="0"
       sodipodi:nodetypes="cssccsc" />
    <path
       style="display:inline;fill:#ffffff;fill-rule:evenodd;stroke:none;stroke-width:1.17316px;stroke-linecap:butt;stroke-linejoin:miter;stroke-opacity:1"
       d="m 109.73501,2177.5481 c 29.38768,28.2738 32.98668,48.0781 7.52226,37.3592 24.78089,18.3529 19.6543,22.6486 1.44979,31.3901 48.77683,44.6505 36.38287,79.6697 22.55019,114.4624 50.36055,-22.7687 53.1625,5.7616 66.37961,23.0583 10.40076,-40.1063 16.5215,-16.3343 21.44818,25.2615 10.4281,-51.3518 18.32089,-56.502 23.90445,-19.5221 10.2434,-33.0408 24.10947,-47.2326 42.13891,-39.7596 33.05542,-34.3551 46.53514,3.8148 66.34191,18.5438 -2.00545,-38.2097 11.96212,-50.519 45.98999,-17.8885 -0.90281,-23.148 22.7875,-26.3836 48.33814,2.7713 -35.76732,-59.6355 17.79954,-9.4497 25.77979,-6.8831 -17.38584,-30.8533 -3.62278,-55.8076 64.23923,-21.1803 -21.59349,-4.7726 -36.35199,-41.4194 -7.17745,-59.5301 -32.47566,-9.3466 -32.13349,-26.1759 -14.5508,-46.9366 -37.07982,-21.36 0.11551,-53.0572 18.77768,-82.1747 -37.68069,18.2569 -67.76001,22.5325 -74.46291,-16.1893 -57.26266,39.7577 -48.69658,21.4624 -43.13175,5.8137 -35.58384,42.7655 -41.93624,9.6512 -42.47987,-0.8674 -49.31202,48.2542 -93.73623,13.4114 -113.68756,-8.7539 -8.27741,55.1075 -28.62971,37.5649 -49.03206,19.7228 15.20585,37.0218 -3.23279,36.9256 -23.86649,24.0365 8.68221,25.1383 -4.52852,50.2569 -39.83864,18.6313 12.71345,16.4532 -5.18382,28.3673 -46.6326,-1.3653 z"
       id="path4289-9"
       inkscape:connector-curvature="0"
       sodipodi:nodetypes="cccccccccccccccccccccccc" />
    <path
       style="fill:#ffffff;fill-rule:evenodd;stroke:none;stroke-width:1.74067px;stroke-linecap:butt;stroke-linejoin:miter;stroke-opacity:1"
       d="m 898.68243,1281.9721 c 45.04927,91.7805 62.13734,84.7087 69.14045,41.9832 12.30942,15.4323 14.92978,60.6932 50.15162,5.5858 21.7481,40.023 39.2867,34.914 53.3762,-7.1739 37.7796,75.8538 60.8159,32.0394 81.0887,15.1094 51.1574,42.4272 191.8577,48.8759 253.4473,-5.8369 13.0449,19.5051 26.9453,34.8489 53.0987,-1.9364 -2.5588,44.5449 31.5685,7.5009 60.5468,-49.2058 -3.7118,33.3537 -22.768,90.2026 16.8063,57.2753 4.582,23.8344 0.9621,55.3699 85.609,4.0248 -24.6198,67.9175 46.6134,-1.2141 115.6379,-67.1871 -43.5002,57.5257 -102.9319,128.2944 -28.642,105.1684 -41.7662,48.1932 -38.0246,65.8771 80.5465,63.4999 -112.2257,24.8181 -139.771,57.3228 -72.6874,123.2148 -48.5387,-31.0307 -118.2377,-35.2418 -58.3226,7.5461 -60.3756,-34.2663 -69.0736,-17.672 -47.5871,10.4041 -65.9177,-49.3277 -34.9192,-9.7825 -31.2639,29.1527 -47.453,-24.5276 -79.2212,-52.6972 -72.2354,10.0835 -49.3858,-48.1752 -57.8077,-30.9006 -63.6134,-9.4462 -87.6847,-72.8026 -76.3413,-29.2975 -93.192,-18.9061 -25.3534,-26.9338 -24.7117,-4.8298 -20.0378,24.8798 -24.2647,-31.4777 -46.2473,-43.6108 -62.3816,-6.1606 -15.2015,-17.3167 -30.1193,-41.8525 -47.4337,-5.4578 -20.9385,-19.8523 -43.0232,-27.744 -70.0629,16.0725 -11.5006,-26.4714 -28.4702,-45.5282 -85.3554,-10.4684 -10.7234,-56.7978 -59.427,-47.6201 -120.4963,-16.9621 1.87459,-33.3735 -2.94896,-55.2983 -66.23991,22.7077 13.14911,-34.0901 28.12521,-70.0258 -10.20208,-52.1235 24.05021,-65.2228 -9.61374,-47.7521 -80.90647,-34.4229 72.829,-37.9606 110.63632,-76.2312 40.30933,-75.6147 48.33162,-37.8995 44.54105,-57.7575 22.75541,-56.1043 3.30087,-11.7108 42.65796,-32.981 -12.47573,-32.175 29.11654,-15.9508 72.06784,-11.3665 60.62148,-87.5263 z"
       id="path4656"
       inkscape:connector-curvature="0"
       sodipodi:nodetypes="ccccccccccccccccccccccccccccccccc" />
    <path
       style="fill:#ffffff;fill-rule:evenodd;stroke:none;stroke-width:0.922387px;stroke-linecap:butt;stroke-linejoin:miter;stroke-opacity:1"
       d="m 759.65684,1241.283 c 25.72704,13.5269 91.71314,21.0234 2.62165,61.3674 47.1605,0.9671 73.25043,1.7537 28.83796,19.124 60.35234,0.3154 1.28016,9.9013 -28.55394,19.2955 32.8459,-0.2589 81.51627,-7.2784 7.48757,24.6341 61.23221,-9.2869 44.89408,2.0347 -16.80566,24.1629 59.80365,-18.0895 84.50864,-15.5403 59.15076,-1.2529 25.08617,-4.4671 28.20087,9.3935 -21.39949,23.1786 67.49675,-18.6636 66.06494,-11.588 69.69249,34.6472 16.04356,-81.4311 18.77308,-18.0057 22.61641,21.1079 25.57492,-121.4005 60.151,-31.7441 67.73183,-18.6724 -6.36219,-94.3594 40.24712,-55.4681 52.43268,-19.5954 -3.1414,-23.0122 11.8025,-69.487 56.4052,-13.1188 -10.6348,-20.7496 -3.3969,-42.2962 36.6629,9.0732 -12.1487,-34.3451 10.3564,-44.1683 80.473,-11.8006 -0.5409,-17.0771 -7.3792,-35.014 66.3389,-4.833 -1.383,-15.6767 -16.4137,-37.2075 83.8922,-9.2545 0.6545,-27.3754 16.8121,-29.1099 44.9625,-16.5125 -4.8091,-23.4934 25.9343,-12.9018 64.9,2.7953 -24.8175,-32.042 9.0211,-28.6243 57.9226,-18.8217 -4.7486,-15.5655 -11.5372,-31.5384 17.0405,-40.4365 -55.2542,-45.8169 -6.3771,-49.5374 10.4866,-54.4273 -27.677,-1.4095 -48.3664,-17.4541 -12.724,-30.1681 -41.4996,7.4451 -26.2606,-15.1614 -23.979,-27.4943 l -66.8516,-18.905 -65.541,-8.3897 -78.6492,-8.3137 -73.4059,-1.3291 -74.7167,0.4324 -65.5409,3.8873 -56.3653,-8.4427 -57.67597,9.1027 -81.27077,-1.2836 -39.32455,30.0425 c 13.24228,28.7919 -28.60509,28.5474 -66.85177,30.2008 z"
       id="path4323"
       inkscape:connector-curvature="0"
       sodipodi:nodetypes="ccccccccccccccccccccccccccccccccccc" />
    <path
       style="color:#000000;display:inline;overflow:visible;visibility:visible;fill:#ffffff;fill-opacity:1;fill-rule:nonzero;stroke:none;stroke-width:1.19885px;marker:none;enable-background:accumulate"
       d="m 1941.7886,2196.9193 c -33.571,1.6625 -67.2493,1.7932 -100.6788,6.2878 -17.2465,2.6696 -34.5034,9.0988 -48.5398,21.9885 -19.2612,16.8362 -31.9224,43.9344 -34.8231,72.5415 -4.2312,30.1077 -7.0179,61.3223 -1.6864,91.5017 5.3655,24.0415 22.5908,42.3572 41.9705,48.7845 40.5997,15.7157 83.3892,20.5974 125.7886,21.6138 26.9437,0.6629 53.8963,0.2292 80.8411,-0.023 37.8806,-1.1053 75.6298,-5.5872 113.2775,-10.5872 16.05,-2.5703 32.3421,-5.7442 47.2065,-13.9192 15.667,-8.9603 28.8727,-24.6461 35.6647,-44.1947 10.5264,-28.3165 10.3793,-61.2633 3.0823,-90.6872 -7.409,-29.0892 -23.703,-54.751 -45.2693,-70.1975 -22.1033,-16.6745 -48.1414,-23.9269 -73.8784,-25.4174 -46.2413,-4.6915 -92.6258,-7.6161 -139.03,-7.8805 -1.3085,0.063 -2.617,0.1256 -3.9254,0.1885 z"
       id="path4546-6-5-5"
       inkscape:connector-curvature="0"
       sodipodi:nodetypes="cssssc" />
    <path
       style="color:#000000;display:inline;overflow:visible;visibility:visible;fill:#ffffff;fill-opacity:1;fill-rule:nonzero;stroke:none;stroke-width:0.710908px;marker:none;enable-background:accumulate"
       d="m 427.36079,1539.322 c -18.49435,2.3317 -20.41009,4.4325 -21.96654,15.8617 -1.55611,11.4299 -0.85275,28.3587 -14.56075,40.6485 -13.70771,12.2903 -23.6764,10.0093 -30.31719,9.0645 4.26773,13.7681 1.4232,41.4005 9.47615,45.7822 8.05295,4.3816 -16.23573,2.0167 -16.23573,2.0167 0,0 -18.78665,-30.5045 -14.52874,-48.8854 4.25786,-18.3808 31.63742,-15.9961 42.0788,-22.7096 10.44133,-6.7135 10.50842,-30.2213 17.90427,-37.5835 7.39563,-7.363 19.29539,-5.4547 28.14973,-4.1951 z"
       id="path4538-7"
       inkscape:connector-curvature="0"
       sodipodi:nodetypes="ccscccsscc" />
    <path
       style="color:#000000;display:inline;overflow:visible;visibility:visible;fill:#ffffff;fill-opacity:1;fill-rule:nonzero;stroke:none;stroke-width:0.576009px;marker:none;enable-background:accumulate"
       d="m 269.38616,1653.529 c 23.98622,-18.7388 72.99975,-31.6297 113.83578,1.6461 32.33893,26.3516 21.53309,64.4595 4.25504,76.2832 -17.27802,11.8238 -72.26174,14.2552 -97.55286,8.4261 -19.52455,-4.5006 -40.92884,-15.7046 -42.10867,-45.5966 -0.48149,-12.2006 -2.41553,-22.02 21.57071,-40.7588 z"
       id="path4040-2-9"
       inkscape:connector-curvature="0"
       sodipodi:nodetypes="zssssz" />
    <path
       style="color:#000000;display:inline;overflow:visible;visibility:visible;fill:#ffffff;fill-opacity:1;fill-rule:nonzero;stroke:none;stroke-width:0.590855px;marker:none;enable-background:accumulate"
       d="m 248.38875,1580.4882 c 25.2386,-18.1575 76.81125,-29.8607 119.77943,4.4047 34.02742,27.1353 22.65738,64.9814 4.47719,76.3864 -18.18014,11.405 -76.0347,12.504 -102.64632,6.062 -20.54397,-4.9737 -43.06584,-16.6964 -44.30727,-46.617 -0.50663,-12.2123 -2.54165,-22.0785 22.69697,-40.2361 z"
       id="path4040-2"
       inkscape:connector-curvature="0"
       sodipodi:nodetypes="zssssz" />
    <path
       style="display:inline;fill:#ffffff;stroke:none;stroke-width:0.931723"
       d="m 1997.4497,1062.6294 c -1.6375,-25.9962 27.7227,-91.07497 170.9405,-86.1798 143.2177,4.89516 188.0427,33.4892 192.2396,79.6976 6.6392,73.1 -68.7075,92.6343 -176.8985,98.0493 -111.5333,5.5813 -188.0125,-44.5966 -186.2816,-91.5671 z"
       id="path3280-8-3-6"
       inkscape:connector-curvature="0"
       sodipodi:nodetypes="csssc" />
    <path
       style="display:inline;fill:#ffffff;stroke:none;stroke-width:1.66223"
       d="m 2054.8911,157.73242 c -60.5209,1.22741 -121.6343,0.65377 -181.2041,11.64271 -39.6759,7.26866 -79.1603,18.24311 -113.6287,37.64919 -26.2525,15.61757 -44.9987,40.37176 -52.8796,67.52394 -10.2205,34.18818 -3.9747,72.58536 19.2003,101.60212 14.4058,18.28386 35.3658,31.94767 58.4499,40.32323 28.6156,11.11943 59.0657,17.69836 89.2305,24.49612 86.9849,18.23843 177.8432,23.55943 266.3831,11.66052 35.6873,-4.66315 71.1864,-11.36172 105.2576,-22.04822 32.1777,-10.79845 63.1312,-26.26921 86.7873,-48.85575 20.379,-21.28933 29.3208,-49.8403 28.7764,-77.51336 -0.011,-24.0505 -6.64,-48.94976 -23.5018,-68.15825 -16.7703,-18.42402 -40.2063,-30.59177 -63.5075,-41.34071 -35.0798,-15.26532 -73.66,-22.13652 -111.7483,-28.50582 -35.4424,-5.93596 -71.5481,-8.90582 -107.6151,-8.47572 z"
       id="path3280-8-3"
       inkscape:connector-curvature="0"
       sodipodi:nodetypes="csssc" />
    <path
       style="color:#000000;display:inline;overflow:visible;visibility:visible;fill:#ffffff;fill-opacity:1;fill-rule:nonzero;stroke:none;stroke-width:0.608783px;marker:none;enable-background:accumulate"
       d="m 1751.2966,118.06982 c -18.0333,0.18933 -36.0674,0.22455 -54.1008,0.0344 -11.8069,-0.14349 -23.6739,0.0747 -35.3256,1.9339 -21.7025,3.33547 -42.8876,10.36344 -60.9783,21.58126 -5.0414,3.15184 -9.8752,6.71023 -13.2123,11.37103 -12.5007,16.257 -12.9164,39.54684 0.49,55.49229 8.9508,10.35064 22.6898,16.12839 36.063,20.81189 33.1778,11.68115 69.2079,15.30029 104.6925,15.4305 30.6511,0.016 61.6457,3.38414 92.0083,-1.81956 26.5951,-4.66092 52.6534,-14.43113 72.6572,-30.91977 12.1858,-10.71873 18.2326,-27.36074 13.0367,-42.12219 -4.9328,-15.01303 -18.236,-26.96879 -33.7278,-33.98225 -24.2465,-11.69586 -52.0403,-16.28689 -79.4047,-17.27415 -14.0556,-0.58807 -28.1303,-0.61588 -42.1982,-0.53739 z"
       id="path3525-8"
       inkscape:connector-curvature="0"
       sodipodi:nodetypes="cscsc" />
    <path
       style="fill:#ffffff;fill-rule:evenodd;stroke:none;stroke-width:1.06468px;stroke-linecap:butt;stroke-linejoin:miter;stroke-opacity:1"
       d="m 786.34361,430.16165 c 0,0 22.37691,25.375 30.38987,41.353 9.55841,41.6769 -15.08254,52.26548 -11.80509,72.946 4.69971,21.617 12.77263,34.196 42.40829,52.053 -36.46109,-14.098 -60.72938,-25.376 -65.42892,-46.992 -4.6996,-21.617 12.02504,-48.872 9.37974,-58.27 -2.64548,-9.399 -11.01511,-33.835 -33.19349,-51.692 -22.17826,-17.857 28.2496,-9.398 28.2496,-9.398 z"
       id="path1303"
       inkscape:connector-curvature="0"
       sodipodi:nodetypes="cccccccc" />
    <path
       style="color:#000000;display:inline;overflow:visible;visibility:visible;fill:#ffffff;fill-opacity:1;fill-rule:nonzero;stroke:none;stroke-width:1.01383px;marker:none;enable-background:accumulate"
       d="m 1306.1372,933.87003 c -52.2194,0.60259 -104.9875,6.18237 -153.3201,20.55394 -24.3339,6.8158 -44.3213,20.20051 -56.8039,36.26591 -17.6476,20.72842 -24.4581,45.23962 -23.9074,69.18952 -0.3404,21.7572 1.9885,44.0819 13.919,64.4005 9.9877,16.3502 23.5266,32.3696 44.2372,43.0868 15.7737,7.9151 35.2701,10.8229 54.2492,12.0262 46.1856,3.2038 92.89,-3.3074 138.8408,2.4567 33.8402,3.7138 67.7831,9.2669 102.2566,7.7134 20.762,-1.3133 40.5951,-6.2024 61.0882,-8.6256 13.4668,-1.6374 27.6596,-2.7177 39.5377,-7.8656 3.3861,-1.1629 5.397,-3.4509 6.4839,-5.9122 2.7612,-6.2805 1.347,-12.9579 0.7773,-19.3896 -1.7334,-12.7405 -4.2109,-25.749 -0.2252,-38.4116 4.4335,-27.0264 13.0393,-54.101 9.2266,-81.4382 -3.2776,-19.522 -12.1947,-39.13286 -29.9728,-54.58743 -16.0561,-12.5725 -38.627,-19.71581 -61.0372,-24.9568 -34.3483,-7.67817 -70.3296,-10.66881 -106.0392,-13.30256 -13.0714,-0.78675 -26.1889,-1.25367 -39.3107,-1.20338 z"
       id="path4040-40"
       inkscape:connector-curvature="0"
       sodipodi:nodetypes="zsssszccccccccz" />
    <path
       style="display:inline;fill:#ffffff;stroke:none;stroke-width:1.0042"
       d="m 767.17049,81.448662 c -62.94361,2.939733 -133.04629,-2.788203 -166.86987,1.092864 -4.81225,96.690664 -22.65534,171.376164 -16.58665,217.301494 5.28099,38.03348 11.21059,76.05723 20.30331,113.57055 6.00458,21.22196 17.34671,42.06558 36.63424,56.7208 21.46444,16.83233 49.24642,25.9049 76.78891,32.56564 66.49877,16.12709 138.51531,17.48832 204.83621,-0.0509 17.93915,-4.60022 34.98742,-11.61721 50.47651,-20.66337 29.17055,-16.80343 53.75095,-39.53217 71.13495,-65.78826 17.1667,-27.64408 22.328,-59.2139 25.9787,-89.99197 4.3658,-37.53286 2.6482,-76.38247 -12.4942,-112.11925 -11.6527,-26.98557 -29.4476,-52.37185 -53.8856,-72.18917 C 973.28794,118.45386 934.71817,104.96517 895.95602,95.844011 854.05318,86.030576 810.59815,81.11956 767.17049,81.448662 Z"
       id="path3280-5"
       inkscape:connector-curvature="0"
       sodipodi:nodetypes="ccsscccccccccc" />
    <path
       style="fill:#ffffff;fill-rule:evenodd;stroke:none;stroke-width:1.36569px;stroke-linecap:butt;stroke-linejoin:miter;stroke-opacity:1"
       d="m 1309.5687,939.23352 c 8.7674,-29.78389 -2.55,-70.85724 -21.3421,-92.51878 19.294,12.00335 47.6581,40.90723 49.4868,77.53639 2.8542,57.16677 -26.6522,18.09019 -26.6522,18.09019 z"
       id="path4248"
       inkscape:connector-curvature="0"
       sodipodi:nodetypes="ccscc" />
    <path
       style="color:#000000;display:inline;overflow:visible;visibility:visible;fill:#ffffff;fill-opacity:1;fill-rule:nonzero;stroke:none;stroke-width:1.27845px;marker:none;enable-background:accumulate"
       d="m 2159.8838,536.71889 c 47.5494,-40.109 11.4958,-121.92186 -22.0631,-138.04748 -43.9644,-41.61081 21.7355,-52.5057 21.7355,-52.5057 l 27.3389,46.67174 c -4.9414,6.99806 59.5251,106.49368 -27.0113,143.88144 z"
       id="path3072-56"
       inkscape:connector-curvature="0"
       sodipodi:nodetypes="ccccc" />
    <path
       style="fill:#ffffff;fill-rule:evenodd;stroke:none;stroke-width:1px;stroke-linecap:butt;stroke-linejoin:miter;stroke-opacity:1"
       d="m 2145.9447,911.76156 c 17.8164,6.86787 32.8659,22.27667 36.9127,41.22902 2.4357,13.03639 -1.9004,26.29118 -8.401,37.50329 -6.139,11.51773 -13.902,22.87523 -15.1546,36.21623 -0.038,3.7486 4.352,7.1591 7.7995,4.9374 5.4591,-2.2621 9.1063,-7.2123 13.9986,-10.3572 13.619,-10.9723 25.9848,-24.85172 30.732,-42.05359 4.3293,-16.93725 -3.8025,-35.55082 -17.8163,-45.50969 -14.6218,-11.8782 -32.4276,-19.47815 -50.851,-23.07104 0.9267,0.36853 1.8534,0.73706 2.7801,1.10558 z"
       id="path914"
       inkscape:connector-curvature="0"
       sodipodi:nodetypes="cscc" />
    <path
       style="fill:#ffffff;fill-rule:evenodd;stroke:none;stroke-width:1px;stroke-linecap:butt;stroke-linejoin:miter;stroke-opacity:1"
       d="m 1859.1104,1611.6362 -101.7503,-92.9388 -6.0669,33.3207 -71.4256,-61.6811 -11.1854,27.4382 91.4542,66.5103 8.19,-37.7549 z"
       id="path4667"
       inkscape:connector-curvature="0" />
    <path
       style="color:#000000;display:inline;overflow:visible;visibility:visible;fill:#ffffff;fill-opacity:1;fill-rule:nonzero;stroke:none;stroke-width:1.14715px;marker:none;enable-background:accumulate"
       d="m 284.24765,2318.4867 c -40.4116,58.36 -53.3089,167.707 24.2468,263.215 -108.4132,-99.32 -82.2954,-214.062 -72.6196,-244.978 2.0322,-33.697 48.3728,-18.237 48.3728,-18.237 z"
       id="path4008-0"
       inkscape:connector-curvature="0"
       sodipodi:nodetypes="cccc" />
    <path
       style="color:#000000;display:inline;overflow:visible;visibility:visible;fill:#ffffff;fill-opacity:1;fill-rule:nonzero;stroke:none;stroke-width:1px;marker:none;enable-background:accumulate"
       d="m 2007.8186,2508.6854 c -16.2035,68.7147 -23.8042,123.8365 19.1198,161.3448 -35.9827,-18.9303 -60.1167,-37.3437 -55.228,-133.0047 3.2811,-29.3033 15.4575,-25.6682 36.1082,-28.3401 z"
       id="path4064-5"
       inkscape:connector-curvature="0"
       sodipodi:nodetypes="cccc" />
    <path
       style="fill:#ffffff;fill-rule:evenodd;stroke:none;stroke-width:1.0599px;stroke-linecap:butt;stroke-linejoin:miter;stroke-opacity:1"
       d="m 1312.6704,2517.7831 c 23.7195,-14.0861 43.1327,-10.969 67.1439,-1.3968 -21.0663,-24.318 -50.0172,-29.1023 -87.4659,-14.9118 -44.493,16.8599 17.6099,16.5876 17.6099,16.5876 z"
       id="path4248-5"
       inkscape:connector-curvature="0"
       sodipodi:nodetypes="ccscc" />
    <path
       style="fill:#ffffff;fill-opacity:1;stroke:none;stroke-width:0.573001"
       d="m 2155.7116,2518.787 c -17.1993,-4.042 -23.8144,-7.7953 -20.7274,-10.1053 -28.8017,-19.3139 -4.3025,-37.1557 -0.8819,-39.2663 -0.01,-1.4293 -9.2612,0.5774 -10.5842,-0.5773 -1.323,-1.1553 9.0804,-10.7963 7.3164,-11.3736 -1.7641,-0.5779 -39.5099,3.5782 -45.243,0.9795 -5.7332,-2.5986 -2.6462,-9.2393 -4.41,-9.528 -1.7641,-0.2887 -18.0814,1.4434 -20.2864,1.1547 -2.205,-0.2886 -6.174,-8.9501 -8.3791,-9.2388 -2.2051,-0.2887 -12.3483,3.7534 -14.1123,3.4647 -1.764,-0.2887 -0.8819,-7.5067 -3.087,-7.7953 -2.2051,-0.2888 -11.9072,6.0627 -13.2302,5.774 -1.323,-0.2887 -6.1742,-14.7248 -8.3792,-15.5908 -2.2051,-0.866 -16.3172,15.8795 -17.6402,16.1681 -1.323,0.2893 -9.7022,-19.6328 -11.4663,-19.9215 -1.764,-0.2886 -10.5841,13.5702 -11.9071,13.2814 -1.3231,-0.2887 -9.7023,-8.3733 -11.4661,-8.9507 -1.7641,-0.5773 -13.2303,17.9008 -14.9944,17.9008 -1.764,0 -16.7583,-7.7953 -18.0813,-9.2388 -1.323,-1.4439 -2.646,7.5068 -4.4101,7.5068 -1.7639,0 -22.0502,-5.1973 -22.4914,-4.9087 -0.4409,0.2887 3.0872,5.7747 1.7641,5.7747 -1.3229,0 -22.0503,-7.218 -22.9324,-5.7747 -0.8819,1.444 -44.9827,-7.218 -48.0697,-6.0633 -3.0871,1.1553 19.8453,23.6754 17.6403,25.4081 -2.2051,1.732 -10.1433,-0.2887 -10.5843,0.5773 -0.4409,0.866 4.8511,4.6194 3.5282,5.7741 -1.3231,1.1553 -16.3173,5.7747 -17.6404,7.2181 -1.323,1.4439 6.6151,5.1973 4.8512,6.0633 -1.7641,0.8666 -27.7837,6.352 -28.2245,7.7959 -0.4411,1.4435 13.2302,8.3728 11.4661,10.3935 -1.764,2.0214 -6.6151,2.8874 -6.1741,4.3313 0.4411,1.4434 8.8203,3.176 8.3792,4.6194 -0.441,1.4434 -4.8511,8.6621 -6.1741,9.8167 -1.3231,1.1547 9.2611,0.5774 9.2611,1.7321 0,1.1553 -0.7789,18.4971 -16.4467,28.9903 27.4041,-6.9507 38.9381,-3.5822 53.4913,-1.2729 14.5533,2.31 8.8201,16.7462 11.0252,17.6122 2.2049,0.8665 18.5223,-4.9081 20.7274,-2.8874 2.205,2.0214 3.087,5.7746 4.8511,5.7746 1.7639,0 11.9072,-8.084 14.1122,-7.7953 2.205,0.2886 22.9323,12.9927 26.0195,13.2813 3.087,0.2888 14.9941,-4.9086 17.6402,-5.1972 2.6462,-0.2888 4.851,6.9293 7.0562,6.352 2.205,-0.5774 16.3172,-5.7747 18.5221,-5.1973 2.2051,0.5779 3.9692,2.8873 5.7332,2.31 1.764,-0.5775 9.7022,-2.8874 9.7022,-2.8874 0,0 5.7331,1.7327 8.3791,1.7327 2.646,0 20.7272,-9.5281 22.9324,-10.1055 2.205,-0.5773 24.8427,9.841 23.5196,11.5731 2.8098,-7.5812 16.3868,-12.348 19.2581,-12.7277 3.087,-0.8666 12.3482,1.732 13.2302,0.866 0.882,-0.866 3.528,-5.486 6.174,-5.7747 2.6461,-0.2887 8.8202,-1.4434 8.8202,-1.4434 l -0.882,-1.7325 c 0,0 18.5223,4.6199 20.7274,6.3519 2.205,1.7327 -1.323,-7.5068 -2.6461,-9.8167 7.9381,2.3099 31.3115,7.218 33.0754,8.662 1.7642,1.4434 -3.0869,-5.1972 -5.7329,-7.2181 3.528,0.866 6.6151,1.1548 6.6151,1.1548 l -10.1432,-6.9294 3.0871,-0.5773 c 0,0 -6.6152,-3.176 -6.6152,-4.6194 0,-1.444 17.1992,-3.176 17.1992,-3.176 0,0 -7.056,-2.5986 -5.292,-4.0421 1.7641,-1.4439 6.1742,-2.31 6.1742,-2.31 l 0.8819,-3.7533 z"
       id="path5888-3"
       inkscape:connector-curvature="0"
       sodipodi:nodetypes="cccccsscccccccsccscscsccsccccccsccscscssccsccscscccccccsccccccsccccc" />
    <text
       xml:space="preserve"
       style="font-style:normal;font-variant:normal;font-weight:normal;font-stretch:normal;font-size:45px;line-height:1.25;font-family:Lavi;-inkscape-font-specification:Lavi;text-align:center;letter-spacing:0px;word-spacing:0px;text-anchor:middle;fill:#000000;fill-opacity:1;stroke:none"
       x="812.22699"
       y="187.91748"
       id="text4246-3-2-2-6-3-7-9-3-3-56-9-3-20-9"><tspan
         style="font-size:45px"
         sodipodi:role="line"
         x="812.22699"
         y="187.91748"
         id="tspan907">Vedo, hai raggiunto</tspan><tspan
         style="font-size:45px"
         sodipodi:role="line"
         x="812.22699"
         y="244.16748"
         id="tspan911">il livello di chi ti</tspan><tspan
         style="font-size:45px"
         sodipodi:role="line"
         x="812.22699"
         y="300.41748"
         id="tspan252">aveva preceduto</tspan><tspan
         style="font-size:45px"
         sodipodi:role="line"
         x="812.22699"
         y="356.66748"
         id="tspan194">molto prima di</tspan><tspan
         style="font-size:45px"
         sodipodi:role="line"
         x="812.22699"
         y="412.91748"
         id="tspan915-0">quanto avessi</tspan><tspan
         style="font-size:45px"
         sodipodi:role="line"
         x="812.22699"
         y="469.16748"
         id="tspan318">previsto...</tspan></text>
    <text
       xml:space="preserve"
       style="font-style:normal;font-variant:normal;font-weight:normal;font-stretch:normal;font-size:47.4643px;line-height:1.25;font-family:Lavi;-inkscape-font-specification:Lavi;text-align:center;letter-spacing:0px;word-spacing:0px;text-anchor:middle;fill:#000000;fill-opacity:1;stroke:none;stroke-width:1.05476"
       x="1432.682"
       y="1428.2369"
       id="text4246-3-2-2-6-3-7-9-3-3-56-9-3-20-3-3-2"
       transform="skewX(-7.1285625)"><tspan
         style="font-style:normal;font-variant:normal;font-weight:bold;font-stretch:normal;font-size:47.4643px;font-family:Lavi;-inkscape-font-specification:'Lavi Bold';stroke-width:1.05476"
         sodipodi:role="line"
         x="1432.682"
         y="1428.2369"
         id="tspan1341-9">MI HANNO APPENA ATTACCATA</tspan><tspan
         style="font-style:normal;font-variant:normal;font-weight:bold;font-stretch:normal;font-size:47.4643px;font-family:Lavi;-inkscape-font-specification:'Lavi Bold';stroke-width:1.05476"
         sodipodi:role="line"
         x="1432.682"
         y="1487.5673"
         id="tspan1373">E VOI STATE LÌ COME DEI</tspan><tspan
         style="font-style:normal;font-variant:normal;font-weight:bold;font-stretch:normal;font-size:47.4643px;font-family:Lavi;-inkscape-font-specification:'Lavi Bold';stroke-width:1.05476"
         sodipodi:role="line"
         x="1432.682"
         y="1546.8977"
         id="tspan1375">BACCALÀ?!! PRENDETELA!!!</tspan></text>
  </g>
  <g
     inkscape:groupmode="layer"
     id="layer1"
     inkscape:label="txt">
    <text
       xml:space="preserve"
       style="font-style:normal;font-variant:normal;font-weight:normal;font-stretch:normal;font-size:80px;line-height:1.25;font-family:Lavi;-inkscape-font-specification:Lavi;letter-spacing:0px;word-spacing:0px;fill:#ffffff;fill-opacity:1;stroke:#ffffff;stroke-width:0.668774;stroke-miterlimit:4;stroke-dasharray:none;stroke-opacity:1;filter:url(#filter4375-4-1-1-1-9-5-8-8-5-5-3-3-3-0)"
       id="text4580-6-0-0-0-9-3-3-2-0"
       transform="matrix(1.1484433,-0.31259721,-0.62973044,2.2133476,1615.3614,-1809.1372)"
       x="-607.91235"
       y="1245.0809"><tspan
         id="tspan1534-6"
         style="font-size:61.3371px"><tspan
   id="tspan882"
   style="font-size:71.8115px">DR</tspan><tspan
   style="font-size:66.5743px"
   id="tspan1814">Z</tspan>OW!!</tspan></text>
    <text
       xml:space="preserve"
       style="font-style:normal;font-variant:normal;font-weight:normal;font-stretch:normal;font-size:45px;line-height:1.25;font-family:Lavi;-inkscape-font-specification:Lavi;text-align:center;letter-spacing:0px;word-spacing:0px;text-anchor:middle;fill:#000000;fill-opacity:1;stroke:none"
       x="1312.303"
       y="1014.1287"
       id="text4246-3-2-2-6-3-7-9-3-3-56-9-3-20-3"><tspan
         style="font-size:45px"
         sodipodi:role="line"
         x="1312.303"
         y="1014.1287"
         id="tspan985">Questo accelera</tspan><tspan
         style="font-size:45px"
         sodipodi:role="line"
         x="1312.303"
         y="1070.3787"
         id="tspan327">i miei piani, ma è</tspan><tspan
         style="font-size:45px"
         sodipodi:role="line"
         x="1312.303"
         y="1126.6287"
         id="tspan331">una buona notizia.</tspan></text>
    <text
       xml:space="preserve"
       style="font-style:normal;font-variant:normal;font-weight:normal;font-stretch:normal;font-size:45px;line-height:1.25;font-family:Lavi;-inkscape-font-specification:Lavi;text-align:center;letter-spacing:0px;word-spacing:0px;text-anchor:middle;fill:#000000;fill-opacity:1;stroke:none"
       x="1729.261"
       y="189.87845"
       id="text4246-3-2-2-6-3-7-9-3-3-56-9-3-20-3-2"><tspan
         style="font-size:45px"
         sodipodi:role="line"
         x="1729.261"
         y="189.87845"
         id="tspan994-7">I tuoi piani?</tspan></text>
    <text
       xml:space="preserve"
       style="font-style:normal;font-variant:normal;font-weight:normal;font-stretch:normal;font-size:45px;line-height:1.25;font-family:Lavi;-inkscape-font-specification:Lavi;text-align:center;letter-spacing:0px;word-spacing:0px;text-anchor:middle;fill:#000000;fill-opacity:1;stroke:none"
       x="2040.4006"
       y="246.78416"
       id="text4246-3-2-2-6-3-7-9-3-3-56-9-3-20-3-2-0"><tspan
         style="font-size:45px"
         sodipodi:role="line"
         x="2040.4006"
         y="246.78416"
         id="tspan8482">Quindi mi stavi solo</tspan><tspan
         style="font-size:45px"
         sodipodi:role="line"
         x="2040.4006"
         y="303.03418"
         id="tspan357">mettendo alla prova e questo</tspan><tspan
         style="font-size:45px"
         sodipodi:role="line"
         x="2040.4006"
         y="359.28418"
         id="tspan373">non aveva niente a che fare</tspan><tspan
         style="font-size:45px"
         sodipodi:role="line"
         x="2040.4006"
         y="415.53418"
         id="tspan385">con il mio ritardo?</tspan></text>
    <text
       xml:space="preserve"
       style="font-style:normal;font-variant:normal;font-weight:normal;font-stretch:normal;font-size:45px;line-height:1.25;font-family:Lavi;-inkscape-font-specification:Lavi;text-align:center;letter-spacing:0px;word-spacing:0px;text-anchor:middle;fill:#000000;fill-opacity:1;stroke:none"
       x="2179.271"
       y="1053.5718"
       id="text4246-3-2-2-6-3-7-9-3-3-56-9-3-20-3-2-0-3"><tspan
         style="font-size:45px"
         sodipodi:role="line"
         x="2179.271"
         y="1053.5718"
         id="tspan1100-2">Tu sei davvero</tspan><tspan
         style="font-size:45px"
         sodipodi:role="line"
         x="2179.271"
         y="1109.8218"
         id="tspan1147">fuori!</tspan></text>
    <text
       xml:space="preserve"
       style="font-style:normal;font-variant:normal;font-weight:normal;font-stretch:normal;font-size:45px;line-height:1.25;font-family:Lavi;-inkscape-font-specification:Lavi;text-align:center;letter-spacing:0px;word-spacing:0px;text-anchor:middle;fill:#000000;fill-opacity:1;stroke:none"
       x="314.83337"
       y="1631.6757"
       id="text4246-3-2-2-6-3-7-9-3-3-56-9-3-20-3-2-0-3-1"><tspan
         style="font-size:45px"
         sodipodi:role="line"
         x="314.83337"
         y="1631.6757"
         id="tspan1224">sii...</tspan></text>
    <text
       xml:space="preserve"
       style="font-style:normal;font-variant:normal;font-weight:normal;font-stretch:normal;font-size:45px;line-height:1.25;font-family:Lavi;-inkscape-font-specification:Lavi;text-align:center;letter-spacing:0px;word-spacing:0px;text-anchor:middle;fill:#000000;fill-opacity:1;stroke:none"
       x="327.27063"
       y="1708.0287"
       id="text4246-3-2-2-6-3-7-9-3-3-56-9-3-20-3-2-0-3-1-2"><tspan
         style="font-size:45px"
         sodipodi:role="line"
         x="327.27063"
         y="1708.0287"
         id="tspan1224-2">sii.</tspan></text>
    <text
       xml:space="preserve"
       style="font-style:normal;font-variant:normal;font-weight:normal;font-stretch:normal;font-size:70.9781px;line-height:1.25;font-family:Lavi;-inkscape-font-specification:Lavi;text-align:center;letter-spacing:0px;word-spacing:0px;text-anchor:middle;fill:#000000;fill-opacity:1;stroke:none;stroke-width:1.57727"
       x="1558.9138"
       y="2009.7477"
       id="text4246-3-2-2-6-3-7-9-3-3-56-9-3-20-3-3-2-7-2"
       transform="matrix(0.89307379,0,-0.11169036,1.1197283,0,0)"><tspan
         style="font-style:normal;font-variant:normal;font-weight:bold;font-stretch:normal;font-size:70.9781px;font-family:Lavi;-inkscape-font-specification:'Lavi Bold';stroke-width:1.57727"
         sodipodi:role="line"
         x="1558.9138"
         y="2009.7477"
         id="tspan1414-3">PRENDETELA!!!</tspan></text>
    <text
       xml:space="preserve"
       style="font-style:normal;font-variant:normal;font-weight:normal;font-stretch:normal;font-size:45px;line-height:1.25;font-family:Lavi;-inkscape-font-specification:Lavi;text-align:center;letter-spacing:0px;word-spacing:0px;text-anchor:middle;fill:#000000;fill-opacity:1;stroke:none"
       x="1159.3292"
       y="2502.3032"
       id="text4246-3-2-2-6-3-7-9-3-3-56-9-3-20-3-2-0-3-19"><tspan
         style="font-size:45px"
         sodipodi:role="line"
         x="1159.3292"
         y="2502.3032"
         id="tspan1484">Shichimi, </tspan><tspan
         style="font-size:45px"
         sodipodi:role="line"
         x="1159.3292"
         y="2558.5532"
         id="tspan1027">ne dovremo</tspan><tspan
         style="font-size:45px"
         sodipodi:role="line"
         x="1159.3292"
         y="2614.8032"
         id="tspan736">parlare</tspan><tspan
         style="font-size:45px"
         sodipodi:role="line"
         x="1159.3292"
         y="2671.0532"
         id="tspan1031">più tardi!</tspan></text>
    <text
       xml:space="preserve"
       style="font-style:normal;font-variant:normal;font-weight:normal;font-stretch:normal;font-size:45px;line-height:1.25;font-family:Lavi;-inkscape-font-specification:Lavi;text-align:center;letter-spacing:0px;word-spacing:0px;text-anchor:middle;fill:#000000;fill-opacity:1;stroke:none"
       x="1978.2208"
       y="2261.5603"
       id="text4246-3-2-2-6-3-7-9-3-3-56-9-3-20-3-2-0-3-19-8-3"><tspan
         style="font-size:45px"
         sodipodi:role="line"
         x="1978.2208"
         y="2261.5603"
         id="tspan1046-3">Scusami Carrot,</tspan><tspan
         style="font-size:45px"
         sodipodi:role="line"
         x="1978.2208"
         y="2317.8103"
         id="tspan8499">ma dobbiamo</tspan><tspan
         style="font-size:45px"
         sodipodi:role="line"
         x="1978.2208"
         y="2374.0603"
         id="tspan8507">decollare ancora</tspan><tspan
         style="font-size:45px"
         sodipodi:role="line"
         x="1978.2208"
         y="2430.3103"
         id="tspan751">ad ipervelocità.</tspan></text>
    <text
       xml:space="preserve"
       style="font-style:normal;font-variant:normal;font-weight:normal;font-stretch:normal;font-size:45px;line-height:1.25;font-family:Lavi;-inkscape-font-specification:Lavi;text-align:center;letter-spacing:0px;word-spacing:0px;text-anchor:middle;fill:#000000;fill-opacity:1;stroke:none"
       x="1974.8418"
       y="2520.3416"
       id="text4246-3-2-2-6-3-7-9-3-3-56-9-3-20-3-2-0-3-19-8"><tspan
         style="font-size:45px"
         sodipodi:role="line"
         x="1974.8418"
         y="2520.3416"
         id="tspan1046">Tieniti forte!</tspan></text>
    <text
       xml:space="preserve"
       style="font-style:normal;font-variant:normal;font-weight:normal;font-stretch:normal;font-size:6.99764px;line-height:0%;font-family:Lavi;-inkscape-font-specification:Lavi;letter-spacing:0px;word-spacing:0px;fill:#000000;fill-opacity:1;stroke:#000000;stroke-width:6.65341;stroke-miterlimit:4;stroke-dasharray:none;stroke-opacity:1;paint-order:stroke fill markers"
       x="1234.3364"
       y="2988.7241"
       id="text4580-25"
       transform="matrix(0.70061135,-0.52267462,0.27429036,1.222697,0,0)"><tspan
         sodipodi:role="line"
         id="tspan4582-4"
         x="1234.3364"
         y="2988.7241"
         style="font-size:40.8195px;line-height:100%;letter-spacing:2.84772px;fill:#ffffff;stroke:#000000;stroke-width:6.65341;stroke-miterlimit:4;stroke-dasharray:none;stroke-opacity:1;paint-order:stroke fill markers"><tspan
           style="font-size:46.8842px;line-height:100%;letter-spacing:2.84772px;stroke:#000000;stroke-width:6.65341;stroke-miterlimit:4;stroke-dasharray:none;stroke-opacity:1;paint-order:stroke fill markers"
           id="tspan4617-9">Tap!</tspan></tspan></text>
    <text
       xml:space="preserve"
       style="font-style:normal;font-variant:normal;font-weight:normal;font-stretch:normal;font-size:6.12727px;line-height:0%;font-family:Lavi;-inkscape-font-specification:Lavi;letter-spacing:0px;word-spacing:0px;fill:#000000;fill-opacity:1;stroke:#000000;stroke-width:5.82585;stroke-miterlimit:4;stroke-dasharray:none;stroke-opacity:1;paint-order:stroke fill markers"
       x="1244.6915"
       y="2939.7729"
       id="text4580-25-6"
       transform="matrix(0.70061135,-0.52267462,0.27429036,1.222697,0,0)"><tspan
         sodipodi:role="line"
         id="tspan4582-4-1"
         x="1244.6915"
         y="2939.7729"
         style="font-size:35.7423px;line-height:100%;letter-spacing:2.49352px;fill:#ffffff;stroke:#000000;stroke-width:5.82585;stroke-miterlimit:4;stroke-dasharray:none;stroke-opacity:1;paint-order:stroke fill markers"><tspan
           style="font-size:41.0527px;line-height:100%;letter-spacing:2.49352px;stroke:#000000;stroke-width:5.82585;stroke-miterlimit:4;stroke-dasharray:none;stroke-opacity:1;paint-order:stroke fill markers"
           id="tspan4617-9-0">Tap!</tspan></tspan></text>
    <text
       xml:space="preserve"
       style="font-style:normal;font-variant:normal;font-weight:normal;font-stretch:normal;font-size:80px;line-height:1.25;font-family:Lavi;-inkscape-font-specification:Lavi;letter-spacing:0px;word-spacing:0px;fill:#ffffff;fill-opacity:1;stroke:#ffffff;stroke-width:0.668774;stroke-miterlimit:4;stroke-dasharray:none;stroke-opacity:1;filter:url(#filter4375-4-1-1-1-9-5-8-8-5-5-3-3-3-0-6)"
       id="text4580-6-0-0-0-9-3-3-2-0-3"
       transform="matrix(1.2199315,-0.31719701,-0.66892978,2.2459164,3443.4589,177.24169)"
       x="-607.91235"
       y="1245.0809"><tspan
         id="tspan1534-6-7"
         style="font-size:61.3371px"><tspan
   style="font-size:66.5743px"
   id="tspan1814-4">Fiiuu</tspan>MM!!</tspan></text>
    <text
       xml:space="preserve"
       style="font-style:normal;font-variant:normal;font-weight:normal;font-stretch:normal;font-size:47.4643px;line-height:1.25;font-family:Lavi;-inkscape-font-specification:Lavi;text-align:center;letter-spacing:0px;word-spacing:0px;text-anchor:middle;fill:#000000;fill-opacity:1;stroke:none;stroke-width:1.05476"
       x="1318.5234"
       y="1329.3923"
       id="text4246-3-2-2-6-3-7-9-3-3-56-9-3-20-3-3"
       transform="skewX(-7.1285625)"><tspan
         style="font-style:normal;font-variant:normal;font-weight:bold;font-stretch:normal;font-size:47.4643px;font-family:Lavi;-inkscape-font-specification:'Lavi Bold';stroke-width:1.05476"
         sodipodi:role="line"
         x="1318.5234"
         y="1329.3923"
         id="tspan1341">COSA STATE LÌ IMPALATI?!!</tspan></text>
    <text
       xml:space="preserve"
       style="font-style:normal;font-variant:normal;font-weight:normal;font-stretch:normal;font-size:55.0712px;line-height:1.25;font-family:Lavi;-inkscape-font-specification:Lavi;text-align:center;letter-spacing:0px;word-spacing:0px;text-anchor:middle;fill:#000000;fill-opacity:1;stroke:none;stroke-width:1.22379"
       x="624.10797"
       y="2229.9565"
       id="text4246-3-2-2-6-3-7-9-3-3-56-9-3-20-3-3-2-7"
       transform="matrix(0.99725425,0,-0.12471947,1.0027533,0,0)"><tspan
         style="font-style:normal;font-variant:normal;font-weight:bold;font-stretch:normal;font-size:55.0712px;font-family:Lavi;-inkscape-font-specification:'Lavi Bold';stroke-width:1.22379"
         sodipodi:role="line"
         x="624.10797"
         y="2229.9565"
         id="tspan1375-1">LA VOGLIO</tspan><tspan
         style="font-style:normal;font-variant:normal;font-weight:bold;font-stretch:normal;font-size:55.0712px;font-family:Lavi;-inkscape-font-specification:'Lavi Bold';stroke-width:1.22379"
         sodipodi:role="line"
         x="624.10797"
         y="2298.7957"
         id="tspan1414">VIVA!</tspan></text>
  </g>
</svg>
