<?xml version="1.0" encoding="UTF-8" standalone="no"?>
<svg
   sodipodi:docname="E34P07.svg"
   height="3503"
   width="2481"
   inkscape:version="1.2.1 (9c6d41e410, 2022-07-14)"
   version="1.1"
   id="svg2"
   xmlns:inkscape="http://www.inkscape.org/namespaces/inkscape"
   xmlns:sodipodi="http://sodipodi.sourceforge.net/DTD/sodipodi-0.dtd"
   xmlns:xlink="http://www.w3.org/1999/xlink"
   xmlns="http://www.w3.org/2000/svg"
   xmlns:svg="http://www.w3.org/2000/svg"
   xmlns:rdf="http://www.w3.org/1999/02/22-rdf-syntax-ns#"
   xmlns:cc="http://creativecommons.org/ns#"
   xmlns:dc="http://purl.org/dc/elements/1.1/">
  <metadata
     id="metadata8">
    <rdf:RDF>
      <cc:Work
         rdf:about="">
        <dc:format>image/svg+xml</dc:format>
        <dc:type
           rdf:resource="http://purl.org/dc/dcmitype/StillImage" />
        <dc:title />
      </cc:Work>
    </rdf:RDF>
  </metadata>
  <defs
     id="defs6">
    <filter
       x="-0.013714931"
       width="1.0274299"
       y="-0.019608807"
       height="1.0392176"
       inkscape:menu-tooltip="Something like a water noise"
       inkscape:menu="Distort"
       inkscape:label="Lapping"
       id="filter3018-9-9"
       style="color-interpolation-filters:sRGB">
      <feTurbulence
         result="result1"
         baseFrequency="0.045999999999999999"
         type="fractalNoise"
         seed="0"
         numOctaves="5"
         id="feTurbulence3020-3-0" />
      <feGaussianBlur
         result="result2"
         stdDeviation="2"
         id="feGaussianBlur3022-77-9" />
      <feDisplacementMap
         in="SourceGraphic"
         xChannelSelector="R"
         yChannelSelector="B"
         scale="50"
         in2="result2"
         id="feDisplacementMap3024-6-9" />
    </filter>
    <filter
       inkscape:label="soundFX1"
       id="filter4375-4-1-1-1-9-5-8-8-5-5-3-3"
       style="color-interpolation-filters:sRGB"
       x="-0.00062013141"
       y="-0.0010572143"
       width="1.0096937"
       height="1.037804">
      <feFlood
         result="flood"
         flood-color="rgb(255,255,255)"
         flood-opacity="1"
         id="feFlood4377-7-9-0-8-1-7-3-1-2-7-6-6" />
      <feComposite
         baseFrequency="0.053999999999999999 0.053999999999999999"
         result="composite1"
         operator="in"
         in="flood"
         in2="SourceGraphic"
         id="feComposite4379-3-8-8-2-77-4-1-0-6-4-7-7" />
      <feMorphology
         result="result3"
         radius="7.5999999999999996"
         operator="dilate"
         id="feMorphology4393-1-0-49-8-9-3-0-1-9-9-5-5" />
      <feComposite
         result="fbSourceGraphic"
         operator="over"
         in="SourceGraphic"
         in2="result3"
         id="feComposite4385-9-5-7-0-8-8-7-5-4-9-3-3" />
      <feColorMatrix
         id="feColorMatrix4544-9-4-4-5-5"
         values="0 0 0 -1 0 0 0 0 -1 0 0 0 0 -1 0 0 0 0 1 0"
         in="fbSourceGraphic"
         result="fbSourceGraphicAlpha" />
      <feTurbulence
         result="turbulence"
         baseFrequency="0.063613027137887024"
         seed="143"
         numOctaves="2"
         type="fractalNoise"
         id="feTurbulence4546-3-6-5-6-6" />
      <feDisplacementMap
         result="fbSourceGraphic"
         xChannelSelector="R"
         yChannelSelector="G"
         scale="13.690758453556365"
         in="fbSourceGraphic"
         in2="turbulence"
         id="feDisplacementMap4548-8-0-9-2-2" />
      <feColorMatrix
         id="feColorMatrix4670-7-7-3-9-9"
         values="0 0 0 -1 0 0 0 0 -1 0 0 0 0 -1 0 0 0 0 1 0"
         in="fbSourceGraphic"
         result="fbSourceGraphicAlpha" />
      <feFlood
         in="fbSourceGraphic"
         result="flood"
         flood-color="rgb(28,28,28)"
         flood-opacity="1"
         id="feFlood4672-4-4-5-1-1" />
      <feComposite
         result="composite1"
         operator="in"
         in="flood"
         in2="fbSourceGraphic"
         id="feComposite4674-8-3-7-2-2" />
      <feGaussianBlur
         result="blur"
         stdDeviation="0"
         in="composite1"
         id="feGaussianBlur4676-3-7-08-7-7" />
      <feOffset
         result="offset"
         dy="12.957991414995334"
         dx="5.2324892869636273"
         id="feOffset4678-6-9-1-0-0" />
      <feComposite
         result="composite2"
         operator="over"
         in="fbSourceGraphic"
         in2="offset"
         id="feComposite4680-4-0-9-9-9" />
    </filter>
    <filter
       inkscape:label="soundFX1"
       id="filter4375-4-1-1-1-9-5-8-8-5-5-3-3-3-0"
       style="color-interpolation-filters:sRGB"
       x="-0.002874226"
       y="-0.084380246"
       width="1.0128931"
       height="1.0929987">
      <feFlood
         result="flood"
         flood-color="rgb(52,52,52)"
         flood-opacity="1"
         id="feFlood4377-7-9-0-8-1-7-3-1-2-7-6-6-5-96" />
      <feComposite
         baseFrequency="0.053999999999999999 0.053999999999999999"
         result="composite1"
         operator="in"
         in="flood"
         in2="SourceGraphic"
         id="feComposite4379-3-8-8-2-77-4-1-0-6-4-7-7-6-3" />
      <feMorphology
         result="result3"
         radius="5.1135076992753623"
         operator="dilate"
         id="feMorphology4393-1-0-49-8-9-3-0-1-9-9-5-5-2-8" />
      <feComposite
         result="fbSourceGraphic"
         operator="over"
         in="SourceGraphic"
         in2="result3"
         id="feComposite4385-9-5-7-0-8-8-7-5-4-9-3-3-9-5" />
      <feColorMatrix
         id="feColorMatrix4544-9-4-4-5-5-1-6"
         values="0 0 0 -1 0 0 0 0 -1 0 0 0 0 -1 0 0 0 0 1 0"
         in="fbSourceGraphic"
         result="fbSourceGraphicAlpha" />
      <feTurbulence
         result="turbulence"
         baseFrequency="0.046080819231719368"
         seed="147"
         numOctaves="4"
         type="fractalNoise"
         id="feTurbulence4546-3-6-5-6-6-2-1" />
      <feDisplacementMap
         result="fbSourceGraphic"
         xChannelSelector="R"
         yChannelSelector="G"
         scale="13.20326"
         in="fbSourceGraphic"
         in2="turbulence"
         id="feDisplacementMap4548-8-0-9-2-2-7-1" />
      <feColorMatrix
         id="feColorMatrix4670-7-7-3-9-9-0-5"
         values="0 0 0 -1 0 0 0 0 -1 0 0 0 0 -1 0 0 0 0 1 0"
         in="fbSourceGraphic"
         result="fbSourceGraphicAlpha" />
      <feFlood
         in="fbSourceGraphic"
         result="flood"
         flood-color="rgb(28,28,28)"
         flood-opacity="1"
         id="feFlood4672-4-4-5-1-1-9-9" />
      <feComposite
         result="composite1"
         operator="in"
         in="flood"
         in2="fbSourceGraphic"
         id="feComposite4674-8-3-7-2-2-3-8" />
      <feGaussianBlur
         result="blur"
         stdDeviation="0"
         in="composite1"
         id="feGaussianBlur4676-3-7-08-7-7-6-4" />
      <feOffset
         result="offset"
         dy="-3.6141922224813356"
         dx="1.0219896610696537"
         id="feOffset4678-6-9-1-0-0-0-8" />
      <feComposite
         result="composite2"
         operator="over"
         in="fbSourceGraphic"
         in2="offset"
         id="feComposite4680-4-0-9-9-9-6-1" />
    </filter>
    <filter
       inkscape:label="soundFX1"
       id="filter4375-4-1-1-1-9-5-8-8-5-5-3-3-3-4"
       style="color-interpolation-filters:sRGB"
       x="-0.015749594"
       y="-0.0037932569"
       width="1.0167807"
       height="1.0113395">
      <feFlood
         result="flood"
         flood-color="rgb(52,52,52)"
         flood-opacity="1"
         id="feFlood4377-7-9-0-8-1-7-3-1-2-7-6-6-5-5" />
      <feComposite
         baseFrequency="0.053999999999999999 0.053999999999999999"
         result="composite1"
         operator="in"
         in="flood"
         in2="SourceGraphic"
         id="feComposite4379-3-8-8-2-77-4-1-0-6-4-7-7-6-0" />
      <feMorphology
         result="result3"
         radius="1.8999624943387681"
         operator="dilate"
         id="feMorphology4393-1-0-49-8-9-3-0-1-9-9-5-5-2-3" />
      <feComposite
         result="fbSourceGraphic"
         operator="over"
         in="SourceGraphic"
         in2="result3"
         id="feComposite4385-9-5-7-0-8-8-7-5-4-9-3-3-9-6" />
      <feColorMatrix
         id="feColorMatrix4544-9-4-4-5-5-1-1"
         values="0 0 0 -1 0 0 0 0 -1 0 0 0 0 -1 0 0 0 0 1 0"
         in="fbSourceGraphic"
         result="fbSourceGraphicAlpha" />
      <feTurbulence
         result="turbulence"
         baseFrequency="0.03818384303719944"
         seed="88"
         numOctaves="3"
         type="fractalNoise"
         id="feTurbulence4546-3-6-5-6-6-2-0" />
      <feDisplacementMap
         result="fbSourceGraphic"
         xChannelSelector="R"
         yChannelSelector="G"
         scale="9.6365525"
         in="fbSourceGraphic"
         in2="turbulence"
         id="feDisplacementMap4548-8-0-9-2-2-7-6" />
      <feColorMatrix
         id="feColorMatrix4670-7-7-3-9-9-0-3"
         values="0 0 0 -1 0 0 0 0 -1 0 0 0 0 -1 0 0 0 0 1 0"
         in="fbSourceGraphic"
         result="fbSourceGraphicAlpha" />
      <feFlood
         in="fbSourceGraphic"
         result="flood"
         flood-color="rgb(28,28,28)"
         flood-opacity="1"
         id="feFlood4672-4-4-5-1-1-9-20" />
      <feComposite
         result="composite1"
         operator="in"
         in="flood"
         in2="fbSourceGraphic"
         id="feComposite4674-8-3-7-2-2-3-6" />
      <feGaussianBlur
         result="blur"
         stdDeviation="0"
         in="composite1"
         id="feGaussianBlur4676-3-7-08-7-7-6-1" />
      <feOffset
         result="offset"
         dy="0.39217365321829334"
         dx="-5.6583689219916096"
         id="feOffset4678-6-9-1-0-0-0-5" />
      <feComposite
         result="composite2"
         operator="over"
         in="fbSourceGraphic"
         in2="offset"
         id="feComposite4680-4-0-9-9-9-6-5" />
    </filter>
    <filter
       inkscape:label="soundFX1"
       id="filter4375-4-1-1-1-9-5-8-8-5-5-3-3-3-4-2"
       style="color-interpolation-filters:sRGB">
      <feFlood
         result="flood"
         flood-color="rgb(52,52,52)"
         flood-opacity="1"
         id="feFlood4377-7-9-0-8-1-7-3-1-2-7-6-6-5-5-6" />
      <feComposite
         baseFrequency="0.053999999999999999 0.053999999999999999"
         result="composite1"
         operator="in"
         in="flood"
         in2="SourceGraphic"
         id="feComposite4379-3-8-8-2-77-4-1-0-6-4-7-7-6-0-1" />
      <feMorphology
         result="result3"
         radius="1.8999624943387681"
         operator="dilate"
         id="feMorphology4393-1-0-49-8-9-3-0-1-9-9-5-5-2-3-8" />
      <feComposite
         result="fbSourceGraphic"
         operator="over"
         in="SourceGraphic"
         in2="result3"
         id="feComposite4385-9-5-7-0-8-8-7-5-4-9-3-3-9-6-7" />
      <feColorMatrix
         id="feColorMatrix4544-9-4-4-5-5-1-1-9"
         values="0 0 0 -1 0 0 0 0 -1 0 0 0 0 -1 0 0 0 0 1 0"
         in="fbSourceGraphic"
         result="fbSourceGraphicAlpha" />
      <feTurbulence
         result="turbulence"
         baseFrequency="0.03818384303719944"
         seed="88"
         numOctaves="3"
         type="fractalNoise"
         id="feTurbulence4546-3-6-5-6-6-2-0-2" />
      <feDisplacementMap
         result="fbSourceGraphic"
         xChannelSelector="R"
         yChannelSelector="G"
         scale="9.6365525"
         in="fbSourceGraphic"
         in2="turbulence"
         id="feDisplacementMap4548-8-0-9-2-2-7-6-0" />
      <feColorMatrix
         id="feColorMatrix4670-7-7-3-9-9-0-3-2"
         values="0 0 0 -1 0 0 0 0 -1 0 0 0 0 -1 0 0 0 0 1 0"
         in="fbSourceGraphic"
         result="fbSourceGraphicAlpha" />
      <feFlood
         in="fbSourceGraphic"
         result="flood"
         flood-color="rgb(28,28,28)"
         flood-opacity="1"
         id="feFlood4672-4-4-5-1-1-9-20-3" />
      <feComposite
         result="composite1"
         operator="in"
         in="flood"
         in2="fbSourceGraphic"
         id="feComposite4674-8-3-7-2-2-3-6-7" />
      <feGaussianBlur
         result="blur"
         stdDeviation="0"
         in="composite1"
         id="feGaussianBlur4676-3-7-08-7-7-6-1-5" />
      <feOffset
         result="offset"
         dy="0.39217365321829334"
         dx="-5.6583689219916096"
         id="feOffset4678-6-9-1-0-0-0-5-9" />
      <feComposite
         result="composite2"
         operator="over"
         in="fbSourceGraphic"
         in2="offset"
         id="feComposite4680-4-0-9-9-9-6-5-2" />
    </filter>
    <filter
       inkscape:label="soundFX1"
       id="filter4375-4-1-1-1-9-5-8-8-5-5-3-3-3-4-3"
       style="color-interpolation-filters:sRGB"
       x="-0.015749594"
       y="-0.0037932569"
       width="1.0167807"
       height="1.0113395">
      <feFlood
         result="flood"
         flood-color="rgb(52,52,52)"
         flood-opacity="1"
         id="feFlood4377-7-9-0-8-1-7-3-1-2-7-6-6-5-5-67" />
      <feComposite
         baseFrequency="0.053999999999999999 0.053999999999999999"
         result="composite1"
         operator="in"
         in="flood"
         in2="SourceGraphic"
         id="feComposite4379-3-8-8-2-77-4-1-0-6-4-7-7-6-0-5" />
      <feMorphology
         result="result3"
         radius="1.8999624943387681"
         operator="dilate"
         id="feMorphology4393-1-0-49-8-9-3-0-1-9-9-5-5-2-3-3" />
      <feComposite
         result="fbSourceGraphic"
         operator="over"
         in="SourceGraphic"
         in2="result3"
         id="feComposite4385-9-5-7-0-8-8-7-5-4-9-3-3-9-6-5" />
      <feColorMatrix
         id="feColorMatrix4544-9-4-4-5-5-1-1-6"
         values="0 0 0 -1 0 0 0 0 -1 0 0 0 0 -1 0 0 0 0 1 0"
         in="fbSourceGraphic"
         result="fbSourceGraphicAlpha" />
      <feTurbulence
         result="turbulence"
         baseFrequency="0.03818384303719944"
         seed="88"
         numOctaves="3"
         type="fractalNoise"
         id="feTurbulence4546-3-6-5-6-6-2-0-29" />
      <feDisplacementMap
         result="fbSourceGraphic"
         xChannelSelector="R"
         yChannelSelector="G"
         scale="9.6365525"
         in="fbSourceGraphic"
         in2="turbulence"
         id="feDisplacementMap4548-8-0-9-2-2-7-6-1" />
      <feColorMatrix
         id="feColorMatrix4670-7-7-3-9-9-0-3-27"
         values="0 0 0 -1 0 0 0 0 -1 0 0 0 0 -1 0 0 0 0 1 0"
         in="fbSourceGraphic"
         result="fbSourceGraphicAlpha" />
      <feFlood
         in="fbSourceGraphic"
         result="flood"
         flood-color="rgb(28,28,28)"
         flood-opacity="1"
         id="feFlood4672-4-4-5-1-1-9-20-0" />
      <feComposite
         result="composite1"
         operator="in"
         in="flood"
         in2="fbSourceGraphic"
         id="feComposite4674-8-3-7-2-2-3-6-9" />
      <feGaussianBlur
         result="blur"
         stdDeviation="0"
         in="composite1"
         id="feGaussianBlur4676-3-7-08-7-7-6-1-3" />
      <feOffset
         result="offset"
         dy="0.39217365321829334"
         dx="-5.6583689219916096"
         id="feOffset4678-6-9-1-0-0-0-5-6" />
      <feComposite
         result="composite2"
         operator="over"
         in="fbSourceGraphic"
         in2="offset"
         id="feComposite4680-4-0-9-9-9-6-5-0" />
    </filter>
  </defs>
  <sodipodi:namedview
     inkscape:snap-global="false"
     inkscape:document-rotation="0"
     inkscape:current-layer="layer3"
     inkscape:window-maximized="1"
     inkscape:window-y="36"
     inkscape:window-x="1283"
     inkscape:cy="2451.1459"
     inkscape:cx="1250.7596"
     inkscape:zoom="0.4665165"
     showgrid="false"
     id="namedview4"
     inkscape:window-height="1388"
     inkscape:window-width="1261"
     inkscape:pageshadow="2"
     inkscape:pageopacity="0"
     guidetolerance="10"
     gridtolerance="10"
     objecttolerance="10"
     borderopacity="1"
     bordercolor="#666666"
     pagecolor="#ffffff"
     inkscape:pagecheckerboard="0"
     inkscape:showpageshadow="2"
     inkscape:deskcolor="#d1d1d1" />
  <g
     sodipodi:insensitive="true"
     inkscape:label="artwork"
     id="layer2"
     inkscape:groupmode="layer">
    <image
       xlink:href="../gfx_Pepper-and-Carrot_by-David-Revoy_E34P07.png"
       y="0"
       x="0"
       id="image10"
       height="3503"
       width="2481" />
  </g>
  <g
     style="display:inline"
     inkscape:label="speechbubbles"
     id="layer3"
     inkscape:groupmode="layer">
    <path
       sodipodi:nodetypes="cccccccccccccccccccccccccccccccccc"
       id="path1421"
       d="m 1641.4472,2538.2278 c 17.2733,-15.8653 63.6408,-27.7548 6.6189,-53.7736 30.4471,-1.4817 62.1422,-17.417 33.7733,-49.8 7.5253,-16.5655 22.3397,-14.2971 -17.8723,-57.6889 30.878,8.8678 75.2033,18.8501 37.3763,-36.3215 31.0513,11.9998 73.2516,-0.1305 74.8903,-20.6936 43.9924,33.7225 69.9119,21.4407 71.4166,-7.383 49.8239,43.0002 81.5169,30.0195 97.1329,7.3287 28.2119,20.5362 53.9456,23.6224 93.6894,-4.2128 -12.5937,29.6153 16.4053,22.9199 52.6607,3.7439 -8.4734,28.8773 18.9951,22.2481 50.1377,-8.0852 -43.392,44.1029 8.792,36.0854 74.1215,18.6917 -7.2383,14.1632 -12.2062,27.0302 44.5654,4.6494 -5.958,5.2649 -56.0391,44.6766 34.2661,25.2026 -26.2505,17.557 -6.3802,29.8891 37.1651,31.4253 -24.9074,15.9398 -17.7647,34.3296 17.5966,42.7448 -38.237,27.6324 4.5475,31.5449 22.0836,42.8491 -27.9863,10.8146 -83.3349,29.5135 -6.816,54.5448 -82.1643,1.1861 -53.0629,34.0758 -21.1976,59.5291 -99.6611,-20.6806 -89.9325,17.6331 -50.5063,42.5985 -52.765,-7.5256 -73.6642,-2.1461 -65.1841,15.1317 -49.2837,-18.2319 -53.8344,-10.7971 -54.4019,-1.0772 -53.7783,-21.8512 -48.2148,-4.9566 -55.4602,3.575 -28.2596,-20.5906 -48.0376,-21.8557 -58.8014,-2.5801 -21.3818,-8.0322 -47.2981,-20.4774 -64.1989,12.455 -15.662,-32.7275 -38.4094,-34.0442 -52.2071,-4.5722 -4.2036,-41.2669 -60.339,-18.8955 -61.1869,1.5328 -4.0763,-21.3712 -13.6548,-47.4473 -56.6735,-16.054 -10.9186,-9.6315 0.8616,-38.6714 -68.872,14.4331 39.8665,-53.476 -7.2365,-25.4269 -26.5378,-15.6814 6.5004,-17.7517 19.3472,-41.5417 -38.5929,-28.5629 31.8803,-27.0131 -22.972,-9.5181 -42.2398,-6.8601 53.6526,-24.971 32.9152,-30.7585 14.8304,-37.2308 28.382,-10.6946 -1.4321,-20.1755 -21.5761,-29.8582 z"
       style="fill:#ffffff;fill-rule:evenodd;stroke:none;stroke-width:1.07783px;stroke-linecap:butt;stroke-linejoin:miter;stroke-opacity:1" />
    <path
       sodipodi:nodetypes="cccc"
       id="path1397-8"
       d="m 1295.5773,2250.3406 c 25.4015,54.7414 43.2457,117.8561 85.6932,153.7108 l -76.0086,-3.8011 c 22.6984,-22.0351 0.7056,-92.223 -9.6846,-149.9097 z"
       style="fill:#ffffff;fill-rule:evenodd;stroke:none;stroke-width:1px;stroke-linecap:butt;stroke-linejoin:miter;stroke-opacity:1" />
    <path
       sodipodi:nodetypes="cccccccccccccccccccccccccc"
       id="path1399"
       d="m 1159.6455,2379.2026 c 66.4648,34.5237 48.8411,-9.2676 50.0646,-35.5058 26.3043,32.6485 52.5131,64.777 60.6847,-1.3314 16.5294,45.8971 35.2211,73.6393 64.6981,10.8193 12.8332,37.3316 20.6108,48.1193 99.7499,-33.0888 -7.0728,30.9602 -29.446,90.9098 77.9286,21.0612 4.3017,8.4037 -101.3465,114.2412 63.7604,-7.2517 -33.215,40.6476 -94.9819,99.5965 10.0664,51.6188 -49.9222,44.9289 -66.6105,79.7529 28.08,80.7114 -37.672,29.1497 -74.342,58.1137 4.4891,65.6677 -31.2474,14.8709 -76.0731,30.6041 -7.7743,39.1532 -61.6788,12.5072 -56.8223,25.6177 -23.7467,38.9841 -72.8826,-6.6937 -68.6725,10.31 -31.0192,37.5937 -110.7728,-40.9603 -111.6905,-16.5195 -114.668,6.6949 -90.3844,-43.6017 -58.4814,-1.0345 -65.329,14.2271 -32.8383,-38.0722 -70.7753,-45.1514 -116.6846,-3.7724 -27.0891,-14.1256 -39.8247,-46.868 -106.0168,-12.0856 15.7035,-29.0306 -10.446,-48.1695 -63.1017,-27.5235 39.0753,-36.9133 4.2573,-44.9044 -48.0693,-27.2799 35.4878,-33.3306 34.2961,-46.9434 0.5228,-50.9039 57.069,-29.4856 17.5828,-48.0624 -42.2523,-64.3403 42.4243,-7.6194 97.0801,-12.204 27.2347,-47.6789 55.7717,6.676 83.9298,4.1159 30.2432,-25.8195 36.945,11.2828 64.6785,12.703 51.1967,-30.0055 68.5102,31.7294 52.527,11.7964 49.9427,0.056 z"
       style="fill:#ffffff;fill-rule:evenodd;stroke:none;stroke-width:1.1007px;stroke-linecap:butt;stroke-linejoin:miter;stroke-opacity:1" />
    <path
       sodipodi:nodetypes="cccc"
       id="path1397"
       d="m 647.0071,2309.6592 c 14.8329,72.713 20.49189,156.5482 56.01714,204.174 l -75.27475,-5.049 c 26.95263,-29.2692 18.51062,-122.4998 19.25761,-199.125 z"
       style="fill:#ffffff;fill-rule:evenodd;stroke:none;stroke-width:0.999996px;stroke-linecap:butt;stroke-linejoin:miter;stroke-opacity:1" />
    <path
       sodipodi:nodetypes="cccccccccccccc"
       id="path1395"
       d="m 415.23731,2474.2243 c 48.09017,24.7738 75.62294,38.1343 80.81675,-3.0664 24.09201,14.9923 50.53269,5.0915 38.98933,-44.7605 32.25517,47.2326 56.75877,47.8531 66.51232,16.4293 33.3747,43.8233 45.76064,26.7079 59.7802,14.3356 19.53392,27.8679 36.18585,19.1931 51.10876,-11.405 21.41945,59.1755 34.50603,36.3029 50.97575,9.6891 11.94526,64.9719 32.24453,23.3507 52.61115,13.6468 -9.1976,57.682 22.70625,32.5249 40.04358,36.7263 l 0.59658,156.2833 -455.19985,-2.0081 c 24.84476,-17.6848 46.34731,-36.3394 11.17379,-71.4395 14.42431,-6.6907 32.64313,-11.6399 -16.98229,-47.7261 36.3096,-1.6807 57.32251,-13.9175 19.57393,-66.7048 z"
       style="fill:#ffffff;fill-rule:evenodd;stroke:none;stroke-width:1.03123px;stroke-linecap:butt;stroke-linejoin:miter;stroke-opacity:1" />
    <path
       sodipodi:nodetypes="cccc"
       inkscape:connector-curvature="0"
       id="path1111-7"
       d="m 499.11056,1834.7339 -139.22494,-175.3756 -41.36363,4.3518 c 67.65771,69.4613 71.1147,77.1365 180.58857,171.0238 z"
       style="fill:#ffffff;fill-rule:evenodd;stroke:none;stroke-width:1px;stroke-linecap:butt;stroke-linejoin:miter;stroke-opacity:1" />
    <path
       sodipodi:nodetypes="ccccccccccccccccccc"
       id="path1384"
       d="m 97.614969,1715.0541 c 33.315031,-21.8353 63.928061,-37.9028 38.644661,65.3466 30.77282,-34.4806 61.27008,-68.1773 59.13151,-9.0329 16.77155,-11.1983 29.54826,-10.0775 37.76264,5.1124 8.13997,-18.2772 17.25134,-28.2151 30.17257,-5.4466 23.59594,-55.6835 36.28033,-20.3321 48.03368,22.7867 3.25565,-20.1064 6.62573,-39.6883 17.96473,-22.7343 11.8518,-31.4721 31.33041,-29.0727 44.92993,-5.5008 l 11.88694,35.5251 c -6.70427,-45.467 -11.42399,-74.4519 42.41127,-45.9371 -9.38266,-24.9431 16.2871,-34.5852 53.49536,-22.0663 -10.29331,-28.3646 -20.66742,-56.7574 43.83009,-58.7931 -33.24323,-42.3693 0.70282,-53.2666 71.0135,-47.1304 -58.10802,-33.2055 -35.01742,-57.4074 -21.49122,-82.6697 -34.72968,-23.2145 -3.85422,-47.8633 35.13223,-72.6893 -65.93578,-9.1813 -19.58809,-24.5919 -15.08708,-37.681 l -516.949878,-10.5499 4.793185,278.9395 z"
       style="fill:#ffffff;fill-rule:evenodd;stroke:none;stroke-width:0.938581px;stroke-linecap:butt;stroke-linejoin:miter;stroke-opacity:1" />
    <path
       sodipodi:nodetypes="cccccccccccccccccccccccccc"
       id="path1373"
       d="m 408.8752,922.69956 c 16.68529,6.49155 27.47462,4.81198 28.28923,-10.69129 7.76937,-1.18503 17.86854,15.92161 20.01911,-29.37752 9.25168,10.62975 17.43769,14.96474 23.69861,7.92835 6.50925,7.47577 9.36161,-0.81548 12.17436,-9.27737 5.26314,8.37603 10.52627,13.51234 15.78939,2.34182 2.09074,23.30423 9.47646,27.26525 14.60743,29.84951 7.98113,-0.86923 25.51127,-1.90176 32.90809,-21.69449 -5.52279,26.89996 8.15398,11.38146 18.78224,0.29127 -12.40865,32.78954 -3.7555,37.2347 29.78102,28.78931 -15.06393,7.68079 -40.33967,18.36993 -12.4475,13.39607 -27.69059,19.5955 -3.7802,20.39351 9.60889,17.60984 0.32048,5.99794 -18.52745,13.10451 8.72175,27.66631 -5.69262,4.26475 -25.45666,-5.95478 -9.18388,20.91983 -31.58548,-14.83362 -36.49165,-8.58029 -20.84906,15.8762 -37.51625,-30.5077 -29.12314,2.1972 -29.92392,22.2431 -7.78722,-21.7373 -15.56594,-42.75834 -22.81807,-19.4057 -3.95909,-13.4432 -10.58306,7.1759 -16.80255,22.625 1.22031,-26.0869 -2.21539,-40.2343 -16.50492,-26.5489 -4.45664,-5.0165 -2.92423,-19.27263 -28.75158,8.6812 2.34246,-16.5667 -2.1905,-14.7846 -7.54083,-10.821 -5.50151,-2.2653 -4.43591,-12.6407 -24.36412,2.9106 7.62811,-16.81363 5.74484,-25.29079 -0.097,-30.29835 -11.24175,-10.5268 -24.02562,-14.31827 -38.10004,-12.47297 8.58766,-4.29786 19.07744,-5.4901 19.67098,-22.84055 5.07104,-4.42169 4.11377,-12.8204 -6.66762,-27.70027 z"
       style="fill:#ffffff;fill-rule:evenodd;stroke:none;stroke-width:0.927972px;stroke-linecap:butt;stroke-linejoin:miter;stroke-opacity:1" />
    <path
       transform="matrix(1.2353531,-0.09540406,0,1.2562259,-87.04811,189.50525)"
       sodipodi:nodetypes="csssssc"
       inkscape:connector-curvature="0"
       id="path3986-45"
       d="m 181.47423,238.56133 c 0,-59.7361 13.09665,-137.30912 101.52845,-142.909522 88.4319,-5.6002 170.85502,11.959242 209.60612,31.560142 38.751,19.601 47.37342,84.70884 30.92692,121.28253 -14.89463,33.12265 5.84895,86.38003 -82.58285,83.57993 -88.4319,-2.8002 -142.20375,16.08508 -189.89735,2.08438 -47.6936,-14.0007 -65.60679,-47.99526 -69.58129,-95.59746 z"
       style="color:#000000;display:inline;overflow:visible;visibility:visible;fill:#0f0f0f;fill-opacity:1;fill-rule:nonzero;stroke:none;stroke-width:0.73643px;marker:none;filter:url(#filter3018-9-9);enable-background:accumulate" />
    <path
       sodipodi:nodetypes="cccscccc"
       inkscape:connector-curvature="0"
       id="path4456-10"
       d="m 599.80325,583.95304 c -58.57262,16.45031 -71.19089,3.0084 -90.27717,-5.94076 0.66082,-5.50351 28.21165,-20.15792 28.21165,-20.15792 0,0 -70.59135,-2.22142 -84.00623,-11.8735 -13.41411,-9.65269 3.85672,-34.87348 3.85672,-34.87348 0,0 89.58291,33.39635 107.09398,35.23393 -2.52266,14.92714 -19.90063,20.9447 -23.37713,25.61838 9.48121,8.01825 37.46946,17.19211 58.49818,11.99335 z"
       style="color:#000000;display:inline;overflow:visible;visibility:visible;fill:#000000;fill-opacity:1;fill-rule:nonzero;stroke:none;stroke-width:1px;marker:none;enable-background:accumulate" />
    <path
       sodipodi:nodetypes="cccccccc"
       inkscape:connector-curvature="0"
       id="path5066-9"
       d="m 588.58428,985.1883 c 13.46613,13.42935 32.4998,36.5734 34.47564,41.4721 -5.75056,-0.7967 -8.85791,2.3627 -12.80297,2.624 4.35005,8.8618 38.46116,40.8692 47.5395,45.1566 -22.47583,-9.3947 -66.25773,-37.7705 -72.41706,-52.7204 4.994,-1.3996 8.98317,-2.4672 11.58492,-3.2811 -2.75433,-7.5763 -26.75978,-25.87314 -26.75978,-25.87314 z"
       style="color:#000000;display:inline;overflow:visible;visibility:visible;fill:#ffffff;fill-opacity:1;fill-rule:nonzero;stroke:none;stroke-width:0.770015px;marker:none;enable-background:accumulate" />
    <path
       sodipodi:nodetypes="ccccsccccc"
       id="path1423"
       d="m 2105.6219,2180.3967 c 19.7952,7.2511 39.7188,16.9216 58.4942,32.5036 0.659,1.7153 -0.1184,13.4045 -13.9816,24.4813 9.7805,8.8999 26.9757,29.0069 28.9063,45.8339 -16.6424,26.5415 -70.6514,82.155 -100.4085,101.6665 -0.9778,0.6412 -10.8485,3.4463 -2.9062,1.7643 l -69.1777,-2.7281 c 42.2436,-18.4462 118.0005,-73.0054 143.0167,-106.7279 -6.354,-10.1375 -18.5646,-37.9872 -35.5242,-41.5593 48.805,-19.7239 7.6056,-42.2189 -8.419,-55.2343 z"
       style="fill:#ffffff;fill-rule:evenodd;stroke:none;stroke-width:0.999998px;stroke-linecap:butt;stroke-linejoin:miter;stroke-opacity:1" />
    <path
       inkscape:connector-curvature="0"
       id="path3525-0"
       d="m 1772.9159,2771.3502 c -41.7532,0.4604 -84.128,7.1149 -122.1443,25.0345 -16.1422,7.81 -31.111,19.9498 -38.3344,36.7614 -8.5633,18.7007 -9.8959,39.7067 -9.4373,59.9854 1.1483,15.8494 8.897,31.0541 21.0792,41.2668 17.008,15.5871 39.3909,23.2639 61.3494,28.8696 41.5455,10.4264 84.8299,11.5623 127.4004,8.9857 37.6378,-2.4065 75.6304,-8.2732 110.4955,-23.2287 20.4178,-10.16 36.2779,-30.211 39.1598,-53.1068 4.481,-26.605 -3.6677,-55.8409 -23.6735,-74.442 -15.9068,-14.4209 -36.1478,-22.5007 -55.6489,-30.7632 -35.0051,-13.6417 -72.7471,-19.7144 -110.2459,-19.3627 z"
       style="color:#000000;display:inline;overflow:visible;visibility:visible;fill:#ffffff;fill-opacity:1;fill-rule:nonzero;stroke:none;stroke-width:0.976411px;marker:none;enable-background:accumulate" />
    <path
       sodipodi:nodetypes="cscscsccc"
       inkscape:connector-curvature="0"
       id="path1085"
       d="m 1696.1492,2922.6747 c -4.9424,15.7994 -8.5741,32.3607 -17.5078,46.5371 -5.7283,8.1716 -15.2584,12.5651 -24.6347,15.0798 -5.6543,1.5241 -11.7641,3.905 -14.8497,9.2288 -2.7865,6.0841 -0.4659,13.2551 3.5433,18.2155 5.0949,7.3005 11.4587,13.6871 15.902,21.4447 -1.1158,4.5821 -5.7661,6.9174 -9.8551,8.3524 -9.2915,3.1977 -19.3098,2.3975 -28.9183,1.8976 1.7343,1.225 3.9299,1.9165 5.9242,2.7369 10.3208,3.8115 22.2678,4.033 32.2472,-0.9403 7.5898,-2.9189 12.1516,-11.4958 10.9704,-19.4422 -0.4723,-4.1648 -2.5775,-7.8778 -4.8639,-11.2964 -1.8832,-3.3454 -3.6942,-6.7307 -5.5357,-10.0991 1.4457,-3.516 5.4974,-4.9482 8.9822,-5.444 3.951,-0.4545 8.0141,-0.6502 11.6917,-2.3226 12.9323,-4.6802 23.7976,-13.8407 32.4428,-24.3579 5.2226,-6.772 8.8363,-15.5171 7.1723,-24.1743 -1.9937,-11.8066 -11.0027,-22.2669 -22.5879,-25.5371 z m -80.1426,118.8203 v -0.1758 z"
       style="fill:#ffffff;fill-rule:evenodd;stroke:none;stroke-width:1px;stroke-linecap:butt;stroke-linejoin:miter;stroke-opacity:1" />
    <path
       sodipodi:nodetypes="ccccccccccccccc"
       inkscape:connector-curvature="0"
       id="path3549-3-8"
       d="m 1541.6457,2879.3599 c 3.2656,-8.1499 20.708,-33.3934 25.8126,-6.6884 37.5848,-35.7584 83.9675,-23.1582 94.2487,-17.9476 -4.7443,-10.586 4.8211,-29.614 32.1407,-24.9355 -5.1907,-10.2267 2.6466,-17.9058 22.1083,-23.3107 -27.5805,-4.7844 -33.4099,-11.0078 15.1145,-20.8321 -37.7865,1.4728 -73.156,2.0884 -32.3673,-24.3013 -13.9552,0.2138 -44.0061,22.0077 -37.0338,-37.152 -21.1736,20.0194 -45.1359,31.7672 -82.6678,-5.4978 -7.5925,15.9924 -20.7573,27.2492 -51.9999,7.8015 -3.8346,15.6625 -37.7023,18.8726 -50.6806,16.4738 27.7211,15.695 28.3827,26.389 -5.6747,29.9985 61.95,27.6041 14.2821,25.6281 6.137,33.9881 46.6872,8.0678 28.3825,22.4483 22.2369,36.0923 51.9703,-2.5073 38.0193,19.6018 42.6254,36.3112 z"
       style="color:#000000;display:inline;overflow:visible;visibility:visible;fill:#ffffff;fill-opacity:1;fill-rule:nonzero;stroke:none;stroke-width:0.850124px;marker:none;enable-background:accumulate" />
  </g>
  <g
     inkscape:label="txt"
     id="layer1"
     inkscape:groupmode="layer">
    <text
       transform="scale(0.97214513,1.028653)"
       id="text4180"
       y="361.98544"
       x="360.53488"
       style="font-style:normal;font-variant:normal;font-weight:normal;font-stretch:normal;font-size:13.9734px;line-height:0%;font-family:Lavi;-inkscape-font-specification:Lavi;text-align:center;letter-spacing:0px;word-spacing:0px;text-anchor:middle;fill:#ffffff;fill-opacity:1;stroke:none;stroke-width:1.16445"
       xml:space="preserve"><tspan
         style="font-style:normal;font-variant:normal;font-weight:normal;font-stretch:normal;font-size:58.7426px;line-height:1.25;font-family:'Drukaatie burti';-inkscape-font-specification:'Drukaatie burti';stroke-width:1.16445"
         y="361.98544"
         x="360.53488"
         id="tspan4182"
         sodipodi:role="line">CURSUS</tspan><tspan
         id="tspan845"
         style="font-style:normal;font-variant:normal;font-weight:normal;font-stretch:normal;font-size:58.7426px;line-height:1.25;font-family:'Drukaatie burti';-inkscape-font-specification:'Drukaatie burti';stroke-width:1.16445"
         y="435.4137"
         x="360.53488"
         sodipodi:role="line">CANCELLARE</tspan><tspan
         id="tspan847"
         style="font-style:normal;font-variant:normal;font-weight:normal;font-stretch:normal;font-size:58.7426px;line-height:1.25;font-family:'Drukaatie burti';-inkscape-font-specification:'Drukaatie burti';stroke-width:1.16445"
         y="508.84195"
         x="360.53488"
         sodipodi:role="line">MAXIMUS!!!</tspan></text>
    <text
       y="979.88452"
       x="313.77448"
       transform="matrix(0.78930062,-0.13614632,0.09898673,1.1655785,2512.7387,272.30868)"
       id="text4580-6-0-0-0-9-3-3"
       style="font-style:normal;font-variant:normal;font-weight:normal;font-stretch:normal;font-size:140px;line-height:1.25;font-family:Lavi;-inkscape-font-specification:Lavi;letter-spacing:0px;word-spacing:0px;fill:#000000;fill-opacity:1;stroke:#000000;stroke-width:0.767697;stroke-miterlimit:4;stroke-dasharray:none;stroke-opacity:1;filter:url(#filter4375-4-1-1-1-9-5-8-8-5-5-3-3)"
       xml:space="preserve"><textPath
         rotate="30 30 30 30 30 30 30 0"
         style="font-size:140px;fill:#000000;stroke:#000000;stroke-width:0.767697;stroke-opacity:1"
         id="textPath2837"
         xlink:href="#path974"><tspan
   id="tspan417"
   style="font-size:199.522px;fill:#000000;stroke:#000000;stroke-width:0.767697;stroke-opacity:1">S</tspan><tspan
   id="tspan419"
   style="font-size:176.18px;fill:#000000;stroke:#000000;stroke-width:0.767697;stroke-opacity:1">H</tspan><tspan
   id="tspan421"
   style="font-size:164.509px;fill:#000000;stroke:#000000;stroke-width:0.767697;stroke-opacity:1">K</tspan><tspan
   id="tspan921"
   style="font-size:152.838px;fill:#000000;stroke:#000000;stroke-width:0.767697;stroke-opacity:1">L</tspan>AK!</textPath></text>
    <path
       sodipodi:nodetypes="cc"
       id="path974"
       d="M -782.19308,325.4414 C -589.01028,245.86428 -187.91734,67.856922 -31.335687,8.6587174"
       style="fill:none;fill-rule:evenodd;stroke:none;stroke-width:1.13654px;stroke-linecap:butt;stroke-linejoin:miter;stroke-opacity:1" />
    <text
       transform="matrix(0.93489145,0,-0.16751518,1.0696429,0,0)"
       id="text4246-3-2-2-6-3-7-9-3-3-56-9-3-20"
       y="914.20453"
       x="702.73871"
       style="font-style:normal;font-variant:normal;font-weight:normal;font-stretch:normal;font-size:55.7415px;line-height:1.25;font-family:Lavi;-inkscape-font-specification:Lavi;text-align:center;letter-spacing:0px;word-spacing:0px;text-anchor:middle;fill:#000000;fill-opacity:1;stroke:none;stroke-width:1.15535"
       xml:space="preserve"><tspan
         id="tspan334"
         y="914.20453"
         x="702.73871"
         sodipodi:role="line"
         style="font-style:normal;font-variant:normal;font-weight:bold;font-stretch:normal;font-size:55.7415px;font-family:Lavi;-inkscape-font-specification:'Lavi Bold';stroke-width:1.15535">Auw!</tspan></text>
    <text
       y="1245.0809"
       x="-607.91235"
       transform="matrix(1.296644,-0.59261719,-0.5584343,2.1151802,2801.1166,-1940.1494)"
       id="text4580-6-0-0-0-9-3-3-2-0"
       style="font-style:normal;font-variant:normal;font-weight:normal;font-stretch:normal;font-size:80px;line-height:1.25;font-family:Lavi;-inkscape-font-specification:Lavi;letter-spacing:0px;word-spacing:0px;fill:#ffffff;fill-opacity:1;stroke:#ffffff;stroke-width:0.822276;stroke-miterlimit:4;stroke-dasharray:none;stroke-opacity:1;filter:url(#filter4375-4-1-1-1-9-5-8-8-5-5-3-3-3-0)"
       xml:space="preserve"><tspan
         style="font-size:61.3371px;stroke-width:0.822276"
         id="tspan1534-6">P<tspan
   id="tspan1009"
   style="font-size:52.4338px;stroke-width:0.822276">AF</tspan>!!</tspan></text>
    <text
       id="text4246-3-2-2-6-3-7-9-3-3-56-9-3-20-3"
       y="1503.5127"
       x="313.42059"
       style="font-style:normal;font-variant:normal;font-weight:normal;font-stretch:normal;font-size:49.6795px;line-height:1.25;font-family:Lavi;-inkscape-font-specification:Lavi;text-align:center;letter-spacing:0px;word-spacing:0px;text-anchor:middle;fill:#000000;fill-opacity:1;stroke:none;stroke-width:1.10399"
       xml:space="preserve"><tspan
         id="tspan155"
         y="1503.5127"
         x="313.42059"
         sodipodi:role="line"
         style="font-size:49.6795px;stroke-width:1.10399">Zelfs jouw sterkste</tspan><tspan
         y="1565.6121"
         x="313.42059"
         sodipodi:role="line"
         style="font-size:49.6795px;stroke-width:1.10399"
         id="tspan432">onttoverspreuk</tspan><tspan
         y="1627.7114"
         x="313.42059"
         sodipodi:role="line"
         style="font-size:49.6795px;stroke-width:1.10399"
         id="tspan434">heeft op mij geen</tspan><tspan
         y="1689.8108"
         x="313.42059"
         sodipodi:role="line"
         style="font-size:49.6795px;stroke-width:1.10399"
         id="tspan436">enkel effect!</tspan></text>
    <text
       id="text4246-3-2-2-6-3-7-9-3-3-56-9-3-20-3-7"
       y="2559.9773"
       x="650.83997"
       style="font-style:normal;font-variant:normal;font-weight:normal;font-stretch:normal;font-size:45px;line-height:1.25;font-family:Lavi;-inkscape-font-specification:Lavi;text-align:center;letter-spacing:0px;word-spacing:0px;text-anchor:middle;fill:#000000;fill-opacity:1;stroke:none"
       xml:space="preserve"><tspan
         id="tspan173"
         y="2559.9773"
         x="650.83997"
         sodipodi:role="line"
         style="font-size:45px">Geef toch op,</tspan><tspan
         id="tspan179"
         y="2616.2273"
         x="650.83997"
         sodipodi:role="line"
         style="font-size:45px">Pepper, en vertrek!</tspan></text>
    <text
       transform="matrix(1.004667,0,-0.09777912,0.99535468,0,0)"
       id="text4246-3-2-2-6-3-7-9-3-3-56-9-3-20-3-7-9"
       y="2463.3638"
       x="1571.8633"
       style="font-style:normal;font-variant:normal;font-weight:normal;font-stretch:normal;font-size:58.6601px;line-height:1.25;font-family:Lavi;-inkscape-font-specification:Lavi;text-align:center;letter-spacing:0px;word-spacing:0px;text-anchor:middle;fill:#000000;fill-opacity:1;stroke:#000000;stroke-width:0.647096;stroke-miterlimit:4;stroke-dasharray:none;stroke-opacity:1"
       xml:space="preserve"><tspan
         id="tspan189"
         y="2463.3638"
         x="1571.8633"
         sodipodi:role="line"
         style="font-size:58.6601px;stroke:#000000;stroke-width:0.647096;stroke-miterlimit:4;stroke-dasharray:none;stroke-opacity:1">Dwing me niet</tspan><tspan
         y="2536.689"
         x="1571.8633"
         sodipodi:role="line"
         style="font-size:58.6601px;stroke:#000000;stroke-width:0.647096;stroke-miterlimit:4;stroke-dasharray:none;stroke-opacity:1"
         id="tspan443">om je nog meer</tspan><tspan
         y="2610.0139"
         x="1571.8633"
         sodipodi:role="line"
         style="font-size:58.6601px;stroke:#000000;stroke-width:0.647096;stroke-miterlimit:4;stroke-dasharray:none;stroke-opacity:1"
         id="tspan445">pijn te doen!</tspan></text>
    <text
       id="text4246-3-2-2-6-3-7-9-3-3-56-9-3-20-3-7-7"
       y="2417.9883"
       x="2013.0524"
       style="font-style:normal;font-variant:normal;font-weight:normal;font-stretch:normal;font-size:50px;line-height:1.25;font-family:Lavi;-inkscape-font-specification:Lavi;text-align:center;letter-spacing:0px;word-spacing:0px;text-anchor:middle;fill:#000000;fill-opacity:1;stroke:none"
       xml:space="preserve"><tspan
         id="tspan8463"
         style="font-size:50px"
         y="2417.9883"
         x="2013.0524"
         sodipodi:role="line">Oh, mijn onttoverspreuk </tspan><tspan
         id="tspan208"
         style="font-size:50px"
         y="2480.4883"
         x="2013.0524"
         sodipodi:role="line">heeft wel degelijk effect</tspan><tspan
         style="font-size:50px"
         y="2542.9883"
         x="2013.0524"
         sodipodi:role="line"
         id="tspan595">gehad, jij was simpelweg</tspan><tspan
         style="font-size:50px"
         y="2605.4883"
         x="2013.0524"
         sodipodi:role="line"
         id="tspan599">niet het doel.</tspan></text>
    <text
       id="text4246-3-2-2-6-3-7-9-3-3-56-9-3-20-3-7-7-3-3"
       y="2808.7163"
       x="1586.5446"
       style="font-style:normal;font-variant:normal;font-weight:normal;font-stretch:normal;font-size:50px;line-height:1.25;font-family:Lavi;-inkscape-font-specification:Lavi;text-align:center;letter-spacing:0px;word-spacing:0px;text-anchor:middle;fill:#000000;fill-opacity:1;stroke:none"
       xml:space="preserve"><tspan
         id="tspan1234-7"
         style="font-size:50px"
         y="2808.7163"
         x="1586.5446"
         sodipodi:role="line">Heh?</tspan></text>
    <text
       id="text4246-3-2-2-6-3-7-9-3-3-56-9-3-20-3-7-7-3"
       y="2863.2175"
       x="1790.558"
       style="font-style:normal;font-variant:normal;font-weight:normal;font-stretch:normal;font-size:50px;line-height:1.25;font-family:Lavi;-inkscape-font-specification:Lavi;text-align:center;letter-spacing:0px;word-spacing:0px;text-anchor:middle;fill:#000000;fill-opacity:1;stroke:none"
       xml:space="preserve"><tspan
         id="tspan193"
         style="font-size:50px"
         y="2863.2175"
         x="1790.558"
         sodipodi:role="line">Hoe bedoel</tspan><tspan
         style="font-size:50px"
         y="2925.7175"
         x="1790.558"
         sodipodi:role="line"
         id="tspan740">je?!</tspan></text>
    <text
       y="1245.0809"
       x="-607.91235"
       transform="matrix(0.40673393,-0.14739048,-0.13453696,0.59699085,2175.9236,2308.7188)"
       id="text4580-6-0-0-0-9-3-3-2-4"
       style="font-style:normal;font-variant:normal;font-weight:normal;font-stretch:normal;font-size:131.375px;line-height:1.25;font-family:Lavi;-inkscape-font-specification:Lavi;letter-spacing:0px;word-spacing:0px;fill:#ffffff;fill-opacity:1;stroke:#ffffff;stroke-width:0.792768;stroke-miterlimit:4;stroke-dasharray:none;stroke-opacity:1;filter:url(#filter4375-4-1-1-1-9-5-8-8-5-5-3-3-3-4)"
       xml:space="preserve">Pshh...</text>
    <text
       y="1245.0809"
       x="-607.91235"
       transform="matrix(0.40673393,-0.14739048,-0.13453696,0.59699085,1023.5679,2296.8448)"
       id="text4580-6-0-0-0-9-3-3-2-4-6"
       style="font-style:normal;font-variant:normal;font-weight:normal;font-stretch:normal;font-size:131.375px;line-height:1.25;font-family:Lavi;-inkscape-font-specification:Lavi;letter-spacing:0px;word-spacing:0px;fill:#ffffff;fill-opacity:1;stroke:#ffffff;stroke-width:0.792768;stroke-miterlimit:4;stroke-dasharray:none;stroke-opacity:1;filter:url(#filter4375-4-1-1-1-9-5-8-8-5-5-3-3-3-4-3)"
       xml:space="preserve">Pshh...</text>
  </g>
</svg>
