<?xml version="1.0" encoding="UTF-8" standalone="no"?>
<!-- Created with Inkscape (http://www.inkscape.org/) -->

<svg
   xmlns:dc="http://purl.org/dc/elements/1.1/"
   xmlns:cc="http://creativecommons.org/ns#"
   xmlns:rdf="http://www.w3.org/1999/02/22-rdf-syntax-ns#"
   xmlns:svg="http://www.w3.org/2000/svg"
   xmlns="http://www.w3.org/2000/svg"
   xmlns:xlink="http://www.w3.org/1999/xlink"
   xmlns:sodipodi="http://sodipodi.sourceforge.net/DTD/sodipodi-0.dtd"
   xmlns:inkscape="http://www.inkscape.org/namespaces/inkscape"
   id="svg2"
   version="1.1"
   inkscape:version="0.91 r13725"
   width="2481"
   height="3503"
   sodipodi:docname="E32P04.svg">
  <metadata
     id="metadata8">
    <rdf:RDF>
      <cc:Work
         rdf:about="">
        <dc:format>image/svg+xml</dc:format>
        <dc:type
           rdf:resource="http://purl.org/dc/dcmitype/StillImage" />
        <dc:title />
      </cc:Work>
    </rdf:RDF>
  </metadata>
  <defs
     id="defs6">
    <filter
       style="color-interpolation-filters:sRGB"
       id="filter4375-4-1-1-1-9-5-8-4"
       inkscape:label="Drop Shadow">
      <feFlood
         id="feFlood4377-7-9-0-8-1-7-3-3"
         flood-opacity="1"
         flood-color="rgb(108,125,133)"
         result="flood" />
      <feComposite
         id="feComposite4379-3-8-8-2-77-4-1-07"
         in2="SourceGraphic"
         in="flood"
         operator="in"
         result="composite1" />
      <feMorphology
         id="feMorphology4393-1-0-49-8-9-3-0-8"
         operator="dilate"
         radius="6.2000000000000002"
         result="result3" />
      <feComposite
         id="feComposite4385-9-5-7-0-8-8-7-6"
         in2="result3"
         in="SourceGraphic"
         operator="over"
         result="fbSourceGraphic" />
      <feColorMatrix
         result="fbSourceGraphicAlpha"
         in="fbSourceGraphic"
         values="0 0 0 -1 0 0 0 0 -1 0 0 0 0 -1 0 0 0 0 1 0"
         id="feColorMatrix4544-8" />
      <feTurbulence
         id="feTurbulence4546-8"
         type="fractalNoise"
         numOctaves="3"
         seed="37"
         baseFrequency="0.129 0.0050000000000000001"
         result="turbulence" />
      <feDisplacementMap
         id="feDisplacementMap4548-4"
         in2="turbulence"
         in="fbSourceGraphic"
         scale="6.6"
         yChannelSelector="G"
         xChannelSelector="R"
         result="fbSourceGraphic" />
      <feColorMatrix
         result="fbSourceGraphicAlpha"
         in="fbSourceGraphic"
         values="0 0 0 -1 0 0 0 0 -1 0 0 0 0 -1 0 0 0 0 1 0"
         id="feColorMatrix4670-3" />
      <feFlood
         id="feFlood4672-1"
         flood-opacity="1"
         flood-color="rgb(17,52,65)"
         result="flood"
         in="fbSourceGraphic" />
      <feComposite
         id="feComposite4674-4"
         in2="fbSourceGraphic"
         in="flood"
         operator="in"
         result="composite1" />
      <feGaussianBlur
         id="feGaussianBlur4676-92"
         in="composite1"
         stdDeviation="0"
         result="blur" />
      <feOffset
         id="feOffset4678-0"
         dx="6"
         dy="6"
         result="offset" />
      <feComposite
         id="feComposite4680-68"
         in2="offset"
         in="fbSourceGraphic"
         operator="over"
         result="composite2" />
    </filter>
    <filter
       style="color-interpolation-filters:sRGB"
       id="filter4375-4-1-1-1-9-5-8-4-3"
       inkscape:label="Drop Shadow">
      <feFlood
         id="feFlood4377-7-9-0-8-1-7-3-3-6"
         flood-opacity="1"
         flood-color="rgb(108,125,133)"
         result="flood" />
      <feComposite
         id="feComposite4379-3-8-8-2-77-4-1-07-7"
         in2="SourceGraphic"
         in="flood"
         operator="in"
         result="composite1" />
      <feMorphology
         id="feMorphology4393-1-0-49-8-9-3-0-8-5"
         operator="dilate"
         radius="6.2000000000000002"
         result="result3" />
      <feComposite
         id="feComposite4385-9-5-7-0-8-8-7-6-3"
         in2="result3"
         in="SourceGraphic"
         operator="over"
         result="fbSourceGraphic" />
      <feColorMatrix
         result="fbSourceGraphicAlpha"
         in="fbSourceGraphic"
         values="0 0 0 -1 0 0 0 0 -1 0 0 0 0 -1 0 0 0 0 1 0"
         id="feColorMatrix4544-8-5" />
      <feTurbulence
         id="feTurbulence4546-8-6"
         type="fractalNoise"
         numOctaves="3"
         seed="37"
         baseFrequency="0.129 0.0050000000000000001"
         result="turbulence" />
      <feDisplacementMap
         id="feDisplacementMap4548-4-2"
         in2="turbulence"
         in="fbSourceGraphic"
         scale="6.6"
         yChannelSelector="G"
         xChannelSelector="R"
         result="fbSourceGraphic" />
      <feColorMatrix
         result="fbSourceGraphicAlpha"
         in="fbSourceGraphic"
         values="0 0 0 -1 0 0 0 0 -1 0 0 0 0 -1 0 0 0 0 1 0"
         id="feColorMatrix4670-3-9" />
      <feFlood
         id="feFlood4672-1-1"
         flood-opacity="1"
         flood-color="rgb(17,52,65)"
         result="flood"
         in="fbSourceGraphic" />
      <feComposite
         id="feComposite4674-4-2"
         in2="fbSourceGraphic"
         in="flood"
         operator="in"
         result="composite1" />
      <feGaussianBlur
         id="feGaussianBlur4676-92-7"
         in="composite1"
         stdDeviation="0"
         result="blur" />
      <feOffset
         id="feOffset4678-0-0"
         dx="6"
         dy="6"
         result="offset" />
      <feComposite
         id="feComposite4680-68-9"
         in2="offset"
         in="fbSourceGraphic"
         operator="over"
         result="composite2" />
    </filter>
  </defs>
  <sodipodi:namedview
     pagecolor="#ffffff"
     bordercolor="#666666"
     borderopacity="1"
     objecttolerance="10"
     gridtolerance="10"
     guidetolerance="10"
     inkscape:pageopacity="0"
     inkscape:pageshadow="2"
     inkscape:window-width="1366"
     inkscape:window-height="715"
     id="namedview4"
     showgrid="false"
     inkscape:zoom="0.40000001"
     inkscape:cx="1218.3645"
     inkscape:cy="367.45566"
     inkscape:window-x="-8"
     inkscape:window-y="-8"
     inkscape:window-maximized="1"
     inkscape:current-layer="layer1"
     inkscape:snap-global="false" />
  <g
     inkscape:groupmode="layer"
     id="layer2"
     inkscape:label="artwork"
     sodipodi:insensitive="true">
    <image
       sodipodi:absref="D:\Pepper&amp;Carrot translation\ep32_The-Battlefield_lang-pack\lang\cn\..\gfx_Pepper-and-Carrot_by-David-Revoy_E32P04.png"
       xlink:href="../gfx_Pepper-and-Carrot_by-David-Revoy_E32P04.png"
       y="0"
       x="0"
       id="image10"
       height="3503"
       width="2481" />
  </g>
  <g
     inkscape:groupmode="layer"
     id="layer3"
     inkscape:label="speechbubbles"
     style="display:inline">
    <path
       style="display:inline;fill:#ffffff;fill-rule:evenodd;stroke:none;stroke-width:1px;stroke-linecap:butt;stroke-linejoin:miter;stroke-opacity:1"
       d="m 746.55255,1000.3393 c -1.65685,7.8675 -3.3137,15.7349 -4.97054,23.6024 -9.32332,6.3578 -22.60151,7.0845 -32.86449,2.2094 2.54706,8.5107 5.0941,17.0216 7.64115,25.5324 -2.25566,1.8929 -5.64,2.5904 -8.551,1.7033 1.59955,4.8302 3.19911,9.6602 4.79867,14.4904 -3.97572,3.0885 -9.35484,4.6413 -14.54429,4.0808 2.86726,8.5913 5.99382,17.1797 7.27214,26.1219 -2.32522,6.9658 -5.9877,13.4604 -9.47771,19.9782 11.678,2.0379 23.47945,3.692 34.86618,6.9011 8.37093,6.1546 13.53808,15.9108 13.27722,25.7717 9.65799,-3.9635 19.316,-7.9271 28.97399,-11.8907 4.64341,0.8217 7.17295,6.4365 4.5712,10.0362 10.99307,-4.9966 21.92701,-10.1009 32.87122,-15.1862 3.54299,1.7141 6.25904,4.817 7.25698,8.3761 6.42748,-1.1728 12.76281,-2.7193 19.10033,-4.2382 1.19905,1.794 1.76439,3.869 2.0893,5.9322 9.1478,0.7471 18.62302,0.7328 27.24357,4.0052 3.46408,2.3646 5.84262,5.7431 8.10618,9.0488 8.89059,-8.9051 17.76415,-18.4008 29.7819,-23.8481 6.93766,-3.0474 14.40115,-6.231 22.29484,-5.532 4.40986,1.0768 8.81925,2.1728 13.30176,2.9713 6.67164,-3.3769 14.66032,-5.4783 22.22924,-3.6473 0.81464,1.1003 2.64419,-0.6121 1.49542,-1.3939 -1.45983,-4.4459 -3.80157,-8.6195 -4.99165,-13.1443 3.31413,-5.9968 7.18711,-12.0458 7.77594,-18.8936 -1.82149,-5.0913 -5.13958,-9.5796 -7.31012,-14.5364 -0.46659,-0.8464 -1.36169,-1.9277 -0.31464,-2.7163 1.94677,-2.5234 4.72573,-4.4772 7.84044,-5.6477 -4.60856,-5.2336 -12.68456,-7.0958 -16.28651,-13.1898 -3.30092,-4.9332 -5.27094,-11.1223 -3.25528,-16.8046 6.62342,-9.2378 15.16446,-17.1335 22.22924,-26.0694 -9.72153,5.1686 -19.39728,10.4088 -29.08183,15.6351 -2.55827,-1.1342 -4.44448,-3.39 -5.08847,-5.9136 -3.46259,0.5522 -6.86485,1.3706 -10.27131,2.1537 -0.48021,-2.4019 -0.10332,-4.8585 -0.45494,-7.2714 -1.89499,-0.3225 -3.84281,-0.3184 -5.722,-0.7282 -0.52918,-6.9368 0.68799,-13.8392 1.64449,-20.69883 -7.48838,6.36063 -14.97675,12.72133 -22.46513,19.08193 -3.47106,-0.8796 -6.5311,-3.0405 -8.32858,-5.8998 -12.58573,0.8771 -25.41159,0.4466 -37.70865,3.4421 -6.99728,-0.4477 -12.40996,-4.9874 -18.50724,-7.6201 -2.07529,-1.151 -4.60537,-2.9213 -7.09921,-1.6716 -7.97511,2.7488 -14.50113,8.7078 -23.18395,9.7468 -5.0599,0.7323 -10.26982,0.4856 -15.24523,-0.611 -5.54235,1.9417 -9.25759,6.8153 -15.06154,8.2728 -7.59871,-0.7395 -13.69874,-6.1299 -16.86611,-12.2286 -2.73113,-4.3612 -5.45301,-8.7273 -8.24603,-13.05553 -0.25499,1.11444 -0.50997,2.22888 -0.76495,3.34333 z"
       id="path4508-2"
       inkscape:connector-curvature="0"
       sodipodi:nodetypes="cccccccccccccccccccccccccccc" />
    <path
       style="display:inline;opacity:1;fill:#ffffff;fill-rule:evenodd;stroke:none;stroke-width:1px;stroke-linecap:butt;stroke-linejoin:miter;stroke-opacity:1"
       d="m 1232.4018,1041.2127 c -50.2716,5.6942 -99.4961,17.7102 -149.0566,27.4906 -16.2443,3.0274 -32.4856,6.4771 -49.0334,7.3138 -27.8674,1.7997 -55.81752,0.5765 -83.70319,1.8779 -31.70373,1.116 -63.45592,2.4021 -94.96073,6.3059 -12.00129,1.5369 -23.8923,4.0749 -35.32968,8.0574 -14.69956,4.8219 -28.95873,11.1539 -44.13898,14.3919 -8.25968,1.6756 -16.87794,1.7222 -25.07509,-0.3374 -10.7596,-2.4958 -20.93572,-6.8981 -31.28412,-10.666 -13.71759,-5.23 -27.87124,-9.9766 -42.63207,-10.8825 -17.52114,-1.6165 -35.20254,-2.0954 -52.74398,-0.5311 -14.1515,1.5758 -28.28924,6.1786 -39.51262,15.1684 -12.84906,9.8693 -22.82322,24.1414 -25.65265,40.2688 -1.27746,9.6884 1.31912,19.7672 6.8849,27.7728 0.67219,-10.5849 -2.17144,-21.4525 1.0625,-31.8106 4.3372,-15.0701 16.29647,-27.1362 30.36748,-33.5682 11.89389,-5.571 25.40408,-6.3815 38.3065,-5.114 19.64653,0.787 39.52891,0.029 58.88579,4.0577 18.62559,4.5312 35.23728,14.582 53.3582,20.5503 10.41976,3.2102 21.70042,4.3166 32.36695,1.64 19.04553,-4.0346 36.58663,-12.9001 55.30192,-18.0596 12.43504,-3.5706 25.3649,-5.5175 38.31511,-5.3097 37.76726,-1.0812 75.53995,-2.1833 113.32462,-2.3508 32.59244,0.08 65.21724,1.5823 97.78584,-0.2844 34.3956,-1.6839 68.688,-6.4713 103.1848,-5.2917 8.1876,0.3248 16.7783,0.3919 24.2138,4.3017 5.7439,2.8127 10.051,8.1503 11.8047,14.2786 1.4492,4.1969 1.4605,8.6884 2.352,12.9932 0.6018,2.1839 3.7128,2.0534 5.1858,0.8257 1.3359,-0.8313 1.5858,-2.4429 1.5437,-3.865 4.0897,-23.3572 8.874,-46.6096 11.8375,-70.1495 -0.345,-4.8848 -5.0077,-8.1954 -9.5346,-8.8976 -1.1287,-0.2017 -2.2808,-0.247 -3.4244,-0.1766 z"
       id="path4316-3"
       inkscape:connector-curvature="0"
       sodipodi:nodetypes="ccsccscccccccccccccccccccccccc" />
    <path
       style="display:inline;fill:#ffffff;stroke:none;stroke-width:1.05279291"
       d="m 1219.473,953.89142 c -48.9319,0.49857 -98.453,5.62445 -144.1132,20.16035 -26.365,8.84824 -50.7158,23.07389 -65.5734,42.78493 -13.22214,19.4847 -15.49174,42.8383 -9.5399,64.2369 9.403,29.5257 41.1066,53.4354 78.3821,60.2433 31.6514,7.0664 64.6231,8.6664 97.0971,11.9516 69.6934,5.4164 139.685,0.5664 209.4444,-1.1754 27.3003,-0.835 54.6984,-1.7151 81.7138,-5.1334 32.9451,-5.0557 64.7579,-17.3625 87.68,-37.0787 12.7495,-11.188 21.4791,-25.5534 22.6727,-40.7213 2.4767,-18.6412 -0.8181,-38.3284 -13.0488,-54.6235 -12.4421,-15.81961 -32.4337,-26.98076 -53.7854,-34.1983 -32.3199,-11.63434 -67.3739,-17.58159 -102.4077,-21.25526 -51.7686,-4.8975 -103.9968,-3.7194 -156.0062,-5.03191 -10.8375,-0.13978 -21.6767,-0.1748 -32.5155,-0.15931 z"
       id="path3280-8-2-3"
       inkscape:connector-curvature="0"
       sodipodi:nodetypes="csssc" />
    <path
       style="display:inline;fill:#ffffff;fill-rule:evenodd;stroke:none;stroke-width:1px;stroke-linecap:butt;stroke-linejoin:miter;stroke-opacity:1"
       d="m 1891.3766,2207.5293 c 4.401,9.7034 -4.7621,22.199 -15.1321,20.761 -9.2497,0.1495 -17.2014,-5.5472 -24.1917,-11.085 -2.1741,-1.4556 -4.3959,-2.837 -6.6654,-4.133 -2.8354,7.4007 -3.13,16.2749 -9.0338,22.1015 -8.2119,8.4241 -20.9041,11.5245 -32.1252,8.7735 -2.7312,1.4957 -1.6607,5.8433 0.8205,7.0273 2.1563,3.9092 -1.448,8.6017 -5.3625,9.2457 -9.0434,4.1681 -19.4023,2.7482 -28.6278,6.266 9.3133,4.5102 19.4418,6.863 28.8993,11.0078 1.2246,6.32 -3.4821,12.2449 -8.9169,14.6602 2.1993,2.8626 5.3588,4.732 7.8758,7.2771 0.6885,0.7656 2.3845,1.493 2.1456,2.5756 -5.205,9.3853 -15.3068,15.3269 -25.6968,16.4578 10.3934,5.4628 23.2318,4.6995 32.7002,12.2129 4.5301,4.3891 4.3046,11.3683 3.5408,17.1955 -0.4128,4.1564 -0.9123,8.3069 -1.1313,12.4803 2.9779,-0.7709 4.491,-3.9702 7.3464,-5.0288 7.2333,-4.8687 16.3319,-8.3394 25.014,-5.9523 4.7388,1.8296 8.3502,5.6907 12.4334,8.5073 12.38,0.9628 25.3018,-0.068 37.0199,4.8859 4.8252,3.3619 8.4087,8.3792 10.5021,13.9063 10.4957,-3.7874 20.5331,-10.2761 32.0215,-10.0543 10.1987,1.1633 20.9974,3.5294 30.8797,-0.5424 11.4867,-4.2294 23.7289,-8.6601 36.1103,-6.3872 10.3264,1.795 20.3617,4.933 30.5914,7.1831 8.4305,-3.499 14.8896,-11.5049 24.3239,-12.4785 9.6014,-1.1197 19.419,1.4068 27.707,6.3652 -4.4291,-9.9039 0.7391,-23.4105 11.2227,-26.5868 5.1023,-1.9874 10.5158,-2.9228 15.708,-4.6163 -3.8859,-4.3204 -10.11,-6.2968 -12.6565,-11.8613 -0.4454,-6.3288 5.5702,-11.0727 4.8227,-17.4434 -2.2057,-4.0033 -7.6007,-5.5539 -8.5622,-10.3691 1.5921,-8.844 8.766,-15.1112 15.8131,-19.7566 1.3928,-0.9285 2.965,-1.5881 4.2095,-2.7376 -3.2745,-2.9536 -7.9453,-2.7414 -11.8935,-4.1065 -5.2209,-1.1528 -11.1645,-2.292 -14.6225,-6.8512 -2.3451,-4.6891 -1.938,-10.5032 0.5321,-15.054 -4.6454,-3.3547 -10.4845,-1.0714 -15.689,-1.5069 -8.9724,0.2878 -18.7567,0.5666 -26.5682,-4.6559 -6.2337,-5.9255 -7.8228,-14.9001 -9.6822,-22.977 0.09,-1.1529 -1.3252,-2.4391 -2.1636,-1.1919 -9.9097,6.3366 -19.9497,13.7338 -31.9219,15.0544 -11.3099,0.173 -21.7193,-7.4183 -26.8982,-17.3829 -2.392,-2.2142 -5.6703,0.052 -7.3631,2.0777 -8.5809,6.6815 -17.7039,13.9851 -28.8249,15.1545 -12.3862,0.356 -23.6572,-5.7717 -34.4446,-11.2076 -4.7599,-2.5401 -9.5022,-5.1144 -14.2576,-7.6632 0.064,0.151 0.1278,0.3021 0.1916,0.4531 z"
       id="path4582"
       inkscape:connector-curvature="0"
       sodipodi:nodetypes="ccccccccccccccccccccccccccccccccccccccccccccccc" />
    <path
       style="display:inline;fill:#ffffff;fill-rule:evenodd;stroke:none;stroke-width:1px;stroke-linecap:butt;stroke-linejoin:miter;stroke-opacity:1"
       d="m 1982.1328,2325.6113 c -12.8691,7.4955 -25.7383,14.9909 -38.6074,22.4864 0.7954,19.5281 2.2328,39.6275 -3.7131,58.5597 -1.442,4.7665 -2.884,9.5331 -4.326,14.2996 -1.6554,-3.8605 -5.4614,-7.4211 -9.9258,-6.9336 -6.7867,4.7357 -9.0295,13.3509 -9.9231,21.1392 -2.0838,11.9256 -2.8847,24.0205 -3.8503,36.0737 3.8713,-15.6614 7.4521,-31.5035 13.7676,-46.4082 3.8906,4.0568 6.8647,9.3231 12.1582,11.7598 6.004,-2.9668 8.1205,-9.8641 10.0033,-15.7846 11.8101,-31.5596 23.2778,-63.2456 34.8385,-94.8971 0,-0.1943 -0.2322,-0.3937 -0.4219,-0.2949 z"
       id="path891"
       inkscape:connector-curvature="0"
       inkscape:transform-center-x="1.787008"
       inkscape:transform-center-y="33.226638"
       sodipodi:nodetypes="ccccccccc" />
  </g>
  <g
     inkscape:groupmode="layer"
     id="layer1"
     inkscape:label="txt"
     style="display:inline">
    <path
       style="fill:#ffffff;fill-opacity:1;fill-rule:evenodd;stroke:none;stroke-width:1px;stroke-linecap:butt;stroke-linejoin:miter;stroke-opacity:1"
       d="m 173.076,2316.4955 c -3.28054,-1.7839 -6.54497,-3.5727 -9.89844,-5.3344 1.8724,2.0095 3.74479,4.0189 5.61719,6.0284 -2.85287,-0.9447 -5.70573,-1.8894 -8.5586,-2.8341 0.9873,5.8929 -5.63616,11.4284 -13.04492,16.3243 -3.39388,4.2298 -6.78776,8.4596 -10.18164,12.6894 -3.04714,0.5999 -6.54754,0.8202 -9.89844,0.6081 2.47526,1.3951 4.95053,2.7901 7.42579,4.1852 -2.50019,0.6981 -5.61815,1.0272 -8.64258,0.9011 2.22591,1.5162 4.45182,3.0324 6.67773,4.5486 -6.64258,-0.2614 -13.28515,-0.5228 -19.92773,-0.7842 8.58413,3.3167 18.47439,6.5929 22.04883,11.3643 3.55432,10.1065 8.72921,20.1034 13.97851,30.0837 -5.82052,5.5138 -13.23322,10.7163 -20.38086,15.9587 10.41602,-2.7691 20.83203,-5.5382 31.24805,-8.3075 -0.46062,1.629 -1.87399,3.2116 -4.0918,4.5842 4.39714,-0.5939 8.79427,-1.1877 13.19141,-1.7816 -0.82341,3.8602 -4.30109,7.5746 -9.33399,10.8526 7.69039,-2.2375 12.87978,-5.547 20.1875,-7.9576 32.596,7.4099 68.51751,12.7678 105.91205,14.2109 32.71885,1.6275 66.53886,1.4654 98.32955,-2.3639 17.1345,-2.6688 32.20149,-7.1678 45.05528,-12.4148 8.37714,0.1588 14.74263,2.7093 22.49945,3.6747 1.83905,0.325 4.38347,0.9945 5.91316,0.9969 -6.17464,-2.9267 -12.34929,-5.8535 -18.52394,-8.7803 3.90629,-1.398 7.84461,-2.8001 12.2832,-3.9199 3.2194,0.7365 6.43881,1.4729 9.65821,2.2095 -8.04322,-6.3709 -6.7017,-14.0381 -0.61524,-20.5768 1.9362,-3.4056 3.8724,-6.8112 5.8086,-10.2169 5.2137,-1.2422 10.65897,-2.3135 16.08203,-3.3956 -5.26758,-0.3817 -10.53516,-0.7634 -15.80274,-1.1451 3.95357,-1.7581 9.52988,-2.8614 15.32617,-3.1824 -4.42252,-0.5865 -8.84505,-1.1729 -13.26757,-1.7594 -0.54347,-10.8842 -10.55432,-21.1918 -21.1977,-31.0332 -3.34334,-3.0898 -8.42416,-6.3213 -6.52909,-9.8399 3.72608,-4.2639 14.59424,-6.5397 19.61155,-10.4894 -12.48852,1.7682 -24.30274,4.1983 -36.36914,6.3728 -1.47496,-1.5213 -1.27,-3.2889 0.52539,-4.7516 -19.72701,0.9847 -39.00249,-1.5399 -57.93991,-3.3868 -53.49187,-3.882 -109.07226,-2.8625 -161.52642,2.8679 -7.40274,0.6839 -16.30005,0.9142 -22.28313,-1.3362 -2.83622,-0.9833 -5.04299,-2.2495 -6.49858,-3.6379 -1.45158,1.3136 -0.58288,2.7787 0.1289,4.1198 -6.9391,-3.3461 -11.43568,-7.363 -17.67773,-10.9055 4.89388,5.8513 9.78776,11.7026 14.68164,17.5539 z"
       id="path4212-3"
       inkscape:connector-curvature="0"
       sodipodi:nodetypes="ccccccccccccccccccccccscccccccccccccccccccccccccccc" />
    <path
       style="display:inline;fill:#ffffff;fill-rule:evenodd;stroke:none;stroke-width:1px;stroke-linecap:butt;stroke-linejoin:miter;stroke-opacity:1"
       d="m 355.70312,2378.291 c -8.21398,3.1565 -12.9353,11.3236 -16.15302,19.0514 -5.6045,14.1172 -7.86723,29.361 -8.43367,44.4712 -0.18011,11.5779 2.49004,23.9731 10.804,32.5225 8.55381,9.0353 21.00841,13.3258 33.20607,14.111 26.62301,3.0258 53.74718,6.7941 78.25045,18.258 2.11816,1.0078 4.24122,2.0052 6.36914,2.9922 -25.92997,-17.4348 -55.94738,-27.1336 -85.46519,-36.5491 -9.15309,-1.9188 -16.58306,-10.2666 -16.96924,-19.6885 -0.54779,-8.5768 2.64096,-16.755 4.47368,-25.0023 3.19319,-12.494 6.66713,-25.528 4.31784,-38.4807 -1.16255,-5.1466 -4.54264,-11.2602 -10.40006,-11.6857 z"
       id="path4186-80"
       inkscape:connector-curvature="0"
       sodipodi:nodetypes="cscssc" />
    <text
       xml:space="preserve"
       style="font-style:normal;font-variant:normal;font-weight:normal;font-stretch:normal;line-height:0%;font-family:'小赖字体 SC';-inkscape-font-specification:'小赖字体 SC';text-align:center;letter-spacing:0px;word-spacing:0px;text-anchor:middle;display:inline;fill:#000000;fill-opacity:1;stroke:none"
       x="834.83612"
       y="1091.9447"
       id="text4246-7-6-1-7-6-6"
       sodipodi:linespacing="0%"><tspan
         sodipodi:role="line"
         style="font-style:normal;font-variant:normal;font-weight:normal;font-stretch:normal;font-size:45px;line-height:1.25;font-family:'小赖字体 SC';-inkscape-font-specification:'小赖字体 SC'"
         x="834.83612"
         y="1091.9447"
         id="tspan877">难以置信 !</tspan></text>
    <text
       xml:space="preserve"
       style="font-style:normal;font-variant:normal;font-weight:normal;font-stretch:normal;line-height:0%;font-family:'小赖字体 SC';-inkscape-font-specification:'小赖字体 SC';text-align:center;letter-spacing:0px;word-spacing:0px;text-anchor:middle;display:inline;fill:#000000;fill-opacity:1;stroke:none"
       x="1289.5938"
       y="1019.46"
       id="text4246-7-6-1-7-6-6-6"
       sodipodi:linespacing="0%"><tspan
         sodipodi:role="line"
         style="font-style:normal;font-variant:normal;font-weight:normal;font-stretch:normal;font-size:45px;line-height:1.25;font-family:'小赖字体 SC';-inkscape-font-specification:'小赖字体 SC'"
         x="1289.5938"
         y="1019.46"
         id="tspan905">我寒窗苦读这么多年，</tspan><tspan
         sodipodi:role="line"
         style="font-style:normal;font-variant:normal;font-weight:normal;font-stretch:normal;font-size:45px;line-height:1.25;font-family:'小赖字体 SC';-inkscape-font-specification:'小赖字体 SC'"
         x="1289.5938"
         y="1075.71"
         id="tspan3405">却没有人承认我的能力，</tspan><tspan
         sodipodi:role="line"
         style="font-style:normal;font-variant:normal;font-weight:normal;font-stretch:normal;font-size:45px;line-height:1.25;font-family:'小赖字体 SC';-inkscape-font-specification:'小赖字体 SC'"
         x="1289.5938"
         y="1131.96"
         id="tspan3407">就因为我年轻…</tspan></text>
    <text
       xml:space="preserve"
       style="font-style:normal;font-variant:normal;font-weight:normal;font-stretch:normal;font-size:13.49506664px;line-height:0%;font-family:Lavi;-inkscape-font-specification:Lavi;text-align:center;letter-spacing:0px;word-spacing:0px;text-anchor:middle;fill:#000000;fill-opacity:1;stroke:none;stroke-width:0.99999994"
       x="298.42825"
       y="2374.8218"
       id="text4246-1-3-1"
       transform="scale(0.99789912,1.0021053)"
       sodipodi:linespacing="0%"><tspan
         sodipodi:role="line"
         style="font-style:normal;font-variant:normal;font-weight:normal;font-stretch:normal;font-size:45px;line-height:1.25;font-family:'小赖字体 SC';-inkscape-font-specification:'小赖字体 SC';stroke-width:0.99999994"
         x="298.42825"
         y="2374.8218"
         id="tspan918">…没实战经验！</tspan></text>
    <text
       xml:space="preserve"
       style="font-style:normal;font-variant:normal;font-weight:normal;font-stretch:normal;line-height:0%;font-family:'小赖字体 SC';-inkscape-font-specification:'小赖字体 SC';letter-spacing:0px;word-spacing:0px;opacity:0.85700001;fill:#ffffff;fill-opacity:1;stroke:#98b9ca;stroke-width:0.95450699;stroke-miterlimit:4;stroke-dasharray:none;stroke-opacity:1;filter:url(#filter4375-4-1-1-1-9-5-8-4)"
       x="787.65729"
       y="1584.5073"
       id="text4580-6-0-9"
       transform="matrix(0.45385441,-0.55441241,0.42180805,1.1015917,506.31624,1607.76)"
       sodipodi:linespacing="0%"><tspan
         sodipodi:role="line"
         id="tspan4582-1-1-26"
         x="787.65729"
         y="1584.5073"
         style="font-style:normal;font-variant:normal;font-weight:normal;font-stretch:normal;font-size:70px;line-height:1.25;font-family:'小赖字体 SC';-inkscape-font-specification:'小赖字体 SC';fill:#ffffff;fill-opacity:1;stroke:#98b9ca;stroke-width:0.95450699;stroke-opacity:1"><tspan
           style="font-style:normal;font-variant:normal;font-weight:normal;font-stretch:normal;font-size:93.14950562px;font-family:'小赖字体 SC';-inkscape-font-specification:'小赖字体 SC';fill:#ffffff;fill-opacity:1;stroke:#98b9ca;stroke-width:0.95450699;stroke-opacity:1"
           id="tspan4315-8-64"><tspan
             style="font-style:normal;font-variant:normal;font-weight:normal;font-stretch:normal;font-size:82.64876556px;font-family:'小赖字体 SC';-inkscape-font-specification:'小赖字体 SC';stroke-width:0.95450699"
             id="tspan1133">噗嗤 !</tspan></tspan><tspan
           style="font-style:normal;font-variant:normal;font-weight:normal;font-stretch:normal;font-size:114.73223114px;font-family:'小赖字体 SC';-inkscape-font-specification:'小赖字体 SC';fill:#ffffff;fill-opacity:1;stroke:#98b9ca;stroke-width:0.95450699;stroke-opacity:1"
           id="tspan4313-2-9"> !</tspan></tspan></text>
    <text
       xml:space="preserve"
       style="font-style:normal;font-variant:normal;font-weight:normal;font-stretch:normal;font-size:15.67466736px;line-height:0%;font-family:'小赖字体 SC';-inkscape-font-specification:'小赖字体 SC';text-align:center;letter-spacing:0px;word-spacing:0px;text-anchor:middle;display:inline;fill:#000000;fill-opacity:1;stroke:#000000;stroke-width:1.79999995;stroke-miterlimit:4;stroke-dasharray:none;stroke-opacity:1"
       x="2779.0186"
       y="2023.4807"
       id="text4246-3-7-9-5-1-6-2"
       transform="matrix(0.87277154,0,-0.23842397,1.1457752,0,0)"
       sodipodi:linespacing="0%"><tspan
         sodipodi:role="line"
         style="font-style:normal;font-variant:normal;font-weight:normal;font-stretch:normal;font-size:58.77999878px;line-height:1.25;font-family:'小赖字体 SC';-inkscape-font-specification:'小赖字体 SC';stroke:#000000;stroke-width:1.79999995;stroke-miterlimit:4;stroke-dasharray:none;stroke-opacity:1"
         x="2779.0186"
         y="2023.4807"
         id="tspan1222">萝卜头 !</tspan></text>
    <text
       xml:space="preserve"
       style="font-style:normal;font-variant:normal;font-weight:normal;font-stretch:normal;line-height:0%;font-family:'小赖字体 SC';-inkscape-font-specification:'小赖字体 SC';letter-spacing:0px;word-spacing:0px;display:inline;opacity:0.85700001;fill:#ffffff;fill-opacity:1;stroke:#98b9ca;stroke-width:1.4887538;stroke-miterlimit:4;stroke-dasharray:none;stroke-opacity:1;filter:url(#filter4375-4-1-1-1-9-5-8-4-3)"
       x="787.65729"
       y="1584.5073"
       id="text4580-6-0-9-3"
       transform="matrix(0.33769447,-0.30629363,0.31385009,0.60859124,1407.0816,1753.5904)"
       sodipodi:linespacing="0%"><tspan
         sodipodi:role="line"
         id="tspan4582-1-1-26-6"
         x="787.65729"
         y="1584.5073"
         style="font-style:normal;font-variant:normal;font-weight:normal;font-stretch:normal;font-size:70px;line-height:1.25;font-family:'小赖字体 SC';-inkscape-font-specification:'小赖字体 SC';fill:#ffffff;fill-opacity:1;stroke:#98b9ca;stroke-width:1.4887538;stroke-opacity:1"><tspan
           style="font-style:normal;font-variant:normal;font-weight:normal;font-stretch:normal;font-size:93.14950562px;font-family:'小赖字体 SC';-inkscape-font-specification:'小赖字体 SC';fill:#ffffff;fill-opacity:1;stroke:#98b9ca;stroke-width:1.4887538;stroke-opacity:1"
           id="tspan4315-8-64-0"><tspan
             style="font-style:normal;font-variant:normal;font-weight:normal;font-stretch:normal;font-size:82.64876556px;font-family:'小赖字体 SC';-inkscape-font-specification:'小赖字体 SC';stroke-width:1.4887538"
             id="tspan1133-2">啪啦 !</tspan></tspan><tspan
           style="font-style:normal;font-variant:normal;font-weight:normal;font-stretch:normal;font-size:114.73223114px;font-family:'小赖字体 SC';-inkscape-font-specification:'小赖字体 SC';fill:#ffffff;fill-opacity:1;stroke:#98b9ca;stroke-width:1.4887538;stroke-opacity:1"
           id="tspan4313-2-9-6"> !</tspan></tspan></text>
  </g>
</svg>
