<?xml version="1.0" encoding="UTF-8" standalone="no"?>
<!-- Created with Inkscape (http://www.inkscape.org/) -->

<svg
   xmlns:dc="http://purl.org/dc/elements/1.1/"
   xmlns:cc="http://creativecommons.org/ns#"
   xmlns:rdf="http://www.w3.org/1999/02/22-rdf-syntax-ns#"
   xmlns:svg="http://www.w3.org/2000/svg"
   xmlns="http://www.w3.org/2000/svg"
   xmlns:xlink="http://www.w3.org/1999/xlink"
   xmlns:sodipodi="http://sodipodi.sourceforge.net/DTD/sodipodi-0.dtd"
   xmlns:inkscape="http://www.inkscape.org/namespaces/inkscape"
   id="svg2"
   version="1.1"
   inkscape:version="0.92.5 (2060ec1f9f, 2020-04-08)"
   width="2481"
   height="3503"
   sodipodi:docname="E23P04.svg">
  <metadata
     id="metadata8">
    <rdf:RDF>
      <cc:Work
         rdf:about="">
        <dc:format>image/svg+xml</dc:format>
        <dc:type
           rdf:resource="http://purl.org/dc/dcmitype/StillImage" />
        <dc:title />
      </cc:Work>
    </rdf:RDF>
  </metadata>
  <defs
     id="defs6" />
  <sodipodi:namedview
     pagecolor="#ffffff"
     bordercolor="#666666"
     borderopacity="1"
     objecttolerance="10"
     gridtolerance="10"
     guidetolerance="10"
     inkscape:pageopacity="0"
     inkscape:pageshadow="2"
     inkscape:window-width="1866"
     inkscape:window-height="1016"
     id="namedview4"
     showgrid="false"
     inkscape:zoom="0.34980127"
     inkscape:cx="1168.1676"
     inkscape:cy="887.73979"
     inkscape:window-x="54"
     inkscape:window-y="27"
     inkscape:window-maximized="1"
     inkscape:current-layer="layer1"
     inkscape:document-rotation="0" />
  <g
     inkscape:groupmode="layer"
     id="layer2"
     inkscape:label="artwork"
     sodipodi:insensitive="true">
    <image
       sodipodi:absref="/home/user/lojban/webcomics/ep23_Take-a-Chance/lang/jb/../gfx_Pepper-and-Carrot_by-David-Revoy_E23P04.png"
       xlink:href="../gfx_Pepper-and-Carrot_by-David-Revoy_E23P04.png"
       y="0"
       x="0"
       id="image10"
       height="3503"
       width="2481" />
  </g>
  <g
     inkscape:groupmode="layer"
     id="layer3"
     inkscape:label="speechbubbles">
    <path
       style="fill:#ffffff;fill-rule:evenodd;stroke:none;stroke-width:0.94252789px;stroke-linecap:butt;stroke-linejoin:miter;stroke-opacity:1"
       d="m 1578.4869,248.33436 c 12.1517,-30.56195 45.9056,-56.95638 56.7071,-63.90227 10.8013,-6.9459 179.9939,-18.99889 205.6474,-18.99889 25.6528,0 177.4953,11.86414 195.534,28.72314 18.7216,17.4976 43.2505,63.90228 40.5501,84.73997 -2.7004,20.8377 -31.2799,90.29671 -59.6333,101.41014 -28.3537,11.11346 -176.8724,19.44852 -205.226,19.44852 -28.3534,0 -151.219,-5.55671 -180.9228,-23.61606 -29.7037,-18.05933 -52.3656,-59.78787 -52.3656,-68.12295 0,-8.33506 -0.2909,-59.6816 -0.2909,-59.6816 z"
       id="path4246"
       inkscape:connector-curvature="0"
       sodipodi:nodetypes="cssssssssc" />
    <path
       style="fill:#ffffff;fill-rule:evenodd;stroke:none;stroke-width:1px;stroke-linecap:butt;stroke-linejoin:miter;stroke-opacity:1"
       d="m 1857.2028,178.22067 c 3.8122,-24.29312 8.2944,-49.93369 -6.7376,-69.58867 12.7474,9.99691 30.4412,33.00886 28.3517,60.17215 -3.2611,42.39294 -20.8306,11.79987 -20.8306,11.79987 z"
       id="path4248"
       inkscape:connector-curvature="0"
       sodipodi:nodetypes="ccscc" />
    <path
       style="fill:#ffffff;stroke:none;stroke-width:0.92927402"
       d="m 793.34627,1230.5193 c -1.6845,-38.9238 28.51829,-136.3655 175.84612,-129.0362 147.32781,7.3294 193.43921,50.144 197.75641,119.331 6.8299,109.4518 -70.6792,138.7011 -181.97511,146.8081 -114.73405,8.3576 -193.40809,-66.7738 -191.62742,-137.1029 z"
       id="path3280-8"
       inkscape:connector-curvature="0"
       sodipodi:nodetypes="csssc" />
    <path
       style="fill:#ffffff;fill-rule:evenodd;stroke:none;stroke-width:1px;stroke-linecap:butt;stroke-linejoin:miter;stroke-opacity:1"
       d="m 1135.2615,1614.0034 c 62.4372,-68.9117 50.4662,-112.8344 43.0951,-140.7709 -7.3709,-27.9366 -35.5004,-47.0985 -60.4628,-44.2772 -24.9624,2.8213 -60.7682,40.0103 -91.8753,13.3179 -31.10718,-26.6923 -26.12898,-75.3915 -4.6982,-109.4603 21.4307,-34.0687 -37.99012,-28.5721 -43.78706,19.5531 -5.79694,48.1251 2.85426,96.4705 35.77176,114.3273 32.9176,17.8569 60.951,8.8491 71.8636,1.9227 12.4313,-7.8903 43.5382,-30.8378 63.1046,-12.878 21.4584,19.6964 47.0755,80.9884 -13.0117,158.2654 z"
       id="path4256"
       inkscape:connector-curvature="0"
       sodipodi:nodetypes="cssssssssc" />
    <path
       style="color:#000000;display:inline;overflow:visible;visibility:visible;fill:#ffffff;fill-opacity:1;fill-rule:nonzero;stroke:none;stroke-width:1.36707854px;marker:none;enable-background:accumulate"
       d="m 1738.0032,1970.5843 c -6.7925,-53.268 40.1884,-103.1089 99.6265,-114.3225 100.9498,-35.357 215.7224,-24.7807 318.7536,-3.8056 49.4559,11.7786 100.8632,46.0705 127.4645,82.5903 31.032,44.0263 -15.586,88.0652 -67.9541,95.8922 -100.6139,23.9559 -207.5092,22.6771 -311.0512,16.2346 -47.5793,-6.8796 -102.692,-3.3602 -141.9494,-30.1644 -15.9567,-11.4108 -27.2454,-28.5532 -24.8899,-46.4246 z"
       id="path3357"
       inkscape:connector-curvature="0"
       sodipodi:nodetypes="cccccccc" />
    <path
       style="fill:#ffffff;fill-rule:evenodd;stroke:none;stroke-width:1px;stroke-linecap:butt;stroke-linejoin:miter;stroke-opacity:1"
       d="m 1815.7758,2061.2815 c 64.8492,31.0148 134.3976,22.5562 155.0741,-25.3758 23.8742,-55.3449 26.3156,-31.9546 26.3156,-31.9546 0,0 20.7007,14.1323 -2.8196,43.2328 -18.7952,23.2544 -75.4849,87.5238 -178.5701,14.0976 z"
       id="path4281"
       inkscape:connector-curvature="0"
       sodipodi:nodetypes="cscsc" />
    <path
       style="color:#000000;display:inline;overflow:visible;visibility:visible;fill:#ffffff;fill-opacity:1;fill-rule:nonzero;stroke:none;stroke-width:1.44551909px;marker:none;enable-background:accumulate"
       d="m -9.9606169,2122.4588 c 29.4380839,-48.2947 100.4872599,-76.921 171.1965869,-85.9702 78.99527,-10.8002 160.57321,-5.677 239.17544,4.2721 51.80045,7.9045 103.68355,21.2509 144.78583,45.4743 15.51556,14.611 33.06871,32.0894 37.90091,49.6243 23.82315,41.5592 3.35707,82.0692 -46.84498,136.6821 -55.4801,32.246 -130.44711,32.3601 -198.48758,35.6555 -77.07652,6.6262 -157.26219,0.6229 -228.65287,-21.6138 -44.375028,-14.8734 -88.954931,-36.1515 -110.0477466,-68.6408 -15.4006274,-30.7265 -26.8260734,-66.1087 -9.0255903,-95.4835 z"
       id="path3365"
       inkscape:connector-curvature="0"
       sodipodi:nodetypes="cccccccccc" />
    <path
       style="fill:#ffffff;fill-rule:evenodd;stroke:none;stroke-width:1px;stroke-linecap:butt;stroke-linejoin:miter;stroke-opacity:1"
       d="m 463.97121,2140.9085 c 84.34167,16.1667 252.8523,-49.3553 272.73937,-44.3835 19.88707,4.9717 31.42746,46.6967 63.74394,23.0808 -39.77414,32.3165 -47.23179,-7.4577 -63.39003,-8.7006 -16.15824,-1.243 -197.62775,64.633 -269.71837,62.1471 -72.09063,-2.4859 -3.37491,-32.1438 -3.37491,-32.1438 z"
       id="path4314"
       inkscape:connector-curvature="0"
       sodipodi:nodetypes="cscssc" />
    <path
       style="fill:#ffffff;fill-rule:evenodd;stroke:none;stroke-width:1px;stroke-linecap:butt;stroke-linejoin:miter;stroke-opacity:1"
       d="m 1660.5299,2998.9956 c -36.0453,-51.2804 -41.0171,-112.0072 -26.1018,-137.6474 14.9153,-25.6402 82.0342,-75.5711 0,-143.0453 79.5483,56.6783 49.7177,94.4639 19.8871,147.0937 -29.8306,52.6299 54.6894,144.3948 54.6894,144.3948 z"
       id="path4316"
       inkscape:connector-curvature="0" />
    <path
       style="fill:#ffffff;stroke:none;stroke-width:1.03896308"
       d="m 1487.7036,3097.7205 c -1.4381,-30.1659 -21.29,-105.6833 139.3097,-98.1538 125.7683,5.8964 166.1101,10.1514 169.8504,102.6928 3.4684,85.8145 -106.6252,88.0541 -166.654,89.5251 -85.8382,2.1037 -144.0262,-39.5589 -142.5061,-94.0641 z"
       id="path3280-8-9"
       inkscape:connector-curvature="0"
       sodipodi:nodetypes="csssc" />
  </g>
  <g
     inkscape:groupmode="layer"
     id="layer1"
     inkscape:label="txt">
    <text
       xml:space="preserve"
       style="font-style:normal;font-variant:normal;font-weight:normal;font-stretch:normal;line-height:0%;font-family:Lavi;-inkscape-font-specification:Lavi;text-align:center;letter-spacing:0px;word-spacing:0px;text-anchor:middle;fill:#000000;fill-opacity:1;stroke:none"
       x="1826.9244"
       y="224.83353"
       id="text4246"><tspan
         sodipodi:role="line"
         style="font-style:italic;font-variant:normal;font-weight:normal;font-stretch:normal;font-size:35.77793884px;line-height:1.25;font-family:Lavi;-inkscape-font-specification:'Lavi Italic'"
         x="1826.9244"
         y="224.83353"
         id="tspan855"><tspan
   dx="0 0 0 0 0 0 0 0 0 0 0 0 0 0 0 0 0 0 0 0 -8"
   id="tspan42"
   style="font-style:italic;font-variant:normal;font-weight:normal;font-stretch:normal;font-size:35.77793884px;line-height:1.25;font-family:Lavi;-inkscape-font-specification:'Lavi Italic'">poi cabna no jefyfa'o </tspan>ja</tspan><tspan
         sodipodi:role="line"
         style="font-style:italic;font-variant:normal;font-weight:normal;font-stretch:normal;font-size:35.77793884px;line-height:1.25;font-family:Lavi;-inkscape-font-specification:'Lavi Italic'"
         x="1826.9244"
         y="269.55594"
         id="tspan857"
         dx="0 0 0 0 0 0 0 0 0 0 0 0 0 0 0 0 0 0 0 0 0 -8"><tspan
   dx="0 0 0 0 0 0 0 0 0 0 0 0 0 0 0 0 -8"
   id="tspan46"
   style="font-style:italic;font-variant:normal;font-weight:normal;font-stretch:normal;font-size:35.77793884px;line-height:1.25;font-family:Lavi;-inkscape-font-specification:'Lavi Italic'">kampu nunsla ku'o </tspan>va'o le nu</tspan><tspan
         sodipodi:role="line"
         style="font-style:italic;font-variant:normal;font-weight:normal;font-stretch:normal;font-size:35.77793884px;line-height:1.25;font-family:Lavi;-inkscape-font-specification:'Lavi Italic'"
         x="1826.9244"
         y="314.27838"
         dx="0 0 0 0 0 0 0 0 0 0 0 0 0 0 0 0 0"
         id="tspan48">ge ro pa mei le'i te selfu</tspan><tspan
         sodipodi:role="line"
         style="font-style:italic;font-variant:normal;font-weight:normal;font-stretch:normal;font-size:35.77793884px;line-height:1.25;font-family:Lavi;-inkscape-font-specification:'Lavi Italic'"
         x="1826.9244"
         y="359.00079"
         id="tspan859"
         dx="0 0 0 0 0 0 0 0 0 0 0 0 0 -8">gi rau da ka'e se pruce</tspan></text>
    <text
       xml:space="preserve"
       style="font-style:normal;font-variant:normal;font-weight:normal;font-stretch:normal;line-height:0%;font-family:Lavi;-inkscape-font-specification:Lavi;text-align:center;letter-spacing:0px;word-spacing:0px;text-anchor:middle;fill:#000000;fill-opacity:1;stroke:none"
       x="976.5672"
       y="1164.2102"
       id="text4246-3"><tspan
         sodipodi:role="line"
         style="font-size:45px;line-height:1.25"
         x="976.5672"
         y="1164.2102"
         id="tspan901">.i friti</tspan><tspan
         sodipodi:role="line"
         style="font-size:45px;line-height:1.25"
         x="983.59845"
         y="1220.4602"
         id="tspan909">le nu mi gasnu </tspan><tspan
         sodipodi:role="line"
         style="font-size:45px;line-height:1.25"
         x="976.5672"
         y="1276.7102"
         id="tspan53">le nu do slabu</tspan><tspan
         sodipodi:role="line"
         style="font-size:45px;line-height:1.25"
         x="976.5672"
         y="1332.9602"
         dx="0 0 0 0 0 0 0 0 0 0"
         id="tspan47">so'i prenu</tspan></text>
    <text
       xml:space="preserve"
       style="font-style:normal;font-variant:normal;font-weight:normal;font-stretch:normal;line-height:0%;font-family:Lavi;-inkscape-font-specification:Lavi;text-align:center;letter-spacing:0px;word-spacing:0px;text-anchor:middle;fill:#000000;fill-opacity:1;stroke:none"
       x="2007.5197"
       y="1898.0619"
       id="text4246-3-7"><tspan
         sodipodi:role="line"
         style="font-size:45px;line-height:1.25"
         x="2007.5197"
         y="1898.0619"
         id="tspan863">.i mi'a vlipa le nu</tspan><tspan
         sodipodi:role="line"
         style="font-size:45px;line-height:1.25"
         x="2007.5197"
         y="1954.3119"
         id="tspan70">so'i da poi gugde zo'u do</tspan><tspan
         sodipodi:role="line"
         style="font-size:45px;line-height:1.25"
         x="2007.5197"
         y="2010.5619"
         dx="0 0 0 0 0 0 0 0 0 0 0 0 0 0 0 0 0 0 0 0"
         id="tspan74">misno le xabju be da</tspan></text>
    <text
       xml:space="preserve"
       style="font-style:normal;font-variant:normal;font-weight:normal;font-stretch:normal;line-height:0%;font-family:Lavi;-inkscape-font-specification:Lavi;text-align:center;letter-spacing:0px;word-spacing:0px;text-anchor:middle;fill:#000000;fill-opacity:1;stroke:none"
       x="303.84491"
       y="2104.1274"
       id="text4246-3-7-6"><tspan
         sodipodi:role="line"
         style="font-size:45px;line-height:1.25"
         x="303.84491"
         y="2104.1274"
         id="tspan880">kei joi le nu finti</tspan><tspan
         sodipodi:role="line"
         style="font-size:45px;line-height:1.25"
         x="303.84491"
         y="2160.3774"
         id="tspan62">lo jadni be le kerfa be do</tspan><tspan
         sodipodi:role="line"
         style="font-size:45px;line-height:1.25"
         x="303.84491"
         y="2216.6274"
         id="tspan60">gi'e cuxna fi tu'a lo'i pastu</tspan><tspan
         sodipodi:role="line"
         style="font-size:45px;line-height:1.25"
         x="303.84491"
         y="2272.8774"
         id="tspan64">lo jadni be do</tspan></text>
    <text
       xml:space="preserve"
       style="font-style:normal;font-variant:normal;font-weight:normal;font-stretch:normal;line-height:0%;font-family:Lavi;-inkscape-font-specification:Lavi;text-align:center;letter-spacing:0px;word-spacing:0px;text-anchor:middle;fill:#000000;fill-opacity:1;stroke:none"
       x="1644.2446"
       y="3053.1169"
       id="text4246-3-7-6-1"><tspan
         sodipodi:role="line"
         style="font-size:45px;line-height:1.25"
         x="1644.2446"
         y="3053.1169"
         id="tspan884">.i le jalge</tspan><tspan
         sodipodi:role="line"
         style="font-size:45px;line-height:1.25"
         x="1644.2446"
         y="3109.3669"
         id="tspan890">cu zi <tspan
   dx="0 0 0 -8"
   style="font-size:45px;line-height:1.25"
   id="tspan892">nu'e do</tspan></tspan><tspan
         sodipodi:role="line"
         style="font-size:45px;line-height:1.25"
         x="1644.2446"
         y="3165.6169"
         id="tspan888">fasnu</tspan></text>
  </g>
</svg>
