<?xml version="1.0" encoding="UTF-8" standalone="no"?>
<svg
   xmlns:dc="http://purl.org/dc/elements/1.1/"
   xmlns:cc="http://creativecommons.org/ns#"
   xmlns:rdf="http://www.w3.org/1999/02/22-rdf-syntax-ns#"
   xmlns:svg="http://www.w3.org/2000/svg"
   xmlns="http://www.w3.org/2000/svg"
   xmlns:xlink="http://www.w3.org/1999/xlink"
   xmlns:sodipodi="http://sodipodi.sourceforge.net/DTD/sodipodi-0.dtd"
   xmlns:inkscape="http://www.inkscape.org/namespaces/inkscape"
   id="svg2"
   version="1.1"
   inkscape:version="1.0.2 (e86c870879, 2021-01-15)"
   width="2481"
   height="3503"
   sodipodi:docname="E35P02.svg">
  <metadata
     id="metadata8">
    <rdf:RDF>
      <cc:Work
         rdf:about="">
        <dc:format>image/svg+xml</dc:format>
        <dc:type
           rdf:resource="http://purl.org/dc/dcmitype/StillImage" />
        <dc:title />
      </cc:Work>
    </rdf:RDF>
  </metadata>
  <defs
     id="defs6" />
  <sodipodi:namedview
     pagecolor="#ffffff"
     bordercolor="#666666"
     borderopacity="1"
     objecttolerance="10"
     gridtolerance="10"
     guidetolerance="10"
     inkscape:pageopacity="0"
     inkscape:pageshadow="2"
     inkscape:window-width="1024"
     inkscape:window-height="546"
     id="namedview4"
     showgrid="false"
     inkscape:window-x="0"
     inkscape:window-y="25"
     inkscape:window-maximized="1"
     inkscape:document-rotation="0"
     inkscape:snap-global="false"
     inkscape:pagecheckerboard="0"
     inkscape:zoom="0.33252721"
     inkscape:cx="1240.5"
     inkscape:cy="549.17791"
     inkscape:current-layer="layer3" />
  <g
     inkscape:groupmode="layer"
     id="layer2"
     inkscape:label="artwork"
     sodipodi:insensitive="true">
    <image
       sodipodi:absref="/home/twilight/Descargas/ep35/lang/gfx_Pepper-and-Carrot_by-David-Revoy_E35P02.png"
       xlink:href="../gfx_Pepper-and-Carrot_by-David-Revoy_E35P02.png"
       y="0"
       x="0"
       id="image10"
       height="3503"
       width="2481" />
  </g>
  <g
     inkscape:groupmode="layer"
     id="layer3"
     inkscape:label="speechbubbles">
    <path
       style="color:#000000;display:inline;overflow:visible;visibility:visible;fill:#ffffff;fill-opacity:1;fill-rule:nonzero;stroke:none;stroke-width:1.04438px;marker:none;enable-background:accumulate"
       d="m 304.05483,2060.6861 c -6.79342,17.214 -45.10939,18.658 -59.21454,15.159 28.43271,19.257 27.44145,31.222 -11.16214,33.079 64.739,34.707 11.83512,29.455 1.40028,38.255 50.83203,11.961 33.98368,30.089 1.35601,38.422 58.42648,0.509 44.28227,12.725 22.16208,30.304 25.86883,-11.509 65.7741,-19.785 67.18998,10.306 37.48188,-26.287 56.82071,-25.775 70.37483,3.95 11.32193,-25.632 49.87371,-30.565 64.61509,-2.922 12.69876,-37.411 58.00938,-32.144 84.98117,-14.013 -15.1407,-12.796 -4.81614,-33.866 46.8039,-29.605 -4.15493,-11.73 2.37911,-26.535 28.44667,-24.58 -30.0266,-7.085 -35.56033,-14.394 20.19222,-22.259 -42.42443,-0.76 -81.98553,-2.319 -32.21243,-29.141 -15.61517,-0.649 -52.66388,21.732 -35.39036,-43.765 -45.7335,19.313 -93.79048,29.186 -91.4261,-11.382 -17.00247,21.943 -46.49287,32.801 -59.32274,5.393 -10.59102,25.603 -42.76005,14.882 -59.47129,-2.593 -11.04194,17.342 -27.55958,29.055 -59.32263,5.392 z"
       id="path3549-3-7-8"
       inkscape:connector-curvature="0"
       sodipodi:nodetypes="ccccccccccccccccccc" />
    <path
       style="fill:#ffffff;stroke:none;stroke-width:1.11747"
       d="m 402.95155,2014.2181 c 26.97915,-1.1151 157.35896,-6.3967 155.33108,101.0997 -2.54084,134.6965 -3.821,196.2482 -143.43924,194.1791 -149.95773,-2.2225 -119.77638,-83.4609 -120.95054,-185.257 -1.03953,-90.1215 36.66343,-106.7644 109.0587,-110.0218 z"
       id="path3280-8-6"
       inkscape:connector-curvature="0"
       sodipodi:nodetypes="csssc" />
    <path
       style="color:#000000;display:inline;overflow:visible;visibility:visible;fill:#ffffff;fill-opacity:1;fill-rule:nonzero;stroke:none;stroke-width:1px;marker:none;enable-background:accumulate"
       d="m 596.40058,2341.6788 c -54.36956,-1.3158 -66.37353,-18.0831 -76.5499,-29.227 3.41593,-3.9672 8.07344,-11.8668 8.07344,-11.8668 0,0 -22.49109,-20.0802 -27.87182,-30.4304 -5.38071,-10.3501 9.28192,-17.9731 9.28192,-17.9731 0,0 44.94813,37.9871 57.64264,43.4391 -9.83295,10.5902 -13.21387,16.7305 -18.38931,19.4211 3.1733,8.211 28.66645,25.6349 47.81303,26.6371 z"
       id="path4456-3"
       inkscape:connector-curvature="0" />
    <path
       style="color:#000000;display:inline;overflow:visible;visibility:visible;fill:#ffffff;fill-opacity:1;fill-rule:nonzero;stroke:none;stroke-width:0.803733px;marker:none;enable-background:accumulate"
       d="m 1983.6307,2169.1943 c -4.3305,-56.497 5.9266,-125.335 143.5229,-109.0086 131.1888,15.5659 122.995,36.9633 124.3842,108.6937 1.4636,75.5745 -52.0802,112.1707 -146.0786,104.9253 -55.0849,-4.2457 -109.9759,-8.2642 -121.8285,-104.6104 z"
       id="path5026-4"
       inkscape:connector-curvature="0"
       sodipodi:nodetypes="csssc" />
    <path
       style="color:#000000;display:inline;overflow:visible;visibility:visible;fill:#ffffff;fill-opacity:1;fill-rule:nonzero;stroke:none;stroke-width:1.63768px;marker:none;enable-background:accumulate"
       d="m 2065.086,2229.8886 c -4.2272,-2.5286 -41.7209,44.7549 -41.7209,44.7549 l -35.4466,3.459 1.2502,26.926 -53.4012,-4.5662 35.1739,-8.2914 -1.9242,-26.5703 33.0101,-11.5413 29.8178,-33.9388 z"
       id="path4448"
       inkscape:connector-curvature="0"
       sodipodi:nodetypes="cccccccccc" />
    <path
       style="color:#000000;display:inline;overflow:visible;visibility:visible;fill:#ffffff;fill-opacity:1;fill-rule:nonzero;stroke:none;stroke-width:1.11084px;marker:none;enable-background:accumulate"
       d="m 131.38328,2605.2059 c -5.86949,36.012 9.78247,132.8892 130.10741,129.6625 120.32482,-3.2266 139.88994,-47.7636 142.82463,-61.2395 2.93478,-13.4758 28.36931,-89.4945 -65.54278,-113.5495 -93.91217,-24.0548 -178.0417,-5.8234 -207.38926,45.1265 z"
       id="path3525"
       inkscape:connector-curvature="0" />
    <path
       style="color:#000000;display:inline;overflow:visible;visibility:visible;fill:#ffffff;fill-opacity:1;fill-rule:nonzero;stroke:none;stroke-width:0.906707px;marker:none;enable-background:accumulate"
       d="m 1200.5551,2492.4237 c -21.709,0.8182 -43.7652,1.788 -64.5542,6.9827 -27.7721,7.5173 -49.7673,26.7389 -54.4567,48.8922 -2.279,13.8942 6.9008,28.0441 21.5823,36.2747 16.8449,9.8699 37.3845,15.2118 57.8488,19.0219 30.752,5.4774 62.6493,5.2221 93.9907,3.7345 24.9362,-1.3088 50.0324,-4.9224 72.6436,-13.2573 10.0506,-3.5602 20.045,-8.4478 25.3309,-16.0968 7.0117,-9.7255 7.5157,-21.3487 5.0712,-32.0561 -3.0256,-13.2028 -12.1541,-25.8753 -26.6751,-33.7852 -16.0315,-9.089 -35.8273,-13.2462 -55.3244,-15.6624 -18.2007,-2.2129 -36.6063,-3.2505 -54.9799,-4.2311 -6.831,-0.2852 -13.654,-0.132 -20.4772,0.1829 z"
       id="path3525-3"
       inkscape:connector-curvature="0" />
    <path
       style="color:#000000;display:inline;overflow:visible;visibility:visible;fill:#ffffff;fill-opacity:1;fill-rule:nonzero;stroke:none;stroke-width:0.850812px;marker:none;enable-background:accumulate"
       d="m 378.31396,2800.4734 c -21.81603,-6.0365 -24.7236,-21.3438 -23.81085,-34.7307 0.91307,-13.3879 3.43731,-21.6544 -10.14803,-38.2382 -13.58559,-16.5829 -43.44749,-17.8668 -26.36893,-33.9071 2.07754,-10.3968 3.18888,-19.4098 8.63924,-29.73 6.0118,-11.3839 -30.60834,-11.6128 -30.60834,-11.6128 0,0 -9.2601,36.4069 -8.60393,58.2554 0.65624,21.8486 37.98578,15.4181 49.29264,29.8458 10.55851,13.4728 3.54145,36.8172 10.69223,46.6028 7.15061,9.7866 19.89022,13.3481 30.91597,13.5148 z"
       id="path4538-8"
       inkscape:connector-curvature="0"
       sodipodi:nodetypes="csscscsssc" />
    <path
       style="fill:#ffffff;fill-rule:evenodd;stroke:none;stroke-width:1.00018px;stroke-linecap:butt;stroke-linejoin:miter;stroke-opacity:1"
       d="m 683.3565,2839.4097 c 22.47948,-7.6888 8.18259,-27.2917 13.56572,-36.5201 5.55722,-9.5269 47.07364,3.0903 52.88651,-5.37 5.81286,-8.4604 -12.6074,-31.2018 -3.16551,-44.2198 9.44226,-13.0187 37.29048,-1.0958 25.77916,13.6924 -11.51166,14.7889 6.85876,28.7751 -4.63767,39.1332 -19.17293,17.274 -46.18634,1.6002 -58.07288,2.8253 -7.86988,0.8115 -1.86593,15.6117 -9.63373,23.71 -7.76824,8.099 -16.7216,6.749 -16.7216,6.749 z"
       id="path4272-2"
       inkscape:connector-curvature="0"
       sodipodi:nodetypes="csssssssc" />
    <path
       style="fill:#ffffff;stroke:none;stroke-width:1.03835"
       d="m 1757.6864,2734.7823 c -1.258,-33.7766 21.2997,-118.3324 131.3348,-111.9727 110.0352,6.3597 144.4743,43.5131 147.699,103.5506 5.101,94.9786 -52.7885,120.3608 -135.9123,127.3953 -85.6919,7.2524 -144.4514,-57.9436 -143.1215,-118.9732 z"
       id="path3280-8-90"
       inkscape:connector-curvature="0"
       sodipodi:nodetypes="csssc" />
    <path
       style="color:#000000;display:inline;overflow:visible;visibility:visible;fill:#ffffff;fill-opacity:1;fill-rule:nonzero;stroke:none;stroke-width:1px;marker:none;enable-background:accumulate"
       d="m 1981.8954,2716.5742 c 21.7602,57.3157 81.8906,99.8161 102.9782,111.0989 -62.8332,-18.8149 -116.4083,-51.6111 -129.2847,-90.9766 -12.8765,-39.3656 26.3065,-20.1223 26.3065,-20.1223 z"
       id="path4480"
       inkscape:connector-curvature="0" />
    <path
       style="fill:#ffffff;fill-rule:evenodd;stroke:none;stroke-width:0.967453px;stroke-linecap:butt;stroke-linejoin:miter;stroke-opacity:1"
       d="m 1116.2636,1162.3135 c -35.0306,0.1769 -70.2016,2.3678 -104.2703,8.2483 -12.7913,2.2915 -25.50295,4.9601 -37.62946,8.6353 -15.87404,5.2289 -27.88879,14.7798 -36.87846,25.0892 -10.20735,11.8288 -16.69213,25.1106 -19.89001,38.7115 -2.55695,10.6278 -3.81737,21.3943 -4.48079,32.154 -0.66159,14.8247 1.70882,29.827 8.70256,43.8849 8.21339,17.4721 21.91964,34.0823 42.09704,46.1298 19.36255,11.0917 43.23332,17.4055 67.11212,22.0367 39.3485,7.3051 80.3461,8.4135 120.8545,8.3998 30.5124,-0.2259 60.805,-3.7247 90.3166,-8.9943 22.7155,-3.8064 45.3735,-8.1499 66.8551,-14.6348 16.022,-5.1789 30.8149,-13.0646 39.6414,-23.9225 11.769,-13.6198 16.9185,-29.3488 21.2149,-44.7958 4.6588,-17.7116 6.9822,-36.1287 1.4672,-53.8842 -5.3377,-16.8271 -18.3663,-31.8619 -33.0198,-45.5068 -18.7844,-16.3742 -45.6473,-27.5248 -74.1422,-33.6416 -30.6897,-6.618 -63.0846,-7.6001 -94.9799,-7.8736 -17.6562,-0.084 -35.314,-0.08 -52.9705,-0.036 z"
       id="path1353"
       inkscape:connector-curvature="0"
       sodipodi:nodetypes="cssscscssccc" />
    <path
       style="color:#000000;display:inline;overflow:visible;visibility:visible;fill:#ffffff;fill-opacity:1;fill-rule:nonzero;stroke:none;stroke-width:1.32704px;marker:none;enable-background:accumulate"
       d="m 1567.2167,1263.2749 c -23.3951,-13.5874 -47.4345,-27.8488 -80.2438,-37.3029 -9.419,-2.6108 -19.456,-5.052 -29.7275,-6.2777 -10.8699,-0.2589 -18.5833,3.1803 -21.2691,7.3616 -4.9062,5.8321 -4.0751,13.3543 -14.8239,17.5815 -8.0334,2.9766 -20.4058,1.2285 -30.8948,0.151 -55.5613,-5.5966 -116.4529,-16.3815 -168.9125,-7.1839 -10.3316,2.0201 -20.2049,4.8402 -25.0559,9.4641 -13.7945,11.5007 -11.0257,28.0336 10.0671,40.719 14.9737,7.6682 42.5542,10.484 56.687,4.5569 7.5899,-3.0688 8.1735,-8.3583 5.5139,-13.1861 -1.2458,-8.9607 7.6217,0.022 24.0822,-3.6677 37.2334,-5.6014 77.5291,-14.6477 110.5037,-9.7254 10.0809,1.4739 25.6582,0.1256 35.3315,-0.599 12.5832,-2.5592 14.9137,-9.3886 15.3033,-15.3984 0.7726,-6.1637 0.047,-13.4883 11.1891,-17.2514 6.7172,-3.1499 17.8965,0.5337 26.5328,1.8753 27.2211,5.8451 51.5565,15.088 70.9679,25.6439 1.7031,1.0526 3.2274,2.1441 4.749,3.2392 z"
       id="path4496-9"
       inkscape:connector-curvature="0"
       inkscape:transform-center-x="43.812193"
       inkscape:transform-center-y="17.777857"
       sodipodi:nodetypes="ccccccccccccccccccc" />
    <path
       style="fill:#ffffff;stroke:none;stroke-width:0.766617"
       d="m 897.15117,497.97881 c 3.37823,-74.21906 19.75223,-101.73863 218.36853,-104.56902 274.8847,-3.91778 294.1171,59.19291 288.8951,146.25395 -5.6343,93.9333 -167.7566,94.19681 -300.2823,91.29505 C 875.43705,625.95162 899.21313,574.13941 897.15117,497.97881 Z"
       id="path3280-8-0"
       inkscape:connector-curvature="0"
       sodipodi:nodetypes="csssc" />
    <path
       style="display:inline;fill:#ffffff;stroke:none;stroke-width:0.813848"
       d="m 828.32047,318.63754 c 2.87911,-62.9498 19.33918,-145.15068 171.33541,-146.44194 151.99602,-1.29222 203.14162,38.50078 211.60732,107.2676 16.2164,131.72583 -61.0003,121.41139 -174.8776,135.97035 -117.39526,15.00816 -212.5141,-4.53008 -208.06513,-96.79601 z"
       id="path3280-8-2"
       inkscape:connector-curvature="0"
       sodipodi:nodetypes="csssc" />
    <path
       style="color:#000000;display:inline;overflow:visible;visibility:visible;fill:#ffffff;fill-opacity:1;fill-rule:nonzero;stroke:none;stroke-width:1.3694px;marker:none;enable-background:accumulate"
       d="m 984.98879,638.69978 c 32.56831,-36.66071 434.32701,-62.769 527.13771,20.14406 64.6799,57.78144 39.7284,168.58974 -15.7103,197.43417 -55.4391,28.84586 -323.0945,36.97035 -399.1666,22.27974 -68.4079,-13.20898 -140.21284,-41.64246 -143.99844,-117.31945 -1.54493,-30.88605 -0.83084,-85.87927 31.73763,-122.53852 z"
       id="path4040-5"
       inkscape:connector-curvature="0"
       sodipodi:nodetypes="zssssz" />
    <path
       style="color:#000000;display:inline;overflow:visible;visibility:visible;fill:#ffffff;fill-opacity:1;fill-rule:nonzero;stroke:none;stroke-width:1px;marker:none;enable-background:accumulate"
       d="m 880.35523,328.5815 c -13.93862,-43.79995 -75.39205,-33.32608 -131.42892,10.54697 35.43843,-36.41055 76.35778,-76.93843 143.98747,-47.05147 49.32789,21.79901 14.57754,15.53221 14.57754,15.53221 z"
       id="path4035-4"
       inkscape:connector-curvature="0"
       sodipodi:nodetypes="ccscc" />
    <path
       style="display:inline;fill:#ffffff;fill-rule:evenodd;stroke:none;stroke-width:1.13742px;stroke-linecap:butt;stroke-linejoin:miter;stroke-opacity:1"
       d="m 1548.4515,70.437158 c 20.6743,5.355666 20.1946,17.52695 10.5107,16.306277 6.2076,21.213915 25.2186,69.360305 8.7061,75.309745 0.2661,59.14191 11.1003,89.66303 -1.2971,123.30253 45.6876,-14.99696 47.4664,10.48759 44.0316,34.53843 16.8539,-32.0237 29.7416,-11.16342 24.6882,18.29041 17.3189,-32.20483 37.3899,-46.86295 34.1737,-12.3483 19.5707,-24.9401 20.5719,-36.47397 37.0115,-25.68135 29.8849,-29.92148 42.3492,11.851 60.444,30.45105 6.7473,-33.96245 19.2926,-27.36191 41.2596,-10.05422 7.5158,-14.30031 -9.9725,-39.67027 10.5546,-8.49516 -8.2657,-35.75097 33.6647,-18.50758 42.2202,-13.24153 -10.4784,-16.08237 7.5346,-20.33927 58.3202,-10.99641 -19.667,-8.60488 -28.1082,-37.0177 11.3498,-57.15294 -51.746,8.16891 -32.4628,-8.74173 -16.5799,-27.22951 -33.8417,-28.39327 -0.1769,-54.86231 16.6436,-81.81111 -34.1779,12.48396 -46.6185,-41.139843 -52.9214,-53.926934 -51.8757,9.746684 -44.1809,4.323763 -39.2023,-0.407583 -32.14,11.855666 -30.3388,1.337186 -38.6449,-2.518644 -88.3199,14.436568 -85.1923,-0.636482 -103.4583,-8.805847 -7.2362,17.258592 -25.8422,10.552461 -44.4953,3.747476 0.6992,14.606055 -10.5662,10.33546 -21.5814,6.459669 -1.4111,6.297871 -12.3512,8.112385 -36.1388,3.881708 16.9878,5.198624 6.4969,6.067831 -45.5944,0.382243 z"
       id="path4289-9-2"
       inkscape:connector-curvature="0"
       sodipodi:nodetypes="cccccccccccccccccccccccc" />
    <path
       style="fill:#ffffff;fill-opacity:1;fill-rule:evenodd;stroke:none;stroke-width:0.979061px;stroke-linecap:butt;stroke-linejoin:miter;stroke-opacity:1"
       d="m 2392.5249,828.31665 c -1.2192,6.34195 -56.3523,55.67385 -21.9235,12.27055 l -32.213,12.12489 c -62.4398,-26.31741 -266.7205,-10.24548 -335.0513,4.27336 l -18.7446,-26.10175 3.7388,21.91163 -21.7325,-32.45316 12.1794,43.70313 -11.4715,-14.83665 4.818,16.38217 -11.1428,-7.96597 1.8848,14.02227 c -25.907,13.02061 -40.6372,38.6939 -46.4729,65.18156 l -20.9217,-2.39962 19.4351,10.35709 c -0.2473,1.60795 -0.4702,3.2159 -0.6541,4.81912 -0.011,0.10971 -0.025,0.22227 -0.035,0.33199 l -21.9906,-3.78341 21.1159,14.1055 c -0.046,0.75385 -0.092,1.5058 -0.1318,2.26627 l -42.0743,-8.83427 41.7186,24.00669 c -0.01,26.96436 3.018,54.63526 4.5854,66.73086 1.0868,8.3859 2.2549,23.9368 8.6041,27.2702 l -39.1869,10.0692 51.9277,-5.4935 c 1.1029,0.1226 2.2289,0.2449 3.3597,0.3675 l -13.4152,3.4243 23.3544,-2.3849 c 2.3898,0.2411 4.8319,0.4809 7.321,0.7194 l -24.1854,7.6712 36.075,-6.5785 c 86.8324,7.6565 272.4573,15.2779 401.9513,-3.2458 l 19.1392,3.9931 -7.3543,-5.7621 c 2.5283,-0.398 5.7736,-0.805 5.9077,-1.2225 l 0.4542,0.1682 -0.3009,-1.2778 c 0.028,-0.2112 0.057,-0.4228 0.086,-0.6363 l 1.5475,2.8101 -1.1631,-14.9918 c 0.7331,-17.4103 0.9216,-37.1654 0.8309,-57.172 l 1.4035,-12.03792 c -2.4259,6.22845 -1.5594,-7.47602 -0.034,-14.52451 l -1.3703,0.97517 c 0.1327,-16.19678 -0.3577,-45.90319 -1,-61.40761 l 0.064,-11.756 c -1.1244,1.12651 -0.4003,-8.98845 -0.014,-17.79623 -1.2346,7.9253 -1.0831,4.5959 -0.5975,-10.81204 -2.0791,4.39065 1.1132,-36.29143 1.6783,-46.48111 z"
       id="path4212-3"
       inkscape:connector-curvature="0"
       sodipodi:nodetypes="ccccccccccccccccccccccsccccccccccccccccccccccccccc" />
    <path
       style="display:inline;fill:#ffffff;fill-rule:evenodd;stroke:none;stroke-width:1.44912px;stroke-linecap:butt;stroke-linejoin:miter;stroke-opacity:1"
       d="m 2102.6149,751.43806 c 0.6806,41.31231 13.5699,99.33289 8.1415,118.1885 4.1542,65.56524 102.9122,-3.97588 46.8489,-17.72263 -23.7511,-36.29813 -38.7836,-65.39219 -54.9904,-100.46587 z"
       id="path4667-2"
       inkscape:connector-curvature="0"
       sodipodi:nodetypes="cccc" />
    <path
       style="color:#000000;display:inline;overflow:visible;visibility:visible;fill:#ffffff;fill-opacity:1;fill-rule:nonzero;stroke:none;stroke-width:0.824038px;marker:none;enable-background:accumulate"
       d="m 745.9206,2654.9349 c -23.52398,-0.098 -47.87648,5.1296 -67.33147,19.5074 -13.41142,9.8584 -23.23166,26.2721 -22.61699,43.7335 0.46614,14.2429 9.10758,27.0138 20.33315,34.6216 12.80078,8.6903 28.05943,12.1176 42.91814,14.7287 25.68216,4.0973 51.74411,3.3432 77.61523,4.9003 16.34715,0.6389 33.13383,0.9884 48.92326,-4.1125 14.1565,-6.0439 22.92026,-21.5133 24.33399,-36.9608 1.46259,-15.5734 -0.56549,-32.4583 -9.92371,-45.2137 -8.80593,-11.5412 -22.4578,-17.3952 -35.70332,-21.357 -25.48908,-7.3926 -52.13659,-10.2257 -78.54828,-9.8475 z"
       id="path3525-3-5"
       inkscape:connector-curvature="0" />
    <path
       style="fill:#ffffff;fill-rule:evenodd;stroke:none;stroke-width:1.00018px;stroke-linecap:butt;stroke-linejoin:miter;stroke-opacity:1"
       d="m 1223.463,2688.0374 c 17.4992,-16.0693 -3.4666,-28.2803 -2.2428,-38.8936 1.2634,-10.9567 44.3518,-16.0746 46.2777,-26.1572 1.9258,-10.0826 -24.0767,-23.5119 -20.6577,-39.2259 3.4191,-15.7147 33.7111,-15.9794 29.1078,2.1868 -4.6033,18.167 17.8374,23.5982 11.4686,37.7013 -10.6216,23.5196 -41.6554,20.0139 -52.0494,25.9095 -6.8814,3.9037 4.5609,15.0468 0.6993,25.5829 -3.8618,10.5369 -12.6035,12.8962 -12.6035,12.8962 z"
       id="path4272-2-3"
       inkscape:connector-curvature="0"
       sodipodi:nodetypes="csssssssc" />
    <path
       style="color:#000000;display:inline;overflow:visible;visibility:visible;fill:#ffffff;fill-opacity:1;fill-rule:nonzero;stroke:none;stroke-width:1.00989px;marker:none;enable-background:accumulate"
       d="m 1555.8755,2522.3224 c -7.2641,19.7338 -49.9991,21.9845 -65.8052,18.2182 32.0867,21.5056 31.201,35.1623 -11.8474,37.8903 72.8902,38.545 13.7513,33.3934 2.268,43.5918 56.9502,12.8342 31.8432,30.1632 22.0165,47.2005 65.2147,-0.3425 44.314,27.0397 47.411,48.5677 5.3642,-10.1977 31.1272,-41.3812 33.2621,-7.0964 0.014,-6.488 42.0303,-60.8477 106.6414,-9.4692 -1.9757,-26.8993 19.7511,-32.7435 41.0685,4.1555 -7.5742,-40.161 66.0961,-29.5513 105.2215,-17.4684 -20.0617,-24.1109 10.8603,-34.3802 44.011,-29.9904 -4.8532,-13.3079 6.1646,-22.6579 31.294,-28.4736 -33.641,-7.6032 -39.9516,-15.8481 22.125,-25.6962 -47.361,-0.1964 -91.541,-1.3483 -36.4875,-32.7151 -17.4388,-0.492 -58.3734,25.6094 -40.3033,-49.338 -29.5802,24.3307 -61.3385,37.9775 -102.2437,-11.5311 -18.5708,25.285 -51.2826,38.132 -66.1064,7.0859 -4.9308,13.3936 -26.189,18.707 -44.2948,19.5706 -7.0909,-5.1921 -14.4322,-12.2772 -22.1244,-21.587 -12.0033,19.9474 -30.2215,33.5613 -66.1063,7.0849 z"
       id="path3549-3-7-9-6"
       inkscape:connector-curvature="0"
       sodipodi:nodetypes="cccccccccccccccccccc" />
    <path
       style="color:#000000;display:inline;overflow:visible;visibility:visible;fill:#ffffff;fill-opacity:1;fill-rule:nonzero;stroke:none;stroke-width:1.22149px;marker:none;enable-background:accumulate"
       d="m 1832.9846,274.74062 c 13.3969,25.86728 33.5213,54.90113 39.2123,61.39746 7.9957,-8.63868 17.0744,-15.33555 24.0331,-20.64544 9.0197,12.83333 45.9509,74.58787 45.5696,92.05922 3.355,-43.2627 -19.8328,-91.86712 -36.9856,-111.86967 -10.7606,5.90497 -16.2791,10.46235 -22.0396,13.47435 -9.2965,-9.62452 -29.0289,-46.10687 -29.0289,-46.10687 z"
       id="path5066-8"
       inkscape:connector-curvature="0" />
  </g>
  <g
     inkscape:groupmode="layer"
     id="layer1"
     inkscape:label="txt">
    <text
       xml:space="preserve"
       style="font-style:normal;font-variant:normal;font-weight:normal;font-stretch:normal;font-size:45px;line-height:1.25;font-family:Lavi;-inkscape-font-specification:Lavi;text-align:center;letter-spacing:0px;word-spacing:0px;text-anchor:middle;fill:#000000;fill-opacity:1;stroke:none"
       x="1018.2072"
       y="250.12212"
       id="text4246-3-2-2"><tspan
         style="font-size:45px"
         sodipodi:role="line"
         x="1018.2072"
         y="250.12212"
         id="tspan911">Estoy a punto</tspan><tspan
         style="font-size:45px"
         sodipodi:role="line"
         x="1018.2072"
         y="306.37213"
         id="tspan88">de perder mi</tspan><tspan
         style="font-size:45px"
         sodipodi:role="line"
         x="1018.2072"
         y="362.62213"
         id="tspan90">supervelocidad,</tspan></text>
    <text
       xml:space="preserve"
       style="font-style:normal;font-variant:normal;font-weight:normal;font-stretch:normal;font-size:45px;line-height:1.25;font-family:Lavi;-inkscape-font-specification:Lavi;text-align:center;letter-spacing:0px;word-spacing:0px;text-anchor:middle;fill:#000000;fill-opacity:1;stroke:none"
       x="1149.5723"
       y="465.56839"
       id="text4246-3-2-2-3"><tspan
         style="font-size:45px"
         sodipodi:role="line"
         x="1149.5723"
         y="465.56839"
         id="tspan924">y esta piloto y su</tspan><tspan
         style="font-size:45px"
         sodipodi:role="line"
         x="1149.5723"
         y="521.81836"
         id="tspan94"> dragón nos han estado </tspan><tspan
         style="font-size:45px"
         sodipodi:role="line"
         x="1149.5723"
         y="578.06836"
         id="tspan928">siguiendo por horas.</tspan></text>
    <text
       xml:space="preserve"
       style="font-style:normal;font-variant:normal;font-weight:normal;font-stretch:normal;font-size:45px;line-height:1.25;font-family:Lavi;-inkscape-font-specification:Lavi;text-align:center;letter-spacing:0px;word-spacing:0px;text-anchor:middle;fill:#000000;fill-opacity:1;stroke:none"
       x="1241.569"
       y="681.07538"
       id="text4246-3-2-2-3-6"><tspan
         style="font-size:45px"
         sodipodi:role="line"
         x="1241.569"
         y="681.07538"
         id="tspan106">Y no tendrán ningún</tspan><tspan
         style="font-size:45px"
         sodipodi:role="line"
         x="1241.569"
         y="737.32538"
         id="tspan956"> problema en alcanzarnos</tspan><tspan
         style="font-size:45px"
         sodipodi:role="line"
         x="1241.569"
         y="793.57538"
         id="tspan114"> después de reducir</tspan><tspan
         style="font-size:45px"
         sodipodi:role="line"
         x="1241.569"
         y="849.82538"
         id="tspan116">la velocidad.</tspan></text>
    <text
       xml:space="preserve"
       style="font-style:normal;font-variant:normal;font-weight:normal;font-stretch:normal;font-size:59.5686px;line-height:1.25;font-family:Lavi;-inkscape-font-specification:Lavi;text-align:center;letter-spacing:0px;word-spacing:0px;text-anchor:middle;fill:#000000;fill-opacity:1;stroke:none;stroke-width:1.32375"
       x="1751.348"
       y="172.24753"
       id="text4246-3-2-2-3-6-3"><tspan
         style="font-size:59.5686px;stroke-width:1.32375"
         sodipodi:role="line"
         x="1751.348"
         y="172.24753"
         id="tspan1079">¡Qué</tspan><tspan
         style="font-size:59.5686px;stroke-width:1.32375"
         sodipodi:role="line"
         x="1760.6556"
         y="246.70828"
         id="tspan124">tonta fui! </tspan></text>
    <text
       xml:space="preserve"
       style="font-style:normal;font-variant:normal;font-weight:normal;font-stretch:normal;font-size:45px;line-height:1.25;font-family:Lavi;-inkscape-font-specification:Lavi;text-align:center;letter-spacing:0px;word-spacing:0px;text-anchor:middle;fill:#000000;fill-opacity:1;stroke:none"
       x="2153.592"
       y="917.40289"
       id="text4246-3-2-2-3-6-2"><tspan
         style="font-size:45px"
         sodipodi:role="line"
         x="2153.592"
         y="917.40289"
         id="tspan966">¡Estaba segura de</tspan><tspan
         style="font-size:45px"
         sodipodi:role="line"
         x="2153.592"
         y="973.65289"
         id="tspan131">que se rendirían</tspan><tspan
         style="font-size:45px"
         sodipodi:role="line"
         x="2153.592"
         y="1029.9028"
         id="tspan133">hace muchas horas!</tspan></text>
    <text
       xml:space="preserve"
       style="font-style:normal;font-variant:normal;font-weight:normal;font-stretch:normal;font-size:45px;line-height:1.25;font-family:Lavi;-inkscape-font-specification:Lavi;text-align:center;letter-spacing:0px;word-spacing:0px;text-anchor:middle;fill:#000000;fill-opacity:1;stroke:none"
       x="1146.7565"
       y="1236.7683"
       id="text4246-3-2-2-3-6-2-7"><tspan
         style="font-size:45px"
         sodipodi:role="line"
         x="1146.7565"
         y="1236.7683"
         id="tspan979">Si tan solo</tspan><tspan
         style="font-size:45px"
         sodipodi:role="line"
         x="1146.7565"
         y="1293.0183"
         id="tspan144">pudiera quitármelos</tspan><tspan
         style="font-size:45px"
         sodipodi:role="line"
         x="1146.7565"
         y="1349.2683"
         id="tspan142">de encima.</tspan></text>
    <text
       xml:space="preserve"
       style="font-style:normal;font-variant:normal;font-weight:normal;font-stretch:normal;font-size:45px;line-height:1.25;font-family:Lavi;-inkscape-font-specification:Lavi;text-align:center;letter-spacing:0px;word-spacing:0px;text-anchor:middle;fill:#000000;fill-opacity:1;stroke:none"
       x="416.16843"
       y="2096.4697"
       id="text4246-3-2-2-3-6-2-7-2"><tspan
         style="font-size:45px"
         sodipodi:role="line"
         x="416.16843"
         y="2096.4697"
         id="tspan1171-9"><tspan
   style="font-style:normal;font-variant:normal;font-weight:bold;font-stretch:normal;font-family:Lavi;-inkscape-font-specification:'Lavi Bold'"
   id="tspan889">NO.</tspan> </tspan><tspan
         style="font-size:45px"
         sodipodi:role="line"
         x="416.16843"
         y="2152.7197"
         id="tspan1220">¡Yo <tspan
   style="font-style:normal;font-variant:normal;font-weight:bold;font-stretch:normal;font-family:Lavi;-inkscape-font-specification:'Lavi Bold'"
   id="tspan887">tengo qué</tspan></tspan><tspan
         style="font-size:45px"
         sodipodi:role="line"
         x="416.16843"
         y="2208.9697"
         id="tspan1222"> escapar de</tspan><tspan
         style="font-size:45px"
         sodipodi:role="line"
         x="416.16843"
         y="2265.2197"
         id="tspan885"> ellos!</tspan></text>
    <text
       xml:space="preserve"
       style="font-style:normal;font-variant:normal;font-weight:normal;font-stretch:normal;font-size:45px;line-height:1.25;font-family:Lavi;-inkscape-font-specification:Lavi;text-align:center;letter-spacing:0px;word-spacing:0px;text-anchor:middle;fill:#000000;fill-opacity:1;stroke:none"
       x="2117.5425"
       y="2127.1331"
       id="text4246-3-2-2-3-6-2-7-2-2"><tspan
         style="font-size:45px"
         sodipodi:role="line"
         x="2117.5425"
         y="2127.1331"
         id="tspan1271">¡Antes de</tspan><tspan
         style="font-size:45px"
         sodipodi:role="line"
         x="2117.5425"
         y="2183.3831"
         id="tspan153">que nos</tspan><tspan
         style="font-size:45px"
         sodipodi:role="line"
         x="2117.5425"
         y="2239.6331"
         id="tspan155">atrapen!</tspan></text>
    <text
       xml:space="preserve"
       style="font-style:normal;font-variant:normal;font-weight:normal;font-stretch:normal;font-size:45px;line-height:1.25;font-family:Lavi;-inkscape-font-specification:Lavi;text-align:center;letter-spacing:0px;word-spacing:0px;text-anchor:middle;fill:#000000;fill-opacity:1;stroke:none"
       x="273.79352"
       y="2629.6626"
       id="text4246-3-2-2-3-6-2-7-2-3"><tspan
         style="font-size:45px"
         sodipodi:role="line"
         x="273.79352"
         y="2629.6626"
         id="tspan1222-9">Pero estoy</tspan><tspan
         style="font-size:45px"
         sodipodi:role="line"
         x="273.79352"
         y="2685.9126"
         id="tspan903">también…</tspan></text>
    <text
       xml:space="preserve"
       style="font-style:normal;font-variant:normal;font-weight:normal;font-stretch:normal;font-size:45px;line-height:1.25;font-family:Lavi;-inkscape-font-specification:Lavi;text-align:center;letter-spacing:0px;word-spacing:0px;text-anchor:middle;fill:#000000;fill-opacity:1;stroke:none"
       x="762.94037"
       y="2724.3162"
       id="text4246-3-2-2-3-6-2-7-2-3-3-3"><tspan
         style="font-size:45px"
         x="762.94037"
         y="2724.3162"
         id="tspan1318-9-6"
         sodipodi:role="line">…muy…</tspan><tspan
         style="font-size:45px"
         x="762.94037"
         y="2780.5662"
         id="tspan1356-7"
         sodipodi:role="line" /></text>
    <text
       xml:space="preserve"
       style="font-style:normal;font-variant:normal;font-weight:normal;font-stretch:normal;font-size:45px;line-height:1.25;font-family:Lavi;-inkscape-font-specification:Lavi;text-align:center;letter-spacing:0px;word-spacing:0px;text-anchor:middle;fill:#000000;fill-opacity:1;stroke:none"
       x="1218.5862"
       y="2507.2249"
       id="text4246-3-2-2-3-6-2-7-2-3-3"><tspan
         style="font-size:45px"
         sodipodi:role="line"
         x="1218.5862"
         y="2507.2249"
         id="tspan1318-9" /><tspan
         style="font-size:45px"
         sodipodi:role="line"
         x="1225.6174"
         y="2563.4749"
         id="tspan1356">…cansada… </tspan></text>
    <text
       xml:space="preserve"
       style="font-style:normal;font-variant:normal;font-weight:normal;font-stretch:normal;font-size:64.434px;line-height:1.25;font-family:Lavi;-inkscape-font-specification:Lavi;text-align:center;letter-spacing:0px;word-spacing:0px;text-anchor:middle;fill:#000000;fill-opacity:1;stroke:none;stroke-width:1.43187"
       x="1696.2407"
       y="2630.5286"
       id="text4246-3-2-2-3-6-2-7-2-3-3-4"><tspan
         style="font-style:normal;font-variant:normal;font-weight:bold;font-stretch:normal;font-size:64.434px;font-family:Lavi;-inkscape-font-specification:'Lavi Bold';stroke-width:1.43187"
         sodipodi:role="line"
         x="1696.2407"
         y="2630.5286"
         id="tspan1356-4">¡WOOPS!</tspan></text>
    <text
       xml:space="preserve"
       style="font-style:normal;font-variant:normal;font-weight:normal;font-stretch:normal;font-size:45px;line-height:1.25;font-family:Lavi;-inkscape-font-specification:Lavi;text-align:center;letter-spacing:0px;word-spacing:0px;text-anchor:middle;fill:#000000;fill-opacity:1;stroke:none"
       x="1905.2314"
       y="2697.1885"
       id="text4246-3-2-2-3-6-2-7-2-3-5"><tspan
         style="font-size:45px"
         sodipodi:role="line"
         x="1905.2314"
         y="2697.1885"
         id="tspan1074">¡Mantente</tspan><tspan
         style="font-size:45px"
         sodipodi:role="line"
         x="1905.2314"
         y="2753.4385"
         id="tspan162">alerta, </tspan><tspan
         style="font-size:45px"
         sodipodi:role="line"
         x="1905.2314"
         y="2809.6885"
         id="tspan164">Pepper!</tspan></text>
  </g>
</svg>
