<?xml version="1.0" encoding="UTF-8" standalone="no"?>
<svg
   xmlns:dc="http://purl.org/dc/elements/1.1/"
   xmlns:cc="http://creativecommons.org/ns#"
   xmlns:rdf="http://www.w3.org/1999/02/22-rdf-syntax-ns#"
   xmlns:svg="http://www.w3.org/2000/svg"
   xmlns="http://www.w3.org/2000/svg"
   xmlns:xlink="http://www.w3.org/1999/xlink"
   xmlns:sodipodi="http://sodipodi.sourceforge.net/DTD/sodipodi-0.dtd"
   xmlns:inkscape="http://www.inkscape.org/namespaces/inkscape"
   id="svg2"
   version="1.1"
   inkscape:version="1.0.2 (e86c870879, 2021-01-15)"
   width="2481"
   height="3503"
   sodipodi:docname="E24P04.svg">
  <metadata
     id="metadata8">
    <rdf:RDF>
      <cc:Work
         rdf:about="">
        <dc:format>image/svg+xml</dc:format>
        <dc:type
           rdf:resource="http://purl.org/dc/dcmitype/StillImage" />
        <dc:title />
      </cc:Work>
    </rdf:RDF>
  </metadata>
  <defs
     id="defs6">
    <filter
       style="color-interpolation-filters:sRGB"
       id="filter4375-4-1-1-1-9-5-8"
       inkscape:label="Drop Shadow">
      <feFlood
         id="feFlood4377-7-9-0-8-1-7-3"
         flood-opacity="1"
         flood-color="rgb(200,55,55)"
         result="flood" />
      <feComposite
         id="feComposite4379-3-8-8-2-77-4-1"
         in2="SourceGraphic"
         in="flood"
         operator="in"
         result="composite1" />
      <feMorphology
         id="feMorphology4393-1-0-49-8-9-3-0"
         operator="dilate"
         radius="6.2000000000000002"
         result="result3" />
      <feComposite
         id="feComposite4385-9-5-7-0-8-8-7"
         in2="result3"
         in="SourceGraphic"
         operator="over"
         result="fbSourceGraphic" />
      <feColorMatrix
         result="fbSourceGraphicAlpha"
         in="fbSourceGraphic"
         values="0 0 0 -1 0 0 0 0 -1 0 0 0 0 -1 0 0 0 0 1 0"
         id="feColorMatrix4544" />
      <feTurbulence
         id="feTurbulence4546"
         type="fractalNoise"
         numOctaves="3"
         seed="37"
         baseFrequency="0.129 0.0050000000000000001"
         result="turbulence" />
      <feDisplacementMap
         id="feDisplacementMap4548"
         in2="turbulence"
         in="fbSourceGraphic"
         scale="6.6"
         yChannelSelector="G"
         xChannelSelector="R"
         result="fbSourceGraphic" />
      <feColorMatrix
         result="fbSourceGraphicAlpha"
         in="fbSourceGraphic"
         values="0 0 0 -1 0 0 0 0 -1 0 0 0 0 -1 0 0 0 0 1 0"
         id="feColorMatrix4670" />
      <feFlood
         id="feFlood4672"
         flood-opacity="1"
         flood-color="rgb(80,22,22)"
         result="flood"
         in="fbSourceGraphic" />
      <feComposite
         id="feComposite4674"
         in2="fbSourceGraphic"
         in="flood"
         operator="in"
         result="composite1" />
      <feGaussianBlur
         id="feGaussianBlur4676"
         in="composite1"
         stdDeviation="0"
         result="blur" />
      <feOffset
         id="feOffset4678"
         dx="6"
         dy="6"
         result="offset" />
      <feComposite
         id="feComposite4680"
         in2="offset"
         in="fbSourceGraphic"
         operator="over"
         result="composite2" />
    </filter>
    <filter
       style="color-interpolation-filters:sRGB"
       id="filter4375-4-1-1-1-9-5-8-0"
       inkscape:label="Drop Shadow">
      <feFlood
         id="feFlood4377-7-9-0-8-1-7-3-9"
         flood-opacity="1"
         flood-color="rgb(200,55,55)"
         result="flood" />
      <feComposite
         id="feComposite4379-3-8-8-2-77-4-1-3"
         in2="SourceGraphic"
         in="flood"
         operator="in"
         result="composite1" />
      <feMorphology
         id="feMorphology4393-1-0-49-8-9-3-0-6"
         operator="dilate"
         radius="6.2000000000000002"
         result="result3" />
      <feComposite
         id="feComposite4385-9-5-7-0-8-8-7-0"
         in2="result3"
         in="SourceGraphic"
         operator="over"
         result="fbSourceGraphic" />
      <feColorMatrix
         result="fbSourceGraphicAlpha"
         in="fbSourceGraphic"
         values="0 0 0 -1 0 0 0 0 -1 0 0 0 0 -1 0 0 0 0 1 0"
         id="feColorMatrix4544-6" />
      <feTurbulence
         id="feTurbulence4546-2"
         type="fractalNoise"
         numOctaves="3"
         seed="37"
         baseFrequency="0.129 0.0050000000000000001"
         result="turbulence" />
      <feDisplacementMap
         id="feDisplacementMap4548-6"
         in2="turbulence"
         in="fbSourceGraphic"
         scale="6.6"
         yChannelSelector="G"
         xChannelSelector="R"
         result="fbSourceGraphic" />
      <feColorMatrix
         result="fbSourceGraphicAlpha"
         in="fbSourceGraphic"
         values="0 0 0 -1 0 0 0 0 -1 0 0 0 0 -1 0 0 0 0 1 0"
         id="feColorMatrix4670-1" />
      <feFlood
         id="feFlood4672-8"
         flood-opacity="1"
         flood-color="rgb(80,22,22)"
         result="flood"
         in="fbSourceGraphic" />
      <feComposite
         id="feComposite4674-7"
         in2="fbSourceGraphic"
         in="flood"
         operator="in"
         result="composite1" />
      <feGaussianBlur
         id="feGaussianBlur4676-9"
         in="composite1"
         stdDeviation="0"
         result="blur" />
      <feOffset
         id="feOffset4678-2"
         dx="6"
         dy="6"
         result="offset" />
      <feComposite
         id="feComposite4680-0"
         in2="offset"
         in="fbSourceGraphic"
         operator="over"
         result="composite2" />
    </filter>
    <filter
       style="color-interpolation-filters:sRGB"
       id="filter4375-4-1-1-1-9-5-8-0-9"
       inkscape:label="Drop Shadow">
      <feFlood
         id="feFlood4377-7-9-0-8-1-7-3-9-2"
         flood-opacity="1"
         flood-color="rgb(200,55,55)"
         result="flood" />
      <feComposite
         id="feComposite4379-3-8-8-2-77-4-1-3-2"
         in2="SourceGraphic"
         in="flood"
         operator="in"
         result="composite1" />
      <feMorphology
         id="feMorphology4393-1-0-49-8-9-3-0-6-8"
         operator="dilate"
         radius="6.2000000000000002"
         result="result3" />
      <feComposite
         id="feComposite4385-9-5-7-0-8-8-7-0-9"
         in2="result3"
         in="SourceGraphic"
         operator="over"
         result="fbSourceGraphic" />
      <feColorMatrix
         result="fbSourceGraphicAlpha"
         in="fbSourceGraphic"
         values="0 0 0 -1 0 0 0 0 -1 0 0 0 0 -1 0 0 0 0 1 0"
         id="feColorMatrix4544-6-7" />
      <feTurbulence
         id="feTurbulence4546-2-3"
         type="fractalNoise"
         numOctaves="3"
         seed="37"
         baseFrequency="0.129 0.0050000000000000001"
         result="turbulence" />
      <feDisplacementMap
         id="feDisplacementMap4548-6-6"
         in2="turbulence"
         in="fbSourceGraphic"
         scale="6.6"
         yChannelSelector="G"
         xChannelSelector="R"
         result="fbSourceGraphic" />
      <feColorMatrix
         result="fbSourceGraphicAlpha"
         in="fbSourceGraphic"
         values="0 0 0 -1 0 0 0 0 -1 0 0 0 0 -1 0 0 0 0 1 0"
         id="feColorMatrix4670-1-1" />
      <feFlood
         id="feFlood4672-8-2"
         flood-opacity="1"
         flood-color="rgb(80,22,22)"
         result="flood"
         in="fbSourceGraphic" />
      <feComposite
         id="feComposite4674-7-9"
         in2="fbSourceGraphic"
         in="flood"
         operator="in"
         result="composite1" />
      <feGaussianBlur
         id="feGaussianBlur4676-9-3"
         in="composite1"
         stdDeviation="0"
         result="blur" />
      <feOffset
         id="feOffset4678-2-1"
         dx="6"
         dy="6"
         result="offset" />
      <feComposite
         id="feComposite4680-0-9"
         in2="offset"
         in="fbSourceGraphic"
         operator="over"
         result="composite2" />
    </filter>
  </defs>
  <sodipodi:namedview
     pagecolor="#ffffff"
     bordercolor="#666666"
     borderopacity="1"
     objecttolerance="10"
     gridtolerance="10"
     guidetolerance="10"
     inkscape:pageopacity="0"
     inkscape:pageshadow="2"
     inkscape:window-width="1920"
     inkscape:window-height="967"
     id="namedview4"
     showgrid="false"
     inkscape:zoom="0.40000002"
     inkscape:cx="890.37675"
     inkscape:cy="2245.2415"
     inkscape:window-x="0"
     inkscape:window-y="72"
     inkscape:window-maximized="1"
     inkscape:current-layer="layer3"
     inkscape:snap-global="false"
     inkscape:document-rotation="0" />
  <g
     inkscape:groupmode="layer"
     id="layer2"
     inkscape:label="artwork"
     sodipodi:insensitive="true">
    <image
       sodipodi:absref="/felles/omsetting/pepper-carrot/webcomics/ep24_The-Unity-Tree/lang/gfx_Pepper-and-Carrot_by-David-Revoy_E24P04.png"
       xlink:href="../gfx_Pepper-and-Carrot_by-David-Revoy_E24P04.png"
       width="2481"
       height="3503"
       id="image10"
       x="0"
       y="0" />
  </g>
  <g
     inkscape:groupmode="layer"
     id="layer3"
     inkscape:label="speechbubbles"
     style="display:inline">
    <path
       style="color:#000000;display:inline;overflow:visible;visibility:visible;fill:#ffffff;fill-opacity:1;fill-rule:nonzero;stroke:none;stroke-width:1px;marker:none;enable-background:accumulate"
       d="m 279.8034,175.91178 c -6.62854,18.3782 -44.01441,19.91929 -57.77718,16.1836 27.74256,20.5594 26.77539,33.33329 -10.8912,35.31667 63.16752,37.05342 11.54787,31.44637 1.36626,40.84206 49.5982,12.76942 27.40745,28.6613 18.57725,44.48137 57.00822,0.54339 38.35203,25.90245 40.75482,46.09931 4.83291,-9.47726 27.79279,-38.33026 29.17428,-6.20439 37.70762,-30.64981 83.12549,-50.44806 86.7318,3.18923 15.19304,-26.98345 30.34047,-38.38776 29.17428,-6.20439 37.64358,-41.85853 71.47155,-26.79142 105.49999,-14.96063 8.9374,-12.63389 9.97878,-32.04321 38.89335,-27.49474 -4.05416,-12.52246 5.70861,-21.13035 27.75619,-26.24207 -29.29774,-7.56446 -34.69721,-15.36702 19.7021,-23.76378 -41.39468,-0.8122 -79.99552,-2.47623 -31.43053,-31.11163 -15.23618,-0.6929 -51.38564,23.20127 -34.53134,-46.72553 -26.19947,22.38601 -54.15196,34.74151 -89.2069,-12.15147 -16.58978,23.4268 -45.36436,35.01932 -57.88273,5.75738 -4.49936,12.47488 -23.15609,17.16648 -38.99427,17.73544 -6.12465,-4.95527 -12.44151,-11.68577 -19.03345,-20.50381 -10.77397,18.51555 -26.89066,31.02013 -57.88272,5.75738 z"
       id="path3549-3-7"
       inkscape:connector-curvature="0"
       sodipodi:nodetypes="cccccccccccccccccccc" />
    <path
       style="fill:#ffffff;fill-opacity:1;stroke:none;stroke-width:1"
       d="m 123.05502,483.31933 c -8.58037,-142.68983 79.74762,-215.58612 318.28199,-209.10021 238.53436,6.48578 258.4293,63.30729 293.95781,110.98558 32.9045,86.48895 -7.47304,185.46873 -155.05544,240.59894 -147.5824,55.12999 -326.47418,10.93513 -380.97917,-29.60179 -41.05359,-30.53273 -74.48913,-75.58867 -76.20519,-112.88252 z"
       id="path3238"
       inkscape:connector-curvature="0"
       sodipodi:nodetypes="csccsc" />
    <path
       style="color:#000000;display:inline;overflow:visible;visibility:visible;fill:#ffffff;fill-opacity:1;fill-rule:nonzero;stroke:none;stroke-width:0.99999994px;marker:none;enable-background:accumulate"
       d="M 596.21217,741.80339 C 501.79196,722.52725 437.83691,642.18346 443.09216,578.88932 l -19.71491,23.41057 c -31.12393,-38.05864 -21.85913,123.01364 172.83492,139.5035 z"
       id="path3072-1"
       inkscape:connector-curvature="0"
       sodipodi:nodetypes="cccc" />
    <path
       style="fill:#ffffff;fill-opacity:1;stroke:none;stroke-width:0.999998"
       d="m 2305.2255,1785.8277 c 2.2523,77.98 -20.9503,132.3159 -204.6339,133.1555 -155.7501,0.7119 -176.1973,-69.4014 -185.9725,-116.5214 -9.7752,-47.12 8.4064,-132.8106 73.4845,-173.5621 76.0299,-29.5013 239.9771,-23.3934 277.0038,21.9954 23.4763,28.7782 37.8658,56.9526 40.1181,134.9326 z"
       id="path3238-4"
       inkscape:connector-curvature="0"
       sodipodi:nodetypes="zszcsz" />
    <path
       style="color:#000000;display:inline;overflow:visible;visibility:visible;fill:#ffffff;fill-opacity:1;fill-rule:nonzero;stroke:none;stroke-width:0.99999994px;marker:none;enable-background:accumulate"
       d="m 1974.4716,1474.8738 c 77.6678,42.426 102.483,122.4068 71.5737,169.065 l 27.5491,-12.0352 c 12.5064,38.13 70.6344,-87.2598 -99.1228,-157.0298 z"
       id="path3072-1-7"
       inkscape:connector-curvature="0"
       sodipodi:nodetypes="cccc" />
    <path
       style="color:#000000;display:inline;overflow:visible;visibility:visible;fill:#ffffff;fill-opacity:1;fill-rule:nonzero;stroke:none;stroke-width:0.99999988px;marker:none;enable-background:accumulate"
       d="m 49.135665,2085.0889 c 10.779866,-64.1017 101.196445,-108.8022 328.786845,-90.6267 121.90969,9.7356 265.28039,20.6354 250.90728,114.5777 -14.37325,93.9423 -234.91333,80.3558 -276.23631,81.4609 -41.323,1.1055 -246.1444,3.1723 -281.860913,-29.865 -22.357714,-20.6806 -23.393524,-55.6531 -21.596902,-75.5469 z"
       id="path4546"
       inkscape:connector-curvature="0"
       sodipodi:nodetypes="cssssc" />
    <path
       style="fill:#ffffff;fill-opacity:1;fill-rule:evenodd;stroke:none;stroke-width:1px;stroke-linecap:butt;stroke-linejoin:miter;stroke-opacity:1"
       d="m 701.27055,3297.9669 c -13.05116,-8.3218 3.15189,-18.7638 16.0707,-22.4599 14.48304,-6.8744 33.09094,-6.8194 50.48175,-6.3027 17.29999,1.352 29.98244,-5.27 41.21583,-12.1154 17.78001,-8.8817 43.59643,-11.9296 64.57771,-5.4527 15.59346,4.415 33.62531,9.8428 50.71722,4.778 20.38282,-5.1258 46.32774,-9.611 66.00224,-1.1515 13.9957,9.8244 37.2324,5.6471 54.3543,1.7701 21.9915,-4.5481 46.0603,-7.3093 68.7751,-2.8986 15.061,2.5816 33.7391,3.8416 41.1694,13.568 8.9684,10.6522 18.6166,23.368 39.6201,26.5604 14.8669,2.7568 36.2529,4.4272 39.9957,15.516 -0.4356,9.8954 -8.3073,19.6529 -15.4664,28.2714 -21.1662,11.1665 -53.6304,2.5793 -80.5105,5.6713 -17.5757,1.9912 -34.1107,6.3681 -48.6652,12.6071 -23.7399,7.2786 -51.0744,1.3595 -75.7681,6.1031 -29.12153,4.4331 -60.37336,3.7873 -87.96545,11.7691 -31.41935,7.417 -68.38443,5.0132 -95.95344,-6.9075 -11.83218,-5.9244 -26.82052,-8.1452 -41.88725,-7.0123 -20.12555,0.3998 -30.4508,2.3025 -45.31619,-7.8758 -11.91668,-7.2593 -8.71102,-4.964 -16.64883,-13.0375 -8.29881,-7.9711 -27.57326,-9.7059 -33.36709,-19.1363 -4.43794,-7.794 10.952,-14.1129 8.5684,-22.2643 z"
       id="path4367"
       inkscape:connector-curvature="0"
       sodipodi:nodetypes="ccccccccccccccccccccccc" />
    <path
       style="fill:#ffffff;fill-rule:evenodd;stroke:none;stroke-width:0.99999994px;stroke-linecap:butt;stroke-linejoin:miter;stroke-opacity:1"
       d="m 1594.7419,3236.6182 c -11.4509,13.0999 -24.084,27.8029 -41.5409,31.9595 -14.1963,2.2332 -25.0539,-11.0023 -29.9684,-23.0957 -1.5753,-3.6016 -2.9366,-7.295 -4.264,-10.9971 -4.1246,13.7157 -9.8255,30.4006 -24.4105,35.5084 -5.5033,1.1883 -11.451,-2.7017 -15.3344,-4.6436 -12.2095,36.6802 -19.3389,25.6974 -35.4175,8.2636 9.1702,30.5724 -8.2093,43.5245 -21.1631,41.9227 -1.4795,0.1649 -5.3579,-1.6289 -2.968,0.9385 25.6806,7.1715 24.8624,22.3151 3.915,35.6445 11.0091,-4.2197 26.5048,-4.2432 33.2025,7.339 2.8593,4.8779 3.663,10.6602 4.0851,16.2361 8.6829,-8.964 23.8183,-15.3084 34.7781,-6.7504 7.7225,5.0749 11.8864,15.5036 15.6182,22.2998 7.0592,-11.7364 16.9275,-25.8985 31.891,-25.8734 6.4024,0.809 11.3271,5.9231 14.5401,11.2961 6.787,-11.6815 22.3501,-19.7669 34.8415,-12.4174 6.4423,3.1666 11.4996,8.4871 16.6873,13.3714 0.2902,-12.9646 10.4432,-26.7779 24.1181,-25.5814 2.7704,-0.2465 6.9182,0.7691 8.6044,0.5773 -9.3588,-10.9029 -12.0471,-28.6338 -2.396,-40.2436 0.8127,-2.177 5.9861,-5.8504 4.253,-6.6634 -17.0179,1.7618 -34.1545,-6.7674 -21.8549,-25.5969 -23.1872,6.1967 -34.6803,-14.6318 -25.2263,-45.8259 -0.6635,0.7774 -1.3268,1.5547 -1.9903,2.3319 z"
       id="path1331"
       inkscape:connector-curvature="0"
       sodipodi:nodetypes="ccccccccccccccccccccccccc" />
    <path
       style="display:inline;fill:#ffffff;fill-rule:evenodd;stroke:none;stroke-width:1px;stroke-linecap:butt;stroke-linejoin:miter;stroke-opacity:1"
       d="m 1905.4938,3200.4328 c 46.0266,27.5237 72.2439,16.331 71.4539,-47.6471 21.959,69.1361 37.1976,84.5986 46.2349,50.5348 29.0722,29.2792 47.2303,21.0662 61.6466,0 5.3733,27.0926 16.8964,16.1598 26.8691,14.814 3.2845,6.1295 -7.9967,21.3579 37.5795,1.0684 2.9523,8.113 6.9291,15.0997 33.6253,-2.8877 6.9162,32.9299 29.1064,-1.825 51.8392,-38.984 -14.1631,45.6837 -8.2903,52.1363 9.8075,34.6524 -8.2742,18.8129 -13.2229,33.3763 18.2138,1.4439 -10.7624,34.7248 17.4724,10.8898 63.0475,-38.9839 -22.7973,36.8663 -83.2507,99.0018 -43.4328,93.8501 -5.5528,10.8684 -25.3596,20.3376 33.6254,37.5401 -11.0116,7.3751 -44.6301,-3.4021 -16.5863,27.824 3.7573,3.6501 -8.8213,5.879 15.1853,15.4914 -14.1714,-0.6538 -22.8622,1.6824 -9.8075,15.8825 -25.8678,-0.7678 -16.1892,14.1637 2.8021,33.2085 -37.4602,-24.429 -39.5218,-15.5505 -40.6308,-5.7754 -46.9485,-33.305 -49.7044,-22.8191 -56.0421,-15.8823 -22.8839,0.2598 -45.768,-3.9343 -68.652,33.2085 -5.9929,-23.1019 -18.0082,-40.8842 -68.6517,-24.5454 22.2364,-29.3896 -9.3977,-10.6653 -33.6253,1.4438 13.2675,-36.7149 -20.4037,-12.619 -63.0477,23.1016 23.8805,-40.5435 -3.2422,-25.8982 -43.4328,2.8877 15.1852,-39.8299 -9.5455,-59.0922 -68.6519,-60.6416 28.2902,-14.3672 44.7873,-32.4479 15.4117,-64.9734 33.1148,9.5773 42.9925,0.6814 19.6148,-34.6523 36.1194,29.0016 19.6972,-13.0639 5.6043,-51.9786 z"
       id="path4508"
       inkscape:connector-curvature="0"
       sodipodi:nodetypes="cccccccccccccccccccccccccccc" />
    <path
       style="fill:#ffffff;stroke:none;stroke-width:1"
       d="m 1850.3937,2287.2927 c 4.8333,-50.402 24.5979,-96.8704 220.699,-103.5158 199.5097,-6.7609 297.7049,35.4894 294.4841,97.0645 -4.4825,85.6956 -107.6914,81.6161 -256.0101,84.9466 -152.9005,3.4335 -250.8109,-1.599 -259.173,-78.4953 z"
       id="path3280"
       inkscape:connector-curvature="0"
       sodipodi:nodetypes="csssc" />
    <path
       style="fill:#ffffff;stroke:none;stroke-width:1"
       d="m 237.28676,2264.0468 c -54.38249,-17.8219 -66.33148,-52.9511 -74.01784,-123.2551 -4.65716,-42.5973 9.48134,-57.6606 9.48134,-57.6606 l -35.68519,18.4405 -0.11203,17.0646 c 0,0 -15.3368,56.7167 16.55537,100.1244 15.1088,20.5643 40.81747,38.1415 83.77835,45.2862 z"
       id="path3063"
       inkscape:connector-curvature="0"
       sodipodi:nodetypes="cscccsc" />
  </g>
  <g
     inkscape:groupmode="layer"
     id="layer1"
     inkscape:label="txt"
     style="display:inline">
    <text
       xml:space="preserve"
       style="font-style:normal;font-variant:normal;font-weight:normal;font-stretch:normal;font-size:16.2325px;line-height:0%;font-family:Lavi;-inkscape-font-specification:Lavi;text-align:center;letter-spacing:0px;word-spacing:0px;text-anchor:middle;fill:#000000;fill-opacity:1;stroke:none;stroke-width:1"
       x="397.48065"
       y="268.0585"
       id="text4246"><tspan
         sodipodi:role="line"
         style="font-size:60.8719px;line-height:1.25;stroke-width:1"
         x="397.48065"
         y="268.0585"
         id="tspan4252">Dødskult!</tspan></text>
    <text
       xml:space="preserve"
       style="font-style:normal;font-variant:normal;font-weight:normal;font-stretch:normal;line-height:0%;font-family:Lavi;-inkscape-font-specification:Lavi;text-align:center;letter-spacing:0px;word-spacing:0px;text-anchor:middle;fill:#000000;fill-opacity:1;stroke:none"
       x="426.28906"
       y="363.84122"
       id="text4246-3"><tspan
         sodipodi:role="line"
         style="font-size:45px;line-height:1.25"
         x="426.28906"
         y="363.84122"
         id="tspan855">Det er ei boble som</tspan><tspan
         sodipodi:role="line"
         style="font-size:45px;line-height:1.25"
         x="426.28906"
         y="420.09122"
         id="tspan924">inneheld berre den delen</tspan><tspan
         sodipodi:role="line"
         style="font-size:45px;line-height:1.25"
         x="426.28906"
         y="476.34122"
         id="tspan926">av biblioteket eg treng –</tspan><tspan
         sodipodi:role="line"
         style="font-size:45px;line-height:1.25"
         x="426.28906"
         y="532.59119"
         id="tspan917">og er heilt isolert</tspan><tspan
         sodipodi:role="line"
         style="font-size:45px;line-height:1.25"
         x="426.28906"
         y="588.84119"
         id="tspan928">frå vår eiga verd.</tspan></text>
    <text
       xml:space="preserve"
       style="font-style:normal;font-variant:normal;font-weight:normal;font-stretch:normal;line-height:0%;font-family:Lavi;-inkscape-font-specification:Lavi;text-align:center;letter-spacing:0px;word-spacing:0px;text-anchor:middle;fill:#000000;fill-opacity:1;stroke:none"
       x="2109.3833"
       y="1691.9204"
       id="text4246-3-7"><tspan
         sodipodi:role="line"
         style="font-size:45px;line-height:1.25"
         x="2109.3833"
         y="1691.9204"
         id="tspan907">Ei perfekt</tspan><tspan
         sodipodi:role="line"
         style="font-size:45px;line-height:1.25"
         x="2109.3833"
         y="1748.1704"
         id="tspan935">leikegrind for</tspan><tspan
         sodipodi:role="line"
         style="font-size:45px;line-height:1.25"
         x="2109.3833"
         y="1804.4204"
         id="tspan923">utprøving av</tspan><tspan
         sodipodi:role="line"
         style="font-size:45px;line-height:1.25"
         x="2109.3833"
         y="1860.6704"
         id="tspan937">trylleformlar.</tspan></text>
    <text
       xml:space="preserve"
       style="font-style:normal;font-variant:normal;font-weight:normal;font-stretch:normal;line-height:0%;font-family:Lavi;-inkscape-font-specification:Lavi;text-align:center;letter-spacing:0px;word-spacing:0px;text-anchor:middle;fill:#000000;fill-opacity:1;stroke:none"
       x="347.65967"
       y="2080.4031"
       id="text4246-3-7-9"><tspan
         sodipodi:role="line"
         style="font-size:45px;line-height:1.25"
         x="347.65967"
         y="2080.4031"
         id="tspan940">No kan eg konsentrera</tspan><tspan
         sodipodi:role="line"
         style="font-size:45px;line-height:1.25"
         x="347.65967"
         y="2136.6531"
         id="tspan941">meg om meisterverket!</tspan></text>
    <text
       xml:space="preserve"
       style="font-style:normal;font-variant:normal;font-weight:normal;font-stretch:normal;font-size:51.7314px;line-height:0.01%;font-family:Arial;-inkscape-font-specification:Arial;letter-spacing:0.0088361px;word-spacing:0px;display:inline;fill:#faedf6;fill-opacity:1;stroke:#fff3fa;stroke-width:1.626;stroke-miterlimit:4;stroke-dasharray:none;stroke-opacity:1"
       x="1308.5319"
       y="3636.3977"
       id="text1105"
       transform="matrix(1.1211525,-0.41389973,-0.28840838,0.99841201,0,0)"><tspan
         sodipodi:role="line"
         x="1329.4746"
         y="3636.3977"
         id="tspan1103"
         style="font-style:normal;font-variant:normal;font-weight:normal;font-stretch:normal;font-family:Lavi;-inkscape-font-specification:Lavi;fill:#faedf6;fill-opacity:1;stroke:#fff3fa;stroke-width:1.626;stroke-miterlimit:4;stroke-dasharray:none;stroke-opacity:1"><tspan
           x="1329.4746"
           y="3636.3977"
           style="font-style:normal;font-variant:normal;font-weight:normal;font-stretch:normal;font-size:42.7183px;font-family:Lavi;-inkscape-font-specification:Lavi;fill:#faedf6;fill-opacity:1;stroke:#fff3fa;stroke-width:1.626;stroke-miterlimit:4;stroke-dasharray:none;stroke-opacity:1"
           id="tspan1095">SjiiING</tspan></tspan></text>
    <text
       xml:space="preserve"
       style="font-style:normal;font-variant:normal;font-weight:normal;font-stretch:normal;line-height:0%;font-family:Lavi;-inkscape-font-specification:Lavi;letter-spacing:0px;word-spacing:0px;fill:#ffffff;fill-opacity:1;stroke:#c83737;stroke-width:0.992362;stroke-miterlimit:4;stroke-dasharray:none;stroke-opacity:1;filter:url(#filter4375-4-1-1-1-9-5-8)"
       x="787.65729"
       y="1584.5073"
       id="text4580-6-0"
       transform="matrix(0.83434398,-0.14790328,-0.40858731,0.88612324,768.47254,904.8039)"><tspan
         sodipodi:role="line"
         id="tspan4582-1-1"
         x="787.65729"
         y="1584.5073"
         style="font-size:70px;line-height:1.25;fill:#ffffff;fill-opacity:1;stroke:#c83737;stroke-opacity:1"><tspan
           style="font-size:93.1495px;fill:#ffffff;fill-opacity:1;stroke:#c83737;stroke-opacity:1"
           id="tspan4315-8">PLOooom!</tspan><tspan
           style="font-size:114.732px;fill:#ffffff;fill-opacity:1;stroke:#c83737;stroke-opacity:1"
           id="tspan4313-2">!</tspan></tspan></text>
    <text
       xml:space="preserve"
       style="font-style:normal;font-variant:normal;font-weight:normal;font-stretch:normal;line-height:0%;font-family:Lavi;-inkscape-font-specification:Lavi;letter-spacing:0px;word-spacing:0px;fill:#ffffff;fill-opacity:1;stroke:#c83737;stroke-width:0.992362;stroke-miterlimit:4;stroke-dasharray:none;stroke-opacity:1;filter:url(#filter4375-4-1-1-1-9-5-8-0)"
       x="787.65729"
       y="1584.5073"
       id="text4580-6-0-2"
       transform="matrix(0.83434398,-0.14790328,-0.40858731,0.88612324,1358.123,876.325)"><tspan
         sodipodi:role="line"
         id="tspan4582-1-1-3"
         x="787.65729"
         y="1584.5073"
         style="font-size:70px;line-height:1.25;fill:#ffffff;fill-opacity:1;stroke:#c83737;stroke-opacity:1"><tspan
           style="font-size:93.1495px;fill:#ffffff;fill-opacity:1;stroke:#c83737;stroke-opacity:1"
           id="tspan4315-8-7">Dhoooff!</tspan><tspan
           style="font-size:114.732px;fill:#ffffff;fill-opacity:1;stroke:#c83737;stroke-opacity:1"
           id="tspan4313-2-5">!</tspan></tspan></text>
    <text
       xml:space="preserve"
       style="font-style:normal;font-variant:normal;font-weight:normal;font-stretch:normal;line-height:0%;font-family:Lavi;-inkscape-font-specification:Lavi;letter-spacing:0px;word-spacing:0px;fill:#ffffff;fill-opacity:1;stroke:#c83737;stroke-width:0.992362;stroke-miterlimit:4;stroke-dasharray:none;stroke-opacity:1;filter:url(#filter4375-4-1-1-1-9-5-8-0-9)"
       x="787.65729"
       y="1584.5073"
       id="text4580-6-0-2-4"
       transform="matrix(0.83434398,-0.14790328,-0.40858731,0.88612324,1943.5394,867.70579)"><tspan
         sodipodi:role="line"
         id="tspan4582-1-1-3-7"
         x="787.65729"
         y="1584.5073"
         style="font-size:70px;line-height:1.25;fill:#ffffff;fill-opacity:1;stroke:#c83737;stroke-opacity:1"><tspan
           style="font-size:93.1495px;fill:#ffffff;fill-opacity:1;stroke:#c83737;stroke-opacity:1"
           id="tspan4315-8-7-8">Tsjting!</tspan><tspan
           style="font-size:114.732px;fill:#ffffff;fill-opacity:1;stroke:#c83737;stroke-opacity:1"
           id="tspan4313-2-5-4">!</tspan></tspan></text>
    <text
       xml:space="preserve"
       style="font-style:normal;font-variant:normal;font-weight:normal;font-stretch:normal;line-height:0%;font-family:Lavi;-inkscape-font-specification:Lavi;text-align:center;letter-spacing:0px;word-spacing:0px;text-anchor:middle;fill:#000000;fill-opacity:1;stroke:none"
       x="965.36829"
       y="3324.7639"
       id="text4246-3-7-9-5"><tspan
         sodipodi:role="line"
         style="font-size:45px;line-height:1.25"
         x="965.36829"
         y="3324.7639"
         id="tspan1157">He. Trur ikkje det ...</tspan></text>
    <text
       xml:space="preserve"
       style="font-style:normal;font-variant:normal;font-weight:normal;font-stretch:normal;line-height:0%;font-family:Lavi;-inkscape-font-specification:Lavi;text-align:center;letter-spacing:0px;word-spacing:0px;text-anchor:middle;fill:#000000;fill-opacity:1;stroke:none"
       x="1534.1998"
       y="3333.7178"
       id="text4246-3-7-9-5-1"><tspan
         sodipodi:role="line"
         style="font-size:45px;line-height:1.25"
         x="1534.1998"
         y="3333.7178"
         id="tspan1157-0">Æsssj!</tspan></text>
    <text
       xml:space="preserve"
       style="font-style:normal;font-variant:normal;font-weight:normal;font-stretch:normal;line-height:0%;font-family:Lavi;-inkscape-font-specification:Lavi;text-align:center;letter-spacing:0px;word-spacing:0px;text-anchor:middle;fill:#000000;fill-opacity:1;stroke:none"
       x="2103.2458"
       y="2266.656"
       id="text4246-3-7-9-5-1-6"><tspan
         sodipodi:role="line"
         style="font-size:45px;line-height:1.25"
         x="2103.2458"
         y="2266.656"
         id="tspan1197">Ja! Ser bra ut, men</tspan><tspan
         sodipodi:role="line"
         style="font-size:45px;line-height:1.25"
         x="2103.2458"
         y="2322.906"
         id="tspan945">er kanskje litt lite ...</tspan></text>
    <text
       xml:space="preserve"
       style="font-style:normal;font-variant:normal;font-weight:normal;font-stretch:normal;font-size:11.6413px;line-height:0%;font-family:Lavi;-inkscape-font-specification:Lavi;text-align:center;letter-spacing:0px;word-spacing:0px;text-anchor:middle;fill:#000000;fill-opacity:1;stroke:#000000;stroke-width:1.8;stroke-miterlimit:4;stroke-dasharray:none;stroke-opacity:1"
       x="2693.5459"
       y="3245.5388"
       id="text4246-3-7-9-5-1-6-2"
       transform="matrix(0.98783599,0,-0.17384645,1.0123138,0,0)"><tspan
         sodipodi:role="line"
         style="font-size:43.6549px;line-height:1.25;stroke:#000000;stroke-width:1.8;stroke-miterlimit:4;stroke-dasharray:none;stroke-opacity:1"
         x="2693.5459"
         y="3245.5388"
         id="tspan1222">IKKJE RØR</tspan><tspan
         sodipodi:role="line"
         style="font-size:43.6549px;line-height:1.25;stroke:#000000;stroke-width:1.8;stroke-miterlimit:4;stroke-dasharray:none;stroke-opacity:1"
         x="2693.5459"
         y="3300.1074"
         id="tspan949">DET, GULROT!</tspan></text>
    <text
       xml:space="preserve"
       style="font-style:normal;font-variant:normal;font-weight:normal;font-stretch:normal;font-size:14.5587px;line-height:0%;font-family:Lavi;-inkscape-font-specification:Lavi;text-align:center;letter-spacing:0px;word-spacing:0px;text-anchor:middle;fill:#f49474;fill-opacity:1;stroke:none;stroke-width:1"
       x="2459.8232"
       y="3396.968"
       id="text4246-3-7-9-5-1-6-2-1"
       transform="matrix(1.0600479,-0.23035956,-0.08957656,0.9628195,0,0)"><tspan
         sodipodi:role="line"
         style="font-size:54.595px;line-height:1.25;fill:#f49474;fill-opacity:1;stroke-width:0.824252"
         x="2459.8232"
         y="3396.968"
         id="tspan1222-5">?</tspan></text>
  </g>
</svg>
