<?xml version="1.0" encoding="UTF-8" standalone="no"?>
<!-- Created with Inkscape (http://www.inkscape.org/) -->

<svg
   xmlns:dc="http://purl.org/dc/elements/1.1/"
   xmlns:cc="http://creativecommons.org/ns#"
   xmlns:rdf="http://www.w3.org/1999/02/22-rdf-syntax-ns#"
   xmlns:svg="http://www.w3.org/2000/svg"
   xmlns="http://www.w3.org/2000/svg"
   xmlns:xlink="http://www.w3.org/1999/xlink"
   xmlns:sodipodi="http://sodipodi.sourceforge.net/DTD/sodipodi-0.dtd"
   xmlns:inkscape="http://www.inkscape.org/namespaces/inkscape"
   id="svg2"
   version="1.1"
   inkscape:version="0.91 r13725"
   width="2481"
   height="2479"
   sodipodi:docname="Pepper-and-Carrot_by-David-Revoy_E06P10.svg">
  <metadata
     id="metadata8">
    <rdf:RDF>
      <cc:Work
         rdf:about="">
        <dc:format>image/svg+xml</dc:format>
        <dc:type
           rdf:resource="http://purl.org/dc/dcmitype/StillImage" />
        <dc:title />
      </cc:Work>
    </rdf:RDF>
  </metadata>
  <defs
     id="defs6" />
  <sodipodi:namedview
     pagecolor="#ffffff"
     bordercolor="#666666"
     borderopacity="1"
     objecttolerance="10"
     gridtolerance="10"
     guidetolerance="10"
     inkscape:pageopacity="0"
     inkscape:pageshadow="2"
     inkscape:window-width="1920"
     inkscape:window-height="1017"
     id="namedview4"
     showgrid="false"
     inkscape:zoom="0.42532421"
     inkscape:cx="1297.8004"
     inkscape:cy="582.17739"
     inkscape:window-x="-8"
     inkscape:window-y="-8"
     inkscape:window-maximized="1"
     inkscape:current-layer="layer2"
     inkscape:object-nodes="true" />
  <g
     inkscape:groupmode="layer"
     id="layer1"
     inkscape:label="artwork"
     style="display:inline"
     sodipodi:insensitive="true">
    <image
       sodipodi:absref="H:\Pepper And Carrot\Translation\peppercarrot_ep06_translation-master\el\..\gfx_Pepper-and-Carrot_by-David-Revoy_E06P10.png"
       xlink:href="../gfx_Pepper-and-Carrot_by-David-Revoy_E06P10.png"
       width="2481"
       height="2479"
       id="image10"
       x="0"
       y="0" />
  </g>
  <g
     inkscape:groupmode="layer"
     id="layer3"
     inkscape:label="speechbubbles"
     style="display:inline">
    <path
       style="fill:#ffffff;stroke:none"
       d="m -2021.8885,646.19917 c 1.0628,-51.0158 26.5707,-103.09442 170.0526,-112.65988 143.4819,-9.56546 203.0004,48.89014 207.2517,90.34047 4.2513,41.45033 -82.9007,96.71744 -162.6129,97.78027 -79.7121,1.06282 -214.6914,-11.69112 -214.6914,-75.46086 z"
       id="path4279"
       inkscape:connector-curvature="0" />
    <path
       style="fill:#ffffff;stroke:none"
       d="m -1788.0661,898.08964 c 70.1467,-44.63882 88.2148,-124.35099 45.7016,-190.24639 -42.5132,-65.8954 -82.9007,-54.20428 -82.9007,-54.20428 l 35.0734,41.45033 c 0,0 97.7803,97.78027 2.1257,203.00034 z"
       id="path4281"
       inkscape:connector-curvature="0"
       sodipodi:nodetypes="csccc" />
  </g>
  <g
     inkscape:groupmode="layer"
     id="layer2"
     inkscape:label="text"
     style="display:inline">
    <flowRoot
       xml:space="preserve"
       id="flowRoot3027"
       style="font-style:normal;font-variant:normal;font-weight:normal;font-stretch:normal;font-size:54.60547849px;line-height:125%;font-family:VAG-HandWritten;-inkscape-font-specification:VAG-HandWritten;text-align:center;letter-spacing:0px;word-spacing:0px;text-anchor:middle;display:inline;fill:#000000;fill-opacity:1;stroke:none;"
       transform="matrix(1.2334095,0,0,1.2851851,-454.16129,-218.16449)"><flowRegion
         id="flowRegion3029"><rect
           id="rect3031"
           width="1840.5787"
           height="230.98642"
           x="454.2001"
           y="224.47961"
           style="text-align:center;text-anchor:middle;-inkscape-font-specification:VAG-HandWritten;font-family:VAG-HandWritten;font-weight:normal;font-style:normal;font-stretch:normal;font-variant:normal;font-size:54.60547849px;" /></flowRegion><flowPara
         style="font-style:normal;font-variant:normal;font-weight:normal;font-stretch:normal;font-size:54.60547849px;font-family:VAG-HandWritten;-inkscape-font-specification:VAG-HandWritten;text-align:center;text-anchor:middle;"
         id="flowPara4729">Η Πιπεριά και Καροτούλης είναι ένα εντελώς δωρεάν και ανοικτού κώδικα κόμικ, που </flowPara><flowPara
         style="font-style:normal;font-variant:normal;font-weight:normal;font-stretch:normal;font-size:54.60547849px;font-family:VAG-HandWritten;-inkscape-font-specification:VAG-HandWritten;text-align:center;text-anchor:middle;"
         id="flowPara4186">υποστηρίζεται με χορηγίες. Αυτό το επεισόδιο χρηματοδοτήθηκε από 245 χορηγούς:</flowPara></flowRoot>    <flowRoot
       xml:space="preserve"
       id="flowRoot3027-8-8"
       style="font-size:12px;font-style:normal;font-variant:normal;font-weight:normal;font-stretch:normal;text-align:center;line-height:125%;letter-spacing:0px;word-spacing:0px;text-anchor:middle;fill:#a72f14;fill-opacity:1;stroke:none;display:inline;font-family:Arial;-inkscape-font-specification:Arial"
       transform="matrix(1.2234224,0,0,1.2506407,-292.0851,1591.8779)"><flowRegion
         id="flowRegion3029-9-3"><rect
           id="rect3031-9-1"
           width="2230.314"
           height="376.21677"
           x="135.21135"
           y="219.33444"
           style="text-align:center;text-anchor:middle;fill:#a72f14;fill-opacity:1" /></flowRegion><flowPara
         id="flowPara3033-3-0" /><flowPara
         style="font-size:48px;font-style:normal;font-variant:normal;font-weight:normal;font-stretch:normal;text-align:center;text-anchor:middle;fill:#a72f14;fill-opacity:1;font-family:Lavi;-inkscape-font-specification:Lavi"
         id="flowPara3067-4">https://www.patreon.com/davidrevoy</flowPara></flowRoot>    <flowRoot
       xml:space="preserve"
       id="flowRoot3027-8-8-2"
       style="font-style:normal;font-variant:normal;font-weight:normal;font-stretch:normal;font-size:60.70145238px;line-height:125%;font-family:VAG-HandWritten;-inkscape-font-specification:VAG-HandWritten;text-align:center;letter-spacing:0px;word-spacing:0px;text-anchor:middle;display:inline;fill:#000000;fill-opacity:1;stroke:none;"
       transform="matrix(0.91226779,0,0,0.94129239,111.77333,1566.0639)"><flowRegion
         id="flowRegion3029-9-3-5"><rect
           id="rect3031-9-1-6"
           width="2222.5823"
           height="398.69684"
           x="142.94312"
           y="196.85435"
           style="font-style:normal;font-variant:normal;font-weight:normal;font-stretch:normal;font-size:60.70145416px;font-family:VAG-HandWritten;-inkscape-font-specification:VAG-HandWritten;text-align:center;text-anchor:middle" /></flowRegion><flowPara
         style="font-style:normal;font-variant:normal;font-weight:normal;font-stretch:normal;font-size:60.70145238px;font-family:VAG-HandWritten;-inkscape-font-specification:VAG-HandWritten;text-align:center;text-anchor:middle;"
         id="flowPara4735">Και εσύ μπορείς να γίνεις χορηγός</flowPara><flowPara
         style="font-style:normal;font-variant:normal;font-weight:normal;font-stretch:normal;font-size:60.70145238px;font-family:VAG-HandWritten;-inkscape-font-specification:VAG-HandWritten;text-align:center;text-anchor:middle;"
         id="flowPara4190">για το επόμενο επεισόδιο:</flowPara></flowRoot>    <flowRoot
       xml:space="preserve"
       id="flowRoot3027-8-8-2-8"
       style="font-style:normal;font-variant:normal;font-weight:normal;font-stretch:normal;font-size:12px;line-height:125%;font-family:VAG-HandWritten;-inkscape-font-specification:VAG-HandWritten;text-align:center;letter-spacing:0px;word-spacing:0px;text-anchor:middle;display:inline;fill:#000000;fill-opacity:1;stroke:none;"
       transform="matrix(0.78840156,0,0,0.8341601,254.1111,1972.1031)"><flowRegion
         id="flowRegion3029-9-3-5-1"><rect
           id="rect3031-9-1-6-8"
           width="2230.314"
           height="376.21677"
           x="135.21135"
           y="219.33444"
           style="text-align:center;text-anchor:middle;-inkscape-font-specification:VAG-HandWritten;font-family:VAG-HandWritten;font-weight:normal;font-style:normal;font-stretch:normal;font-variant:normal;" /></flowRegion><flowPara
         id="flowPara3033-3-0-2-4" /><flowPara
         style="font-style:normal;font-variant:normal;font-weight:normal;font-stretch:normal;font-size:48px;font-family:VAG-HandWritten;-inkscape-font-specification:VAG-HandWritten;text-align:center;text-anchor:middle;"
         id="flowPara3231-9">Εργαλεία: Το κόμικ δημιουργήθηκε με 100% δωρεάν λογισμικό, όπως το</flowPara><flowPara
         style="font-style:normal;font-variant:normal;font-weight:normal;font-stretch:normal;font-size:48px;font-family:VAG-HandWritten;-inkscape-font-specification:VAG-HandWritten;text-align:center;text-anchor:middle;"
         id="flowPara3279">Krita σε Linux Mint</flowPara><flowPara
         style="font-style:normal;font-variant:normal;font-weight:normal;font-stretch:normal;font-size:48px;font-family:VAG-HandWritten;-inkscape-font-specification:VAG-HandWritten;text-align:center;text-anchor:middle;"
         id="flowPara3233-6" /></flowRoot>    <flowRoot
       xml:space="preserve"
       id="flowRoot3027-8-8-2-8-6"
       style="font-style:normal;font-variant:normal;font-weight:normal;font-stretch:normal;font-size:12px;line-height:125%;font-family:VAG-HandWritten;-inkscape-font-specification:VAG-HandWritten;text-align:center;letter-spacing:0px;word-spacing:0px;text-anchor:middle;display:inline;fill:#000000;fill-opacity:1;stroke:none;"
       transform="matrix(0.78840156,0,0,0.81820527,254.19425,1910.3339)"><flowRegion
         id="flowRegion3029-9-3-5-1-2"><rect
           id="rect3031-9-1-6-8-7"
           width="2230.314"
           height="376.21677"
           x="135.21135"
           y="219.33444"
           style="text-align:center;text-anchor:middle;-inkscape-font-specification:VAG-HandWritten;font-family:VAG-HandWritten;font-weight:normal;font-style:normal;font-stretch:normal;font-variant:normal;" /></flowRegion><flowPara
         id="flowPara3033-3-0-2-4-3" /><flowPara
         style="font-style:normal;font-variant:normal;font-weight:normal;font-stretch:normal;font-size:48px;font-family:VAG-HandWritten;-inkscape-font-specification:VAG-HandWritten;text-align:center;text-anchor:middle;"
         id="flowPara3278">Ακοικτού Κώδικα: Όλα τα εργαλεία βρίσκονται στο site</flowPara><flowPara
         style="font-style:normal;font-variant:normal;font-weight:normal;font-stretch:normal;font-size:48px;font-family:VAG-HandWritten;-inkscape-font-specification:VAG-HandWritten;text-align:center;text-anchor:middle;"
         id="flowPara3233-6-14" /></flowRoot>    <flowRoot
       xml:space="preserve"
       id="flowRoot3027-8-8-2-8-6-3"
       style="font-style:normal;font-variant:normal;font-weight:normal;font-stretch:normal;font-size:12px;line-height:125%;font-family:VAG-HandWritten;-inkscape-font-specification:VAG-HandWritten;text-align:center;letter-spacing:0px;word-spacing:0px;text-anchor:middle;display:inline;fill:#000000;fill-opacity:1;stroke:none"
       transform="matrix(0.78840156,0,0,0.83353067,240.22729,1774.1386)"><flowRegion
         id="flowRegion3029-9-3-5-1-2-8"><rect
           id="rect3031-9-1-6-8-7-4"
           width="2224.3496"
           height="395.96173"
           x="141.17569"
           y="199.58948"
           style="font-style:normal;font-variant:normal;font-weight:normal;font-stretch:normal;font-family:VAG-HandWritten;-inkscape-font-specification:VAG-HandWritten;text-align:center;text-anchor:middle" /></flowRegion><flowPara
         id="flowPara3033-3-0-2-4-3-2" /><flowPara
         style="font-style:normal;font-variant:normal;font-weight:normal;font-stretch:normal;font-size:48px;font-family:VAG-HandWritten;-inkscape-font-specification:VAG-HandWritten;text-align:center;text-anchor:middle"
         id="flowPara3278-7"><flowSpan
   style="font-style:normal;font-variant:normal;font-weight:normal;font-stretch:normal;font-size:53.96889496px;font-family:VAG-HandWritten;-inkscape-font-specification:VAG-HandWritten"
   id="flowSpan4192">Άδεια</flowSpan> : Creative Commons Attribution</flowPara><flowPara
         style="font-style:normal;font-variant:normal;font-weight:normal;font-stretch:normal;font-size:48px;font-family:VAG-HandWritten;-inkscape-font-specification:VAG-HandWritten;text-align:center;text-anchor:middle"
         id="flowPara3318">μπορείτε να κάνετε αλλαγές, να το επανεκδώσετε, </flowPara><flowPara
         style="font-style:normal;font-variant:normal;font-weight:normal;font-stretch:normal;font-size:48px;font-family:VAG-HandWritten;-inkscape-font-specification:VAG-HandWritten;text-align:center;text-anchor:middle"
         id="flowPara4196">να πουλήσετε προϊόντα σχετικά με το κόμικ κλπ...</flowPara><flowPara
         style="font-style:normal;font-variant:normal;font-weight:normal;font-stretch:normal;font-size:48px;font-family:VAG-HandWritten;-inkscape-font-specification:VAG-HandWritten;text-align:center;text-anchor:middle"
         id="flowPara3233-6-14-6" /></flowRoot>    <flowRoot
       xml:space="preserve"
       id="flowRoot2987"
       style="font-size:12px;font-style:normal;font-variant:normal;font-weight:normal;font-stretch:normal;text-align:justify;line-height:125%;letter-spacing:0px;word-spacing:0px;text-anchor:start;fill:#000000;fill-opacity:1;stroke:none;display:inline;font-family:Arial;-inkscape-font-specification:Arial"
       transform="matrix(0.79948741,0,0,0.82559177,162.39654,-69.158693)"><flowRegion
         id="flowRegion2989"><rect
           id="rect2991"
           width="2996.0627"
           height="2440.8586"
           x="-141.0901"
           y="266.68515"
           style="text-align:justify;text-anchor:start" /></flowRegion><flowPara
         style="font-size:47.11256409px;font-style:normal;font-variant:normal;font-weight:normal;font-stretch:normal;text-align:justify;line-height:150%;writing-mode:lr-tb;text-anchor:start;font-family:Lavi;-inkscape-font-specification:Lavi"
         id="flowPara3241" /><flowPara
         style="font-size:47.11256409px;font-style:normal;font-variant:normal;font-weight:normal;font-stretch:normal;text-align:justify;line-height:120.00000477%;writing-mode:lr-tb;text-anchor:start;font-family:Lavi;-inkscape-font-specification:Lavi"
         id="flowPara3095" /><flowPara
         style="font-size:47.11256409px;font-style:normal;font-variant:normal;font-weight:normal;font-stretch:normal;text-align:justify;line-height:120.00000477%;writing-mode:lr-tb;text-anchor:start;font-family:Lavi;-inkscape-font-specification:Lavi"
         id="flowPara3111">Алексей ★ Глеб Бузало ★ 獨孤欣 &amp; 獨弧悦 ★ Addison Lewis ★ A Distinguished Robot ★ Adrian Lord ★ Ahmad Ali ★ Aina Reich ★ Alandran  ★ Alan Hardman ★ Albert Westra ★ Alcide  ★ Alejandro Flores Prieto ★ Alex ★ Alexander Bülow Tomassen ★ Alexander Sopicki ★ Alexandra Jordan ★ Alex Lusco ★ Alex Silver ★ Alex Vandiver ★ Alfredo ★ Ali Poulton (Aunty Pol) ★ Allan Zieser ★ Andreas Rieger ★ Andrej Kwadrin ★ Andrew  ★ Andrew Godfrey ★ Andrey Alekseenko ★ Angela K ★ Anna Orlova ★ Antan Karmola ★ Anthony Edlin ★ Antonio Mendoza ★ Ardash Crowfoot ★ Arjun Chennu ★ Arne Brix ★ Aslak Kjølås-Sæverud ★ Axel Bordelon ★ Axel Philipsenburg ★ Barbix ★ Ben Evans ★ Bernd  ★ Betsy Luntao ★ Boonsak Watanavisit ★ Boris Fauret ★ Boudewijn Rempt ★ BoxBoy ★ Brett Smith ★ Brian Behnke ★ Brian Smith ★ Bryan Butler ★ Bui Dang Hai Trieu ★ Carlos Levischi ★ Charlotte Lacombe-bar ★ Chris Radcliff ★ Chris Sakkas ★ Christian Gruenwaldner ★ Christophe Carré ★ Christopher Bates ★ Clara Dexter ★ codl ★ Colby Driedger ★ Conway Scott Smith ★ Cuthbert Williams  ★ Cyrille Largillier ★ Cyril Paciullo ★ Damien  ★ Daniel ★ Daniel Björkman ★ Danny Grimm ★ David Tang ★ DiCola Jamn ★ Dmitry  ★ Donald Hayward ★ Duke ★ Eitan Goldshtrom ★ Enrico Billich ★ Epsilon ★ Eric Schulz ★ Faolan Grady ★ Francois Schnell ★ Garret Patterson ★ Ginny Hendricks ★ GreenAngel5  ★ Grigory Petrov ★ Guillaume  ★ Guillaume Ballue ★ Gustav Strömbom ★ Guy Davis ★ Happy Mimic ★ Helmar Suschka ★ Henning Döscher ★ Ilyas  ★ Irina Rempt ★ Ivan Korotkov ★ James Frazier ★ Janusz  ★ Jared Tritsch ★ JDB  ★ Jean-Baptiste Hebbrecht ★ Jean-Gabriel LOQUET ★ Jeffrey Schneider ★ Jessey Wright ★ Jim  ★ Jim Street ★ Jiska  ★ Joachim Schiele ★ JoÃ£o Luiz Machado Junior ★ Joern Konopka ★ joe rutledge ★ Johanne Thomson ★ John ★ John Urquhart Ferguson ★ Jónatan Nilsson ★ Jonathan Leroy ★ Jonathan Ringstad ★ Jon Brake ★ Jorge Bernal ★ Joseph Bowman ★ Julien Duroure ★ Justus Kat ★ Kai-Ting (Danil) Ko ★ Kasper Hansen ★ Kate  ★ Kathryn Wuerstl ★ Ken Mingyuan Xia ★ Kingsquee ★ Kroet ★ Levi Kornelsen ★ Liselle  ★ Lorentz Grip ★ L S ★ Luc Stepniewski ★ Luke Hochrein ★ MacCoy  ★ Magnus Kronnäs ★ Manuel ★ Marc &amp; Rick ★ Marcus ★ Martin Owens ★ Mary Brownlee ★ Masked Admirer ★ Mathias Stærk ★ Mefflin Ross Bullis-bates ★ Michael ★ Michael Gill ★ Michael Pureka ★ Michelle Pereira Garcia ★ Mike Mosher ★ Miroslav  ★ Muzyka Dmytro ★ Nataya Castillo ★ Nazhif  ★ Nicholas DeLateur ★ Nicholas Terranova ★ Nicki Aya ★ Nicola Angel ★ Nicolae Berbece ★ Nicole Heersema ★ Nielas Sinclair ★ NinjaKnight Comics ★ Noble Hays ★ Noelia Calles Marcos ★ Nora Czaykowski ★ Nyx  ★ Olivier Amrein ★ Olivier Brun ★ Omar Willey ★ Oscar Moreno ★ Öykü Su Gürler ★ Ozone S. ★ Pablo Lopez Soriano ★ Pat David ★ Patrick Gamblin ★ Paul ★ Pavel Semenov ★ Pet0r ★ Peter ★ Peter Moonen ★ Petr Vlašic ★ Philippe Jean Edward Bateman ★ Pierre Geier ★ Pierre Vuillemin ★ Pranab Shenoy ★ Pyves &amp; Ran ★ Raghavendra Kamath ★ Rajul Gupta  ★ Reorx Meng ★ Ret Samys ★ Rictic  ★ RJ van der Weide ★ Roberto Zaghis ★ Roman ★ Rumiko Hoshino ★ Rustin Simons ★ Sally Bridgewater ★ Sami T ★ Samuel Mitson ★ Scott Petrovic ★ Sean Adams ★ Shadefalcon ★ ShadowMist  ★ Shafak ★ Shawn Meyer ★ Simon Forster ★ Simon Isenberg ★ Sonny W. ★ Soriac  ★ Stanislav Vodetskyi ★ Stephanie Cheshire ★ Stephen Bates ★ Stephen Smoogen ★ Steven Bennett ★ Stuart Dickson ★ Surt  ★ TamaskanLEM ★ Tar8156 ★ Terry Hancock ★ TheFaico ★ Thomas Citharel ★ Thomas Courbon ★ Thomas Schwery ★ Tim Burbank ★ Tim J. ★ Tomas Hajek ★ Tom Demian ★ Tom Savage ★ Tracey Reuben  ★ Travis Humble ★ Tree  ★ Tyson Tan ★ Urm  ★ Victoria  ★ Victoria White ★ Vladislav Kurdyukov ★ Vlad Tomash ★ Westen Curry ★ Witt N. Vest ★ Xavier Claude ★ Yalyn Vinkindo ★ Yaroslav  ★ Zeni Pong ★ Źmicier Kušnaroŭ</flowPara><flowPara
         style="font-size:47.11256409px;font-style:normal;font-variant:normal;font-weight:normal;font-stretch:normal;text-align:justify;line-height:120.00000477%;writing-mode:lr-tb;text-anchor:start;font-family:Lavi;-inkscape-font-specification:Lavi"
         id="flowPara3113" /></flowRoot>    <flowRoot
       xml:space="preserve"
       id="flowRoot3090"
       style="fill:black;stroke:none;stroke-opacity:1;stroke-width:1px;stroke-linejoin:miter;stroke-linecap:butt;fill-opacity:1;font-family:Arial;font-style:normal;font-weight:normal;font-size:12px;line-height:125%;letter-spacing:0px;word-spacing:0px;-inkscape-font-specification:Arial;font-stretch:normal;font-variant:normal"><flowRegion
         id="flowRegion3092"><rect
           id="rect3094"
           width="222.6321"
           height="17.347956"
           x="1078.4646"
           y="1811.1038" /></flowRegion><flowPara
         id="flowPara3096" /></flowRoot>  </g>
</svg>
