<?xml version="1.0" encoding="UTF-8" standalone="no"?>
<!-- Created with Inkscape (http://www.inkscape.org/) -->

<svg
   xmlns:dc="http://purl.org/dc/elements/1.1/"
   xmlns:cc="http://creativecommons.org/ns#"
   xmlns:rdf="http://www.w3.org/1999/02/22-rdf-syntax-ns#"
   xmlns:svg="http://www.w3.org/2000/svg"
   xmlns="http://www.w3.org/2000/svg"
   xmlns:xlink="http://www.w3.org/1999/xlink"
   xmlns:sodipodi="http://sodipodi.sourceforge.net/DTD/sodipodi-0.dtd"
   xmlns:inkscape="http://www.inkscape.org/namespaces/inkscape"
   id="svg2"
   version="1.1"
   inkscape:version="0.92.4 (5da689c313, 2019-01-14)"
   width="2481"
   height="3503"
   sodipodi:docname="E36P09.svg">
  <metadata
     id="metadata8">
    <rdf:RDF>
      <cc:Work
         rdf:about="">
        <dc:format>image/svg+xml</dc:format>
        <dc:type
           rdf:resource="http://purl.org/dc/dcmitype/StillImage" />
        <dc:title />
      </cc:Work>
    </rdf:RDF>
  </metadata>
  <defs
     id="defs6">
    <filter
       style="color-interpolation-filters:sRGB"
       id="filter4375-4-1-1-1-9-6-9-2-1-7-1"
       inkscape:label="deevad outline effect"
       x="-0.0032722622"
       y="-0.010664709"
       width="1.0065445"
       height="1.0213294">
      <feFlood
         id="feFlood4377-7-9-0-8-1-0-2-2-06-3-9"
         flood-opacity="1"
         flood-color="rgb(0,0,0)"
         result="flood" />
      <feComposite
         id="feComposite4379-3-8-8-2-77-6-0-8-3-6-4"
         in2="SourceGraphic"
         in="flood"
         operator="in"
         result="composite1" />
      <feMorphology
         id="feMorphology4393-1-0-49-8-9-2-2-9-2-1-7"
         operator="dilate"
         radius="4"
         result="result3" />
      <feComposite
         id="feComposite4385-9-5-7-0-8-6-3-7-0-2-8"
         in2="result3"
         in="SourceGraphic"
         operator="over"
         result="composite2" />
    </filter>
    <filter
       style="color-interpolation-filters:sRGB"
       id="filter4375-4-1-1-1-9-6-9-2-1-7-1-3"
       inkscape:label="deevad outline effect"
       x="-0.0035469919"
       y="-0.010964841"
       width="1.007094"
       height="1.0219297">
      <feFlood
         id="feFlood4377-7-9-0-8-1-0-2-2-06-3-9-6"
         flood-opacity="1"
         flood-color="rgb(0,0,0)"
         result="flood" />
      <feComposite
         id="feComposite4379-3-8-8-2-77-6-0-8-3-6-4-7"
         in2="SourceGraphic"
         in="flood"
         operator="in"
         result="composite1" />
      <feMorphology
         id="feMorphology4393-1-0-49-8-9-2-2-9-2-1-7-5"
         operator="dilate"
         radius="4"
         result="result3" />
      <feComposite
         id="feComposite4385-9-5-7-0-8-6-3-7-0-2-8-3"
         in2="result3"
         in="SourceGraphic"
         operator="over"
         result="composite2" />
    </filter>
    <filter
       style="color-interpolation-filters:sRGB"
       id="filter4375-4-1-1-1-9-5-8"
       inkscape:label="Drop Shadow"
       x="-0.00081513583"
       y="-0.0054734909"
       width="1.0114872"
       height="1.0771344">
      <feFlood
         id="feFlood4377-7-9-0-8-1-7-3"
         flood-opacity="1"
         flood-color="rgb(108,125,133)"
         result="flood" />
      <feComposite
         id="feComposite4379-3-8-8-2-77-4-1"
         in2="SourceGraphic"
         in="flood"
         operator="in"
         result="composite1" />
      <feMorphology
         id="feMorphology4393-1-0-49-8-9-3-0"
         operator="dilate"
         radius="6.2000000000000002"
         result="result3" />
      <feComposite
         id="feComposite4385-9-5-7-0-8-8-7"
         in2="result3"
         in="SourceGraphic"
         operator="over"
         result="fbSourceGraphic" />
      <feColorMatrix
         result="fbSourceGraphicAlpha"
         in="fbSourceGraphic"
         values="0 0 0 -1 0 0 0 0 -1 0 0 0 0 -1 0 0 0 0 1 0"
         id="feColorMatrix4544" />
      <feTurbulence
         id="feTurbulence4546"
         type="fractalNoise"
         numOctaves="3"
         seed="37"
         baseFrequency="0.129 0.0050000000000000001"
         result="turbulence" />
      <feDisplacementMap
         id="feDisplacementMap4548"
         in2="turbulence"
         in="fbSourceGraphic"
         scale="6.6"
         yChannelSelector="G"
         xChannelSelector="R"
         result="fbSourceGraphic" />
      <feColorMatrix
         result="fbSourceGraphicAlpha"
         in="fbSourceGraphic"
         values="0 0 0 -1 0 0 0 0 -1 0 0 0 0 -1 0 0 0 0 1 0"
         id="feColorMatrix4670" />
      <feFlood
         id="feFlood4672"
         flood-opacity="1"
         flood-color="rgb(17,52,65)"
         result="flood"
         in="fbSourceGraphic" />
      <feComposite
         id="feComposite4674"
         in2="fbSourceGraphic"
         in="flood"
         operator="in"
         result="composite1" />
      <feGaussianBlur
         id="feGaussianBlur4676"
         in="composite1"
         stdDeviation="0"
         result="blur" />
      <feOffset
         id="feOffset4678"
         dx="6"
         dy="6"
         result="offset" />
      <feComposite
         id="feComposite4680"
         in2="offset"
         in="fbSourceGraphic"
         operator="over"
         result="composite2" />
    </filter>
    <filter
       style="color-interpolation-filters:sRGB"
       id="filter4375-4-1-1-1-9-5-8-2"
       inkscape:label="Drop Shadow"
       x="-0.0019961096"
       y="-0.0055514814"
       width="1.0281299"
       height="1.0782335">
      <feFlood
         id="feFlood4377-7-9-0-8-1-7-3-9"
         flood-opacity="1"
         flood-color="rgb(108,125,133)"
         result="flood" />
      <feComposite
         id="feComposite4379-3-8-8-2-77-4-1-1"
         in2="SourceGraphic"
         in="flood"
         operator="in"
         result="composite1" />
      <feMorphology
         id="feMorphology4393-1-0-49-8-9-3-0-2"
         operator="dilate"
         radius="6.2000000000000002"
         result="result3" />
      <feComposite
         id="feComposite4385-9-5-7-0-8-8-7-7"
         in2="result3"
         in="SourceGraphic"
         operator="over"
         result="fbSourceGraphic" />
      <feColorMatrix
         result="fbSourceGraphicAlpha"
         in="fbSourceGraphic"
         values="0 0 0 -1 0 0 0 0 -1 0 0 0 0 -1 0 0 0 0 1 0"
         id="feColorMatrix4544-0" />
      <feTurbulence
         id="feTurbulence4546-9"
         type="fractalNoise"
         numOctaves="3"
         seed="37"
         baseFrequency="0.129 0.0050000000000000001"
         result="turbulence" />
      <feDisplacementMap
         id="feDisplacementMap4548-3"
         in2="turbulence"
         in="fbSourceGraphic"
         scale="6.6"
         yChannelSelector="G"
         xChannelSelector="R"
         result="fbSourceGraphic" />
      <feColorMatrix
         result="fbSourceGraphicAlpha"
         in="fbSourceGraphic"
         values="0 0 0 -1 0 0 0 0 -1 0 0 0 0 -1 0 0 0 0 1 0"
         id="feColorMatrix4670-6" />
      <feFlood
         id="feFlood4672-0"
         flood-opacity="1"
         flood-color="rgb(17,52,65)"
         result="flood"
         in="fbSourceGraphic" />
      <feComposite
         id="feComposite4674-6"
         in2="fbSourceGraphic"
         in="flood"
         operator="in"
         result="composite1" />
      <feGaussianBlur
         id="feGaussianBlur4676-2"
         in="composite1"
         stdDeviation="0"
         result="blur" />
      <feOffset
         id="feOffset4678-6"
         dx="6"
         dy="6"
         result="offset" />
      <feComposite
         id="feComposite4680-1"
         in2="offset"
         in="fbSourceGraphic"
         operator="over"
         result="composite2" />
    </filter>
    <filter
       style="color-interpolation-filters:sRGB"
       id="filter4375-4-1-1-1-9-5-8-9"
       inkscape:label="Drop Shadow"
       x="-0.0016861076"
       y="-0.0054301226"
       width="1.0237612"
       height="1.0765232">
      <feFlood
         id="feFlood4377-7-9-0-8-1-7-3-2"
         flood-opacity="1"
         flood-color="rgb(108,125,133)"
         result="flood" />
      <feComposite
         id="feComposite4379-3-8-8-2-77-4-1-2"
         in2="SourceGraphic"
         in="flood"
         operator="in"
         result="composite1" />
      <feMorphology
         id="feMorphology4393-1-0-49-8-9-3-0-8"
         operator="dilate"
         radius="6.2000000000000002"
         result="result3" />
      <feComposite
         id="feComposite4385-9-5-7-0-8-8-7-9"
         in2="result3"
         in="SourceGraphic"
         operator="over"
         result="fbSourceGraphic" />
      <feColorMatrix
         result="fbSourceGraphicAlpha"
         in="fbSourceGraphic"
         values="0 0 0 -1 0 0 0 0 -1 0 0 0 0 -1 0 0 0 0 1 0"
         id="feColorMatrix4544-7" />
      <feTurbulence
         id="feTurbulence4546-3"
         type="fractalNoise"
         numOctaves="3"
         seed="37"
         baseFrequency="0.129 0.0050000000000000001"
         result="turbulence" />
      <feDisplacementMap
         id="feDisplacementMap4548-6"
         in2="turbulence"
         in="fbSourceGraphic"
         scale="6.6"
         yChannelSelector="G"
         xChannelSelector="R"
         result="fbSourceGraphic" />
      <feColorMatrix
         result="fbSourceGraphicAlpha"
         in="fbSourceGraphic"
         values="0 0 0 -1 0 0 0 0 -1 0 0 0 0 -1 0 0 0 0 1 0"
         id="feColorMatrix4670-1" />
      <feFlood
         id="feFlood4672-2"
         flood-opacity="1"
         flood-color="rgb(17,52,65)"
         result="flood"
         in="fbSourceGraphic" />
      <feComposite
         id="feComposite4674-9"
         in2="fbSourceGraphic"
         in="flood"
         operator="in"
         result="composite1" />
      <feGaussianBlur
         id="feGaussianBlur4676-3"
         in="composite1"
         stdDeviation="0"
         result="blur" />
      <feOffset
         id="feOffset4678-1"
         dx="6"
         dy="6"
         result="offset" />
      <feComposite
         id="feComposite4680-9"
         in2="offset"
         in="fbSourceGraphic"
         operator="over"
         result="composite2" />
    </filter>
    <filter
       style="color-interpolation-filters:sRGB"
       id="filter4375-4-1-1-1-9-5-8-2-4"
       inkscape:label="Drop Shadow"
       x="-0.0028481143"
       y="-0.0072259028"
       width="1.0401367"
       height="1.10183">
      <feFlood
         id="feFlood4377-7-9-0-8-1-7-3-9-7"
         flood-opacity="1"
         flood-color="rgb(108,125,133)"
         result="flood" />
      <feComposite
         id="feComposite4379-3-8-8-2-77-4-1-1-8"
         in2="SourceGraphic"
         in="flood"
         operator="in"
         result="composite1" />
      <feMorphology
         id="feMorphology4393-1-0-49-8-9-3-0-2-4"
         operator="dilate"
         radius="6.2000000000000002"
         result="result3" />
      <feComposite
         id="feComposite4385-9-5-7-0-8-8-7-7-5"
         in2="result3"
         in="SourceGraphic"
         operator="over"
         result="fbSourceGraphic" />
      <feColorMatrix
         result="fbSourceGraphicAlpha"
         in="fbSourceGraphic"
         values="0 0 0 -1 0 0 0 0 -1 0 0 0 0 -1 0 0 0 0 1 0"
         id="feColorMatrix4544-0-0" />
      <feTurbulence
         id="feTurbulence4546-9-3"
         type="fractalNoise"
         numOctaves="3"
         seed="37"
         baseFrequency="0.129 0.0050000000000000001"
         result="turbulence" />
      <feDisplacementMap
         id="feDisplacementMap4548-3-6"
         in2="turbulence"
         in="fbSourceGraphic"
         scale="6.6"
         yChannelSelector="G"
         xChannelSelector="R"
         result="fbSourceGraphic" />
      <feColorMatrix
         result="fbSourceGraphicAlpha"
         in="fbSourceGraphic"
         values="0 0 0 -1 0 0 0 0 -1 0 0 0 0 -1 0 0 0 0 1 0"
         id="feColorMatrix4670-6-1" />
      <feFlood
         id="feFlood4672-0-0"
         flood-opacity="1"
         flood-color="rgb(17,52,65)"
         result="flood"
         in="fbSourceGraphic" />
      <feComposite
         id="feComposite4674-6-6"
         in2="fbSourceGraphic"
         in="flood"
         operator="in"
         result="composite1" />
      <feGaussianBlur
         id="feGaussianBlur4676-2-3"
         in="composite1"
         stdDeviation="0"
         result="blur" />
      <feOffset
         id="feOffset4678-6-2"
         dx="6"
         dy="6"
         result="offset" />
      <feComposite
         id="feComposite4680-1-0"
         in2="offset"
         in="fbSourceGraphic"
         operator="over"
         result="composite2" />
    </filter>
  </defs>
  <sodipodi:namedview
     pagecolor="#1e1e1e"
     bordercolor="#111111"
     borderopacity="1"
     objecttolerance="10"
     gridtolerance="10"
     guidetolerance="10"
     inkscape:pageopacity="0"
     inkscape:pageshadow="2"
     inkscape:window-width="1858"
     inkscape:window-height="1057"
     id="namedview4"
     showgrid="false"
     inkscape:zoom="0.52900002"
     inkscape:cx="1113.4215"
     inkscape:cy="1124.7637"
     inkscape:window-x="54"
     inkscape:window-y="-8"
     inkscape:window-maximized="1"
     inkscape:current-layer="layer1"
     inkscape:pagecheckerboard="0"
     inkscape:snap-global="false" />
  <g
     inkscape:groupmode="layer"
     id="layer2"
     inkscape:label="artwork"
     sodipodi:insensitive="true">
    <image
       sodipodi:absref="D:\Documents\Others\webcomics\new-ep36_Title-Here\lang\id\../gfx_Pepper-and-Carrot_by-David-Revoy_E36P09.png"
       xlink:href="../gfx_Pepper-and-Carrot_by-David-Revoy_E36P09.png"
       width="2481"
       height="3503"
       id="image10"
       x="0"
       y="0" />
  </g>
  <g
     inkscape:groupmode="layer"
     id="layer3"
     inkscape:label="speechbubbles"
     style="display:inline">
    <path
       inkscape:connector-curvature="0"
       style="color:#000000;display:inline;overflow:visible;visibility:visible;fill:#ffffff;fill-opacity:1;fill-rule:nonzero;stroke:none;stroke-width:1.25361px;marker:none;enable-background:accumulate"
       d="m 1541.1894,108.20176 -49.3752,22.31204 8.0249,-4.27154 -21.5602,1.37473 c -52.5175,-12.40089 -119.3833,-9.81657 -171.7152,-0.91142 l -14.5718,-8.89282 -2.1138,12.04453 c -2.3859,0.49846 -4.7456,1.00574 -7.0433,1.52885 l -15.8205,-11.0346 1.9787,14.48018 c -0.2863,0.0771 -0.5679,0.15597 -0.8522,0.23415 l -21.9401,-12.17317 4.0548,17.81547 c -1.0246,0.37318 -2.0277,0.74762 -3.0054,1.12499 l -28.1089,-26.56142 11.3669,34.68743 c -1.6562,1.07453 -3.0856,2.1516 -4.3012,3.22992 l -14.3515,-12.51301 7.0395,21.00181 c -1.5948,2.00698 -3.1014,3.96799 -4.5457,5.8972 l -18.1036,-2.76159 10.0505,14.31258 c -11.8787,18.63411 -16.255,34.41655 -15.3936,52.71899 0.1729,3.67369 0.4976,7.23279 0.9553,10.69014 l -13.1591,9.34349 15.5251,3.16026 c 1.0175,4.07855 2.2482,7.99638 3.6825,11.75768 l -16.2323,23.77475 h 19.7737 l -16.6517,20.32454 31.0897,-14.22766 c 0.3945,0.45474 0.7993,0.90106 1.2018,1.34976 l -10.4361,24.31187 21.8558,-7.62335 -20.8139,27.9479 51.7496,-22.185 -1.1343,40.16124 27.0596,-19.05509 2.473,-0.0476 c 7.4393,3.27056 0.9985,1.02602 9.005,3.85193 42.2332,14.90673 121.1432,5.04085 177.5019,-10.6397 l 27.874,14.26661 -9.0931,-19.97561 c 0.5948,-0.19871 1.1586,-0.40176 1.7451,-0.60146 l 29.2035,21.84639 -6.2439,-17.78324 28.0995,15.24222 -17.6917,-30.48681 15.6097,8.8928 -11.0021,-15.34774 c 1.2877,-0.89936 2.5695,-1.84119 3.8444,-2.82366 l 14.4436,4.19865 -8.9484,-8.73684 c 2.1201,-1.86854 4.2038,-3.84314 6.2328,-5.92466 l 22.4893,7.038 -12.3055,-19.02298 c 1.2303,-1.6645 2.4252,-3.36767 3.5715,-5.11219 h 17.0599 l -7.8125,-17.33565 c 11.0999,-26.62322 10.8403,-58.78519 -14.2217,-89.53685 l 8.6433,-13.88341 -16.7906,3.88874 6.7977,-30.02699 -25.5313,7.16128 15.3106,-18.24667 -21.5546,4.27392 17.1118,-18.5017 z"
       id="path4040-0"
       sodipodi:nodetypes="ccccccccccccccccccccccsccccccccccccccccccccccccccccccccccccccccccccc" />
    <path
       style="display:inline;fill:#ffffff;stroke:none;stroke-width:0.84852117"
       d="m 1626.4567,214.18494 c -1.1406,-30.95265 19.3109,-108.43941 119.0723,-102.61095 99.7615,5.82845 130.9853,39.87427 133.9087,94.89288 4.6247,87.03719 -47.8597,110.296 -123.2225,116.74332 -77.691,6.64552 -130.9642,-53.09928 -129.7585,-109.02525 z"
       id="path3280-8-3"
       inkscape:connector-curvature="0"
       sodipodi:nodetypes="csssc" />
    <path
       style="display:inline;fill:#ffffff;stroke:none;stroke-width:0.62232298"
       d="m 1778.5732,285.92449 c -20.7589,0.23465 -42.0952,3.47685 -60.2821,13.35642 -14.019,7.90824 -22.9655,22.05221 -26.5542,36.77658 -3.9001,15.14384 -3.4522,31.8646 4.324,45.89732 5.4455,9.57115 14.9822,16.65418 25.6269,20.61829 15.1071,5.8052 31.6579,6.85697 47.8021,7.18461 18.3389,0.23968 36.6905,-0.58814 54.9471,-2.19832 18.2626,-1.79273 36.7852,-4.65452 53.4688,-12.19462 10.6725,-4.88998 20.8824,-11.62312 27.3197,-21.18048 5.2954,-7.77728 7.8984,-17.10688 7.2711,-26.32411 -0.5944,-18.21816 -12.7121,-35.14798 -29.4572,-43.972 -18.3069,-10.45023 -39.8209,-14.26358 -60.8634,-16.2068 -14.4869,-1.3313 -29.0497,-1.84664 -43.6028,-1.75689 z"
       id="path3280-8-3-6"
       inkscape:connector-curvature="0"
       sodipodi:nodetypes="csssc" />
    <path
       style="display:inline;fill:#ffffff;stroke:none;stroke-width:0.81898582"
       d="m 1987.1326,773.36841 c -1.2705,-25.88862 21.5088,-90.69808 132.6251,-85.82319 111.1166,4.87488 145.8944,33.3506 149.1506,79.36784 5.151,72.79739 -53.3073,92.25091 -137.2479,97.64341 -86.534,5.55826 -145.8708,-44.41193 -144.5278,-91.18806 z"
       id="path3280-8-3-6-5"
       inkscape:connector-curvature="0"
       sodipodi:nodetypes="csssc" />
    <path
       style="display:inline;fill:#ffffff;stroke:none;stroke-width:0.763259"
       d="m 1930.504,372.91057 c -30.2397,0.16965 -60.9719,4.79332 -88.5106,17.79491 -15.4058,6.52202 -29.9407,17.1139 -37.4704,32.43239 -4.2336,8.44487 -5.254,18.49595 -2.2398,27.50453 3.7021,12.37218 13.2587,22.53789 24.9111,27.88228 20.9189,11.73967 44.9894,15.95745 68.5638,18.43564 39.8582,3.42652 79.7737,-0.99203 119.5846,-2.92612 31.5754,-2.29943 63.6889,-5.36586 93.4113,-17.01035 13.3503,-5.68552 25.7241,-15.85578 30.4745,-29.96606 6.0832,-19.31787 -3.4638,-42.23429 -21.5858,-51.3646 -19.4165,-11.66764 -42.038,-16.21864 -64.1898,-19.36662 -30.82,-3.76656 -61.9241,-1.53778 -92.8658,-2.89772 -10.0273,-0.19542 -20.0523,-0.58208 -30.0831,-0.51828 z"
       id="path3280-8-3-6-1"
       inkscape:connector-curvature="0"
       sodipodi:nodetypes="csssc" />
    <path
       style="color:#000000;display:inline;overflow:visible;visibility:visible;fill:#ffffff;fill-opacity:1;fill-rule:nonzero;stroke:none;stroke-width:0.726834px;marker:none;enable-background:accumulate"
       d="m 2059.624,561.7647 c 26.4763,-24.04182 38.2287,-79.53679 -27.9332,-97.77721 -29.9281,-8.25083 -20.468,15.10178 -20.468,15.10178 18.7003,6.91299 84.5389,19.28667 48.4012,82.67543 z"
       id="path4035-4"
       inkscape:connector-curvature="0"
       sodipodi:nodetypes="cscc" />
    <path
       style="color:#000000;display:inline;overflow:visible;visibility:visible;fill:#ffffff;fill-opacity:1;fill-rule:nonzero;stroke:none;stroke-width:0.713612px;marker:none;enable-background:accumulate"
       d="m 2178.1785,620.93948 c -23.0277,32.44689 -18.8501,67.85601 1.0934,80.85132 10.7271,34.11102 -6.908,26.68939 -6.908,26.68939 l -15.2972,-2.68538 c -17.3389,-28.7972 -28.1116,-80.24692 21.1118,-104.85533 z"
       id="path3072-56"
       inkscape:connector-curvature="0"
       sodipodi:nodetypes="ccccc" />
    <path
       style="display:inline;fill:#ffffff;stroke:none;stroke-width:1.05275559"
       d="m 240.6408,1310.5729 c 0.64569,-49.3642 24.47171,-93.7507 132.7118,-85.8281 108.24021,7.9226 143.78519,13.241 144.00652,80.5467 0.23174,70.4385 -53.59377,87.0056 -135.52145,89.7321 -84.45862,2.8105 -140.86262,-25.8149 -141.19687,-84.4507 z"
       id="path3280-64"
       inkscape:connector-curvature="0"
       sodipodi:nodetypes="csssc" />
    <path
       style="display:inline;fill:#ffffff;stroke:none;stroke-width:1.21693"
       d="m 283.00548,1469.4105 c 0.81415,-52.3128 30.85644,-99.3281 167.33667,-90.8275 136.48034,8.5006 181.29912,14.1713 181.5782,85.4983 0.2922,74.6471 -67.57653,92.1519 -170.87939,94.9619 -106.49407,2.8967 -177.61404,-27.4933 -178.03548,-89.6327 z"
       id="path3280-64-3"
       inkscape:connector-curvature="0"
       sodipodi:nodetypes="csssc" />
    <path
       style="fill:#ffffff;fill-rule:evenodd;stroke:none;stroke-width:0.744339px;stroke-linecap:butt;stroke-linejoin:miter;stroke-opacity:1"
       d="m 514.9694,1536.754 c -11.53719,28.8096 -11.89495,35.669 -10.75405,46.6441 1.14092,10.9751 18.8596,27.895 37.58928,32.4679 18.72967,4.5729 32.89639,19.2064 27.10954,29.267 -5.78678,10.0605 -29.03251,49.8451 33.59167,62.1921 -56.81275,-21.5856 -26.68209,-49.5976 -22.04127,-56.4569 4.64088,-6.8595 9.09415,-27.4534 -18.92786,-43.916 -28.02209,-16.4627 -44.32532,-25.8975 -18.18083,-57.9083 26.14444,-32.0106 -28.38648,-12.2899 -28.38648,-12.2899 z"
       id="path1081"
       inkscape:connector-curvature="0"
       sodipodi:nodetypes="ccccccssc" />
    <path
       style="color:#000000;display:inline;overflow:visible;visibility:visible;fill:#ffffff;fill-opacity:1;fill-rule:nonzero;stroke:none;stroke-width:0.93176323px;marker:none;enable-background:accumulate"
       d="m 1244.2572,1777.6476 c -40.92,1.1992 -82.3994,6.4876 -120.7411,23.1631 -26.4405,13.2634 -46.4571,40.8624 -53.0873,72.0559 -3.4903,16.586 -2.4103,34.2744 3.2125,50.141 9.0963,26.9417 28.0524,48.5213 49.6461,63.8475 21.4103,15.1852 46.189,23.4754 71.152,27.8314 40.8799,7.579 82.4762,8.4682 123.833,8.056 22.4049,-0.517 44.7901,-4.287 66.1126,-12.0114 15.7629,-5.4695 31.3418,-11.8864 46.0132,-20.3224 14.3911,-9.9107 25.7811,-24.2404 35.7886,-39.1789 8.8583,-15.0294 11.487,-33.8704 8.6318,-51.3932 -4.7344,-36.4546 -26.0093,-69.9425 -55.8682,-86.4426 -18.2916,-10.4775 -38.6012,-15.3538 -58.5226,-20.4421 -28.888,-6.7358 -58.2146,-10.9099 -87.5703,-14.1733 -9.5136,-0.8196 -19.0567,-1.267 -28.6003,-1.131 z"
       id="path4040-40"
       inkscape:connector-curvature="0"
       sodipodi:nodetypes="zssssz" />
    <path
       style="display:inline;fill:#ffffff;stroke:none;stroke-width:1.21817732"
       d="m 996.27632,2054.0596 c 6.98438,-32.6689 31.11208,-63.9387 176.51218,-68.1391 72.7001,-2.1001 212.8364,-2.9885 282.6033,12.2698 69.7669,15.2595 69.1645,46.6667 69.4818,59.0351 0.3175,12.3673 6.1486,43.0257 -65.5109,55.0441 -71.6596,12.0183 -220.8096,5.3966 -279.5412,5.863 -117.4632,0.9337 -179.7356,-0.1341 -183.54518,-64.0729 z"
       id="path3270-6-0"
       inkscape:connector-curvature="0"
       sodipodi:nodetypes="csssssc" />
    <path
       style="display:inline;fill:#ffffff;stroke:none;stroke-width:1.0441"
       d="m 1427.479,2182.5833 c -3.5027,42.0055 -16.8389,82.4276 -99.999,89.6161 -41.5802,3.5941 -121.7775,6.4678 -161.9416,-12.2478 -40.1642,-18.7169 -40.2952,-59.0244 -40.6642,-74.891 -0.3692,-15.865 -4.1713,-55.132 36.6628,-71.4399 40.8343,-16.3078 126.3047,-9.6565 159.9142,-10.9815 67.2191,-2.6512 102.8786,-2.0514 106.0278,79.9441 z"
       id="path3270-6-0-4"
       inkscape:connector-curvature="0"
       sodipodi:nodetypes="csssssc" />
    <path
       style="color:#000000;display:inline;overflow:visible;visibility:visible;fill:#ffffff;fill-opacity:1;fill-rule:nonzero;stroke:none;stroke-width:1px;marker:none;enable-background:accumulate"
       d="m 1222.7234,1834.4092 c 38.7674,-26.2088 5.5435,-82.6347 -60.2586,-97.084 25.29,5.3642 112.2954,4.2086 101.853,112.7345 -5.1653,53.6821 -27.461,-10.4151 -27.461,-10.4151 z"
       id="path4035-4-3"
       inkscape:connector-curvature="0"
       sodipodi:nodetypes="ccscc" />
    <path
       style="color:#000000;display:inline;overflow:visible;visibility:visible;fill:#ffffff;fill-opacity:1;fill-rule:nonzero;stroke:none;stroke-width:0.715516px;marker:none;enable-background:accumulate"
       d="m 1692.1883,1999.5317 c -39.7963,0.209 -79.8242,4.3329 -118.2112,15.5597 -14.4264,6.4991 -24.855,19.8575 -31.8526,34.0856 -5.3951,13.0143 -2.0695,29.3662 8.2592,38.7434 12.0326,12.247 28.7478,17.5968 44.9088,20.8652 27.4117,5.1978 55.3963,4.0814 83.1227,4.9433 49.8997,0.7198 99.848,1.9083 149.72,-0.593 20.9701,-1.2277 42.0171,-3.4304 62.4129,-8.7976 14.5406,-4.9268 27.3155,-17.6984 29.6915,-33.7832 2.7097,-18.0522 -7.4808,-36.8217 -23.198,-44.7201 -16.4985,-9.07 -35.367,-10.8563 -53.4282,-14.3519 -47.9082,-9.6286 -96.8541,-11.407 -145.5249,-11.9574 -1.9668,-0.011 -3.9335,7e-4 -5.9002,0.01 z"
       id="path4040-3"
       inkscape:connector-curvature="0"
       sodipodi:nodetypes="zssssz" />
    <path
       style="color:#000000;display:inline;overflow:visible;visibility:visible;fill:#ffffff;fill-opacity:1;fill-rule:nonzero;stroke:none;stroke-width:0.87783986px;marker:none;enable-background:accumulate"
       d="m 1752.4476,2087.8594 c -20.3856,0.5573 -40.76,1.5518 -61.1201,2.7268 -25.1101,1.6376 -50.2944,4.1525 -74.805,10.1775 -16.5237,5.359 -29.4589,18.8698 -37.4764,34.2765 -11.6531,21.0159 -14.082,47.8391 -4.1027,70.0305 9.6621,22.052 29.5042,38.4427 51.7669,45.6958 27.9843,10.7724 58.1193,12.9393 87.6994,14.576 31.254,1.8243 62.6154,1.5798 93.8373,-0.7544 29.6746,-2.3589 59.5586,-3.4313 88.8687,-9.1145 9.8547,-2.02 19.9262,-4.2896 28.5229,-9.894 19.0096,-11.6918 30.5272,-33.9568 31.5446,-56.4012 0.7303,-13.1729 -2.2655,-26.4551 -8.337,-38.0718 -11.0403,-22.1854 -31.7402,-38.5962 -54.9383,-45.4857 -27.2729,-9.2165 -55.8774,-13.4564 -84.4091,-15.9235 -18.979,-1.4813 -38.022,-1.903 -57.0512,-1.838 z"
       id="path4040-3-8"
       inkscape:connector-curvature="0"
       sodipodi:nodetypes="zssssz" />
    <path
       style="color:#000000;display:inline;overflow:visible;visibility:visible;fill:#ffffff;fill-opacity:1;fill-rule:nonzero;stroke:none;stroke-width:1.49143px;marker:none;enable-background:accumulate"
       d="m 1805.2502,1871.4038 c -48.5665,4.6894 -79.412,70.1969 -56.1848,132.2934 25.15,70.1387 26.677,77.2265 26.677,77.2265 l -56.6491,9.3192 c 0,0 -38.1773,-219.1208 86.1569,-218.8391 z"
       id="path3072-5"
       inkscape:connector-curvature="0"
       inkscape:transform-center-x="5.7456817"
       inkscape:transform-center-y="-27.769577"
       sodipodi:nodetypes="ccccc" />
    <path
       style="fill:#ffffff;stroke:none;stroke-width:1.02243"
       d="m 122.32915,2423.2315 c -0.65099,-46.575 18.78716,-57.033 38.51304,-63.589 19.72588,-6.5549 81.03137,0.7107 76.52794,57.7048 -4.50335,56.993 -34.16537,64.8916 -58.67289,62.3722 -24.50759,-2.5194 -52.81201,-12.3567 -56.36809,-56.488 z"
       id="path3938-8"
       inkscape:connector-curvature="0"
       sodipodi:nodetypes="csssc" />
    <path
       style="color:#000000;display:inline;overflow:visible;visibility:visible;fill:#ffffff;fill-opacity:1;fill-rule:nonzero;stroke:none;stroke-width:0.705046px;marker:none;enable-background:accumulate"
       d="m 198.99826,2535.3479 c -21.21366,-18.4099 -27.69466,-26.333 -17.76531,-61.1618 9.92883,-34.8282 -1.89984,-37.3442 -1.89984,-37.3442 l -17.26661,17.1288 c 0,0 -16.48003,75.3965 36.93176,81.3772 z"
       id="path3072-5-5"
       inkscape:connector-curvature="0" />
    <path
       style="fill:#ffffff;fill-rule:evenodd;stroke:none;stroke-width:0.749286px;stroke-linecap:butt;stroke-linejoin:miter;stroke-opacity:1"
       d="m 708.75495,2449.0155 c 14.5963,-5.0277 29.45823,-7.6419 14.76359,-43.3636 20.36423,17.6363 51.43599,27.3966 64.4721,-10.3504 10.65105,35.9524 36.70966,20.1185 52.44579,10.2994 -11.51376,43.378 4.24036,35.1798 24.6432,29.1678 -34.8123,39.3654 -23.48569,65.7992 -2.37948,83.4552 -33.1887,-8.7171 -48.73493,-0.3027 -39.05901,31.0035 -23.90174,-32.391 -51.48174,-26.1466 -43.431,4.7626 -5.92921,-14.6738 -5.30213,-45.4111 -37.27911,1.9875 10.10638,-49.4182 -5.62787,-39.5296 -30.4995,-21.2855 14.72945,-17.2591 29.25012,-41.013 -4.40012,-38.3256 21.01857,-16.0026 28.32042,-28.1664 0.72354,-47.3509 z"
       id="path4584-7"
       inkscape:connector-curvature="0"
       sodipodi:nodetypes="cccccccccccc" />
    <path
       style="color:#000000;display:inline;overflow:visible;visibility:visible;fill:#ffffff;fill-opacity:1;fill-rule:nonzero;stroke:none;stroke-width:0.903953px;marker:none;enable-background:accumulate"
       d="m 781.98136,2627.2511 c 16.94744,-54.9279 15.7357,-83.4683 13.28083,-110.1888 -1.15529,-12.5729 -25.39345,0.9196 -25.39345,0.9196 l 6.2837,24.2557 c 0,0 14.8528,36.3747 5.82892,85.0135 z"
       id="path4000-2"
       inkscape:connector-curvature="0"
       sodipodi:nodetypes="csccc"
       inkscape:transform-center-x="2.4319054"
       inkscape:transform-center-y="-49.401625" />
    <path
       style="display:inline;fill:#ffffff;fill-rule:evenodd;stroke:none;stroke-width:0.936706px;stroke-linecap:butt;stroke-linejoin:miter;stroke-opacity:1"
       d="m 1116.5828,2386.4076 c 31.2366,21.7746 25.485,31.2802 -18.5487,28.0878 70.2035,33.4358 41.2226,38.4404 -3.2258,39.0109 29.838,12.2127 62.8535,24.1635 -5.6454,44.4726 39.6957,3.2928 74.2834,7.942 6.4519,39.791 35.1926,-1.3079 64.266,-4.204 28.2264,40.5716 47.4158,-28.2156 73.5884,-34.6217 67.7435,23.4065 23.9105,-28.9142 54.3324,-51.6771 59.6787,-10.923 10.8365,-27.8161 30.1501,-17.464 60.4854,7.022 -5.9154,-17.6591 -23.7379,-45.6462 29.8395,-11.7032 -16.1967,-26.5591 -17.3565,-55.5279 45.0911,-30.2747 -24.3882,-25.2188 -51.0547,-59.7778 9.8701,-60.1176 -46.8558,-12.711 -30.7722,1.1783 -1.7409,-15.2579 -54.2895,-9.0838 -21.3444,-15.8532 -0.69,-16.9548 -24.9486,-8.1536 -51.6144,-13.6133 1.5032,-50.6039 -58.4678,15.3566 -41.5474,-10.616 -38.7106,-28.8681 -26.9819,14.4932 -57.4945,37.2415 -59.6789,-6.2418 -36.1952,53.9488 -49.8997,12.7039 -70.1631,-0.7801 -21.0758,64.1941 -68.8526,5.0311 -82.2597,0.7801 27.3413,26.2745 32.1151,38.1711 -28.2267,8.5826 z"
       id="path1096"
       inkscape:connector-curvature="0"
       sodipodi:nodetypes="cccccccccccccccccccc" />
    <path
       style="color:#000000;display:inline;overflow:visible;visibility:visible;fill:#ffffff;fill-opacity:1;fill-rule:nonzero;stroke:none;stroke-width:1.09189px;marker:none;enable-background:accumulate"
       d="m 1307.2436,2488.0482 c 34.4691,10.3214 137.2116,18.8814 147.5061,20.5688 -2.7296,-8.2946 -2.8183,-15.8452 -3.0574,-21.7386 18.7731,4.1984 104.5487,26.9164 121.1894,37.5539 -39.5082,-27.2781 -102.8788,-47.4443 -134.3176,-52.7848 -1.8623,7.7288 -1.338,12.6103 -2.4791,16.6583 -15.8621,-2.1642 -120.7089,-19.7202 -120.7089,-19.7202 z"
       id="path5066"
       inkscape:connector-curvature="0"
       sodipodi:nodetypes="cccccccc" />
    <path
       style="color:#000000;display:inline;overflow:visible;visibility:visible;fill:#ffffff;fill-opacity:1;fill-rule:nonzero;stroke:none;stroke-width:1px;marker:none;enable-background:accumulate"
       d="m 1243.158,494.41111 c -11.0023,-15.06298 -38.8277,-56.07942 -16.1175,-66.94339 6.656,-3.61412 12.7461,-3.99316 17.5532,-10.18221 -1.5928,-28.79108 -29.0451,-53.82693 -8.5176,-97.73612 2.2848,-5.53581 5.4855,-11.00583 10.7601,-14.34816 13.1154,-9.17132 32.0236,-11.14031 46.5765,-3.23776 8.8026,5.8805 12.0877,18.99851 5.3452,27.21065 -3.4903,4.3872 -9.5362,5.74632 -15.0619,5.40264 -10.2475,1.19375 -25.7267,8.83678 -29.9056,17.75168 -8.6972,20.74768 -1.1751,35.54466 5.9227,53.81721 2.4542,13.57995 -3.3565,25.01922 -9.1759,26.29344 -7.0448,1.62984 -15.4205,2.75049 -19.696,9.04109 -4.4656,11.69677 4.8011,35.34372 12.3168,52.93093 z"
       id="path4496-9"
       inkscape:connector-curvature="0"
       inkscape:transform-center-x="-20.153642"
       inkscape:transform-center-y="-26.822495"
       sodipodi:nodetypes="ccccccccccccc" />
  </g>
  <g
     inkscape:groupmode="layer"
     id="layer1"
     inkscape:label="txt"
     style="display:inline">
    <text
       xml:space="preserve"
       style="font-style:normal;font-variant:normal;font-weight:normal;font-stretch:normal;line-height:0%;font-family:Lavi;-inkscape-font-specification:Lavi;letter-spacing:0px;word-spacing:0px;fill:#ffffff;fill-opacity:1;stroke:#98b9ca;stroke-width:0.99236202;stroke-miterlimit:4;stroke-dasharray:none;stroke-opacity:1;filter:url(#filter4375-4-1-1-1-9-5-8-2-4)"
       x="787.65729"
       y="1584.5073"
       id="text4580-6-0-8"
       transform="matrix(0.55850362,-0.1661484,-0.08410394,0.62710861,382.81364,-390.83474)"><tspan
         sodipodi:role="line"
         id="tspan4582-1-1-7"
         x="787.65729"
         y="1584.5073"
         style="font-size:70px;line-height:1.25;fill:#ffffff;fill-opacity:1;stroke:#98b9ca;stroke-opacity:1">uhuk</tspan></text>
    <text
       xml:space="preserve"
       style="font-style:normal;font-variant:normal;font-weight:normal;font-stretch:normal;line-height:0%;font-family:Lavi;-inkscape-font-specification:Lavi;letter-spacing:0px;word-spacing:0px;fill:#ffffff;fill-opacity:1;stroke:#98b9ca;stroke-width:0.99236202;stroke-miterlimit:4;stroke-dasharray:none;stroke-opacity:1;filter:url(#filter4375-4-1-1-1-9-5-8-9)"
       x="787.65729"
       y="1584.5073"
       id="text4580-6-0"
       transform="matrix(0.55850362,-0.1661484,-0.08410394,0.62710861,430.87149,-343.32917)"><tspan
         sodipodi:role="line"
         id="tspan4582-1-1"
         x="787.65729"
         y="1584.5073"
         style="font-size:70px;line-height:1.25;fill:#ffffff;fill-opacity:1;stroke:#98b9ca;stroke-opacity:1"><tspan
           style="font-size:93.14949799px;fill:#ffffff;fill-opacity:1;stroke:#98b9ca;stroke-opacity:1"
           id="tspan4315-8">uhuk!!</tspan></tspan></text>
    <text
       xml:space="preserve"
       style="font-style:normal;font-variant:normal;font-weight:normal;font-stretch:normal;font-size:48px;line-height:0%;font-family:Lavi;-inkscape-font-specification:Lavi;text-align:center;letter-spacing:0px;word-spacing:0px;text-anchor:middle;fill:#000000;fill-opacity:1;stroke:none;stroke-width:0.92573702"
       x="1382.6912"
       y="183.45766"
       id="text4246-1-3-2-8"
       transform="scale(0.99789912,1.0021053)"><tspan
         sodipodi:role="line"
         style="font-style:normal;font-variant:normal;font-weight:bold;font-stretch:normal;font-size:48px;line-height:1.25;font-family:Lavi;-inkscape-font-specification:'Lavi Bold';stroke-width:0.92573702"
         x="1382.6912"
         y="183.45766"
         id="tspan22950">Shichimi!</tspan><tspan
         sodipodi:role="line"
         style="font-style:normal;font-variant:normal;font-weight:bold;font-stretch:normal;font-size:48px;line-height:1.25;font-family:Lavi;-inkscape-font-specification:'Lavi Bold';stroke-width:0.92573702"
         x="1382.6912"
         y="243.45766"
         id="tspan19618">Kamu tak</tspan><tspan
         sodipodi:role="line"
         style="font-style:normal;font-variant:normal;font-weight:bold;font-stretch:normal;font-size:48px;line-height:1.25;font-family:Lavi;-inkscape-font-specification:'Lavi Bold';stroke-width:0.92573702"
         x="1382.6912"
         y="303.45767"
         id="tspan2545">apa-apa?</tspan></text>
    <text
       id="text4246-4-2-7"
       y="184.98038"
       x="1760.7014"
       style="font-style:normal;font-variant:normal;font-weight:normal;font-stretch:normal;line-height:0%;font-family:Lavi;-inkscape-font-specification:Lavi;text-align:center;letter-spacing:0px;word-spacing:0px;text-anchor:middle;fill:#000000;fill-opacity:1;stroke:none"
       xml:space="preserve"><tspan
         y="184.98038"
         x="1767.8645"
         style="font-size:45px;line-height:1.25"
         sodipodi:role="line"
         id="tspan33376">Ya, aku </tspan><tspan
         y="241.23038"
         x="1760.7014"
         style="font-size:45px;line-height:1.25"
         sodipodi:role="line"
         id="tspan25088">baik-baik</tspan><tspan
         y="297.48038"
         x="1760.7014"
         style="font-size:45px;line-height:1.25"
         sodipodi:role="line"
         id="tspan2547">saja!</tspan></text>
    <text
       id="text4246-4-2-7-0"
       y="366.23798"
       x="1801.9346"
       style="font-style:normal;font-variant:normal;font-weight:normal;font-stretch:normal;line-height:0%;font-family:Lavi;-inkscape-font-specification:Lavi;text-align:center;letter-spacing:0px;word-spacing:0px;text-anchor:middle;fill:#000000;fill-opacity:1;stroke:none"
       xml:space="preserve"><tspan
         y="366.23798"
         x="1801.9346"
         style="font-size:45px;line-height:1.25"
         sodipodi:role="line"
         id="tspan33428">Kamu?</tspan></text>
    <text
       id="text4246-4-2-7-0-7"
       y="450.90674"
       x="1975.5107"
       style="font-style:normal;font-variant:normal;font-weight:normal;font-stretch:normal;line-height:0%;font-family:Lavi;-inkscape-font-specification:Lavi;text-align:center;letter-spacing:0px;word-spacing:0px;text-anchor:middle;fill:#000000;fill-opacity:1;stroke:none"
       xml:space="preserve"><tspan
         y="450.90674"
         x="1975.5107"
         style="font-size:45px;line-height:1.25"
         sodipodi:role="line"
         id="tspan33376-3-5">Dan Carrot?</tspan></text>
    <text
       id="text4246-4-2-7-0-7-5"
       y="766.52582"
       x="2131.125"
       style="font-style:normal;font-variant:normal;font-weight:normal;font-stretch:normal;line-height:0%;font-family:Lavi;-inkscape-font-specification:Lavi;text-align:center;letter-spacing:0px;word-spacing:0px;text-anchor:middle;fill:#000000;fill-opacity:1;stroke:none"
       xml:space="preserve"><tspan
         y="766.52582"
         x="2131.125"
         style="font-size:45px;line-height:1.25"
         sodipodi:role="line"
         id="tspan33376-3-5-4">Kami baik-</tspan><tspan
         y="822.77582"
         x="2131.125"
         style="font-size:45px;line-height:1.25"
         sodipodi:role="line"
         id="tspan2551">baik saja.</tspan></text>
    <text
       id="text4246-4-2-7-0-7-5-7"
       y="1295.0936"
       x="375.577"
       style="font-style:normal;font-variant:normal;font-weight:normal;font-stretch:normal;line-height:0%;font-family:Lavi;-inkscape-font-specification:Lavi;text-align:center;letter-spacing:0px;word-spacing:0px;text-anchor:middle;fill:#000000;fill-opacity:1;stroke:none"
       xml:space="preserve"><tspan
         y="1295.0936"
         x="375.577"
         style="font-size:45px;line-height:1.25"
         sodipodi:role="line"
         id="tspan46488">Apa-apaan</tspan><tspan
         y="1351.3436"
         x="375.577"
         style="font-size:45px;line-height:1.25"
         sodipodi:role="line"
         id="tspan2555">ini...</tspan></text>
    <text
       id="text4246-4-2-7-0-7-5-7-5"
       y="1454.8676"
       x="465.90585"
       style="font-style:normal;font-variant:normal;font-weight:normal;font-stretch:normal;line-height:0%;font-family:Lavi;-inkscape-font-specification:Lavi;text-align:center;letter-spacing:0px;word-spacing:0px;text-anchor:middle;fill:#000000;fill-opacity:1;stroke:none"
       xml:space="preserve"><tspan
         y="1454.8676"
         x="473.06894"
         style="font-size:45px;line-height:1.25"
         sodipodi:role="line"
         id="tspan52516">Aku... tidak... </tspan><tspan
         y="1511.1176"
         x="465.90585"
         style="font-size:45px;line-height:1.25"
         sodipodi:role="line"
         id="tspan50627">percaya ini...</tspan></text>
    <text
       id="text4246-4-2-7-0-7-5-7-5-7"
       y="1853.1066"
       x="1275.6791"
       style="font-style:normal;font-variant:normal;font-weight:normal;font-stretch:normal;line-height:0%;font-family:Lavi;-inkscape-font-specification:Lavi;text-align:center;letter-spacing:0px;word-spacing:0px;text-anchor:middle;fill:#000000;fill-opacity:1;stroke:none"
       xml:space="preserve"><tspan
         y="1853.1066"
         x="1282.8422"
         style="font-size:45px;line-height:1.25"
         sodipodi:role="line"
         id="tspan60498">Darimana </tspan><tspan
         y="1909.3566"
         x="1282.8422"
         style="font-size:45px;line-height:1.25"
         sodipodi:role="line"
         id="tspan63942">para tentara ini </tspan><tspan
         y="1965.6066"
         x="1275.6791"
         style="font-size:45px;line-height:1.25"
         sodipodi:role="line"
         id="tspan66416">datang?!</tspan></text>
    <text
       id="text4246-4-2-7-0-7-5-7-5-7-2"
       y="2067.3206"
       x="1263.7649"
       style="font-style:normal;font-variant:normal;font-weight:normal;font-stretch:normal;line-height:0%;font-family:Lavi;-inkscape-font-specification:Lavi;text-align:center;letter-spacing:0px;word-spacing:0px;text-anchor:middle;fill:#000000;fill-opacity:1;stroke:none"
       xml:space="preserve"><tspan
         y="2067.3206"
         x="1263.7649"
         style="font-size:45px;line-height:1.25"
         sodipodi:role="line"
         id="tspan60233-4">Dan dengan <tspan
   style="font-style:italic;font-variant:normal;font-weight:normal;font-stretch:normal;font-family:Lavi;-inkscape-font-specification:'Lavi Italic'"
   id="tspan77904">ketapel</tspan>?!</tspan></text>
    <text
       id="text4246-4-2-7-0-7-5-7-5-7-2-7"
       y="2171.6597"
       x="1275.9406"
       style="font-style:normal;font-variant:normal;font-weight:normal;font-stretch:normal;line-height:0%;font-family:Lavi;-inkscape-font-specification:Lavi;text-align:center;letter-spacing:0px;word-spacing:0px;text-anchor:middle;fill:#000000;fill-opacity:1;stroke:none"
       xml:space="preserve"><tspan
         y="2171.6597"
         x="1275.9406"
         style="font-size:45px;line-height:1.25"
         sodipodi:role="line"
         id="tspan80758">Mau apa</tspan><tspan
         y="2227.9097"
         x="1275.9406"
         style="font-size:45px;line-height:1.25"
         sodipodi:role="line"
         id="tspan2559">mereka?</tspan></text>
    <text
       id="text4246-4-2-7-0-7-5-7-5-7-2-7-0"
       y="2073.0527"
       x="1729.9812"
       style="font-style:normal;font-variant:normal;font-weight:normal;font-stretch:normal;line-height:0%;font-family:Lavi;-inkscape-font-specification:Lavi;text-align:center;letter-spacing:0px;word-spacing:0px;text-anchor:middle;fill:#000000;fill-opacity:1;stroke:none"
       xml:space="preserve"><tspan
         y="2073.0527"
         x="1729.9812"
         style="font-size:45px;line-height:1.25"
         sodipodi:role="line"
         id="tspan87192-8">Aku tak tahu...</tspan></text>
    <text
       id="text4246-4-2-7-0-7-5-7-5-7-2-7-0-6"
       y="2168.2126"
       x="1758.8391"
       style="font-style:normal;font-variant:normal;font-weight:normal;font-stretch:normal;line-height:0%;font-family:Lavi;-inkscape-font-specification:Lavi;text-align:center;letter-spacing:0px;word-spacing:0px;text-anchor:middle;fill:#000000;fill-opacity:1;stroke:none"
       xml:space="preserve"><tspan
         y="2168.2126"
         x="1758.8391"
         style="font-size:45px;line-height:1.25"
         sodipodi:role="line"
         id="tspan89762">Tapi <tspan
   style="font-style:normal;font-variant:normal;font-weight:bold;font-stretch:normal;font-family:Lavi;-inkscape-font-specification:'Lavi Bold'"
   id="tspan10728">dua orang</tspan></tspan><tspan
         y="2224.4626"
         x="1758.8391"
         style="font-size:45px;line-height:1.25"
         sodipodi:role="line"
         id="tspan5232"><tspan
   style="font-style:normal;font-variant:normal;font-weight:bold;font-stretch:normal;font-family:Lavi;-inkscape-font-specification:'Lavi Bold'"
   id="tspan2563">itu </tspan>aku tahu.</tspan></text>
    <text
       id="text4246-4-2-7-0-7-5-7-5-7-2-7-0-6-4"
       y="2545.9878"
       x="171.54672"
       style="font-style:normal;font-variant:normal;font-weight:normal;font-stretch:normal;font-size:20.1855px;line-height:0%;font-family:Lavi;-inkscape-font-specification:Lavi;text-align:center;letter-spacing:0px;word-spacing:0px;text-anchor:middle;fill:#000000;fill-opacity:1;stroke:none;stroke-width:1.68213"
       xml:space="preserve"
       transform="scale(1.0415118,0.96014276)"><tspan
         y="2545.9878"
         x="171.54672"
         style="font-style:normal;font-variant:normal;font-weight:normal;font-stretch:normal;font-size:75.6958px;line-height:1.25;font-family:Lavi;-inkscape-font-specification:Lavi;stroke-width:1.68213"
         sodipodi:role="line"
         id="tspan94572-1">?</tspan></text>
    <text
       id="text4246-4-2-7-0-7-5-7-5-7-2-7-0-6-4-4"
       y="2570.4646"
       x="757.89764"
       style="font-style:normal;font-variant:normal;font-weight:normal;font-stretch:normal;font-size:18.2467px;line-height:0%;font-family:Lavi;-inkscape-font-specification:Lavi;text-align:center;letter-spacing:0px;word-spacing:0px;text-anchor:middle;fill:#000000;fill-opacity:1;stroke:none;stroke-width:1.52057"
       xml:space="preserve"
       transform="scale(1.0289557,0.97185912)"><tspan
         y="2570.4646"
         x="757.89764"
         style="font-style:normal;font-variant:normal;font-weight:normal;font-stretch:normal;font-size:68.4254px;line-height:1.25;font-family:Lavi;-inkscape-font-specification:Lavi;stroke-width:1.52057"
         sodipodi:role="line"
         id="tspan94572-1-9"><tspan
   style="font-size:63.2767px;stroke-width:1.52057"
   id="tspan113997"><tspan
   style="font-size:58.7569px;stroke-width:1.52057"
   id="tspan117389">!</tspan>!</tspan>!</tspan></text>
    <text
       id="text4246-4-2-7-0-7-5-7-5-7-2-7-0-6-2"
       y="2469.0112"
       x="1249.6012"
       style="font-style:normal;font-variant:normal;font-weight:normal;font-stretch:normal;font-size:11.00459957px;line-height:0%;font-family:Lavi;-inkscape-font-specification:Lavi;text-align:center;letter-spacing:0px;word-spacing:0px;text-anchor:middle;fill:#000000;fill-opacity:1;stroke:none;stroke-width:0.91705102"
       xml:space="preserve"><tspan
         y="2469.0112"
         x="1249.6012"
         style="font-size:41.26729965px;line-height:1.25;stroke-width:0.91705102"
         sodipodi:role="line"
         id="tspan119847">Torreya,</tspan><tspan
         y="2520.5955"
         x="1249.6012"
         style="font-size:41.26729965px;line-height:1.25;stroke-width:0.91705102"
         sodipodi:role="line"
         id="tspan94490">di sini!</tspan></text>
  </g>
</svg>
