<?xml version="1.0" encoding="UTF-8" standalone="no"?>
<!-- Created with Inkscape (http://www.inkscape.org/) -->

<svg
   xmlns:dc="http://purl.org/dc/elements/1.1/"
   xmlns:cc="http://creativecommons.org/ns#"
   xmlns:rdf="http://www.w3.org/1999/02/22-rdf-syntax-ns#"
   xmlns:svg="http://www.w3.org/2000/svg"
   xmlns="http://www.w3.org/2000/svg"
   xmlns:xlink="http://www.w3.org/1999/xlink"
   xmlns:sodipodi="http://sodipodi.sourceforge.net/DTD/sodipodi-0.dtd"
   xmlns:inkscape="http://www.inkscape.org/namespaces/inkscape"
   id="svg2"
   version="1.1"
   inkscape:version="0.92.3 (2405546, 2018-03-11)"
   width="2481"
   height="3503"
   sodipodi:docname="E26P05.svg">
  <metadata
     id="metadata8">
    <rdf:RDF>
      <cc:Work
         rdf:about="">
        <dc:format>image/svg+xml</dc:format>
        <dc:type
           rdf:resource="http://purl.org/dc/dcmitype/StillImage" />
        <dc:title />
      </cc:Work>
    </rdf:RDF>
  </metadata>
  <defs
     id="defs6" />
  <sodipodi:namedview
     pagecolor="#ffffff"
     bordercolor="#666666"
     borderopacity="1"
     objecttolerance="10"
     gridtolerance="10"
     guidetolerance="10"
     inkscape:pageopacity="0"
     inkscape:pageshadow="2"
     inkscape:window-width="1680"
     inkscape:window-height="987"
     id="namedview4"
     showgrid="false"
     inkscape:zoom="0.6604777"
     inkscape:cx="1101.128"
     inkscape:cy="1779.9983"
     inkscape:window-x="-8"
     inkscape:window-y="24"
     inkscape:window-maximized="1"
     inkscape:current-layer="layer1"
     inkscape:snap-global="false" />
  <g
     inkscape:groupmode="layer"
     id="layer2"
     inkscape:label="artwork"
     sodipodi:insensitive="true">
    <image
       sodipodi:absref="C:\Users\ato\OneDrive - Høgskulen i Volda\Vevsida\Teikneseriesida\Pepar &amp; Gulrot\ep26_Books-Are-Great_lang-pack\lang\nn\../gfx_Pepper-and-Carrot_by-David-Revoy_E26P05.png"
       xlink:href="../gfx_Pepper-and-Carrot_by-David-Revoy_E26P05.png"
       width="2481"
       height="3503"
       id="image10"
       x="0"
       y="0" />
  </g>
  <g
     inkscape:groupmode="layer"
     id="layer3"
     inkscape:label="speechbubbles">
    <path
       style="color:#000000;display:inline;overflow:visible;visibility:visible;fill:#ffffff;fill-opacity:1;fill-rule:nonzero;stroke:none;stroke-width:0.84853202px;marker:none;enable-background:accumulate"
       d="m 796.7142,152.62346 c 50.26325,-0.43405 146.58555,-8.76224 156.34887,67.2302 7.11164,55.35321 -16.27224,69.23705 -51.08439,86.12997 -34.81214,16.89301 -138.97537,27.83652 -182.35791,7.96264 -43.38265,-19.87389 -74.10038,-35.15031 -69.95402,-95.11502 4.99129,-72.18413 96.7842,-65.77374 147.04745,-66.20779 z"
       id="path4040"
       inkscape:connector-curvature="0"
       sodipodi:nodetypes="zssssz" />
    <path
       style="color:#000000;display:inline;overflow:visible;visibility:visible;fill:#ffffff;fill-opacity:1;fill-rule:nonzero;stroke:none;stroke-width:1px;marker:none;enable-background:accumulate"
       d="m 723.30366,175.8066 c 15.6509,39.1272 126.32477,118.49941 138.62187,131.91441 12.2971,13.415 38.0092,32.4196 58.1317,35.7734 20.1226,3.3537 29.8656,-15.8488 47.3048,-18.9433 14.983,-2.6587 26.47777,2.1745 35.42117,12.2357 -14.533,-25.7121 -39.12717,-25.7121 -49.18837,-21.2404 -10.0613,4.4717 -27.948,17.8867 -44.7168,5.5896 -16.7687,-12.2971 -86.0797,-88.31561 -103.96637,-91.66931 -17.8867,-3.3538 -40.245,-29.0659 -40.245,-43.5988 0,-14.533 -41.363,-10.0613 -41.363,-10.0613 z"
       id="path4562"
       inkscape:connector-curvature="0"
       sodipodi:nodetypes="cssscssssc" />
    <path
       style="color:#000000;display:inline;overflow:visible;visibility:visible;fill:#ffffff;fill-opacity:1;fill-rule:nonzero;stroke:none;stroke-width:1px;marker:none;enable-background:accumulate"
       d="m 629.44972,1457.2356 c 5.31864,112.846 187.39235,142.8215 217.19246,120.0477 -67.73192,45.7834 -243.1513,-13.454 -259.18624,-91.6691 -22.55675,-34.7368 41.99378,-28.3786 41.99378,-28.3786 z"
       id="path4480"
       inkscape:connector-curvature="0"
       sodipodi:nodetypes="cccc" />
    <path
       style="color:#000000;display:inline;overflow:visible;visibility:visible;fill:#ffffff;fill-opacity:1;fill-rule:nonzero;stroke:none;stroke-width:0.79632747px;marker:none;enable-background:accumulate"
       d="m 1690.5002,1508.1337 c 5.9791,-47.4416 53.7915,-71.1729 180.0264,-57.7213 67.6181,7.2055 149.1719,1.398 141.1998,70.9248 -7.9723,69.5266 -123.2623,75.4903 -146.1824,76.3083 -22.9203,0.818 -141.6268,-10.7214 -161.4373,-35.1724 -12.4009,-15.3056 -14.6032,-39.616 -13.6065,-54.3394 z"
       id="path4546-6"
       inkscape:connector-curvature="0"
       sodipodi:nodetypes="cssssc" />
    <path
       style="fill:#ffffff;fill-opacity:1;stroke:none;stroke-width:1.17011929"
       d="m 1822.1841,1642.7664 c -3.072,-33.1575 17.3038,-49.6518 35.8561,-57.4653 23.5123,-9.9025 194.6016,-21.9679 213.5953,6.8159 20.3643,30.8607 26.6302,99.5273 -16.4733,100.3128 -60.8756,1.1094 -150.5649,5.7216 -175.2997,4.0068 -47.9042,-3.3211 -54.4804,-17.7937 -57.6784,-53.6702 z"
       id="path3659-8"
       inkscape:connector-curvature="0"
       sodipodi:nodetypes="cssssc" />
    <path
       style="fill:#ffffff;fill-opacity:1;fill-rule:evenodd;stroke:none;stroke-width:0.57074118px;stroke-linecap:butt;stroke-linejoin:miter;stroke-opacity:1"
       d="m 2052.3963,1744.369 c 2.8478,6.2781 -2.7067,12.8754 -6.6854,14.9282 -4.7257,4.1933 -9.9339,3.4238 -14.756,2.3824 -4.7156,-1.6167 -8.9124,2.4725 -12.725,6.7734 -5.8446,5.4542 -13.3739,6.5511 -18.6228,1.2394 -3.9397,-3.6716 -8.4641,-8.1406 -13.7451,-5.3035 -6.2088,2.7499 -13.9137,4.8375 -18.6038,-1.7964 -2.9664,-7.3562 -9.8827,-5.3756 -15.0565,-3.3626 -6.6035,2.2865 -13.6152,3.2535 -19.5505,-0.695 -3.9688,-2.3804 -9.0795,-3.9874 -10.2159,-11.0177 -1.4774,-7.7322 -2.9448,-16.9207 -8.5192,-19.9579 -3.8972,-2.4942 -9.7267,-4.4919 -9.6976,-12.3212 1.0837,-6.8382 4.2374,-13.2886 7.0808,-18.978 7.0153,-6.9042 15.2764,0.321 23.1079,-0.7647 5.1177,-0.6887 10.1757,-3.071 14.8599,-6.8213 7.3585,-4.1094 14.4416,1.0655 21.8212,-1.2502 8.5897,-1.9266 17.2829,-0.2509 25.7891,-4.696 9.5237,-3.9035 19.6465,-0.7854 26.2121,8.5566 2.7393,4.5693 6.7227,6.697 11.0541,6.5043 5.6774,0.514 8.7552,-0.3982 11.9308,7.2374 2.6334,5.4974 1.9582,3.7813 3.3976,9.6865 1.5504,5.8484 6.7819,7.8078 7.4887,14.5687 0.4858,5.574 -4.44,9.3467 -4.5644,15.0876 z"
       id="path4367-3-5"
       inkscape:connector-curvature="0"
       sodipodi:nodetypes="ccccccccccccccccccccccc" />
    <path
       style="opacity:1;fill:#ffffff;fill-rule:evenodd;stroke:none;stroke-width:1.3443836px;stroke-linecap:butt;stroke-linejoin:miter;stroke-opacity:1"
       d="m 1542.1535,1496.6176 c 57.2733,-8.6915 60.9764,19.7045 77.6569,27.317 17.2205,7.8588 50.5803,-25.7702 66.8815,-19.2081 16.3015,6.562 20.9961,40.3754 46.6514,50.2361 25.6551,9.861 44.0985,-16.5088 14.0519,-27.3374 -30.0465,-10.8286 -24.8419,-34.9697 -49.8325,-40.9228 -41.6779,-9.928 -54.8951,20.1792 -69.9481,24.4763 -9.9661,2.8447 -19.8986,-16.3184 -38.035,-21.5527 -18.1365,-5.2344 -47.4261,6.9916 -47.4261,6.9916 z"
       id="path4272"
       inkscape:connector-curvature="0"
       sodipodi:nodetypes="csssssssc" />
    <path
       style="color:#000000;display:inline;overflow:visible;visibility:visible;fill:#ffffff;fill-opacity:1;fill-rule:nonzero;stroke:none;stroke-width:0.82009757px;marker:none;enable-background:accumulate"
       d="m 1142.4856,2864.1872 c -11.6468,-10.5306 -29.7748,-23.9453 23.708,-26.9445 -66.889,-25.4199 -53.5528,-66.5215 -17.3827,-77.5114 -55.1347,-2.4623 -60.018,-5.9422 13.2506,-86.1248 -85.2431,76.5575 -92.9723,77.6987 -97.8123,39.8671 -14.6476,22.2479 -42.9096,20.2317 -38.0902,-13.2081 -16.7142,26.9328 -61.15462,44.4068 -63.03601,3.5626 -20.87583,32.1468 -40.64507,30.134 -61.18688,23.193 4.26855,24.5984 3.06513,52.2255 2.20375,90.2578 -1.06945,22.4558 1.16284,27.1694 5.45989,42.6743 -3.48967,24.576 2.60062,25.021 5.3607,43.2742 36.13143,-21.8896 36.15537,-19.3678 36.78079,8.5148 66.05216,-49.2416 53.10916,-10.5176 68.00046,-3.5241 24.7362,-37.6615 49.5345,-14.6169 75.1973,-9.0224 11.4565,-43.0546 27.8498,-39.8265 47.5466,-35.0085 z"
       id="path3549-3-78"
       inkscape:connector-curvature="0"
       sodipodi:nodetypes="ccccccccccccccc" />
    <path
       style="fill:#ffffff;fill-rule:evenodd;stroke:none;stroke-width:1.19638777px;stroke-linecap:butt;stroke-linejoin:miter;stroke-opacity:1"
       d="m 1054.1154,2799.7033 c -25.6587,69.309 -55.20507,78.5476 -89.54461,13.7224 -9.13796,22.0589 -0.85308,84.908 -58.61164,-6.8611 6.20028,41.7932 -2.7172,53.8568 -18.13489,53.137 v 244.6804 c 15.00502,-5.8405 26.53121,-1.0981 31.15969,24.642 32.46925,-28.2914 54.82732,-30.2012 56.98449,20.5833 30.57836,-58.2206 43.24306,-34.6622 56.98266,-16.0092 46.1972,-56.2034 65.3108,-13.4951 91.1717,4.574 -4.7247,-31.4984 3.0494,-47.9489 58.6116,-6.861 -10.4699,-19.9842 -26.1856,-41.1964 39.0744,-43.4513 -27.8721,-16.284 -41.4191,-39.1991 -21.1663,-77.7567 -38.1235,-26.4679 -18.837,-48.1924 16.2811,-68.6086 -50.5555,-13.304 -42.1289,-36.3552 -19.5374,-61.7473 -51.133,24.1297 -101.9022,17.9168 -75.1192,-27.5473 -31.4234,25.0658 -53.6464,47.4782 -68.1516,-52.4966 z"
       id="path4582"
       inkscape:connector-curvature="0"
       sodipodi:nodetypes="cccccccccccccccc" />
    <path
       style="fill:#ffffff;fill-rule:evenodd;stroke:none;stroke-width:0.97864747px;stroke-linecap:butt;stroke-linejoin:miter;stroke-opacity:1"
       d="m 889.1222,3128.5128 c 26.68633,2.7051 65.76398,-10.089 44.18918,-50.8159 41.87691,28.8558 76.21162,23.8184 144.33082,-21.4911 -5.6607,63.1309 24.7852,57.2326 52.2327,45.1123 -26.342,21.244 20.9429,33.4174 46.3779,34.6108 -53.8053,45.9493 -25.5515,60.5625 -4.3504,77.8691 -52.8779,-12.8043 -40.0892,13.1396 -46.4049,27.8104 -45.3613,-33.2402 -78.3497,-25.3512 -104.4112,5.5621 -13.6306,-16.8115 -17.9091,-51.558 -68.15728,1.854 18.47745,-46.1099 -5.74243,-41.27 -44.95483,-18.5402 6.14546,-15.7057 42.67059,-39.5884 -18.85199,-37.0806 38.42816,-14.9306 46.48674,-35.1561 0,-64.8909 z"
       id="path4584"
       inkscape:connector-curvature="0"
       sodipodi:nodetypes="cccccccccccc" />
    <path
       style="fill:#ffffff;fill-opacity:1;fill-rule:evenodd;stroke:none;stroke-width:1.25243008px;stroke-linecap:butt;stroke-linejoin:miter;stroke-opacity:1"
       d="m 1958.5811,2095.4141 c -20.3878,-1.4899 -31.7527,17.6625 -47.9817,24.7765 -16.6311,3.327 -35.2114,-9.0159 -50.2809,2.4487 -13.636,6.5939 -28.4236,18.9323 -23.6613,35.3044 1.3527,14.8618 -15.7083,23.7537 -13.5265,38.4091 0.6136,15.3461 19.6734,23.4962 16.6136,39.592 -5.2953,14.7784 -17.0753,32.0345 -3.8872,46.8253 13.7114,16.857 39.623,7.4781 55.9595,18.751 13.0863,16.8385 28.561,36.2004 52.3208,37.2344 22.2116,1.4504 38.7929,-14.088 61.1725,-11.6321 16.5642,-0.2809 36.4544,13.3657 52.8327,17.4765 13.7377,-0.9979 29.2475,2.8979 41.3312,-5.4201 11.7109,-11.2041 27.7501,-10.1892 35.4149,4.3937 12.8691,11.0884 32.0126,3.3467 45.4025,-3.0464 16.3444,-11.4785 31.1564,5.8708 45.2737,12.0031 19.1635,8.7203 38.7965,-20.247 49.3785,-34.9913 10.1587,-16.1551 30.8581,-8.2868 46.4626,-11.3856 14.3078,-5.4389 28.6428,-17.1116 32.8692,-31.9815 -2.4559,-13.4882 -3.5815,-28.3685 5.2107,-40.4979 5.1984,-14.9418 -7.9256,-27.1003 -17.8993,-36.3552 -12.2983,-14.6623 5.3831,-30.5247 0.2551,-46.1731 -4.1878,-20.5636 -28.6344,-23.4138 -46.3883,-20.9739 -16.257,3.6746 -26.0329,-8.8474 -36.7335,-17.9371 -16.1453,-14.7731 -41.0049,-18.9138 -61.0987,-9.3479 -17.7842,9.5953 -33.6413,2.2357 -53.6132,4.9708 -14.5001,3.7075 -29.2184,14.5809 -44.4008,12.3969 -12.6867,-2.4547 -27.6641,14.8989 -40.9879,-1.2309 -10.6782,-12.8048 -28.0947,-4.3489 -42.1307,-0.3403 -18.6348,8.7945 -30.2612,-11.9857 -44.129,-19.6491 -4.1758,-2.2967 -8.9428,-3.7461 -13.7785,-3.62 z"
       id="path4367"
       inkscape:connector-curvature="0"
       sodipodi:nodetypes="cccccccccccccccccccccccccccccc" />
    <path
       style="color:#000000;display:inline;overflow:visible;visibility:visible;fill:#ffffff;fill-opacity:1;fill-rule:nonzero;stroke:none;stroke-width:1.3837055px;marker:none;enable-background:accumulate"
       d="m 2170.3615,2309.0962 c -0.3713,38.0127 6.7641,58.9988 10.8638,63.5533 4.0997,4.5543 14.1043,16.9116 18.197,24.3263 3.3617,6.1716 9.6066,12.58 5.6022,19.0563 -4.0042,6.4764 -34.1758,30.3537 -35.5389,56.2139 -1.3632,25.8606 5.3064,30.7584 16.8647,34.3062 11.5583,3.5478 26.5828,8.5604 26.6542,27.601 0.071,19.0406 -9.8738,34.7396 -15.8025,39.9571 -5.9287,5.2176 -38.3186,24.4352 -54.9686,48.0709 -8.8964,12.629 -3.6957,116.332 -77.1531,147.1353 96.1421,-38.7249 86.06,-126.0636 93.2119,-138.7724 6.2517,-11.109 19.0349,-23.9504 28.6904,-28.7662 12.35,-6.1599 23.5652,-12.3444 30.546,-25.4347 6.9807,-13.0901 15.9013,-23.3083 13.774,-42.6236 -2.1271,-19.3153 -5.4443,-39.4224 -23.4332,-41.8264 -11.5582,-3.5478 -18.351,-12.9635 -18.0761,-18.9365 0.2753,-5.9731 12.8845,-27.1311 24.7298,-33.5613 11.8453,-6.4303 16.5638,-17.6507 16.086,-29.7343 -0.4779,-12.0835 -10.5747,-31.5425 -12.3436,-41.7953 -1.7687,-10.2527 -15.6194,-65.4734 -15.6194,-65.4734 z"
       id="path5058"
       inkscape:connector-curvature="0"
       sodipodi:nodetypes="cscsssssscssssccscccc" />
  </g>
  <g
     inkscape:groupmode="layer"
     id="layer1"
     inkscape:label="txt">
    <text
       xml:space="preserve"
       style="color:#000000;font-style:normal;font-variant:normal;font-weight:normal;font-stretch:normal;font-size:14.56374168px;line-height:0.01%;font-family:Arial;-inkscape-font-specification:Arial;letter-spacing:1.17453516px;word-spacing:0px;display:inline;overflow:visible;visibility:visible;fill:#e69d76;fill-opacity:1;fill-rule:nonzero;stroke:#e99f77;stroke-width:2;stroke-miterlimit:4;stroke-dasharray:none;stroke-opacity:1;marker:none;enable-background:accumulate"
       x="-810.0307"
       y="131.72078"
       id="text1711-2"
       transform="matrix(-0.05075958,-0.85891373,1.1934833,0.49447225,0,0)"><tspan
         sodipodi:role="line"
         x="-810.0307"
         y="131.72078"
         id="tspan1709-8"
         style="font-style:normal;font-variant:normal;font-weight:bold;font-stretch:normal;font-size:64px;font-family:Lavi;-inkscape-font-specification:'Lavi Bold';letter-spacing:3.15169597px;word-spacing:0px;fill:#ffffff;fill-opacity:1;stroke:#ffffff;stroke-width:2;stroke-miterlimit:4;stroke-dasharray:none;stroke-opacity:1">Sjkrrr!</tspan></text>
    <text
       xml:space="preserve"
       style="font-style:normal;font-variant:normal;font-weight:normal;font-stretch:normal;line-height:0%;font-family:Lavi;-inkscape-font-specification:Lavi;text-align:center;letter-spacing:0px;word-spacing:0px;text-anchor:middle;fill:#000000;fill-opacity:1;stroke:none"
       x="801.70013"
       y="182.30191"
       id="text4246-5-3"><tspan
         sodipodi:role="line"
         style="font-size:45px;line-height:1.25"
         x="801.70013"
         y="185.79936"
         id="tspan890" /><tspan
         sodipodi:role="line"
         style="font-size:45px;line-height:1.25"
         x="808.73138"
         y="223.54237"
         id="tspan849">Aha! Her er </tspan><tspan
         sodipodi:role="line"
         style="font-size:45px;line-height:1.25"
         x="801.70013"
         y="279.79236"
         id="tspan6082">utgangen!</tspan><tspan
         sodipodi:role="line"
         style="font-size:45px;line-height:1.25"
         x="801.70013"
         y="298.29935"
         id="tspan917" /></text>
    <text
       xml:space="preserve"
       style="color:#000000;font-style:normal;font-variant:normal;font-weight:normal;font-stretch:normal;font-size:10.93896103px;line-height:0.01%;font-family:Arial;-inkscape-font-specification:Arial;letter-spacing:0.88220423px;word-spacing:0px;display:inline;overflow:visible;visibility:visible;fill:#e69d76;fill-opacity:1;fill-rule:nonzero;stroke:#e99f77;stroke-width:2;stroke-miterlimit:4;stroke-dasharray:none;stroke-opacity:1;marker:none;enable-background:accumulate"
       x="215.31154"
       y="1572.0367"
       id="text1711-2-3"
       transform="matrix(-0.02665862,-0.84533118,1.1912388,0.26225273,0,0)"><tspan
         sodipodi:role="line"
         x="216.49516"
         y="1572.0367"
         id="tspan1709-8-6"
         style="font-style:normal;font-variant:normal;font-weight:bold;font-stretch:normal;font-family:Lavi;-inkscape-font-specification:'Lavi Bold';letter-spacing:2.36726809px;word-spacing:0px;fill:#ffffff;fill-opacity:1;stroke:#ffffff;stroke-width:2;stroke-miterlimit:4;stroke-dasharray:none;stroke-opacity:1"><tspan
           x="215.31154"
           y="1572.0367"
           style="color:#000000;font-style:normal;font-variant:normal;font-weight:bold;font-stretch:normal;font-size:58.34113693px;line-height:1.25;font-family:Lavi;-inkscape-font-specification:'Lavi Bold';text-align:center;letter-spacing:2.36726809px;word-spacing:0px;text-anchor:middle;display:inline;overflow:visible;visibility:visible;fill:#ffffff;fill-opacity:1;fill-rule:nonzero;stroke:#ffffff;stroke-width:2;stroke-miterlimit:4;stroke-dasharray:none;stroke-opacity:1;marker:none;enable-background:accumulate"
           id="tspan1707-9-7">Smokk!</tspan></tspan></text>
    <path
       style="fill:#ffffff;fill-opacity:1;fill-rule:evenodd;stroke:none;stroke-width:1.02243471px;stroke-linecap:butt;stroke-linejoin:miter;stroke-opacity:1"
       d="m 338.82554,1202.3778 c -8.02172,-8.5996 1.93733,-19.3901 9.87762,-23.2096 8.90181,-7.1039 20.33889,-7.0471 31.02789,-6.5131 10.6332,1.3971 18.4282,-5.4459 25.33271,-12.5198 10.92815,-9.1782 26.79585,-12.3279 39.69168,-5.6348 9.58424,4.5624 20.66726,10.1714 31.17257,4.9375 12.52801,-5.2969 28.47462,-9.9318 40.56724,-1.1899 8.60226,10.1523 22.88441,5.8356 33.40801,1.8292 13.51684,-4.6999 28.31035,-7.5533 42.27171,-2.9954 9.25698,2.6678 20.73728,3.9699 25.30416,14.0209 5.51221,11.0078 11.44235,24.1481 24.35184,27.4471 9.13771,2.8488 22.28238,4.575 24.58277,16.0339 -0.26777,10.2257 -5.10597,20.309 -9.50614,29.2151 -13.00942,11.5394 -32.9632,2.6654 -49.48462,5.8607 -10.80261,2.0576 -20.96562,6.5807 -29.91142,13.028 -14.59128,7.5216 -31.39199,1.4049 -46.56969,6.3068 -17.89902,4.5811 -37.10756,3.9138 -54.06659,12.162 -19.31141,7.6646 -42.03143,5.1806 -58.97631,-7.1381 -7.27251,-6.1221 -16.48489,-8.4171 -25.74542,-7.2464 -12.36979,0.4132 -18.71608,2.3794 -27.85289,-8.1387 -7.32441,-7.5017 -5.35411,-5.1298 -10.23297,-13.4728 -5.10072,-8.2372 -16.94752,-10.0299 -20.50857,-19.7751 -2.72768,-8.0541 6.73152,-14.584 5.26642,-23.0075 z"
       id="path4367-3"
       inkscape:connector-curvature="0"
       sodipodi:nodetypes="ccccccccccccccccccccccc" />
    <path
       style="color:#000000;display:inline;overflow:visible;visibility:visible;fill:#ffffff;fill-opacity:1;fill-rule:nonzero;stroke:none;stroke-width:1.30749774px;marker:none;enable-background:accumulate"
       d="m 381.7757,1263.1003 c 55.63158,-38.7655 302.33339,-60.8245 405.52694,14.6962 103.1935,75.5207 66.66111,180.9783 7.45161,209.8134 -59.20936,28.8352 -242.17885,39.3072 -325.99402,27.2248 -142.05466,-20.4777 -153.39309,-65.5663 -157.43617,-141.2153 -1.65014,-30.8754 14.82008,-71.7536 70.45164,-110.5191 z"
       id="path4040-3"
       inkscape:connector-curvature="0"
       sodipodi:nodetypes="zssssz" />
    <text
       xml:space="preserve"
       style="font-style:normal;font-variant:normal;font-weight:normal;font-stretch:normal;line-height:0%;font-family:Lavi;-inkscape-font-specification:Lavi;text-align:center;letter-spacing:0px;word-spacing:0px;text-anchor:middle;fill:#000000;fill-opacity:1;stroke:none"
       x="501.67734"
       y="1229.4307"
       id="text4246-5-3-7-2-0"><tspan
         sodipodi:role="line"
         style="font-style:normal;font-variant:normal;font-weight:bold;font-stretch:normal;font-size:53.33333206px;line-height:1.25;font-family:Lavi;-inkscape-font-specification:'Lavi Bold'"
         x="501.67734"
         y="1229.4307"
         id="tspan917-6-7-6">Æææsj ...</tspan></text>
    <text
       xml:space="preserve"
       style="font-style:normal;font-variant:normal;font-weight:normal;font-stretch:normal;font-size:45px;line-height:0%;font-family:Lavi;-inkscape-font-specification:'Lavi, Normal';font-variant-ligatures:normal;font-variant-caps:normal;font-variant-numeric:normal;font-feature-settings:normal;text-align:center;letter-spacing:0px;word-spacing:0px;writing-mode:lr-tb;text-anchor:middle;fill:#000000;fill-opacity:1;stroke:none"
       x="582.07117"
       y="1268.6722"
       id="text4246-5-3-5"><tspan
         sodipodi:role="line"
         style="font-style:normal;font-variant:normal;font-weight:normal;font-stretch:normal;font-size:45px;line-height:1.25;font-family:Lavi;-inkscape-font-specification:'Lavi, Normal';font-variant-ligatures:normal;font-variant-caps:normal;font-variant-numeric:normal;font-feature-settings:normal;text-align:center;writing-mode:lr-tb;text-anchor:middle"
         x="582.07117"
         y="1281.7877"
         id="tspan890-6" /><tspan
         sodipodi:role="line"
         style="font-style:normal;font-variant:normal;font-weight:normal;font-stretch:normal;font-size:45px;line-height:1.25;font-family:Lavi;-inkscape-font-specification:'Lavi, Normal';font-variant-ligatures:normal;font-variant-caps:normal;font-variant-numeric:normal;font-feature-settings:normal;text-align:center;writing-mode:lr-tb;text-anchor:middle"
         x="589.10242"
         y="1309.9127"
         id="tspan917-2">Det står heilt </tspan><tspan
         sodipodi:role="line"
         style="font-style:normal;font-variant:normal;font-weight:normal;font-stretch:normal;font-size:45px;line-height:1.25;font-family:Lavi;-inkscape-font-specification:'Lavi, Normal';font-variant-ligatures:normal;font-variant-caps:normal;font-variant-numeric:normal;font-feature-settings:normal;text-align:center;writing-mode:lr-tb;text-anchor:middle"
         x="589.10242"
         y="1366.1627"
         id="tspan6114">sikkert noko om korleis </tspan><tspan
         sodipodi:role="line"
         style="font-style:normal;font-variant:normal;font-weight:normal;font-stretch:normal;font-size:45px;line-height:1.25;font-family:Lavi;-inkscape-font-specification:'Lavi, Normal';font-variant-ligatures:normal;font-variant-caps:normal;font-variant-numeric:normal;font-feature-settings:normal;text-align:center;writing-mode:lr-tb;text-anchor:middle"
         x="589.10242"
         y="1422.4127"
         id="tspan6126">ein kan fjerna denne ... </tspan><tspan
         sodipodi:role="line"
         style="font-style:normal;font-variant:normal;font-weight:normal;font-stretch:normal;font-size:45px;line-height:1.25;font-family:Lavi;-inkscape-font-specification:'Lavi, Normal';font-variant-ligatures:normal;font-variant-caps:normal;font-variant-numeric:normal;font-feature-settings:normal;text-align:center;writing-mode:lr-tb;text-anchor:middle"
         x="582.07117"
         y="1478.6627"
         id="tspan4613">øh ... «greia».</tspan></text>
    <text
       xml:space="preserve"
       style="font-style:normal;font-variant:normal;font-weight:normal;font-stretch:normal;font-size:9.23767757px;line-height:0%;font-family:Lavi;-inkscape-font-specification:Lavi;text-align:center;letter-spacing:0px;word-spacing:0px;text-anchor:middle;fill:#000000;fill-opacity:1;stroke:none;stroke-width:0.76980644"
       x="1847.3668"
       y="1480.8993"
       id="text4246-5-3-5-7"><tspan
         sodipodi:role="line"
         style="font-size:34.64128876px;line-height:1.25;stroke-width:0.76980644"
         x="1847.3668"
         y="1483.5917"
         id="tspan890-6-0" /><tspan
         sodipodi:role="line"
         style="font-style:normal;font-variant:normal;font-weight:normal;font-stretch:normal;font-size:34.66666794px;line-height:1.25;font-family:Lavi;-inkscape-font-specification:Lavi;stroke-width:0.76980644"
         x="1852.7834"
         y="1512.6697"
         id="tspan1049">Gulrot ... Kan du </tspan><tspan
         sodipodi:role="line"
         style="font-style:normal;font-variant:normal;font-weight:normal;font-stretch:normal;font-size:34.66666794px;line-height:1.25;font-family:Lavi;-inkscape-font-specification:Lavi;stroke-width:0.76980644"
         x="1847.3668"
         y="1556.0031"
         id="tspan6130">lesa for meg?</tspan><tspan
         sodipodi:role="line"
         style="font-style:normal;font-variant:normal;font-weight:normal;font-stretch:normal;font-size:34.66666794px;line-height:1.25;font-family:Lavi;-inkscape-font-specification:Lavi;stroke-width:0.76980644"
         x="1847.3668"
         y="1570.2583"
         id="tspan917-2-2" /></text>
    <text
       xml:space="preserve"
       style="font-style:normal;font-variant:normal;font-weight:normal;font-stretch:normal;font-size:9.49034405px;line-height:0%;font-family:Lavi;-inkscape-font-specification:Lavi;text-align:center;letter-spacing:0px;word-spacing:0px;text-anchor:middle;fill:#000000;fill-opacity:1;stroke:none;stroke-width:0.79086202"
       x="1955.5698"
       y="1627.4869"
       id="text4246-5-3-5-7-6"><tspan
         sodipodi:role="line"
         style="font-style:normal;font-variant:normal;font-weight:normal;font-stretch:normal;font-size:30.66666603px;line-height:1.25;font-family:Lavi;-inkscape-font-specification:Lavi;stroke-width:0.79086202"
         x="1960.3615"
         y="1627.4869"
         id="tspan917-2-2-9">Nei, sjølvsagt </tspan><tspan
         sodipodi:role="line"
         style="font-style:normal;font-variant:normal;font-weight:normal;font-stretch:normal;font-size:30.66666603px;line-height:1.25;font-family:Lavi;-inkscape-font-specification:Lavi;stroke-width:0.79086202"
         x="1955.5698"
         y="1665.8203"
         id="tspan6141">kan du ikkje det.</tspan></text>
    <text
       xml:space="preserve"
       style="font-style:normal;font-variant:normal;font-weight:normal;font-stretch:normal;font-size:10.48344421px;line-height:0%;font-family:Lavi;-inkscape-font-specification:Lavi;text-align:center;letter-spacing:0px;word-spacing:0px;text-anchor:middle;fill:#000000;fill-opacity:1;stroke:none;stroke-width:0.87362039"
       x="1987.2072"
       y="1734.7021"
       id="text4246-5-3-5-7-6-2"><tspan
         sodipodi:role="line"
         style="font-style:normal;font-variant:normal;font-weight:normal;font-stretch:normal;font-size:29.33333397px;line-height:1.25;font-family:Lavi;-inkscape-font-specification:Lavi;stroke-width:0.87362039"
         x="1987.2072"
         y="1734.7021"
         id="tspan917-2-2-9-7">Pff...</tspan></text>
    <text
       xml:space="preserve"
       style="color:#000000;font-style:normal;font-variant:normal;font-weight:normal;font-stretch:normal;font-size:13.68011093px;line-height:0.01%;font-family:Arial;-inkscape-font-specification:Arial;letter-spacing:1.1032722px;word-spacing:0px;display:inline;overflow:visible;visibility:visible;fill:#e69d76;fill-opacity:1;fill-rule:nonzero;stroke:#e99f77;stroke-width:0;stroke-miterlimit:4;stroke-dasharray:none;stroke-opacity:1;marker:none;enable-background:accumulate"
       x="2813.7102"
       y="434.09442"
       id="text1711-2-3-9"
       transform="matrix(0.8793411,0.03700556,-0.36761453,1.1217447,0,0)"><tspan
         sodipodi:role="line"
         x="2815.1904"
         y="434.09442"
         id="tspan1709-8-6-2"
         style="font-style:normal;font-variant:normal;font-weight:bold;font-stretch:normal;font-family:Lavi;-inkscape-font-specification:'Lavi Bold';letter-spacing:2.96047211px;word-spacing:0px;fill:#ffffff;fill-opacity:1;stroke:#ffffff;stroke-width:0;stroke-miterlimit:4;stroke-dasharray:none;stroke-opacity:1"><tspan
           x="2813.7102"
           y="434.09442"
           style="color:#000000;font-style:normal;font-variant:normal;font-weight:bold;font-stretch:normal;font-size:72.96060944px;line-height:1.25;font-family:Lavi;-inkscape-font-specification:'Lavi Bold';text-align:center;letter-spacing:2.96047211px;word-spacing:0px;text-anchor:middle;display:inline;overflow:visible;visibility:visible;fill:#ffffff;fill-opacity:1;fill-rule:nonzero;stroke:#ffffff;stroke-width:0;stroke-miterlimit:4;stroke-dasharray:none;stroke-opacity:1;marker:none;enable-background:accumulate"
           id="tspan1707-9-7-2">?!</tspan></tspan></text>
    <text
       xml:space="preserve"
       style="font-style:normal;font-variant:normal;font-weight:normal;font-stretch:normal;line-height:0%;font-family:Lavi;-inkscape-font-specification:Lavi;text-align:center;letter-spacing:0px;word-spacing:0px;text-anchor:middle;fill:#000000;fill-opacity:1;stroke:none"
       x="1035.7271"
       y="3137.8682"
       id="text4246-5-3-5-5"><tspan
         sodipodi:role="line"
         style="font-size:45px;line-height:1.25"
         x="1035.7271"
         y="3141.3657"
         id="tspan890-6-6" /><tspan
         sodipodi:role="line"
         style="font-style:normal;font-variant:normal;font-weight:bold;font-stretch:normal;font-size:53.33333206px;line-height:1.25;font-family:Lavi;-inkscape-font-specification:'Lavi Bold'"
         x="1035.7271"
         y="3186.7458"
         id="tspan954-2">Grrr!!!</tspan><tspan
         sodipodi:role="line"
         style="font-style:normal;font-variant:normal;font-weight:bold;font-stretch:normal;font-size:53.33333206px;line-height:1.25;font-family:Lavi;-inkscape-font-specification:'Lavi Bold'"
         x="1035.7271"
         y="3208.0322"
         id="tspan917-2-0" /></text>
    <text
       xml:space="preserve"
       style="font-style:normal;font-variant:normal;font-weight:normal;font-stretch:normal;font-size:10.72316265px;line-height:0%;font-family:Lavi;-inkscape-font-specification:Lavi;text-align:center;letter-spacing:0px;word-spacing:0px;text-anchor:middle;fill:#000000;fill-opacity:1;stroke:none;stroke-width:0.89359683"
       x="1012.5715"
       y="2782.4492"
       id="text4246-5-3-5-5-9"><tspan
         sodipodi:role="line"
         style="font-style:normal;font-variant:normal;font-weight:bold;font-stretch:normal;font-size:41.70118713px;line-height:1.25;font-family:Lavi;-inkscape-font-specification:'Lavi Bold';stroke-width:0.89359683"
         x="1019.0874"
         y="2782.4492"
         id="tspan917-2-0-0">EG </tspan><tspan
         sodipodi:role="line"
         style="font-style:normal;font-variant:normal;font-weight:bold;font-stretch:normal;font-size:41.70118713px;line-height:1.25;font-family:Lavi;-inkscape-font-specification:'Lavi Bold';stroke-width:0.89359683"
         x="1019.0874"
         y="2834.5757"
         id="tspan6157">VISSTE </tspan><tspan
         sodipodi:role="line"
         style="font-style:normal;font-variant:normal;font-weight:bold;font-stretch:normal;font-size:41.70118713px;line-height:1.25;font-family:Lavi;-inkscape-font-specification:'Lavi Bold';stroke-width:0.89359683"
         x="1012.5715"
         y="2886.7021"
         id="tspan6159">DET!</tspan></text>
    <text
       xml:space="preserve"
       style="font-style:normal;font-variant:normal;font-weight:normal;font-stretch:normal;line-height:0%;font-family:Lavi;-inkscape-font-specification:Lavi;text-align:center;letter-spacing:0px;word-spacing:0px;text-anchor:middle;fill:#000000;fill-opacity:1;stroke:none"
       x="1044.8196"
       y="2961.7891"
       id="text4246-5-3-5-9"><tspan
         sodipodi:role="line"
         style="font-style:normal;font-variant:normal;font-weight:normal;font-stretch:normal;font-size:45px;line-height:1.25;font-family:Lavi;-inkscape-font-specification:Lavi"
         x="1051.8508"
         y="2961.7891"
         id="tspan917-2-9">Det var </tspan><tspan
         sodipodi:role="line"
         style="font-style:normal;font-variant:normal;font-weight:normal;font-stretch:normal;font-size:45px;line-height:1.25;font-family:Lavi;-inkscape-font-specification:Lavi"
         x="1051.8508"
         y="3018.0391"
         id="tspan6187">for godt til </tspan><tspan
         sodipodi:role="line"
         style="font-style:normal;font-variant:normal;font-weight:normal;font-stretch:normal;font-size:45px;line-height:1.25;font-family:Lavi;-inkscape-font-specification:Lavi"
         x="1044.8196"
         y="3074.2891"
         id="tspan6193">å vera sant!</tspan></text>
    <text
       xml:space="preserve"
       style="font-style:normal;font-variant:normal;font-weight:normal;font-stretch:normal;line-height:0%;font-family:Lavi;-inkscape-font-specification:Lavi;text-align:center;letter-spacing:0px;word-spacing:0px;text-anchor:middle;fill:#000000;fill-opacity:1;stroke:none"
       x="2092.2925"
       y="2184.7153"
       id="text4246-5-3-5-9-2"><tspan
         sodipodi:role="line"
         style="font-style:normal;font-variant:normal;font-weight:normal;font-stretch:normal;font-size:45px;line-height:1.25;font-family:Lavi;-inkscape-font-specification:Lavi"
         x="2099.3237"
         y="2184.7153"
         id="tspan903">Kan henda det likevel </tspan><tspan
         sodipodi:role="line"
         style="font-style:normal;font-variant:normal;font-weight:normal;font-stretch:normal;font-size:45px;line-height:1.25;font-family:Lavi;-inkscape-font-specification:Lavi"
         x="2099.3237"
         y="2240.9653"
         id="tspan4597">ikkje stemmer at bøker </tspan><tspan
         sodipodi:role="line"
         style="font-style:normal;font-variant:normal;font-weight:normal;font-stretch:normal;font-size:45px;line-height:1.25;font-family:Lavi;-inkscape-font-specification:Lavi"
         x="2092.2925"
         y="2297.2153"
         id="tspan918">kan løysa alt ...</tspan></text>
    <text
       xml:space="preserve"
       style="color:#000000;font-style:normal;font-variant:normal;font-weight:normal;font-stretch:normal;font-size:10.93896103px;line-height:0.01%;font-family:Arial;-inkscape-font-specification:Arial;letter-spacing:0.88220423px;word-spacing:0px;display:inline;overflow:visible;visibility:visible;fill:#e69d76;fill-opacity:1;fill-rule:nonzero;stroke:#e99f77;stroke-width:2;stroke-miterlimit:4;stroke-dasharray:none;stroke-opacity:1;marker:none;enable-background:accumulate"
       x="4271.3828"
       y="2071.3848"
       id="text1711-2-3-1"
       transform="matrix(0.79338838,0.2929682,-0.69069394,1.0053697,0,0)"><tspan
         sodipodi:role="line"
         x="4272.5664"
         y="2071.3848"
         id="tspan1709-8-6-29"
         style="font-style:normal;font-variant:normal;font-weight:bold;font-stretch:normal;font-family:Lavi;-inkscape-font-specification:'Lavi Bold';letter-spacing:2.36726809px;word-spacing:0px;fill:#ffffff;fill-opacity:1;stroke:#ffffff;stroke-width:2;stroke-miterlimit:4;stroke-dasharray:none;stroke-opacity:1"><tspan
           x="4271.3828"
           y="2071.3848"
           style="color:#000000;font-style:normal;font-variant:normal;font-weight:bold;font-stretch:normal;font-size:58.34113693px;line-height:1.25;font-family:Lavi;-inkscape-font-specification:'Lavi Bold';text-align:center;letter-spacing:2.36726809px;word-spacing:0px;text-anchor:middle;display:inline;overflow:visible;visibility:visible;fill:#ffffff;fill-opacity:1;fill-rule:nonzero;stroke:#ffffff;stroke-width:2;stroke-miterlimit:4;stroke-dasharray:none;stroke-opacity:1;marker:none;enable-background:accumulate"
           id="tspan1707-9-7-3">Paff!</tspan></tspan></text>
  </g>
</svg>
