<?xml version="1.0" encoding="UTF-8" standalone="no"?>
<!-- Created with Inkscape (http://www.inkscape.org/) -->

<svg
   id="svg2"
   version="1.1"
   inkscape:version="1.2.1 (9c6d41e410, 2022-07-14)"
   width="2481"
   height="3503"
   sodipodi:docname="E37P05.svg"
   xmlns:inkscape="http://www.inkscape.org/namespaces/inkscape"
   xmlns:sodipodi="http://sodipodi.sourceforge.net/DTD/sodipodi-0.dtd"
   xmlns:xlink="http://www.w3.org/1999/xlink"
   xmlns="http://www.w3.org/2000/svg"
   xmlns:svg="http://www.w3.org/2000/svg"
   xmlns:rdf="http://www.w3.org/1999/02/22-rdf-syntax-ns#"
   xmlns:cc="http://creativecommons.org/ns#"
   xmlns:dc="http://purl.org/dc/elements/1.1/">
  <metadata
     id="metadata8">
    <rdf:RDF>
      <cc:Work
         rdf:about="">
        <dc:format>image/svg+xml</dc:format>
        <dc:type
           rdf:resource="http://purl.org/dc/dcmitype/StillImage" />
        <dc:title />
      </cc:Work>
    </rdf:RDF>
  </metadata>
  <defs
     id="defs6">
    <filter
       inkscape:label="Magmah-FX"
       inkscape:menu="Distort"
       inkscape:menu-tooltip="Horizontal rippling of edges"
       style="color-interpolation-filters:sRGB"
       id="filter4265-7"
       y="0"
       x="0"
       width="1"
       height="1">
      <feTurbulence
         numOctaves="1"
         baseFrequency="0.002 0.107"
         id="feTurbulence4267-7" />
      <feColorMatrix
         values="5 0 0 0 0 0 0 0 0 0 0 0 0 0 0 0 0 0 4 0 "
         result="result91"
         id="feColorMatrix4269-1" />
      <feDisplacementMap
         yChannelSelector="A"
         xChannelSelector="R"
         scale="14.3"
         in="SourceGraphic"
         in2="result91"
         id="feDisplacementMap4271-2" />
    </filter>
    <filter
       style="color-interpolation-filters:sRGB"
       inkscape:label="Magmah-spell-glow"
       id="filter4751"
       x="-0.033441791"
       y="-0.12562146"
       width="1.0668836"
       height="1.2512429">
      <feFlood
         flood-opacity="1"
         flood-color="rgb(255,255,255)"
         result="flood"
         id="feFlood4753" />
      <feComposite
         in="flood"
         in2="SourceGraphic"
         operator="in"
         result="composite1"
         id="feComposite4755" />
      <feGaussianBlur
         in="composite1"
         stdDeviation="5.4"
         result="blur"
         id="feGaussianBlur4757" />
      <feOffset
         dx="0"
         dy="0"
         result="offset"
         id="feOffset4759" />
      <feComposite
         in="SourceGraphic"
         in2="offset"
         operator="over"
         result="composite2"
         id="feComposite4761" />
    </filter>
    <filter
       inkscape:label="Magmah-FX"
       inkscape:menu="Distort"
       inkscape:menu-tooltip="Horizontal rippling of edges"
       style="color-interpolation-filters:sRGB"
       id="filter4265-7-5"
       y="0"
       x="0"
       width="1"
       height="1">
      <feTurbulence
         numOctaves="1"
         baseFrequency="0.002 0.107"
         id="feTurbulence4267-7-3" />
      <feColorMatrix
         values="5 0 0 0 0 0 0 0 0 0 0 0 0 0 0 0 0 0 4 0 "
         result="result91"
         id="feColorMatrix4269-1-5" />
      <feDisplacementMap
         yChannelSelector="A"
         xChannelSelector="R"
         scale="14.3"
         in="SourceGraphic"
         in2="result91"
         id="feDisplacementMap4271-2-6" />
    </filter>
  </defs>
  <sodipodi:namedview
     pagecolor="#ffffff"
     bordercolor="#666666"
     borderopacity="1"
     objecttolerance="10"
     gridtolerance="10"
     guidetolerance="10"
     inkscape:pageopacity="0"
     inkscape:pageshadow="2"
     inkscape:window-width="1366"
     inkscape:window-height="703"
     id="namedview4"
     showgrid="false"
     inkscape:zoom="0.4"
     inkscape:cx="2155"
     inkscape:cy="3025"
     inkscape:window-x="0"
     inkscape:window-y="0"
     inkscape:window-maximized="1"
     inkscape:current-layer="layer3"
     inkscape:pagecheckerboard="0"
     inkscape:showpageshadow="0"
     inkscape:deskcolor="#d1d1d1"
     showguides="false" />
  <g
     inkscape:groupmode="layer"
     id="layer2"
     inkscape:label="artwork"
     sodipodi:insensitive="true">
    <image
       xlink:href="../gfx_Pepper-and-Carrot_by-David-Revoy_E37P05.png"
       y="0"
       x="0"
       id="image10"
       height="3503"
       width="2481" />
  </g>
  <g
     inkscape:groupmode="layer"
     id="layer3"
     inkscape:label="speechbubbles"
     style="display:inline">
    <path
       style="fill:#ffffff;stroke:none;stroke-width:0.75896"
       d="m 370.83716,328.05133 c -42.75745,0.93796 -85.3241,8.94825 -124.11735,23.60449 -26.03349,12.20478 -39.75834,40.16978 -29.29927,63.34509 6.82546,15.86476 23.33671,27.87455 41.92325,34.5552 31.77377,12.34914 67.42642,15.66139 102.22596,16.73286 34.74211,1.04736 69.74209,0.58621 104.1193,-3.96429 22.39881,-3.5934 44.21219,-11.48197 60.93474,-24.30003 15.02354,-11.71181 24.98557,-28.65673 22.9512,-45.80663 -1.50102,-12.85282 -10.85105,-24.3366 -23.16848,-32.17174 -12.94194,-8.23466 -28.26128,-13.52334 -43.50732,-18.25606 -35.77858,-10.5272 -74.21554,-13.77129 -112.06203,-13.73889 z"
       id="path3280-81"
       inkscape:connector-curvature="0"
       sodipodi:nodetypes="csssc" />
    <path
       style="display:inline;fill:#ffffff;stroke:none;stroke-width:0.70898"
       d="m 301.12765,232.81208 c -20.06263,1.22891 -40.48924,3.51524 -59.30947,12.72034 -9.37975,4.50907 -18.51147,11.57179 -23.64099,22.51374 -7.00395,14.12403 -8.0984,32.95826 -1.34645,47.52578 6.2674,12.99385 17.81857,21.20451 29.77968,23.73612 21.99934,6.16328 44.47661,9.13947 66.87951,12.10832 24.97705,1.86161 50.58764,-2.91651 73.23039,-16.30002 8.96377,-5.68453 16.84483,-15.01583 19.92739,-27.02635 4.49017,-15.34144 1.62887,-33.95869 -8.04583,-45.41511 -6.42651,-7.48567 -14.63871,-12.03668 -22.68234,-16.29565 -14.56461,-7.22352 -30.20559,-10.46066 -45.76807,-12.38787 -9.64699,-1.05636 -19.34274,-1.29838 -29.02382,-1.1793 z"
       id="path3280-81-3"
       inkscape:connector-curvature="0"
       sodipodi:nodetypes="csssc" />
    <path
       style="color:#000000;display:inline;overflow:visible;visibility:visible;fill:#ffffff;fill-opacity:1;fill-rule:nonzero;stroke:none;stroke-width:2.02176px;marker:none;enable-background:accumulate"
       d="m 1907.5636,168.69897 c -137.2023,7.96661 -182.2539,7.13256 -215.5909,82.063 -12.65,33.31221 -24.689,82.53889 -20.4676,122.99082 4.6935,27.60554 17.4132,57.53606 33.1224,71.95555 23.9158,22.82746 53.0994,24.25496 80.7334,29.98821 37.7477,7.23682 92.998,7.48876 130.9945,9.87977 55.9572,1.99862 136.2841,-2.22189 189.6097,-30.30229 40.0474,-23.61564 35.9505,-53.16371 39.733,-97.27321 1.6105,-20.01178 -1.3821,-40.18044 -5.5844,-59.05662 -7.362,-31.26597 -9.6717,-61.15905 -28.4454,-78.09235 -28.8439,-27.05121 -74.7066,-36.90122 -107.9253,-44.28145 -31.8363,-6.89867 -64.067,-8.14047 -96.1794,-7.87143 z"
       id="path5026-3"
       inkscape:connector-curvature="0"
       sodipodi:nodetypes="ccsccccccccc" />
    <path
       style="color:#000000;display:inline;overflow:visible;visibility:visible;fill:#ffffff;fill-opacity:1;fill-rule:nonzero;stroke:none;stroke-width:0.911215px;marker:none;enable-background:accumulate"
       d="m 1546.18,908.91728 c -34.1606,0.0609 -77.6553,-7.41684 -106.7279,13.94322 -13.5664,9.9675 -19.5222,26.19044 -26.611,40.04337 -14.5734,27.44384 -9.6758,60.90533 9.3878,85.77703 13.4782,18.1163 34.6918,31.2304 58.042,38.1314 34.8093,10.2245 71.8605,12.8118 108.3864,13.184 33.4122,-0.026 67.4634,0.2779 99.8726,-7.7905 17.4443,-4.3568 34.4997,-11.275 47.3744,-22.6492 15.8501,-13.4338 25.9365,-31.7331 28.2713,-50.853 3.6498,-25.32706 -0.065,-61.7902 -21.2374,-79.83818 -31.6182,-42.32959 -58.1606,-20.88241 -88.9464,-24.87566 -35.6008,-5.25812 -71.8391,-4.71539 -107.8118,-5.07248 z"
       id="path4040-40"
       inkscape:connector-curvature="0"
       sodipodi:nodetypes="zsssszcccccz" />
    <path
       style="color:#000000;display:inline;overflow:visible;visibility:visible;fill:#ffffff;fill-opacity:1;fill-rule:nonzero;stroke:none;stroke-width:0.999998px;marker:none;enable-background:accumulate"
       d="m 472.08578,1073.0919 c 34.73321,-33.4972 31.89314,-53.5035 31.44376,-68.1136 -4.7651,-0.9949 -12.85059,-4.2577 -12.85059,-4.2577 0,0 1.90835,-28.80856 -1.17233,-39.94537 -3.08071,-11.13686 -17.53582,-8.20897 -17.53582,-8.20897 0,0 -5.18065,55.93344 -10.00914,67.69204 13.18767,2.2293 19.31591,4.9084 24.41808,3.8748 3.16059,8.1805 -2.4061,36.7502 -14.29396,48.9588 z"
       id="path4456-3"
       inkscape:connector-curvature="0" />
    <path
       style="color:#000000;display:inline;overflow:visible;visibility:visible;fill:#ffffff;fill-opacity:1;fill-rule:nonzero;stroke:none;stroke-width:0.709513px;marker:none;enable-background:accumulate"
       d="m 1198.4053,2296.7161 c -27.3781,1.1711 -55.6716,4.1985 -80.1139,16.5403 -17.8638,9.1873 -23.7029,28.1275 -25.8469,47.2362 -1.2306,20.9492 8.5221,47.9333 29.7248,54.556 81.7116,6.6978 175.0582,12.0435 247.9641,6.2412 30.8393,-3.0357 80.7579,-2.4849 110.0793,-11.9366 17.7642,-6.1935 21.1475,-16.6338 25.1714,-32.5953 4.7002,-18.6445 10.3768,-37.7167 -3.6128,-51.178 -11.3245,-11.8581 -28.238,-17.116 -44.4565,-20.6892 -29.0439,-6.5344 -59.1084,-7.3491 -88.8472,-8.7935 -56.6632,-1.8988 -113.3886,-0.6009 -170.0623,0.6189 z"
       id="path4546-6-21"
       inkscape:connector-curvature="0"
       sodipodi:nodetypes="csscccscccc" />
    <path
       style="color:#000000;display:inline;overflow:visible;visibility:visible;fill:#ffffff;fill-opacity:1;fill-rule:nonzero;stroke:none;stroke-width:0.709511px;marker:none;enable-background:accumulate"
       d="m 660.4671,2264.4761 c -27.46404,0.4961 -55.59723,9.3662 -75.91376,28.3762 -22.04112,21.9967 -34.01798,52.6125 -36.71122,83.3297 -4.6171,37.7827 -0.0944,85.7695 24.81475,114.4821 15.45155,15.2221 44.05623,16.0001 63.92982,21.6816 33.39606,9.5473 68.52532,14.0614 102.52252,7.2514 24.74397,-4.2043 53.37399,-13.1934 70.82645,-31.7894 14.29698,-15.5566 16.33096,-37.7716 18.27069,-58.3673 2.21372,-25.3342 0.22348,-50.847 -3.21705,-75.9774 -3.06384,-19.3764 -10.19837,-38.8334 -24.21991,-53.0074 -12.61573,-13.153 -29.86999,-20.4807 -47.17333,-25.1968 -19.78672,-5.3553 -40.22618,-7.7846 -60.59007,-9.6925 -10.82519,-0.8151 -21.68313,-1.1937 -32.53889,-1.0902 z"
       id="path4546-6-21-2"
       inkscape:connector-curvature="0"
       sodipodi:nodetypes="csssscccccccc" />
    <path
       style="color:#000000;display:inline;overflow:visible;visibility:visible;fill:#ffffff;fill-opacity:1;fill-rule:nonzero;stroke:none;stroke-width:1.24776px;marker:none;enable-background:accumulate"
       d="m 459.24853,1887.4365 c -26.26509,-0.1915 -52.95005,-1.2585 -78.7943,8.5406 -15.16789,5.7173 -30.07846,17.1326 -39.96329,35.9875 -11.51481,21.5981 -14.13608,51.3867 -9.63383,77.1233 2.12352,11.9432 5.55796,23.403 10.32333,33.417 5.19609,10.667 12.57535,18.958 21.09958,22.7808 24.43666,13.8614 50.87122,17.9085 76.97477,20.1472 27.3324,1.9864 54.77734,1.6182 82.17592,-0.5265 23.14784,-2.2936 46.64384,-7.0866 68.35353,-20.7741 13.14384,-8.6275 25.78403,-21.9378 32.62754,-41.3944 9.52568,-26.8973 8.47192,-61.9094 -4.10969,-85.2901 -10.12762,-17.9535 -25.34443,-27.0192 -40.2998,-32.7327 -24.71315,-9.2829 -50.36509,-11.6938 -75.79406,-14.5855 -14.28882,-1.4476 -28.60328,-2.7985 -42.9597,-2.6931 z"
       id="path4546-6-21-1"
       inkscape:connector-curvature="0"
       sodipodi:nodetypes="cssssc" />
    <path
       style="color:#000000;display:inline;overflow:visible;visibility:visible;fill:#ffffff;fill-opacity:1;fill-rule:nonzero;stroke:none;stroke-width:0.90167px;marker:none;enable-background:accumulate"
       d="m 515.7672,2164.6298 c 3.03297,-79.0368 45.48178,-137.9672 156.84049,-126.1726 59.64977,6.3168 127.3604,9.6749 123.6088,125.4379 -3.75166,115.7632 -101.04806,115.4633 -121.11512,118.7187 -20.06713,3.2572 -124.73307,-5.9959 -143.25047,-44.8311 -11.5915,-24.3097 -16.27139,-48.6962 -16.0837,-73.1529 z"
       id="path4546-6-21-1-9"
       inkscape:connector-curvature="0"
       sodipodi:nodetypes="cssssc" />
    <path
       style="color:#000000;display:inline;overflow:visible;visibility:visible;fill:#ffffff;fill-opacity:1;fill-rule:nonzero;stroke:none;stroke-width:1.1971px;marker:none;enable-background:accumulate"
       d="m 1346.5519,1905.0474 c -28.8462,0.4749 -58.5533,3.2789 -85.0455,17.8046 -13.1093,7.273 -25.238,20.2227 -28.2885,37.4794 -2.1047,17.2048 7.7192,33.8483 20.4875,41.3401 13.1427,7.7019 27.9726,9.4587 42.2067,12.6967 49.5926,9.1976 100.1545,13.0097 150.2296,7.5373 17.5445,-2.2171 35.6952,-5.9308 50.7621,-17.3713 9.4896,-7.4641 16.1826,-19.6965 17.4106,-33.1074 1.8654,-15.4268 -3.0498,-32.7232 -14.671,-41.213 -14.8788,-11.8623 -33.2006,-14.6049 -50.5849,-17.503 -30.5106,-4.5521 -61.2609,-6.5338 -91.9882,-7.6024 -3.5058,-0.072 -7.0121,-0.081 -10.5184,-0.061 z"
       id="path4546-6-21-1-9-4"
       inkscape:connector-curvature="0"
       sodipodi:nodetypes="cssssc" />
    <path
       style="color:#000000;display:inline;overflow:visible;visibility:visible;fill:#ffffff;fill-opacity:1;fill-rule:nonzero;stroke:none;stroke-width:0.961926px;marker:none;enable-background:accumulate"
       d="m 1230.2149,1975.7656 c -38.5415,0.882 -77.6987,2.8713 -114.8289,18.4889 -13.2776,6.8173 -23.2083,22.7322 -28.2373,40.6654 -8.3536,27.1823 -7.1917,60.755 5.8323,84.8351 7.652,13.9915 19.7496,22.1407 32.1036,24.9674 16.3065,4.8894 32.8572,8.1831 49.4423,10.6435 29.8666,3.8894 59.8926,2.0101 89.8198,1.0065 42.8425,-0.3976 85.7845,2.4619 128.53,-2.8587 15.9712,-1.8225 32.0213,-3.8181 47.6749,-8.678 20.6482,-8.9227 36.7486,-36.1747 37.5343,-66.2485 1.109,-24.676 -9.1486,-65.8433 -22.9306,-81.3715 -17.6959,-21.3445 -39.407,-14.4735 -62.3759,-18.3368 -30.4359,-4.6848 -61.0354,0.8942 -91.5424,-0.9675 -23.674,-0.7004 -47.3358,-2.493 -71.0221,-2.1458 z"
       id="path4546-6-21-1-9-4-7"
       inkscape:connector-curvature="0"
       sodipodi:nodetypes="cssssccccccccc" />
    <path
       style="color:#000000;display:inline;overflow:visible;visibility:visible;fill:#ffffff;fill-opacity:1;fill-rule:nonzero;stroke:none;stroke-width:1.14709px;marker:none;enable-background:accumulate"
       d="m 1037.7677,3080.4402 c 4.7579,-54.9322 51.3965,-93.355 170.5761,-78.1042 63.8391,8.1685 136.3779,14.7819 130.1497,95.2834 -6.2282,80.5014 -110.5485,74.1545 -132.1275,75.1592 -21.5791,1.0058 -133.6308,-12.0503 -152.7462,-40.3038 -11.9659,-17.6858 -16.5192,-34.9892 -15.8521,-52.0346 z"
       id="path4546-6-21-1-9-4-7-8"
       inkscape:connector-curvature="0"
       sodipodi:nodetypes="cssssc" />
    <path
       style="color:#000000;display:inline;overflow:visible;visibility:visible;fill:#ffffff;fill-opacity:1;fill-rule:nonzero;stroke:none;stroke-width:0.624175px;marker:none;enable-background:accumulate"
       d="m 2232.1771,3151.2322 c 1.4625,-29.4598 21.9322,-51.4252 75.6318,-47.029 28.7643,2.3544 61.4159,3.6062 59.6068,46.7553 -1.8092,43.1489 -48.7276,43.0372 -58.4044,44.2506 -9.6767,1.2141 -60.1488,-2.2349 -69.0783,-16.7102 -5.5897,-9.061 -7.8464,-18.1508 -7.7559,-27.2667 z"
       id="path4546-6-21-1-9-4-7-8-4"
       inkscape:connector-curvature="0"
       sodipodi:nodetypes="cssssc" />
    <path
       style="color:#000000;display:inline;overflow:visible;visibility:visible;fill:#ffffff;fill-opacity:1;fill-rule:nonzero;stroke:none;stroke-width:1px;marker:none;enable-background:accumulate"
       d="m 1284.7327,2502.3184 c -35.7282,-19.4322 -47.354,-28.3515 -44.071,-75.6186 3.2834,-47.2663 -14.2412,-48.0483 -14.2412,-48.0483 l -19.1468,25.8436 c 0,0 -0.01,101.2711 77.459,97.8233 z"
       id="path3072-56-6"
       inkscape:connector-curvature="0" />
    <path
       style="color:#000000;display:inline;overflow:visible;visibility:visible;fill:#ffffff;fill-opacity:1;fill-rule:nonzero;stroke:none;stroke-width:1px;marker:none;enable-background:accumulate"
       d="m 1468.6848,2848.0015 c 26.25,171.1132 -108.5575,232.9592 -156.9646,205.9986 -41.3932,-23.0541 -36.6132,25.372 -36.6132,25.372 0,0 -184.8377,-79.9742 -48.5243,-12.9007 136.3134,67.0735 295.373,-29.4851 242.1021,-218.4699 z"
       id="path3072-56-6-7"
       inkscape:connector-curvature="0"
       sodipodi:nodetypes="csczc" />
    <path
       style="color:#000000;display:inline;overflow:visible;visibility:visible;fill:#ffffff;fill-opacity:1;fill-rule:nonzero;stroke:none;stroke-width:1.32718px;marker:none;enable-background:accumulate"
       d="m 1601.8838,765.40185 c -33.4515,0.90126 -66.8455,3.7349 -100.2978,4.66949 -14.4756,0.64783 -29.1062,0.0273 -43.3581,3.65616 -19.3471,4.49887 -38.4719,13.85369 -52.8505,30.23148 -15.4368,18.17219 -23.1988,45.94181 -17.765,71.25313 6.3009,32.82504 29.7359,59.60645 57.3301,66.81879 28.4854,9.58248 58.1466,12.36624 87.5301,15.25708 38.6936,2.82276 77.8977,3.50661 116.1092,-5.39601 23.2797,-5.59657 46.7618,-13.14799 67.0735,-28.23791 16.6582,-13.49172 25.7563,-37.6551 25.6514,-61.25976 0.9434,-22.509 -5.416,-46.29602 -19.8745,-61.53661 -16.0805,-17.79883 -37.6202,-26.69564 -58.9639,-30.95354 -20.0015,-3.97169 -40.3428,-4.71311 -60.5845,-4.5023 z"
       id="path4546-3"
       inkscape:connector-curvature="0"
       sodipodi:nodetypes="cssssc" />
    <path
       style="color:#000000;display:inline;overflow:visible;visibility:visible;fill:#ffffff;fill-opacity:1;fill-rule:nonzero;stroke:none;stroke-width:0.999998px;marker:none;enable-background:accumulate"
       d="m 2200.3678,3236.6589 c 19.412,3.2287 21.8531,2.1451 26.087,-6.1508 4.2336,-8.2965 7.4345,-21.3989 24.2674,-27.0612 16.8328,-5.6629 26.4772,-1.2243 33.0349,1.2943 -1.1679,-11.6566 8.131,-31.9623 0.9277,-37.4845 -7.2032,-5.5223 17.0343,2.8574 17.0343,2.8574 0,0 12.1095,28.3527 3.5098,41.2194 -8.5996,12.8666 -35.9866,3.6351 -48.1953,5.9287 -12.2087,2.2936 -17.7187,20.2054 -26.9698,23.8183 -9.2511,3.6136 -20.9523,-1.0637 -29.696,-4.4216 z"
       id="path4538-7-1"
       inkscape:connector-curvature="0"
       sodipodi:nodetypes="ccscccsscc" />
    <path
       style="fill:#ffffff;fill-rule:evenodd;stroke:none;stroke-width:0.989952px;stroke-linecap:butt;stroke-linejoin:miter;stroke-opacity:1"
       d="m 563.82903,2593.7899 c 63.64415,46.5419 99.6802,37.8628 99.27382,22.0538 -0.73279,-28.5061 -23.68426,-45.5161 -20.14693,-49.7569 56.87331,-68.1838 45.61583,-44.4564 42.02712,-78.3168 -3.58863,-33.8596 -32.82515,9.9982 -43.47048,25.9957 -10.64526,15.9984 -23.23393,28.0821 -24.13067,46.0989 -0.89678,18.0167 30.31994,32.2197 26.20251,52.3883 -4.11738,20.1676 -79.75537,-18.463 -79.75537,-18.463 z"
       id="path4324-2"
       inkscape:connector-curvature="0"
       sodipodi:nodetypes="cssssssc" />
    <path
       style="fill:#ffffff;fill-rule:evenodd;stroke:none;stroke-width:1px;stroke-linecap:butt;stroke-linejoin:miter;stroke-opacity:1"
       d="m 1641.3607,1592.1712 c 22.6649,-9.5896 43.3488,-24.3392 44.2472,-33.5648 0.8985,-9.2259 -11.1673,-38.3407 15.3399,-36.3802 44.753,7.0521 59.1413,-17.435 71.8681,-40.1028 -10.4456,44.0867 -37.326,59.8862 -66.9409,56.1082 -20.4331,0.5043 27.1628,20.802 -14.1238,65.6767 -34.0791,18.4121 -50.3905,-11.7371 -50.3905,-11.7371 z"
       id="path1085"
       inkscape:connector-curvature="0"
       sodipodi:nodetypes="csccccc" />
    <path
       style="display:inline;fill:#ffffff;fill-rule:evenodd;stroke:none;stroke-width:1px;stroke-linecap:butt;stroke-linejoin:miter;stroke-opacity:1"
       d="m 616.38281,413.81836 c -16.46145,0.69234 -32.53906,10.64863 -39.37482,25.82696 -1.5098,2.80001 -5.28273,3.60587 -7.9531,2.02233 -5.98863,-2.1906 -11.2243,-5.98508 -17.1572,-8.31055 -9.42582,-4.50612 -18.97461,-9.76783 -29.57769,-10.58241 -9.00662,0.914 -17.21994,8.38612 -18.31844,17.45517 0.90457,4.28518 5.9133,5.81752 9.78437,5.505 14.04596,1.22391 26.26568,8.99968 37.96354,16.2261 7.48461,4.90408 17.2879,7.91388 25.94154,4.3397 8.81339,-3.63103 14.02032,-12.22106 18.30372,-20.27104 3.62722,-6.5902 7.0618,-13.9609 13.65799,-18.08996 6.18392,-3.01805 13.32935,-0.5356 18.89819,2.69485 6.80555,3.74446 18.82609,7.48219 26.68995,6.1183 5.30212,-0.83429 11.53306,0.83552 40.82961,-10.13109 -31.99063,6.29792 -54.18708,-2.32452 -64.55229,-8.18195 -4.64584,-2.56145 -9.72444,-4.75296 -15.13537,-4.62141 z"
       id="path1090"
       inkscape:connector-curvature="0"
       sodipodi:nodetypes="cscsccsssssscccc" />
    <path
       style="display:inline;fill:#ffffff;fill-rule:evenodd;stroke:none;stroke-width:1px;stroke-linecap:butt;stroke-linejoin:miter;stroke-opacity:1"
       d="m 1617.1958,451.27144 c -12.9658,3.52999 -22.7273,13.2725 -33.0295,21.31481 -10.56,8.22528 -23.222,15.13886 -36.9698,14.8702 -12.354,-0.48323 -23.8452,-5.64876 -34.869,-10.8028 4.8969,5.51905 11.4884,9.07502 17.4852,13.22715 9.8915,6.03376 21.2993,11.19668 33.1646,9.85413 13.7356,-1.82473 25.2428,-10.16894 36.6713,-17.35003 9.2631,-5.89601 19.3995,-11.88555 30.7279,-11.84241 11.2199,0.46193 21.09,7.36067 28.069,15.7517 16.1165,16.07554 40.6983,22.00557 62.7241,17.44391 18.4525,-3.77253 34.5407,-14.70036 48.0397,-27.44861 7.4725,-7.02323 14.7519,-14.32675 21.1143,-22.37986 2.8972,-4.06459 5.7878,-8.70444 5.7898,-13.83941 -1.3294,-7.64777 -9.2775,-12.55259 -16.6906,-12.40095 -15.99,-1.92544 -32.0375,9.08542 -37.0028,24.21972 -6.8813,13.76612 -18.3165,26.13815 -33.3597,30.75119 -13.1078,4.184 -28.2984,-0.43593 -37.2218,-10.81739 -8.1607,-7.6165 -16.4492,-16.15889 -27.6395,-18.99131 -8.68,-2.75282 -18.0697,-3.47368 -27.0032,-1.56004 z"
       id="path1090-9"
       inkscape:connector-curvature="0"
       sodipodi:nodetypes="cscsccsssssscccccc" />
    <path
       style="display:inline;fill:#ffffff;stroke:none;stroke-width:0.961219"
       d="m 1551.7966,1550.2818 c -14.8105,0.1331 -29.6987,-0.08 -44.37,3.7571 -16.6339,4.2928 -35.3937,7.8201 -50.057,21.5958 -15.5904,14.6152 -26.9365,41.4696 -32.4563,69.7527 -2.651,13.175 -2.3609,28.6473 -0.2448,42.1092 3.6786,24.7725 14.4864,46.2657 28.528,57.1746 16.4257,14.6467 35.5296,17.9947 53.9433,17.8379 35.6098,2.039 71.2861,2.8095 106.874,-0.639 20.7194,-1.7661 42.0072,-2.5627 60.7811,-18.0755 13.1755,-11.0579 24.0896,-34.4122 26.7033,-58.757 4.7639,-39.8779 -6.8257,-84.3522 -28.5094,-103.3477 -19.3617,-18.1775 -43.3894,-23.5815 -65.3042,-27.8229 -18.5479,-3.4217 -37.2433,-3.7849 -55.888,-3.5852 z"
       id="path3280-8-3"
       inkscape:connector-curvature="0"
       sodipodi:nodetypes="csssccccccccc" />
    <path
       style="fill:#ffffff;fill-rule:evenodd;stroke:none;stroke-width:1.07322px;stroke-linecap:butt;stroke-linejoin:miter;stroke-opacity:1"
       d="m 341.97235,761.56315 c -31.09116,2.43982 -62.33945,3.62452 -93.13162,10.80612 -13.76322,4.20364 -27.99226,9.38956 -39.33964,21.99261 -9.78341,14.19812 -16.62457,31.94187 -22.72032,49.75317 -5.22824,20.03346 -3.87278,42.10013 -0.7317,62.58131 2.24965,18.8785 8.0664,32.09115 18.52815,44.62105 20.3911,28.80305 48.55701,33.09256 82.30402,35.44134 68.50087,0.18369 137.20788,0.97767 205.4067,-9.68718 11.08907,-2.52382 21.56688,-11.93155 27.15507,-26.18907 6.31804,-12.97409 13.43682,-26.60038 14.13618,-43.04538 0.78688,-15.45055 0.0492,-30.95391 0.0822,-46.42651 -0.24285,-9.94767 0.32765,-20.14984 -1.56968,-29.83185 -2.19323,-11.27829 -7.28839,-20.84667 -13.36983,-28.38761 -12.4164,-16.54491 -28.77559,-25.771 -45.34926,-29.11904 -29.40187,-8.01924 -59.31626,-11.54492 -89.21354,-12.14803 -14.06027,-0.40888 -28.12428,-0.3791 -42.18671,-0.36093 z"
       id="path1299"
       inkscape:connector-curvature="0"
       sodipodi:nodetypes="sccccccccccccccss" />
    <path
       style="fill:#ffffff;fill-opacity:1;fill-rule:evenodd;stroke:none;stroke-width:1px;stroke-linecap:butt;stroke-linejoin:miter;stroke-opacity:1"
       d="m 913.77686,914.44927 c -8.14312,0.92739 -14.26823,7.55726 -18.7201,14.22615 -4.05249,5.51006 -11.25461,6.63797 -17.49514,6.5093 -8.52716,0.23708 -15.64579,6.58837 -20.06036,13.77653 -2.58577,3.7966 -3.35569,8.55625 -3.12063,13.1225 -0.47884,7.13495 -5.74109,12.75941 -6.43922,19.80981 0.1519,6.82972 6.22845,11.26436 7.49987,17.7481 1.3255,4.82964 2.0838,10.67754 6.45373,13.63434 6.14651,3.4089 13.77597,-0.2409 19.75563,3.7944 4.3008,3.1345 7.95855,7.1526 12.17422,10.4228 4.42989,3.707 9.57506,6.4469 15.11817,7.7707 12.612,3.5683 25.79466,0.9821 38.25451,-1.9963 17.19838,-3.8179 34.75427,-5.841 52.33411,-6.0102 5.20745,-0.3831 9.72625,-3.3614 13.90665,-6.3686 4.7696,-3.0412 10.5501,-4.7514 16.1029,-3.3923 5.7715,0.8044 12.152,2.6696 17.6004,-0.4212 7.269,-5.0865 10.2417,-14.1094 14.3189,-21.76416 3.2566,-6.553 6.9087,-13.87162 5.3433,-21.48131 -2.1868,-6.28761 -8.6217,-8.8498 -13.0699,-13.01892 -7.5392,-8.11042 -6.6187,-20.89849 -13.671,-29.32493 -6.7963,-8.32645 -17.7343,-11.58975 -27.9088,-11.30872 -7.8977,0.19606 -15.53343,2.7691 -22.65196,6.18871 -5.32477,1.96272 -11.93741,1.72991 -16.1423,-2.64234 -4.17603,-3.45237 -9.23574,-7.14064 -14.86015,-5.91459 -7.83463,1.01256 -14.71262,7.1112 -22.86995,5.82059 -7.9649,-1.24037 -13.49005,-9.48434 -21.85288,-9.18036 z"
       id="path4367-3"
       inkscape:connector-curvature="0"
       sodipodi:nodetypes="ccccccccccccccccccccccc" />
    <path
       style="color:#000000;display:inline;overflow:visible;visibility:visible;fill:#ffffff;fill-opacity:1;fill-rule:nonzero;stroke:none;stroke-width:1px;marker:none;enable-background:accumulate"
       d="m 925.04404,987.51508 c 0.43093,17.40692 10.57358,33.58462 24.60302,43.46732 4.0486,3.4474 7.8177,7.2049 11.522,11.0151 -9.5441,6.7343 -21.87387,8.4934 -30.69728,16.3868 -3.00333,7.8153 2.07856,16.9291 9.5442,19.9766 7.90108,4.1347 17.55078,5.3387 23.93238,12.0527 5.8472,7.0001 1.9231,19.0861 -6.6504,21.789 -11.2727,5.778 -17.95023,20.1486 -13.54258,32.3069 4.13098,10.8528 14.58748,18.0402 25.44518,21.0937 5.2942,1.6139 10.7387,2.647 16.1286,3.8787 -10.8778,-5.5071 -22.4207,-11.1561 -29.8066,-21.25 -5.866,-8.2804 -2.1755,-21.8742 7.6733,-25.1751 6.0663,-1.8597 13.149,-3.1903 17.0207,-8.7544 8.18221,-11.235 4.0413,-29.3207 -8.5309,-35.4929 -6.8306,-3.5643 -14.777,-5.4022 -20.3877,-10.9819 -1.6954,-3.9526 2.6275,-8.2401 6.5884,-7.513 7.4263,-1.7714 15.8041,-2.1777 21.7723,-7.5012 4.4591,-5.1824 3.2488,-13.2448 -0.7338,-18.3354 -8.0405,-15.3899 -15.424,-31.1229 -23.8906,-46.28912 -6.1584,-1.4328 -12.54059,-0.9451 -18.78997,-1.6404 -3.73928,-0.2117 -7.47855,-0.4233 -11.21782,-0.635 0.006,0.5339 0.0117,1.0677 0.0176,1.6016 z"
       id="path5058"
       inkscape:connector-curvature="0"
       sodipodi:nodetypes="cscsssssccsssccsccccc" />
    <path
       style="display:inline;fill:#ffffff;stroke:none;stroke-width:1"
       d="m 1571.4018,1191.6392 c 13.4807,-8.3202 19.4484,-23.3927 17.65,-33.0755 -8.8182,-22.1676 -14.651,-36.255 -2.7595,-61.9827 4.6158,-9.7523 4.136,-55.5565 4.136,-55.5565 0,0 -27.4173,28.8158 -35.0946,40.6428 -7.678,11.8285 -3.0663,7.9917 -4.8155,13.4555 -1.7483,5.4625 -1.3553,24.9485 0.8987,35.296 4.6362,17.6704 24.7701,36.2388 6.7072,51.624 -38.2054,28.7903 -15.6246,82.4307 39.9278,44.9299 -67.6745,16.2702 -41.7605,-26.0079 -26.6503,-35.3336 z"
       id="path3023-0"
       inkscape:connector-curvature="0"
       sodipodi:nodetypes="scccsscccss" />
    <path
       style="display:inline;fill:#ffffff;fill-rule:evenodd;stroke:none;stroke-width:0.999995px;stroke-linecap:butt;stroke-linejoin:miter;stroke-opacity:1"
       d="m 464.88133,1910.6914 c -27.67482,-2.0653 -67.80737,12.6625 -44.53033,55.1642 -50.82227,-27.852 -122.14649,-37.8514 -138.92776,8.545 -2.82423,-56.7468 -36.88792,-41.338 -65.00279,-27.673 26.75721,-23.2981 -22.45185,-34.7771 -48.7965,-35.2783 54.59371,-50.2966 25.01812,-64.931 2.67652,-82.6311 55.01086,11.9803 41.17096,-15.1235 47.36184,-30.8559 47.71251,33.8557 81.65944,24.5077 107.90007,-9.0266 14.49699,17.4028 19.73807,54.0871 70.47643,-4.0088 -18.03759,49.4071 6.90841,43.5524 46.94757,18.2945 -5.9905,16.8237 -43.2221,43.2233 20.37446,38.72 -39.41062,16.9717 -47.27458,38.642 1.52049,68.75 z"
       id="path4584-8"
       inkscape:connector-curvature="0"
       sodipodi:nodetypes="cccccccccccc" />
    <path
       style="fill:#ffffff;fill-rule:evenodd;stroke:none;stroke-width:0.999993px;stroke-linecap:butt;stroke-linejoin:miter;stroke-opacity:1"
       d="m 1088.4402,1861.1551 c 12.6082,4.62 30.6985,12.1275 32.8912,20.213 2.1928,8.0848 13.7047,23.1004 9.8674,36.3833 -3.8373,13.2822 -14.8011,26.5651 -25.2166,34.0733 -10.4157,7.5075 -30.1504,13.2822 -42.7587,14.4376 -12.6083,1.1553 -44.9513,-6.9301 -54.2706,-4.6201 -9.3192,2.31 -43.30683,3.4647 -60.30065,-2.31 -16.99383,-5.7755 -36.1804,-27.1432 -38.92135,-40.4262 -2.74096,-13.2829 9.31917,-39.848 11.51191,-46.7781 2.1928,-6.9308 11.51198,-9.2409 11.51198,-9.2409 26.0186,-3.9635 117.34611,-7.6933 155.68541,-1.7319 z"
       id="path1099"
       inkscape:connector-curvature="0"
       sodipodi:nodetypes="ccccccccccc" />
    <path
       style="color:#000000;display:inline;overflow:visible;visibility:visible;fill:#ffffff;fill-opacity:1;fill-rule:nonzero;stroke:none;stroke-width:0.999997px;marker:none;enable-background:accumulate"
       d="m 1462.6822,2042.0738 c -6.8524,10.3522 -14.2727,20.5329 -23.7126,27.9534 -7.911,-1.412 -13.3738,-11.2786 -11.4616,-20.1763 -13.0576,3.1349 -21.5076,16.2733 -32.7286,23.5067 -17.2249,13.2495 -36.5704,24.6606 -57.4476,26.1048 -19.3676,-3.7406 -33.9896,-25.8923 -31.8921,-48.3323 -5.7147,-0.6508 -9.3676,5.8213 -11.5954,10.9466 -6.4767,9.3602 -13.1785,19.5898 -23.1756,24.1885 -8.9079,-0.5947 -14.7222,-13.3826 -10.0439,-22.2449 -2.6098,-4.0897 -8.2317,-0.9055 -9.4388,3.2141 -13.9099,13.6615 -28.3127,28.3411 -46.374,33.841 -20.8398,4.2537 -41.6106,-3.1609 -59.9314,-13.3042 -4.3991,-2.1012 -9.0109,-3.5749 -13.5627,-5.2088 -7.5208,10.368 -9.4509,25.32 -19.5436,33.3642 -10.9143,8.4806 -66.7605,-5.6966 -66.7605,-5.6966 0,0 10.6866,27.4171 7.5602,33.3096 -8.3673,15.0176 -17.9767,21.6236 -32.9319,22.5626 -5.9799,1.108 -5.9234,0.8213 -11.9034,1.9293 11.2951,6.4681 23.7354,10.7267 33.8128,19.6276 -3.1535,9.2525 -12.3475,12.9789 -20.2385,14.1138 -18.9603,2.6594 -25.78059,3.7493 -41.28041,6.7375 29.65461,2.9569 44.79351,8.1776 72.27601,20.9944 5.4908,12.9733 -6.1091,24.2379 -16.5454,31.5687 -6.7791,3.952 -13.5581,7.9039 -20.3371,11.8562 16.4427,-0.5147 33.123,-2.4865 49.3133,1.1022 10.3184,15.0592 7.3938,39.5833 -6.0615,51.7959 0.8495,4.8115 6.6104,4.3881 9.3214,1.7506 13.0002,-3.5633 27.4944,-5.8025 39.6561,1.2825 18.9049,13.9044 29.2439,37.8765 46.3005,54.0952 1.3934,1.3925 2.887,4.008 4.781,3.8267 15.0095,-30.7977 49.4298,-46.5285 78.4613,-37.6177 9.8429,2.3425 19.1409,6.7166 28.2914,11.2409 12.8867,-4.8142 21.5503,-18.8829 34.8698,-22.6062 14.0718,-6.5497 30.5611,-9.1998 44.5163,-2.0344 7.6146,5.9355 11.6559,16.5132 20.1727,21.1482 8.3374,-2.5315 10.8907,-13.6201 18.0687,-18.1799 17.1309,-14.7319 41.4689,-15.1688 59.3966,-3.6332 6.7565,2.4314 13.4758,-2.921 17.9079,-8.4891 15.1019,-13.9641 34.8898,-18.3067 53.5939,-19.1712 5.7003,-0.2766 11.3973,-0.1395 17.0879,0.016 1.4491,-4.7737 -3.158,-7.4772 -5.5351,-10.3086 -5.7292,-5.6682 -11.7226,-13.5027 -10.3272,-22.9657 1.8134,-12.3174 11.7655,-20.8101 21.6263,-24.5218 6.3145,-2.6818 12.8986,-4.4904 19.0261,-7.7712 -6.064,-6.2247 -13.7559,-9.838 -20.3902,-15.1739 -6.4877,-4.7705 -13.2217,-9.6828 -18.4489,-16.0814 -0.4935,-13.7866 9.2752,-26.0267 20.4227,-30.1864 5.1647,-3.7017 10.2316,-7.6606 14.6984,-12.4369 -12.1531,-1.7504 -24.9556,-2.6446 -35.6925,-9.7646 -6.7513,-13.9099 -4.0588,-32.1526 4.3858,-44.8445 0.7626,-3.2438 -2.8575,-4.2476 -4.9567,-3.487 -13.0802,-0.3832 -27.2866,-0.8333 -38.1089,-9.909 -11.0135,-10.621 -14.32,-28.3733 -12.8586,-44.415 0.4537,-5.9878 1.4881,-12.0438 0.6772,-18.0135 -0.9798,1.4988 -1.9597,2.9975 -2.9396,4.4965 z"
       id="path3549-3-7-5"
       inkscape:connector-curvature="0"
       sodipodi:nodetypes="ccccccccccccccccccccccccccccccccccccccccccccccccccccccsc" />
    <path
       style="color:#000000;display:inline;overflow:visible;visibility:visible;fill:#ffffff;fill-opacity:1;fill-rule:nonzero;stroke:none;stroke-width:1px;marker:none;enable-background:accumulate"
       d="m 1223.6614,3118.0043 c -32.6213,1.0127 -65.62,2.3026 -97.3795,13.293 -12.1675,4.504 -24.0363,13.6969 -30.6047,28.54 -9.6741,20.9979 -10.1301,48.1413 -3.1294,70.6368 6.4657,21.7902 19.2866,40.9136 36.0062,48.9857 21.9906,10.5885 45.6853,10.9262 68.7772,11.303 13.1632,0.09 26.322,0.5429 39.4827,0.8295 37.257,0.5215 74.6789,-3.0065 111.1928,-13.2119 9.36,-3.132 18.6748,-9.7458 23.7141,-21.1583 6.9859,-14.4665 9.5404,-31.6967 11.6321,-48.4189 1.4488,-15.0588 -0.562,-31.1141 -7.2097,-43.6735 -9.7204,-19.9832 -26.3652,-32.7789 -43.757,-36.7438 -18.8659,-4.8818 -38.1756,-4.3959 -57.2357,-6.9623 -17.1354,-1.7278 -34.2887,-3.6794 -51.4891,-3.4193 z"
       id="path3330-06"
       inkscape:connector-curvature="0"
       sodipodi:nodetypes="zsssssz" />
    <path
       style="color:#000000;display:inline;overflow:visible;visibility:visible;fill:#ffffff;fill-opacity:1;fill-rule:nonzero;stroke:none;stroke-width:0.999993px;marker:none;enable-background:accumulate"
       d="m 1277.5935,3242.6077 c -34.1865,41.4765 -115.4752,-19.2961 -156.7906,7.7952 -21.4895,27.2465 -33.3926,58.7503 -26.1105,90.4856 4.6514,20.2706 16.0829,34.401 44.6008,40.104 32.731,6.5454 66.0245,8.1543 99.7944,8.4747 19.2503,0.076 38.4941,0.4615 57.7405,0.7051 54.4851,0.4433 109.2114,-2.5558 162.6101,-11.2313 13.6882,-2.6625 26.7625,-3.0908 34.132,-12.7926 10.2166,-12.2975 10.5412,-28.7187 11.2986,-43.2489 0.829,-15.9029 -16.1601,-45.797 -31.173,-53.9463 -53.7305,-29.1661 -103.3487,-26.327 -149.3789,-34.399 -25.0592,-1.4686 -21.5694,7.8324 -46.7234,8.0535 z"
       id="path3330-06-3"
       inkscape:connector-curvature="0"
       sodipodi:nodetypes="ccssszccsscc" />
    <path
       style="color:#000000;display:inline;overflow:visible;visibility:visible;fill:#ffffff;fill-opacity:1;fill-rule:nonzero;stroke:none;stroke-width:1px;marker:none;enable-background:accumulate"
       d="m 1039.2669,1903.8172 c 12.9493,3.5313 53.5872,20.5771 12.2952,22.1787 58.4932,34.8788 36.4599,48.5856 29.0728,56.6372 16.1722,-2.9028 43.2767,3.6912 37.948,25.997 15.5796,-3.3105 37.1138,30.9541 46.9488,47.7121 5.4751,-22.5128 14.7633,-26.7531 33.5882,14.6671 -5.0222,-31.6407 -8.5325,-61.1815 35.5765,-24.5631 -1.3396,-11.6529 -37.505,-38.8648 55.2875,-27.1762 -32.7571,-19.6367 -52.8115,-40.7758 2.6164,-68.3558 -25.4958,-7.917 -44.0058,-20.0077 -15.9196,-44.1161 -24.7104,-4.752 -32.1598,-33.2989 -29.3536,-43.8776 -22.4857,21.5457 -39.1208,21.0346 -47.2071,-7.7103 -38.5962,48.8917 -38.9502,9.3578 -52.5793,1.7385 -9.2198,38.1114 -32.9734,21.426 -54.7012,14.9485 7.6586,43.5652 -27.838,29.7409 -53.5726,31.92 z"
       id="path3549-3-8"
       inkscape:connector-curvature="0"
       sodipodi:nodetypes="ccccccccccccccc" />
  </g>
  <g
     inkscape:groupmode="layer"
     id="layer1"
     inkscape:label="txt"
     style="display:inline">
    <text
       xml:space="preserve"
       style="font-style:normal;font-variant:normal;font-weight:normal;font-stretch:normal;font-size:45.3333px;line-height:125%;font-family:Lavi;-inkscape-font-specification:Lavi;text-align:center;letter-spacing:0px;word-spacing:0px;text-anchor:middle;fill:#000000;fill-opacity:1;stroke:none"
       x="312.82578"
       y="306.9725"
       id="text4246-70-2-2-2-7-4-9-6"><tspan
         sodipodi:role="line"
         style="font-size:45.3333px"
         x="312.82578"
         y="306.9725"
         id="tspan9933-2-7">Hm ...</tspan></text>
    <text
       xml:space="preserve"
       style="font-style:normal;font-variant:normal;font-weight:normal;font-stretch:normal;font-size:45.3333px;line-height:125%;font-family:Lavi;-inkscape-font-specification:Lavi;text-align:center;letter-spacing:0px;word-spacing:0px;text-anchor:middle;fill:#000000;fill-opacity:1;stroke:none"
       x="382.63461"
       y="413.21994"
       id="text4246-70-2-2-2-7-4-9"><tspan
         sodipodi:role="line"
         style="font-size:45.3333px"
         x="382.63461"
         y="413.21994"
         id="tspan9933-2">Eg skjønar ...</tspan></text>
    <text
       xml:space="preserve"
       style="font-style:normal;font-variant:normal;font-weight:normal;font-stretch:normal;font-size:45.3333px;line-height:125%;font-family:Lavi;-inkscape-font-specification:Lavi;text-align:center;letter-spacing:0px;word-spacing:0px;text-anchor:middle;fill:#000000;fill-opacity:1;stroke:none"
       x="1907.535"
       y="255.61475"
       id="text4246-70-2-2-2-7-4-9-7"><tspan
         sodipodi:role="line"
         style="font-size:45.3333px"
         x="1907.535"
         y="255.61475"
         id="tspan1083">Og no er du her</tspan><tspan
         sodipodi:role="line"
         style="font-size:45.3333px"
         x="1907.535"
         y="312.28137"
         id="tspan1608">fordi du treng ei</tspan><tspan
         sodipodi:role="line"
         style="font-size:45.3333px"
         x="1907.535"
         y="368.948"
         id="tspan521">fønikståre til å</tspan><tspan
         sodipodi:role="line"
         style="font-size:45.3333px"
         x="1907.535"
         y="425.61462"
         id="tspan1638">kurera deg, eller?</tspan></text>
    <text
       xml:space="preserve"
       style="font-style:normal;font-variant:normal;font-weight:normal;font-stretch:normal;font-size:45.3333px;line-height:125%;font-family:Lavi;-inkscape-font-specification:Lavi;text-align:center;letter-spacing:0px;word-spacing:0px;text-anchor:middle;fill:#000000;fill-opacity:1;stroke:none"
       x="358.22046"
       y="830.25073"
       id="text4246-70-2-2-2-7-4-9-9"><tspan
         sodipodi:role="line"
         style="font-style:normal;font-variant:normal;font-weight:normal;font-stretch:normal;font-size:45.3333px;font-family:Lavi;-inkscape-font-specification:Lavi"
         x="358.22046"
         y="830.25073"
         id="tspan1215">Ja, det er</tspan><tspan
         sodipodi:role="line"
         style="font-style:normal;font-variant:normal;font-weight:normal;font-stretch:normal;font-size:45.3333px;font-family:Lavi;-inkscape-font-specification:Lavi"
         x="358.22046"
         y="886.91736"
         id="tspan647">det <tspan
   style="font-style:normal;font-variant:normal;font-weight:bold;font-stretch:normal;font-family:Lavi;-inkscape-font-specification:'Lavi Bold'"
   id="tspan2067">einaste</tspan></tspan><tspan
         sodipodi:role="line"
         style="font-style:normal;font-variant:normal;font-weight:normal;font-stretch:normal;font-size:45.3333px;font-family:Lavi;-inkscape-font-specification:Lavi"
         x="358.22046"
         y="943.58398"
         id="tspan2061">håpet mitt.</tspan></text>
    <text
       xml:space="preserve"
       style="font-style:normal;font-variant:normal;font-weight:normal;font-stretch:normal;font-size:45.3333px;line-height:125%;font-family:Lavi;-inkscape-font-specification:Lavi;text-align:center;letter-spacing:0px;word-spacing:0px;text-anchor:middle;fill:#000000;fill-opacity:1;stroke:none"
       x="954.85168"
       y="993.79211"
       id="text4246-70-2-2-2-7-4-9-9-3"><tspan
         sodipodi:role="line"
         style="font-style:italic;font-variant:normal;font-weight:normal;font-stretch:normal;font-size:45.3333px;font-family:Lavi;-inkscape-font-specification:'Lavi Italic'"
         x="954.85168"
         y="993.79211"
         id="tspan12869-7">*sukk*</tspan></text>
    <text
       xml:space="preserve"
       style="font-style:normal;font-variant:normal;font-weight:normal;font-stretch:normal;font-size:45.3333px;line-height:125%;font-family:Lavi;-inkscape-font-specification:Lavi;text-align:center;letter-spacing:0px;word-spacing:0px;text-anchor:middle;fill:#000000;fill-opacity:1;stroke:none"
       x="1562.6672"
       y="832.2207"
       id="text4246-70-2-2-2-7-4-9-9-6-6"><tspan
         sodipodi:role="line"
         style="font-size:45.3333px"
         x="1562.6672"
         y="832.2207"
         id="tspan1351">Vel, kva</tspan><tspan
         sodipodi:role="line"
         style="font-size:45.3333px"
         x="1562.6672"
         y="888.88733"
         id="tspan772">ventar du på?</tspan></text>
    <text
       xml:space="preserve"
       style="font-style:normal;font-variant:normal;font-weight:normal;font-stretch:normal;font-size:45.3333px;line-height:125%;font-family:Lavi;-inkscape-font-specification:Lavi;text-align:center;letter-spacing:0px;word-spacing:0px;text-anchor:middle;fill:#000000;fill-opacity:1;stroke:none"
       x="1588.8657"
       y="996.48041"
       id="text4246-70-2-2-2-7-4-9-9-6"><tspan
         sodipodi:role="line"
         style="font-size:45.3333px"
         x="1588.8657"
         y="996.48041"
         id="tspan1358">Prøv å få meg</tspan><tspan
         sodipodi:role="line"
         style="font-size:45.3333px"
         x="1588.8657"
         y="1053.1471"
         id="tspan780">til å gråta.</tspan></text>
    <text
       xml:space="preserve"
       style="font-style:normal;font-variant:normal;font-weight:normal;font-stretch:normal;font-size:45.3333px;line-height:125%;font-family:Lavi;-inkscape-font-specification:Lavi;text-align:center;letter-spacing:0px;word-spacing:0px;text-anchor:middle;fill:#000000;fill-opacity:1;stroke:none"
       x="1562.1172"
       y="1615.3893"
       id="text4246-70-2-2-2-7-4-9-9-6-5"><tspan
         sodipodi:role="line"
         style="font-style:normal;font-variant:normal;font-weight:normal;font-stretch:normal;font-size:45.3333px;font-family:Lavi;-inkscape-font-specification:Lavi"
         x="1562.1172"
         y="1615.3893"
         id="tspan1669">Du har<tspan
   style="font-style:normal;font-variant:normal;font-weight:bold;font-stretch:normal;font-family:Lavi;-inkscape-font-specification:'Lavi Bold'"
   id="tspan903" /></tspan><tspan
         sodipodi:role="line"
         style="font-style:normal;font-variant:normal;font-weight:normal;font-stretch:normal;font-size:45.3333px;font-family:Lavi;-inkscape-font-specification:Lavi"
         x="1562.1172"
         y="1672.0559"
         id="tspan905"><tspan
           style="font-style:normal;font-variant:normal;font-weight:bold;font-stretch:normal;font-family:Lavi;-inkscape-font-specification:'Lavi Bold'"
           id="tspan907">eitt minutt</tspan></tspan><tspan
         sodipodi:role="line"
         style="font-style:normal;font-variant:normal;font-weight:normal;font-stretch:normal;font-size:45.3333px;font-family:Lavi;-inkscape-font-specification:Lavi"
         x="1562.1172"
         y="1728.7225"
         id="tspan909">på deg.</tspan></text>
    <text
       xml:space="preserve"
       style="font-style:normal;font-variant:normal;font-weight:normal;font-stretch:normal;font-size:55.9581px;line-height:125%;font-family:Lavi;-inkscape-font-specification:Lavi;text-align:center;letter-spacing:0px;word-spacing:0px;text-anchor:middle;fill:#000000;fill-opacity:1;stroke:none;stroke-width:1"
       x="316.74445"
       y="1891.1261"
       id="text4246-70-2-2-2-7-4-9-9-6-1"><tspan
         sodipodi:role="line"
         style="font-style:normal;font-variant:normal;font-weight:bold;font-stretch:normal;font-size:55.9581px;font-family:Lavi;-inkscape-font-specification:'Lavi Bold';stroke-width:1"
         x="316.74445"
         y="1891.1261"
         id="tspan40668">Kva?!</tspan></text>
    <text
       xml:space="preserve"
       style="font-style:normal;font-variant:normal;font-weight:normal;font-stretch:normal;font-size:49.2216px;line-height:125%;font-family:Lavi;-inkscape-font-specification:Lavi;text-align:center;letter-spacing:0px;word-spacing:0px;text-anchor:middle;fill:#000000;fill-opacity:1;stroke:none;stroke-width:1"
       x="472.64255"
       y="1972.0665"
       id="text4246-70-2-2-2-7-4-9-9-6-1-2-2"><tspan
         sodipodi:role="line"
         style="font-style:normal;font-variant:normal;font-weight:bold;font-stretch:normal;font-size:49.2216px;font-family:Lavi;-inkscape-font-specification:'Lavi Bold';stroke-width:1"
         x="472.64255"
         y="1972.0665"
         id="tspan1798">Få deg til</tspan><tspan
         sodipodi:role="line"
         style="font-style:normal;font-variant:normal;font-weight:bold;font-stretch:normal;font-size:49.2216px;font-family:Lavi;-inkscape-font-specification:'Lavi Bold';stroke-width:1"
         x="472.64255"
         y="2033.5935"
         id="tspan1035">å gråta?!</tspan></text>
    <text
       xml:space="preserve"
       style="font-style:normal;font-variant:normal;font-weight:normal;font-stretch:normal;font-size:45.3333px;line-height:125%;font-family:Lavi;-inkscape-font-specification:Lavi;text-align:center;letter-spacing:0px;word-spacing:0px;text-anchor:middle;fill:#000000;fill-opacity:1;stroke:none"
       x="655.14508"
       y="2120.2622"
       id="text4246-70-2-2-2-7-4-9-9-6-1-2"><tspan
         sodipodi:role="line"
         style="font-size:45.3333px"
         x="655.14508"
         y="2120.2622"
         id="tspan1813">Men eg</tspan><tspan
         sodipodi:role="line"
         style="font-size:45.3333px"
         x="655.14508"
         y="2176.929"
         id="tspan1164">visste ikkje</tspan><tspan
         sodipodi:role="line"
         style="font-size:45.3333px"
         x="655.14508"
         y="2233.5955"
         id="tspan1170">at ...</tspan></text>
    <text
       xml:space="preserve"
       style="font-style:normal;font-variant:normal;font-weight:normal;font-stretch:normal;font-size:49.2681px;line-height:125%;font-family:Lavi;-inkscape-font-specification:Lavi;text-align:center;letter-spacing:0px;word-spacing:0px;text-anchor:middle;fill:#000000;fill-opacity:1;stroke:none;stroke-width:1"
       x="697.92743"
       y="2316.5879"
       id="text4246-70-2-2-2-7-4-9-9-6-1-2-27"
       transform="scale(0.98652379,1.0136603)"><tspan
         sodipodi:role="line"
         style="font-size:49.2681px;stroke-width:1"
         x="697.92743"
         y="2316.5879"
         id="tspan1134">Altså ...</tspan><tspan
         sodipodi:role="line"
         style="font-style:normal;font-variant:normal;font-weight:normal;font-stretch:normal;font-size:49.2681px;font-family:Lavi;-inkscape-font-specification:Lavi;stroke-width:1"
         x="697.92743"
         y="2378.1731"
         id="tspan1825">På <tspan
   style="font-style:normal;font-variant:normal;font-weight:bold;font-stretch:normal;font-family:Lavi;-inkscape-font-specification:'Lavi Bold'"
   id="tspan2438">eitt</tspan></tspan><tspan
         sodipodi:role="line"
         style="font-style:normal;font-variant:normal;font-weight:normal;font-stretch:normal;font-size:49.2681px;font-family:Lavi;-inkscape-font-specification:Lavi;stroke-width:1"
         x="697.92743"
         y="2439.7581"
         id="tspan1297">minutt?!</tspan></text>
    <text
       xml:space="preserve"
       style="font-style:normal;font-variant:normal;font-weight:normal;font-stretch:normal;font-size:48.1157px;line-height:125%;font-family:Lavi;-inkscape-font-specification:Lavi;text-align:center;letter-spacing:0px;word-spacing:0px;text-anchor:middle;fill:#000000;fill-opacity:1;stroke:none;stroke-width:1"
       x="1017.1918"
       y="1924.8142"
       id="text4246-70-2-2-2-7-4-9-9-6-1-2-3"><tspan
         sodipodi:role="line"
         style="font-size:48.1157px;stroke-width:1"
         x="1017.1918"
         y="1924.8142"
         id="tspan44044-5">Æh ...</tspan></text>
    <text
       xml:space="preserve"
       style="font-style:normal;font-variant:normal;font-weight:normal;font-stretch:normal;font-size:51.9425px;line-height:125%;font-family:Lavi;-inkscape-font-specification:Lavi;text-align:center;letter-spacing:0px;word-spacing:0px;text-anchor:middle;fill:#000000;fill-opacity:1;stroke:none;stroke-width:1"
       x="1185.4293"
       y="1953.7235"
       id="text4246-70-2-2-2-7-4-9-9-6-1-2-3-9-6"><tspan
         sodipodi:role="line"
         style="font-style:normal;font-variant:normal;font-weight:bold;font-stretch:normal;font-size:51.9425px;font-family:Lavi;-inkscape-font-specification:'Lavi Bold';stroke-width:1"
         x="1185.4293"
         y="1953.7235"
         id="tspan62775-6">OK!</tspan></text>
    <text
       xml:space="preserve"
       style="font-style:normal;font-variant:normal;font-weight:normal;font-stretch:normal;font-size:40.5417px;line-height:125%;font-family:Lavi;-inkscape-font-specification:Lavi;text-align:center;letter-spacing:0px;word-spacing:0px;text-anchor:middle;fill:#000000;fill-opacity:1;stroke:none;stroke-width:1"
       x="1377.374"
       y="1972.0564"
       id="text4246-70-2-2-2-7-4-9-9-6-1-2-3-9-6-0"><tspan
         sodipodi:role="line"
         style="font-size:40.5417px;stroke-width:1"
         x="1377.374"
         y="1972.0564"
         id="tspan62775-6-2">La meg sjå.</tspan></text>
    <text
       xml:space="preserve"
       style="font-style:normal;font-variant:normal;font-weight:normal;font-stretch:normal;font-size:45.3333px;line-height:125%;font-family:Lavi;-inkscape-font-specification:Lavi;text-align:center;letter-spacing:0px;word-spacing:0px;text-anchor:middle;fill:#000000;fill-opacity:1;stroke:none"
       x="1279.4539"
       y="2047.7935"
       id="text4246-70-2-2-2-7-4-9-9-6-1-2-3-9"><tspan
         sodipodi:role="line"
         style="font-size:45.3333px"
         x="1279.4539"
         y="2047.7935"
         id="tspan2077">Hm ... Tenk på</tspan><tspan
         sodipodi:role="line"
         style="font-size:45.3333px"
         x="1279.4539"
         y="2104.4602"
         id="tspan1543"><tspan
           style="font-style:normal;font-variant:normal;font-weight:bold;font-stretch:normal;font-family:Lavi;-inkscape-font-specification:'Lavi Bold'"
           id="tspan2079">hungersnaud.</tspan></tspan></text>
    <text
       xml:space="preserve"
       style="font-style:normal;font-variant:normal;font-weight:normal;font-stretch:normal;font-size:45.3333px;line-height:125%;font-family:Lavi;-inkscape-font-specification:Lavi;text-align:center;letter-spacing:0px;word-spacing:0px;text-anchor:middle;fill:#000000;fill-opacity:1;stroke:none"
       x="1275.8167"
       y="2180.2437"
       id="text4246-70-2-2-2-7-4-9-9-6-1-2-3-9-2"><tspan
         sodipodi:role="line"
         style="font-size:45.3333px"
         x="1275.8167"
         y="2180.2437"
         id="tspan62775-9">Æh, vent-vent-vent!</tspan></text>
    <text
       xml:space="preserve"
       style="font-style:normal;font-variant:normal;font-weight:normal;font-stretch:normal;font-size:45.3333px;line-height:125%;font-family:Lavi;-inkscape-font-specification:Lavi;text-align:center;letter-spacing:0px;word-spacing:0px;text-anchor:middle;fill:#000000;fill-opacity:1;stroke:none"
       x="1276.9706"
       y="2250.1077"
       id="text4246-70-2-2-2-7-4-9-9-6-1-2-3-9-2-2"><tspan
         sodipodi:role="line"
         style="font-size:45.3333px"
         x="1276.9706"
         y="2250.1077"
         id="tspan2208">No kom eg på</tspan><tspan
         sodipodi:role="line"
         style="font-size:45.3333px"
         x="1276.9706"
         y="2306.7744"
         id="tspan1790">noko betre:</tspan></text>
    <text
       xml:space="preserve"
       style="font-style:normal;font-variant:normal;font-weight:normal;font-stretch:normal;font-size:45.3333px;line-height:125%;font-family:Lavi;-inkscape-font-specification:Lavi;text-align:center;letter-spacing:0px;word-spacing:0px;text-anchor:middle;fill:#000000;fill-opacity:1;stroke:none"
       x="1300.0033"
       y="2382.7439"
       id="text4246-70-2-2-2-7-4-9-9-6-1-2-3-9-2-7-6"><tspan
         sodipodi:role="line"
         style="font-style:normal;font-variant:normal;font-weight:bold;font-stretch:normal;font-size:45.3333px;font-family:Lavi;-inkscape-font-specification:'Lavi Bold'"
         x="1300.0033"
         y="2382.7439"
         id="tspan1792">Dei du har mista.</tspan></text>
    <text
       xml:space="preserve"
       style="font-style:normal;font-variant:normal;font-weight:normal;font-stretch:normal;font-size:45.3333px;line-height:125%;font-family:Lavi;-inkscape-font-specification:Lavi;text-align:center;letter-spacing:0px;word-spacing:0px;text-anchor:middle;fill:#000000;fill-opacity:1;stroke:none"
       x="1185.3087"
       y="3065.7163"
       id="text4246-70-2-2-2-7-4-9-9-6-1-2-3-9-2-7"><tspan
         sodipodi:role="line"
         style="font-size:45.3333px"
         x="1185.3087"
         y="3065.7163"
         id="tspan70880">Framleis</tspan><tspan
         sodipodi:role="line"
         style="font-size:45.3333px"
         x="1185.3087"
         y="3122.3831"
         id="tspan1916">ingenting?</tspan></text>
    <text
       xml:space="preserve"
       style="font-style:normal;font-variant:normal;font-weight:normal;font-stretch:normal;font-size:45.3333px;line-height:125%;font-family:Lavi;-inkscape-font-specification:Lavi;text-align:center;letter-spacing:0px;word-spacing:0px;text-anchor:middle;fill:#000000;fill-opacity:1;stroke:none"
       x="1237.2577"
       y="3189.2502"
       id="text4246-70-2-2-2-7-4-9-9-6-1-2-3-9-2-7-9"><tspan
         sodipodi:role="line"
         style="font-style:normal;font-variant:normal;font-weight:bold;font-stretch:normal;font-size:45.3333px;font-family:Lavi;-inkscape-font-specification:'Lavi Bold'"
         x="1237.2577"
         y="3189.2502"
         id="tspan2463">Forlatne</tspan><tspan
         sodipodi:role="line"
         style="font-style:normal;font-variant:normal;font-weight:bold;font-stretch:normal;font-size:45.3333px;font-family:Lavi;-inkscape-font-specification:'Lavi Bold'"
         x="1237.2577"
         y="3245.917"
         id="tspan1967">kjæledyr?!</tspan></text>
    <text
       xml:space="preserve"
       style="font-style:normal;font-variant:normal;font-weight:normal;font-stretch:normal;font-size:31.9991px;line-height:125%;font-family:Lavi;-inkscape-font-specification:Lavi;text-align:center;letter-spacing:0px;word-spacing:0px;text-anchor:middle;fill:#000000;fill-opacity:1;stroke:none;stroke-width:0.999999"
       x="1297.4901"
       y="3308.1064"
       id="text4246-70-2-2-2-7-4-9-9-6-1-2-3-9-2-7-9-1"><tspan
         sodipodi:role="line"
         style="font-size:31.9991px;stroke-width:0.999999"
         x="1297.4901"
         y="3308.1064"
         id="tspan1820">Det er så trist med</tspan><tspan
         sodipodi:role="line"
         style="font-size:31.9991px;stroke-width:0.999999"
         x="1297.4901"
         y="3348.1052"
         id="tspan1971">dyr som vert forlatne ...</tspan></text>
    <text
       xml:space="preserve"
       style="font-style:normal;font-variant:normal;font-weight:normal;font-stretch:normal;font-size:45.3333px;line-height:125%;font-family:Lavi;-inkscape-font-specification:Lavi;text-align:center;letter-spacing:0px;word-spacing:0px;text-anchor:middle;fill:#000000;fill-opacity:1;stroke:none"
       x="2305.2185"
       y="3151.553"
       id="text4246-70-2-2-2-7-4-9-9-6-1-2-3-9-2-7-9-5"><tspan
         sodipodi:role="line"
         style="font-size:45.3333px"
         x="2305.2185"
         y="3151.553"
         id="tspan80607-3">...</tspan></text>
  </g>
</svg>
