<?xml version="1.0" encoding="UTF-8" standalone="no"?>
<!-- Created with Inkscape (http://www.inkscape.org/) -->

<svg
   xmlns:dc="http://purl.org/dc/elements/1.1/"
   xmlns:cc="http://creativecommons.org/ns#"
   xmlns:rdf="http://www.w3.org/1999/02/22-rdf-syntax-ns#"
   xmlns:svg="http://www.w3.org/2000/svg"
   xmlns="http://www.w3.org/2000/svg"
   xmlns:xlink="http://www.w3.org/1999/xlink"
   xmlns:sodipodi="http://sodipodi.sourceforge.net/DTD/sodipodi-0.dtd"
   xmlns:inkscape="http://www.inkscape.org/namespaces/inkscape"
   id="svg2"
   version="1.1"
   inkscape:version="0.92.4 (5da689c313, 2019-01-14)"
   width="2481"
   height="3503"
   sodipodi:docname="E36P06.svg">
  <metadata
     id="metadata8">
    <rdf:RDF>
      <cc:Work
         rdf:about="">
        <dc:format>image/svg+xml</dc:format>
        <dc:type
           rdf:resource="http://purl.org/dc/dcmitype/StillImage" />
        <dc:title />
      </cc:Work>
    </rdf:RDF>
  </metadata>
  <defs
     id="defs6" />
  <sodipodi:namedview
     pagecolor="#1e1e1e"
     bordercolor="#111111"
     borderopacity="1"
     objecttolerance="10"
     gridtolerance="10"
     guidetolerance="10"
     inkscape:pageopacity="0"
     inkscape:pageshadow="2"
     inkscape:window-width="1600"
     inkscape:window-height="847"
     id="namedview4"
     showgrid="false"
     inkscape:zoom="0.3478261"
     inkscape:cx="1055.0905"
     inkscape:cy="862.49996"
     inkscape:window-x="-8"
     inkscape:window-y="-8"
     inkscape:window-maximized="1"
     inkscape:current-layer="layer1"
     inkscape:pagecheckerboard="0"
     inkscape:snap-global="false" />
  <g
     inkscape:groupmode="layer"
     id="layer2"
     inkscape:label="artwork"
     sodipodi:insensitive="true">
    <image
       sodipodi:absref="D:\Pepper&amp;Carrot\code\ep36_The-Surprise-Attack\lang\ro\../gfx_Pepper-and-Carrot_by-David-Revoy_E36P06.png"
       xlink:href="../gfx_Pepper-and-Carrot_by-David-Revoy_E36P06.png"
       width="2481"
       height="3503"
       id="image10"
       x="0"
       y="0" />
  </g>
  <g
     inkscape:groupmode="layer"
     id="layer4"
     inkscape:label="notes"
     sodipodi:insensitive="true">
    <rect
       style="color:#000000;overflow:visible;fill:#605a4b;fill-opacity:1;stroke-width:0.722782px;-inkscape-stroke:none;stop-color:#000000"
       id="rect32569"
       width="414.47931"
       height="168.0433"
       x="-491.3877"
       y="2463.2815" />
    <path
       style="fill:#605a4b;fill-opacity:1;fill-rule:evenodd;stroke:none;stroke-width:1px;stroke-linecap:butt;stroke-linejoin:miter;stroke-opacity:1"
       d="m -92.707642,2531.525 h 27.431054 v -16.847 l 21.712733,25.6342 -22.023354,21.7956 v -16.0619 l -27.826327,-0.1858 z"
       id="path32702"
       sodipodi:nodetypes="cccccccc" />
    <g
       inkscape:label="Hershey Text"
       style="fill:none;stroke:#000000;stroke-linecap:round;stroke-linejoin:round"
       id="g5948"
       transform="matrix(0.48563261,0,0,0.50029412,-26.303361,1246.2512)">
      <g
         transform="translate(-837.288,2510.78)"
         id="g5830">
        <path
           d="M 220,662 V 0 M 220,662 662,0 m 0,662 V 0"
           style="stroke-width:0.5635in"
           transform="scale(0.0573333,-0.0573333)"
           id="path5790" />
        <path
           d="M 346,441 284,410 220,346 189,252 V 189 L 220,94.5 284,31.5 346,0 h 95 l 63,31.5 63,63 31,94.5 v 63 l -31,94 -63,64 -63,31 h -95"
           style="stroke-width:0.5635in"
           transform="matrix(0.0573333,0,0,-0.0573333,39.732,0)"
           id="path5792" />
        <path
           d="M 252,662 V 126 L 284,31.5 346,0 h 64 M 158,441 h 220"
           style="stroke-width:0.5635in"
           transform="matrix(0.0573333,0,0,-0.0573333,74.0173,0)"
           id="path5794" />
        <path
           d="m 189,252 h 378 v 63 l -31,63 -32,32 -63,31 H 346 L 284,410 220,346 189,252 V 189 L 220,94.5 284,31.5 346,0 h 95 l 63,31.5 63,63"
           style="stroke-width:0.5635in"
           transform="matrix(0.0573333,0,0,-0.0573333,95.6893,0)"
           id="path5796" />
        <path
           d="m 536,346 -32,64 -94,31 h -95 l -95,-31 -31,-64 31,-62 64,-32 157,-32 63,-31 32,-63 V 94.5 L 504,31.5 410,0 h -95 l -95,31.5 -31,63"
           style="stroke-width:0.5635in"
           transform="matrix(0.0573333,0,0,-0.0573333,128.197,0)"
           id="path5798" />
        <path
           d="M 410,662 H 346 L 284,630 252,536 V 0 m -94,441 h 220"
           style="stroke-width:0.5635in"
           transform="matrix(0.0573333,0,0,-0.0573333,180.6,0)"
           id="path5800" />
        <path
           d="M 346,441 284,410 220,346 189,252 V 189 L 220,94.5 284,31.5 346,0 h 95 l 63,31.5 63,63 31,94.5 v 63 l -31,94 -63,64 -63,31 h -95"
           style="stroke-width:0.5635in"
           transform="matrix(0.0573333,0,0,-0.0573333,202.272,0)"
           id="path5802" />
        <path
           d="M 220,441 V 0 m 0,252 32,94 63,64 63,31 h 94"
           style="stroke-width:0.5635in"
           transform="matrix(0.0573333,0,0,-0.0573333,236.557,0)"
           id="path5804" />
        <path
           d="M 252,662 V 126 L 284,31.5 346,0 h 64 M 158,441 h 220"
           style="stroke-width:0.5635in"
           transform="matrix(0.0573333,0,0,-0.0573333,281.736,0)"
           id="path5806" />
        <path
           d="M 220,441 V 0 m 0,252 32,94 63,64 63,31 h 94"
           style="stroke-width:0.5635in"
           transform="matrix(0.0573333,0,0,-0.0573333,303.408,0)"
           id="path5808" />
        <path
           d="M 567,441 V 0 m 0,346 -63,64 -63,31 H 346 L 284,410 220,346 189,252 V 189 L 220,94.5 284,31.5 346,0 h 95 l 63,31.5 63,63"
           style="stroke-width:0.5635in"
           transform="matrix(0.0573333,0,0,-0.0573333,326.914,0)"
           id="path5810" />
        <path
           d="M 220,441 V 0 m 0,315 95,95 63,31 h 94 l 64,-31 31,-95 V 0"
           style="stroke-width:0.5635in"
           transform="matrix(0.0573333,0,0,-0.0573333,361.2,0)"
           id="path5812" />
        <path
           d="m 536,346 -32,64 -94,31 h -95 l -95,-31 -31,-64 31,-62 64,-32 157,-32 63,-31 32,-63 V 94.5 L 504,31.5 410,0 h -95 l -95,31.5 -31,63"
           style="stroke-width:0.5635in"
           transform="matrix(0.0573333,0,0,-0.0573333,395.485,0)"
           id="path5814" />
        <path
           d="M 220,662 V 0"
           style="stroke-width:0.5635in"
           transform="matrix(0.0573333,0,0,-0.0573333,426.216,0)"
           id="path5816" />
        <path
           d="M 567,441 V 0 m 0,346 -63,64 -63,31 H 346 L 284,410 220,346 189,252 V 189 L 220,94.5 284,31.5 346,0 h 95 l 63,31.5 63,63"
           style="stroke-width:0.5635in"
           transform="matrix(0.0573333,0,0,-0.0573333,440.664,0)"
           id="path5818" />
        <path
           d="M 252,662 V 126 L 284,31.5 346,0 h 64 M 158,441 h 220"
           style="stroke-width:0.5635in"
           transform="matrix(0.0573333,0,0,-0.0573333,474.949,0)"
           id="path5820" />
        <path
           d="M 346,441 284,410 220,346 189,252 V 189 L 220,94.5 284,31.5 346,0 h 95 l 63,31.5 63,63 31,94.5 v 63 l -31,94 -63,64 -63,31 h -95"
           style="stroke-width:0.5635in"
           transform="matrix(0.0573333,0,0,-0.0573333,496.621,0)"
           id="path5822" />
        <path
           d="M 220,441 V 0 m 0,252 32,94 63,64 63,31 h 94"
           style="stroke-width:0.5635in"
           transform="matrix(0.0573333,0,0,-0.0573333,530.906,0)"
           id="path5824" />
        <path
           d="m 536,346 -32,64 -94,31 h -95 l -95,-31 -31,-64 31,-62 64,-32 157,-32 63,-31 32,-63 V 94.5 L 504,31.5 410,0 h -95 l -95,31.5 -31,63"
           style="stroke-width:0.5635in"
           transform="matrix(0.0573333,0,0,-0.0573333,554.413,0)"
           id="path5826" />
        <path
           d="m 220,378 -31,-32 31,-31 32,31 -32,32 m 0,-220 -31,-32 31,-31.5 32,31.5 -32,32"
           style="stroke-width:0.5635in"
           transform="matrix(0.0573333,0,0,-0.0573333,585.144,0)"
           id="path5828" />
      </g>
      <g
         transform="translate(-903.221,2582.45)"
         id="g5876">
        <path
           d="m 252,598 -32,32 32,32 32,-32 v -63 l -32,-63 -32,-32"
           style="stroke-width:0.5635in"
           transform="scale(0.0573333,-0.0573333)"
           id="path5832" />
        <path
           d="M 158,441 346,0 M 536,441 346,0 l -62,-126 -64,-63 -62,-31 h -32"
           style="stroke-width:0.5635in"
           transform="matrix(0.0573333,0,0,-0.0573333,18.06,0)"
           id="path5834" />
        <path
           d="M 346,441 284,410 220,346 189,252 V 189 L 220,94.5 284,31.5 346,0 h 95 l 63,31.5 63,63 31,94.5 v 63 l -31,94 -63,64 -63,31 h -95"
           style="stroke-width:0.5635in"
           transform="matrix(0.0573333,0,0,-0.0573333,46.956,0)"
           id="path5836" />
        <path
           d="M 220,441 V 126 L 252,31.5 315,0 h 95 l 62,31.5 95,94.5 m 0,315 V 0"
           style="stroke-width:0.5635in"
           transform="matrix(0.0573333,0,0,-0.0573333,81.2413,0)"
           id="path5838" />
        <path
           d="M 220,441 V 0 m 0,252 32,94 63,64 63,31 h 94"
           style="stroke-width:0.5635in"
           transform="matrix(0.0573333,0,0,-0.0573333,115.527,0)"
           id="path5840" />
        <path
           d="m 252,598 -32,32 32,32 32,-32 v -63 l -32,-63 -32,-32"
           style="stroke-width:0.5635in"
           transform="matrix(0.0573333,0,0,-0.0573333,139.033,0)"
           id="path5842" />
        <path
           d="M 220,441 V 0 m 0,252 32,94 63,64 63,31 h 94"
           style="stroke-width:0.5635in"
           transform="matrix(0.0573333,0,0,-0.0573333,178.765,0)"
           id="path5844" />
        <path
           d="m 189,252 h 378 v 63 l -31,63 -32,32 -63,31 H 346 L 284,410 220,346 189,252 V 189 L 220,94.5 284,31.5 346,0 h 95 l 63,31.5 63,63"
           style="stroke-width:0.5635in"
           transform="matrix(0.0573333,0,0,-0.0573333,202.272,0)"
           id="path5846" />
        <path
           d="M 410,662 H 346 L 284,630 252,536 V 0 m -94,441 h 220"
           style="stroke-width:0.5635in"
           transform="matrix(0.0573333,0,0,-0.0573333,234.78,0)"
           id="path5848" />
        <path
           d="m 189,252 h 378 v 63 l -31,63 -32,32 -63,31 H 346 L 284,410 220,346 189,252 V 189 L 220,94.5 284,31.5 346,0 h 95 l 63,31.5 63,63"
           style="stroke-width:0.5635in"
           transform="matrix(0.0573333,0,0,-0.0573333,256.452,0)"
           id="path5850" />
        <path
           d="M 220,441 V 0 m 0,252 32,94 63,64 63,31 h 94"
           style="stroke-width:0.5635in"
           transform="matrix(0.0573333,0,0,-0.0573333,288.96,0)"
           id="path5852" />
        <path
           d="m 536,346 -32,64 -94,31 h -95 l -95,-31 -31,-64 31,-62 64,-32 157,-32 63,-31 32,-63 V 94.5 L 504,31.5 410,0 h -95 l -95,31.5 -31,63"
           style="stroke-width:0.5635in"
           transform="matrix(0.0573333,0,0,-0.0573333,312.466,0)"
           id="path5854" />
        <path
           d="m 189,662 31,-32 32,32 -32,31 -31,-31 M 220,441 V 0"
           style="stroke-width:0.5635in"
           transform="matrix(0.0573333,0,0,-0.0573333,386.541,0)"
           id="path5856" />
        <path
           d="M 220,441 V 0 m 0,315 95,95 63,31 h 94 l 64,-31 31,-95 V 0"
           style="stroke-width:0.5635in"
           transform="matrix(0.0573333,0,0,-0.0573333,400.989,0)"
           id="path5858" />
        <path
           d="M 252,662 V 126 L 284,31.5 346,0 h 64 M 158,441 h 220"
           style="stroke-width:0.5635in"
           transform="matrix(0.0573333,0,0,-0.0573333,456.946,0)"
           id="path5860" />
        <path
           d="M 220,662 V 0 m 0,315 95,95 63,31 h 94 l 64,-31 31,-95 V 0"
           style="stroke-width:0.5635in"
           transform="matrix(0.0573333,0,0,-0.0573333,478.618,0)"
           id="path5862" />
        <path
           d="m 189,662 31,-32 32,32 -32,31 -31,-31 M 220,441 V 0"
           style="stroke-width:0.5635in"
           transform="matrix(0.0573333,0,0,-0.0573333,512.904,0)"
           id="path5864" />
        <path
           d="m 536,346 -32,64 -94,31 h -95 l -95,-31 -31,-64 31,-62 64,-32 157,-32 63,-31 32,-63 V 94.5 L 504,31.5 410,0 h -95 l -95,31.5 -31,63"
           style="stroke-width:0.5635in"
           transform="matrix(0.0573333,0,0,-0.0573333,527.352,0)"
           id="path5866" />
        <path
           d="m 567,346 -63,64 -63,31 H 346 L 284,410 220,346 189,252 V 189 L 220,94.5 284,31.5 346,0 h 95 l 63,31.5 63,63"
           style="stroke-width:0.5635in"
           transform="matrix(0.0573333,0,0,-0.0573333,579.754,0)"
           id="path5868" />
        <path
           d="M 567,441 V 0 m 0,346 -63,64 -63,31 H 346 L 284,410 220,346 189,252 V 189 L 220,94.5 284,31.5 346,0 h 95 l 63,31.5 63,63"
           style="stroke-width:0.5635in"
           transform="matrix(0.0573333,0,0,-0.0573333,612.262,0)"
           id="path5870" />
        <path
           d="m 536,346 -32,64 -94,31 h -95 l -95,-31 -31,-64 31,-62 64,-32 157,-32 63,-31 32,-63 V 94.5 L 504,31.5 410,0 h -95 l -95,31.5 -31,63"
           style="stroke-width:0.5635in"
           transform="matrix(0.0573333,0,0,-0.0573333,646.548,0)"
           id="path5872" />
        <path
           d="m 189,252 h 378 v 63 l -31,63 -32,32 -63,31 H 346 L 284,410 220,346 189,252 V 189 L 220,94.5 284,31.5 346,0 h 95 l 63,31.5 63,63"
           style="stroke-width:0.5635in"
           transform="matrix(0.0573333,0,0,-0.0573333,677.278,0)"
           id="path5874" />
      </g>
      <g
         transform="translate(-913.054,2654.29)"
         id="g5922">
        <path
           d="M 252,662 V 126 L 284,31.5 346,0 h 64 M 158,441 h 220"
           style="stroke-width:0.5635in"
           transform="scale(0.0573333,-0.0573333)"
           id="path5878" />
        <path
           d="M 346,441 284,410 220,346 189,252 V 189 L 220,94.5 284,31.5 346,0 h 95 l 63,31.5 63,63 31,94.5 v 63 l -31,94 -63,64 -63,31 h -95"
           style="stroke-width:0.5635in"
           transform="matrix(0.0573333,0,0,-0.0573333,21.672,0)"
           id="path5880" />
        <path
           d="M 252,662 V 126 L 284,31.5 346,0 h 64 M 158,441 h 220"
           style="stroke-width:0.5635in"
           transform="matrix(0.0573333,0,0,-0.0573333,77.6293,0)"
           id="path5882" />
        <path
           d="M 220,662 V 0 m 0,315 95,95 63,31 h 94 l 64,-31 31,-95 V 0"
           style="stroke-width:0.5635in"
           transform="matrix(0.0573333,0,0,-0.0573333,99.3013,0)"
           id="path5884" />
        <path
           d="m 189,252 h 378 v 63 l -31,63 -32,32 -63,31 H 346 L 284,410 220,346 189,252 V 189 L 220,94.5 284,31.5 346,0 h 95 l 63,31.5 63,63"
           style="stroke-width:0.5635in"
           transform="matrix(0.0573333,0,0,-0.0573333,133.587,0)"
           id="path5886" />
        <path
           d="M 158,662 315,0 M 472,662 315,0 M 472,662 630,0 M 788,662 630,0"
           style="stroke-width:0.5635in"
           transform="matrix(0.0573333,0,0,-0.0573333,187.767,0)"
           id="path5888" />
        <path
           d="m 189,662 31,-32 32,32 -32,31 -31,-31 M 220,441 V 0"
           style="stroke-width:0.5635in"
           transform="matrix(0.0573333,0,0,-0.0573333,231.111,0)"
           id="path5890" />
        <path
           d="M 252,662 V 126 L 284,31.5 346,0 h 64 M 158,441 h 220"
           style="stroke-width:0.5635in"
           transform="matrix(0.0573333,0,0,-0.0573333,245.559,0)"
           id="path5892" />
        <path
           d="m 567,346 -63,64 -63,31 H 346 L 284,410 220,346 189,252 V 189 L 220,94.5 284,31.5 346,0 h 95 l 63,31.5 63,63"
           style="stroke-width:0.5635in"
           transform="matrix(0.0573333,0,0,-0.0573333,267.231,0)"
           id="path5894" />
        <path
           d="M 220,662 V 0 m 0,315 95,95 63,31 h 94 l 64,-31 31,-95 V 0"
           style="stroke-width:0.5635in"
           transform="matrix(0.0573333,0,0,-0.0573333,299.738,0)"
           id="path5896" />
        <path
           d="m 189,252 h 378 v 63 l -31,63 -32,32 -63,31 H 346 L 284,410 220,346 189,252 V 189 L 220,94.5 284,31.5 346,0 h 95 l 63,31.5 63,63"
           style="stroke-width:0.5635in"
           transform="matrix(0.0573333,0,0,-0.0573333,334.024,0)"
           id="path5898" />
        <path
           d="m 536,346 -32,64 -94,31 h -95 l -95,-31 -31,-64 31,-62 64,-32 157,-32 63,-31 32,-63 V 94.5 L 504,31.5 410,0 h -95 l -95,31.5 -31,63"
           style="stroke-width:0.5635in"
           transform="matrix(0.0573333,0,0,-0.0573333,366.532,0)"
           id="path5900" />
        <path
           d="M 346,441 284,410 220,346 189,252 V 189 L 220,94.5 284,31.5 346,0 h 95 l 63,31.5 63,63 31,94.5 v 63 l -31,94 -63,64 -63,31 h -95"
           style="stroke-width:0.5635in"
           transform="matrix(0.0573333,0,0,-0.0573333,418.934,0)"
           id="path5902" />
        <path
           d="M 410,662 H 346 L 284,630 252,536 V 0 m -94,441 h 220"
           style="stroke-width:0.5635in"
           transform="matrix(0.0573333,0,0,-0.0573333,453.22,0)"
           id="path5904" />
        <path
           d="m 662,504 -32,63 -63,63 -63,32 H 378 L 315,630 252,567 220,504 189,410 V 252 l 31,-94 32,-63.5 63,-63 L 378,0 h 126 l 63,31.5 63,63 32,63.5"
           style="stroke-width:0.5635in"
           transform="matrix(0.0573333,0,0,-0.0573333,496.564,0)"
           id="path5906" />
        <path
           d="M 220,662 V 0 m 0,315 95,95 63,31 h 94 l 64,-31 31,-95 V 0"
           style="stroke-width:0.5635in"
           transform="matrix(0.0573333,0,0,-0.0573333,534.518,0)"
           id="path5908" />
        <path
           d="M 567,441 V 0 m 0,346 -63,64 -63,31 H 346 L 284,410 220,346 189,252 V 189 L 220,94.5 284,31.5 346,0 h 95 l 63,31.5 63,63"
           style="stroke-width:0.5635in"
           transform="matrix(0.0573333,0,0,-0.0573333,568.804,0)"
           id="path5910" />
        <path
           d="M 346,441 284,410 220,346 189,252 V 189 L 220,94.5 284,31.5 346,0 h 95 l 63,31.5 63,63 31,94.5 v 63 l -31,94 -63,64 -63,31 h -95"
           style="stroke-width:0.5635in"
           transform="matrix(0.0573333,0,0,-0.0573333,603.089,0)"
           id="path5912" />
        <path
           d="m 536,346 -32,64 -94,31 h -95 l -95,-31 -31,-64 31,-62 64,-32 157,-32 63,-31 32,-63 V 94.5 L 504,31.5 410,0 h -95 l -95,31.5 -31,63"
           style="stroke-width:0.5635in"
           transform="matrix(0.0573333,0,0,-0.0573333,637.374,0)"
           id="path5914" />
        <path
           d="M 567,441 V 0 m 0,346 -63,64 -63,31 H 346 L 284,410 220,346 189,252 V 189 L 220,94.5 284,31.5 346,0 h 95 l 63,31.5 63,63"
           style="stroke-width:0.5635in"
           transform="matrix(0.0573333,0,0,-0.0573333,668.105,0)"
           id="path5916" />
        <path
           d="M 220,662 V 0 m 0,315 95,95 63,31 h 94 l 64,-31 31,-95 V 0"
           style="stroke-width:0.5635in"
           transform="matrix(0.0573333,0,0,-0.0573333,702.39,0)"
           id="path5918" />
        <path
           d="m 252,126 -32,-31.5 -31,31.5 31,32 32,-32 V 63 L 189,0"
           style="stroke-width:0.5635in"
           transform="matrix(0.0573333,0,0,-0.0573333,736.676,0)"
           id="path5920" />
      </g>
      <g
         transform="translate(-711.699,2725.96)"
         id="g5946">
        <path
           d="M 567,441 V 0 m 0,346 -63,64 -63,31 H 346 L 284,410 220,346 189,252 V 189 L 220,94.5 284,31.5 346,0 h 95 l 63,31.5 63,63"
           style="stroke-width:0.5635in"
           transform="scale(0.0573333,-0.0573333)"
           id="path5924" />
        <path
           d="m 220,441 v -661 m 0,566 64,64 62,31 h 95 l 63,-31 63,-64 31,-94 V 189 L 567,94.5 504,31.5 441,0 h -95 l -62,31.5 -64,63"
           style="stroke-width:0.5635in"
           transform="matrix(0.0573333,0,0,-0.0573333,55.9573,0)"
           id="path5926" />
        <path
           d="M 220,662 V 0"
           style="stroke-width:0.5635in"
           transform="matrix(0.0573333,0,0,-0.0573333,90.2426,0)"
           id="path5928" />
        <path
           d="M 220,441 V 126 L 252,31.5 315,0 h 95 l 62,31.5 95,94.5 m 0,315 V 0"
           style="stroke-width:0.5635in"
           transform="matrix(0.0573333,0,0,-0.0573333,104.691,0)"
           id="path5930" />
        <path
           d="M 220,441 V 0 m 0,252 32,94 63,64 63,31 h 94"
           style="stroke-width:0.5635in"
           transform="matrix(0.0573333,0,0,-0.0573333,138.976,0)"
           id="path5932" />
        <path
           d="M 567,441 V 0 m 0,346 -63,64 -63,31 H 346 L 284,410 220,346 189,252 V 189 L 220,94.5 284,31.5 346,0 h 95 l 63,31.5 63,63"
           style="stroke-width:0.5635in"
           transform="matrix(0.0573333,0,0,-0.0573333,162.483,0)"
           id="path5934" />
        <path
           d="M 220,662 V 0"
           style="stroke-width:0.5635in"
           transform="matrix(0.0573333,0,0,-0.0573333,196.768,0)"
           id="path5936" />
        <path
           d="M 346,441 284,410 220,346 189,252 V 189 L 220,94.5 284,31.5 346,0 h 95 l 63,31.5 63,63 31,94.5 v 63 l -31,94 -63,64 -63,31 h -95"
           style="stroke-width:0.5635in"
           transform="matrix(0.0573333,0,0,-0.0573333,232.888,0)"
           id="path5938" />
        <path
           d="M 220,441 V 0 m 0,315 95,95 63,31 h 94 l 64,-31 31,-95 V 0"
           style="stroke-width:0.5635in"
           transform="matrix(0.0573333,0,0,-0.0573333,267.173,0)"
           id="path5940" />
        <path
           d="m 189,252 h 378 v 63 l -31,63 -32,32 -63,31 H 346 L 284,410 220,346 189,252 V 189 L 220,94.5 284,31.5 346,0 h 95 l 63,31.5 63,63"
           style="stroke-width:0.5635in"
           transform="matrix(0.0573333,0,0,-0.0573333,301.458,0)"
           id="path5942" />
        <path
           d="m 220,158 -31,-32 31,-31.5 32,31.5 -32,32"
           style="stroke-width:0.5635in"
           transform="matrix(0.0573333,0,0,-0.0573333,333.966,0)"
           id="path5944" />
      </g>
    </g>
  </g>
  <g
     inkscape:groupmode="layer"
     id="layer3"
     inkscape:label="speechbubbles"
     style="display:inline">
    <path
       style="color:#000000;display:inline;overflow:visible;visibility:visible;fill:#ffffff;fill-opacity:1;fill-rule:nonzero;stroke:none;stroke-width:0.825943px;marker:none;enable-background:accumulate"
       d="m 577.39062,1890.3496 c 13.55459,4.6614 27.39899,10.6876 36.98583,21.7461 6.87829,8.625 7.56098,20.6709 4.66066,30.9708 -1.44275,5.9611 -3.11819,12.8374 0.29351,18.4496 3.25292,4.4413 8.97247,5.7004 13.65335,8.0759 1.68146,0.5503 3.16657,2.0604 4.93205,2.0447 3.65441,-0.7862 8.30688,-4.5636 7.78517,-7.7805 0.4108,-14.3571 1.10006,-28.425 -3.6806,-42.3235 -4.09402,-10.8462 -16.4336,-19.4968 -27.02744,-23.2608 -13.09899,-5.2184 -27.0995,-7.7878 -41.09862,-9.0336 1.16537,0.3704 2.33073,0.7409 3.49609,1.1113 z"
       id="path4064-5-5"
       inkscape:connector-curvature="0"
       sodipodi:nodetypes="ccszccccccc" />
    <path
       style="color:#000000;display:inline;overflow:visible;visibility:visible;fill:#ffffff;fill-opacity:1;fill-rule:nonzero;stroke:none;stroke-width:1.27775753px;marker:none;enable-background:accumulate"
       d="m 471.76205,2074.3283 c -0.0322,-39.993 24.20793,-78.0312 59.30487,-101.1957 26.22922,-17.5596 59.21046,-26.9705 91.77637,-24.5753 35.9806,1.4692 72.11705,10.5521 101.94137,29.3864 26.07765,16.2283 47.66924,40.5174 53.54377,69.3606 6.73251,31.3061 -8.34726,64.0926 -33.73099,85.1785 -15.71427,13.284 -35.49094,22.2193 -56.42571,26.1986 -45.58288,9.0706 -93.49219,8.7123 -138.76874,-1.6983 -39.15211,-13.0155 -68.3475,-45.9984 -77.64094,-82.6548 z"
       id="path3365-8"
       inkscape:connector-curvature="0"
       sodipodi:nodetypes="cssccsc" />
    <path
       style="color:#000000;display:inline;overflow:visible;visibility:visible;fill:#ffffff;fill-opacity:1;fill-rule:nonzero;stroke:none;stroke-width:1.55573857px;marker:none;enable-background:accumulate"
       d="m 1888.7941,1570.3017 c -62.2059,6.1761 -138.4105,-1.1979 -182.405,47.4363 -43.5937,55.411 -36.1924,137.28 10.3577,189.1728 48.8823,39.7481 120.0748,35.4544 181.5874,40.9499 68.0176,1.4706 139.0872,0.2417 203.1423,-21.9167 56.4918,-29.1242 70.1341,-94.6813 58.1439,-148.1498 -4.7112,-49.6514 -46.2506,-95.1973 -103.4149,-98.7057 -55.2803,-8.0424 -111.6902,-5.726 -167.4114,-8.7868 z"
       id="path3525-1"
       inkscape:connector-curvature="0"
       sodipodi:nodetypes="ccccc" />
    <path
       style="color:#000000;display:inline;overflow:visible;visibility:visible;fill:#ffffff;fill-opacity:1;fill-rule:nonzero;stroke:none;stroke-width:0.844663px;marker:none;enable-background:accumulate"
       d="m 1973.1118,1889.6755 c -18.1752,-11.0216 -34.1079,-35.6909 -38.6041,-62.1813 -3.212,-15.891 -4.9491,-32.3534 -3.0603,-47.1809 2.5292,-4.9506 8.5452,-3.2093 12.36,1.2176 6.174,5.2735 12.9392,8.5628 18.8573,14.6149 3.5725,5.1778 3.8133,12.417 2.6585,17.788 -1.1636,10.2097 -2.5765,21.1708 0.8478,32.3369 4.2315,15.7365 13.9898,28.6271 24.2515,37.2817 12.3531,10.7595 26.1526,15.1864 39.0912,15.7949 0.045,0.4487 -1.409,0.4203 -1.8941,0.6592 -17.1414,4.2654 -36.4098,1.3261 -54.5078,-10.331 z"
       id="path4064-5"
       inkscape:connector-curvature="0"
       sodipodi:nodetypes="ccszc" />
    <path
       style="fill:#ffffff;stroke:none;stroke-width:1.33665955"
       d="m 426.24868,2274.0147 c -64.31305,0.7266 -129.12562,0.4642 -192.60155,10.0414 -23.31154,3.5289 -46.81661,8.3841 -67.40063,18.2501 -15.8985,7.6229 -29.29688,18.84 -37.25876,32.4248 -10.81657,18.3562 -12.57599,39.6762 -7.5451,59.4484 6.3584,24.7766 24.40868,47.8461 50.86965,61.5678 20.34429,10.7258 44.45172,15.9294 68.48979,17.2676 45.26454,3.9084 90.63423,6.9938 136.06954,9.2475 31.71596,1.6133 63.44275,3.1895 95.20198,4.1063 65.44385,1.2318 131.00795,-2.4334 195.68938,-10.554 23.7682,-3.4538 47.72388,-9.8906 66.34228,-22.8016 17.38361,-12.0501 27.78238,-29.5674 32.25405,-47.5343 4.04466,-15.3575 5.14806,-31.2491 3.18765,-46.8723 -2.22701,-14.3377 -8.99663,-28.5569 -21.50307,-39.0727 -13.88998,-12.3857 -32.74071,-20.7657 -52.76161,-24.5541 -21.33309,-4.774 -43.36237,-6.8962 -65.126,-9.9334 -67.45553,-8.176 -135.74039,-11.2963 -203.9076,-11.0315 z"
       id="path3100-2"
       inkscape:connector-curvature="0" />
    <path
       style="fill:#ffffff;stroke:none;stroke-width:1.15228"
       d="m 432.34272,2411.1355 c -57.69023,1.4255 -116.18902,1.592 -172.31646,14.9613 -22.82183,5.5849 -45.61052,16.109 -59.02389,34.6065 -18.19834,26.9283 -15.9672,62.8095 0.80947,90.1445 15.15351,24.9652 44.32323,41.749 74.99204,44.4582 40.48286,4.2758 81.13333,6.9026 121.80868,8.5905 21.04122,0.8358 42.06567,2.1318 63.10838,2.863 53.40991,1.2179 106.84794,-2.3285 159.59023,-9.5113 22.40029,-3.1885 45.3844,-8.9344 62.85774,-22.783 12.20121,-9.4092 19.94486,-22.8156 23.96101,-36.8796 5.6775,-19.3058 5.76644,-39.7754 2.73889,-59.5531 -2.9411,-15.7827 -10.99402,-32.1256 -26.59543,-40.5249 -16.71343,-9.0909 -36.47798,-10.1793 -55.04157,-13.6435 -65.0203,-10.3541 -131.08482,-13.9631 -196.88909,-12.7286 z"
       id="path3100-2-1"
       inkscape:connector-curvature="0" />
    <path
       style="fill:#ffffff;stroke:none;stroke-width:1.25761"
       d="m 547.3229,2549.8463 c -67.7912,3.2557 -139.08031,-0.022 -202.08212,30.8316 -32.84674,18.7498 -47.36564,60.2161 -44.00721,98.0957 1.67784,49.6041 33.41753,102.4889 82.86874,108.7634 50.2414,6.6848 100.93175,9.9193 151.51985,12.4244 66.4048,2.0134 134.32892,-0.3719 198.16274,-21.4517 32.41033,-13.7635 50.68159,-49.8269 52.76678,-85.4257 6.87525,-44.6192 -7.64552,-97.2272 -48.23773,-118.4303 -35.78599,-15.4717 -75.34212,-16.9512 -113.33933,-21.8202 -25.82167,-2.2685 -51.74306,-3.2354 -77.65172,-2.9872 z"
       id="path3100-2-1-9"
       inkscape:connector-curvature="0" />
    <path
       style="fill:#ffffff;fill-rule:evenodd;stroke:none;stroke-width:1px;stroke-linecap:butt;stroke-linejoin:miter;stroke-opacity:1"
       d="m 565.35803,2748.8183 c 0,0 15.49435,31.1557 18.76123,47.2541 3.26688,16.0984 -2.23396,98.2886 -54.0297,124.672 60.58129,-13.8373 97.25045,-97.2182 74.9118,-174.2445 -8.13467,-28.0492 -39.64333,2.3184 -39.64333,2.3184 z"
       id="path1357"
       inkscape:connector-curvature="0"
       sodipodi:nodetypes="cscsc" />
    <path
       style="color:#000000;display:inline;overflow:visible;visibility:visible;fill:#ffffff;fill-opacity:1;fill-rule:nonzero;stroke:none;stroke-width:1.02305889px;marker:none;enable-background:accumulate"
       d="m 1102.6899,1613.416 c -26.4947,0.665 -53.6193,4.8405 -77.296,17.7518 -20.2953,11.7343 -34.42868,32.595 -41.65108,55.0672 -5.05753,14.3929 -7.97246,30.6636 -2.79051,45.4728 6.39595,18.412 22.44469,31.7974 40.05769,37.9765 28.2707,11.2748 58.9749,12.4073 88.9087,13.4689 32.4481,0.8833 64.9898,1.6213 97.377,-1.086 17.6498,-1.7873 35.5251,-6.7791 49.8506,-17.9635 11.7821,-8.7548 21.4201,-21.8232 23.0489,-37.0517 2.3642,-17.9924 -2.2643,-36.2294 -9.6178,-52.4672 -9.9944,-21.0264 -27.776,-38.1831 -49.2466,-46.1168 -27.3384,-10.962 -56.9892,-12.5985 -85.958,-14.3303 -10.8827,-0.5894 -21.7844,-0.9884 -32.6829,-0.7217 z"
       id="path4546-6-89"
       inkscape:connector-curvature="0"
       sodipodi:nodetypes="cssssc" />
    <path
       style="color:#000000;display:inline;overflow:visible;visibility:visible;fill:#ffffff;fill-opacity:1;fill-rule:nonzero;stroke:none;stroke-width:1px;marker:none;enable-background:accumulate"
       d="m 1191.4693,1723.1631 c 34.2678,49.2543 68.9523,97.6924 121.3421,87.479 -53.9312,29.956 -129.2913,-39.4416 -157.7344,-79.0515 -24.1583,-33.6427 36.3923,-8.4275 36.3923,-8.4275 z"
       id="path4480-3"
       inkscape:connector-curvature="0"
       sodipodi:nodetypes="ccsc" />
    <path
       style="color:#000000;display:inline;overflow:visible;visibility:visible;fill:#ffffff;fill-opacity:1;fill-rule:nonzero;stroke:none;stroke-width:0.95977px;marker:none;enable-background:accumulate"
       d="m 926.821,2384.7386 c 1.0541,-41.5238 55.68419,-72.0916 205.335,-64.8041 80.161,3.9043 171.0095,6.3303 170.3913,67.1567 -0.6184,60.8263 -130.9903,59.7186 -157.753,61.2348 -26.7623,1.5161 -167.34902,-4.3702 -193.63802,-24.9684 -16.45634,-12.8943 -23.65532,-25.7617 -24.33528,-38.619 z"
       id="path4546-6-89-3"
       inkscape:connector-curvature="0"
       sodipodi:nodetypes="cssssc" />
    <path
       style="fill:#ffffff;stroke:none;stroke-width:0.82004291"
       d="m 1198.0054,2424.7526 c 143.107,5.8497 196.4213,17.0027 205.1851,135.1522 12.1304,163.5188 -109.1897,171.6779 -277.0792,164.0681 -181.14182,-8.2107 -184.35043,-104.5451 -180.96511,-183.1318 5.84132,-135.6147 106.10081,-118.8063 252.85921,-116.0885 z"
       id="path3280-8-0"
       inkscape:connector-curvature="0"
       sodipodi:nodetypes="csssc" />
    <path
       style="color:#000000;display:inline;overflow:visible;visibility:visible;fill:#ffffff;fill-opacity:1;fill-rule:nonzero;stroke:none;stroke-width:1px;marker:none;enable-background:accumulate"
       d="m 1210.7284,2694.9039 c -14.7937,34.7302 -29.7284,103.9977 49.732,149.2666 -38.7431,-11.0789 -115.7589,-45.8618 -84.4037,-150.4179 9.0983,-30.339 16.322,-15.8945 23.6557,-14.9665 7.3338,0.9279 11.016,16.1178 11.016,16.1178 z"
       id="path4064-3"
       inkscape:connector-curvature="0"
       sodipodi:nodetypes="ccszc" />
    <path
       style="color:#000000;display:inline;overflow:visible;visibility:visible;fill:#ffffff;fill-opacity:1;fill-rule:nonzero;stroke:none;stroke-width:0.704533px;marker:none;enable-background:accumulate"
       d="m 1688.9513,2304.8762 c 25.2493,-39.6682 68.4339,-42.2159 105.1487,-42.2394 34.5665,1.0129 70.6787,3.7125 102.419,22.7913 20.4538,12.2041 34.2812,44.8101 22.8084,72.1033 -14.1522,23.4202 -39.7925,23.0482 -60.3951,29.5615 -40.6513,7.4345 -81.7902,0.6211 -122.2523,-5.5691 -18.4485,-4.6029 -41.1511,-9.8591 -48.6991,-35.6353 -4.2853,-12.5917 -6.2133,-29.5328 0.9704,-41.0123 z"
       id="path3533-6"
       inkscape:connector-curvature="0" />
    <path
       style="fill:#ffffff;fill-rule:evenodd;stroke:none;stroke-width:1.38581px;stroke-linecap:butt;stroke-linejoin:miter;stroke-opacity:1"
       d="m 1854.546,2372.7244 c 38.9505,26.0497 41.6227,92.7882 26.6214,123.6319 14.1425,-16.2403 51.5149,-98.8625 -6.7766,-150.4117 -47.9683,-42.42 -26.0826,20.6575 -26.0826,20.6575 z"
       id="path4248"
       inkscape:connector-curvature="0"
       sodipodi:nodetypes="ccscc" />
    <path
       style="display:inline;fill:#ffffff;stroke:none;stroke-width:0.994595"
       d="m 2064.8877,2367.6599 c 0.6414,-44.3595 24.3072,-84.2461 131.8193,-77.1267 107.5122,7.1193 142.8181,11.8987 143.038,72.3809 0.2301,63.2975 -53.2334,78.1849 -134.6101,80.635 -83.8905,2.5256 -139.9151,-23.1978 -140.2472,-75.8892 z"
       id="path3280-64"
       inkscape:connector-curvature="0"
       sodipodi:nodetypes="csssc" />
    <path
       style="color:#000000;display:inline;overflow:visible;visibility:visible;fill:#ffffff;fill-opacity:1;fill-rule:nonzero;stroke:none;stroke-width:1.00876px;marker:none;enable-background:accumulate"
       d="m 2225.6941,2499.207 c 29.3281,-35.4419 42.8909,-48.473 14.1537,-86.3903 -28.7372,-37.9162 -14.1521,-48.0944 -14.1521,-48.0944 l 30.5785,11.3041 c 0,0 63.9999,68.3303 -30.5801,123.1806 z"
       id="path3072-56"
       inkscape:connector-curvature="0"
       sodipodi:nodetypes="ccccc" />
    <path
       style="color:#000000;display:inline;overflow:visible;visibility:visible;fill:#ffffff;fill-opacity:1;fill-rule:nonzero;stroke:none;stroke-width:0.719299px;marker:none;enable-background:accumulate"
       d="m 2128.8746,2857.9175 c 16.7613,-9.9895 136.3147,-19.5563 170.2493,6.1257 28.3247,21.4363 26.5072,63.4313 0.5658,79.2151 -26.4284,16.0793 -127.1439,10.4002 -166.0708,2.6999 -36.6568,-7.2509 -35.9935,-24.7778 -34.9936,-55.3282 0.4081,-12.4682 13.4881,-22.7237 30.2493,-32.7125 z"
       id="path4040-4-5-3-6"
       inkscape:connector-curvature="0"
       sodipodi:nodetypes="zssssz" />
    <path
       style="color:#000000;display:inline;overflow:visible;visibility:visible;fill:#ffffff;fill-opacity:1;fill-rule:nonzero;stroke:none;stroke-width:0.76562px;marker:none;enable-background:accumulate"
       d="m 2213.0192,2932.3993 c -24.5343,0.6034 -49.2388,2.8489 -73.0158,10.4239 -14.062,3.8736 -28.824,6.2524 -41.4839,15.0179 -10.5919,7.1872 -20.1487,16.5512 -28.1096,27.4979 -4.8125,7.4446 -7.0135,16.8968 -6.9531,26.1957 -0.8846,14.8074 1.1357,30.5851 8.7003,42.8057 7.7297,12.4857 19.7092,20.1605 31.9272,24.862 31.5222,13.4612 65.3278,16.7034 98.5972,17.3147 27.4685,0.2673 55.249,0.3062 82.2038,-6.7829 10.9751,-2.9335 21.8386,-6.8639 31.9691,-12.7063 15.9904,-10.6744 25.9911,-31.7651 27.0633,-53.2266 1.2321,-18.9355 -3.8483,-38.9852 -15.514,-52.4062 -9.4689,-10.3911 -22.0878,-15.1955 -34.3126,-19.0498 -21.3204,-6.433 -42.223,-15.2088 -64.0979,-18.7603 -5.6233,-0.8931 -11.3013,-1.2722 -16.974,-1.1857 z"
       id="path4040-4-5-3"
       inkscape:connector-curvature="0"
       sodipodi:nodetypes="zssssz" />
    <path
       style="display:inline;fill:#ffffff;fill-rule:evenodd;stroke:none;stroke-width:1px;stroke-linecap:butt;stroke-linejoin:miter;stroke-opacity:1"
       d="m 2233.8905,2901.4843 c -59.0902,-10.6562 16.1202,-61.0715 -1.0396,-83.0609 -8.296,-10.6309 -45.3019,13.7249 -85.4552,-27.1328 44.274,25.5713 73.4492,-3.2499 94.1628,5.6982 39.3401,16.9937 6.1746,61.0235 5.4438,70.8494 -0.9776,13.1415 -13.1118,33.6461 -13.1118,33.6461 z"
       id="path4186-80"
       inkscape:connector-curvature="0"
       sodipodi:nodetypes="cscssc" />
  </g>
  <g
     inkscape:groupmode="layer"
     id="layer1"
     inkscape:label="txt"
     style="display:inline">
    <text
       id="text4246-4-2-7"
       y="2009.1602"
       x="627.6076"
       style="font-style:normal;font-variant:normal;font-weight:normal;font-stretch:normal;line-height:0%;font-family:Lavi;-inkscape-font-specification:Lavi;text-align:center;letter-spacing:0px;word-spacing:0px;text-anchor:middle;fill:#000000;fill-opacity:1;stroke:none"
       xml:space="preserve"><tspan
         y="2009.1602"
         x="627.6076"
         style="font-size:45px;line-height:1.25"
         sodipodi:role="line"
         id="tspan5816">Am fost</tspan><tspan
         y="2065.4102"
         x="634.63885"
         style="font-size:45px;line-height:1.25"
         sodipodi:role="line"
         id="tspan154">atât de </tspan><tspan
         y="2121.6602"
         x="627.6076"
         style="font-size:45px;line-height:1.25"
         sodipodi:role="line"
         id="tspan156">aproape...</tspan></text>
    <text
       id="text4246-4-2-7-3-2"
       y="1685.6537"
       x="1133.2744"
       style="font-style:normal;font-variant:normal;font-weight:normal;font-stretch:normal;line-height:0%;font-family:Lavi;-inkscape-font-specification:Lavi;text-align:center;letter-spacing:0px;word-spacing:0px;text-anchor:middle;fill:#000000;fill-opacity:1;stroke:none"
       xml:space="preserve"><tspan
         y="1685.6537"
         x="1133.2744"
         style="font-size:45px;line-height:1.25"
         sodipodi:role="line"
         id="tspan103302">Mda,</tspan><tspan
         y="1741.9037"
         x="1133.2744"
         style="font-size:45px;line-height:1.25"
         sodipodi:role="line"
         id="tspan11289">așa aproape.</tspan></text>
    <text
       id="text4246-4-2-7-3"
       y="1638.6501"
       x="1922.8013"
       style="font-style:normal;font-variant:normal;font-weight:normal;font-stretch:normal;line-height:0%;font-family:Lavi;-inkscape-font-specification:Lavi;text-align:center;letter-spacing:0px;word-spacing:0px;text-anchor:middle;fill:#000000;fill-opacity:1;stroke:none"
       xml:space="preserve"><tspan
         y="1638.6501"
         x="1922.8013"
         style="font-size:45px;line-height:1.25"
         sodipodi:role="line"
         id="tspan14192">Apropo,</tspan><tspan
         y="1694.9001"
         x="1922.8013"
         style="font-size:45px;line-height:1.25"
         sodipodi:role="line"
         id="tspan26099">știi cumva de ce</tspan><tspan
         y="1751.3357"
         x="1929.8325"
         style="font-size:45px;line-height:1.25"
         sodipodi:role="line"
         id="tspan163">i s-a năzărit lui Wasabi </tspan><tspan
         y="1807.5857"
         x="1922.8013"
         style="font-size:45px;line-height:1.25"
         sodipodi:role="line"
         id="tspan165">pe mine?</tspan></text>
    <text
       id="text4246-4-2-7-3-6-7"
       y="2348.5913"
       x="447.81973"
       style="font-style:normal;font-variant:normal;font-weight:normal;font-stretch:normal;line-height:0%;font-family:Lavi;-inkscape-font-specification:Lavi;text-align:center;letter-spacing:0px;word-spacing:0px;text-anchor:middle;fill:#000000;fill-opacity:1;stroke:none"
       xml:space="preserve"><tspan
         y="2348.5913"
         x="447.81973"
         style="font-size:45px;line-height:1.25;fill:#000000"
         sodipodi:role="line"
         id="tspan143860">Îi este teamă de</tspan><tspan
         y="2404.8413"
         x="447.81973"
         style="font-size:45px;line-height:1.25;fill:#000000"
         sodipodi:role="line"
         id="tspan32649">vrăjitoarele Chaosah, Pepper...</tspan></text>
    <text
       id="text4246-4-2-7-3-6-7-6"
       y="2489.0842"
       x="452.73358"
       style="font-style:normal;font-variant:normal;font-weight:normal;font-stretch:normal;line-height:0%;font-family:Lavi;-inkscape-font-specification:Lavi;text-align:center;letter-spacing:0px;word-spacing:0px;text-anchor:middle;fill:#000000;fill-opacity:1;stroke:none"
       xml:space="preserve"><tspan
         y="2489.0842"
         x="452.73358"
         style="font-size:45px;line-height:1.25;fill:#000000"
         sodipodi:role="line"
         id="tspan39739">Și mai ales</tspan><tspan
         y="2545.5198"
         x="452.73358"
         style="font-size:45px;line-height:1.25;fill:#000000"
         sodipodi:role="line"
         id="tspan179">de <tspan
   style="font-style:normal;font-variant:normal;font-weight:bold;font-stretch:normal;font-family:Lavi;-inkscape-font-specification:'Lavi Bold'"
   id="tspan48049">reacțiile tale in lanț</tspan>.</tspan></text>
    <text
       id="text4246-4-2-7-3-6-7-6-6"
       y="2637.2871"
       x="537.1651"
       style="font-style:normal;font-variant:normal;font-weight:normal;font-stretch:normal;line-height:0%;font-family:Lavi;-inkscape-font-specification:Lavi;text-align:center;letter-spacing:0px;word-spacing:0px;text-anchor:middle;fill:#000000;fill-opacity:1;stroke:none"
       xml:space="preserve"><tspan
         y="2637.2871"
         x="537.1651"
         style="font-size:45px;line-height:1.25;fill:#000000"
         sodipodi:role="line"
         id="tspan61804">Le consideră</tspan><tspan
         y="2693.5371"
         x="537.1651"
         style="font-size:45px;line-height:1.25;fill:#000000"
         sodipodi:role="line"
         id="tspan187">un pericol extrem</tspan><tspan
         y="2749.7871"
         x="537.1651"
         style="font-size:45px;line-height:1.25;fill:#000000"
         sodipodi:role="line"
         id="tspan189">pentru planurile ei.</tspan></text>
    <text
       id="text4246-4-2-7-3-6-7-6-6-4"
       y="2394.4653"
       x="1119.1504"
       style="font-style:normal;font-variant:normal;font-weight:normal;font-stretch:normal;line-height:0%;font-family:Lavi;-inkscape-font-specification:Lavi;text-align:center;letter-spacing:0px;word-spacing:0px;text-anchor:middle;fill:#000000;fill-opacity:1;stroke:none"
       xml:space="preserve"><tspan
         y="2394.4653"
         x="1119.1504"
         style="font-size:45px;line-height:1.25;fill:#000000"
         sodipodi:role="line"
         id="tspan83621-1-4">Oh, aia, pfff...</tspan></text>
    <text
       id="text4246-4-2-7-3-6-7-6-6-4-5"
       y="2513.5476"
       x="1174.139"
       style="font-style:normal;font-variant:normal;font-weight:normal;font-stretch:normal;line-height:0%;font-family:Lavi;-inkscape-font-specification:Lavi;text-align:center;letter-spacing:0px;word-spacing:0px;text-anchor:middle;fill:#000000;fill-opacity:1;stroke:none"
       xml:space="preserve"><tspan
         y="2513.5476"
         x="1174.139"
         style="font-size:45px;line-height:1.25;fill:#000000"
         sodipodi:role="line"
         id="tspan74276">Nu are de ce să se</tspan><tspan
         y="2569.7976"
         x="1174.139"
         style="font-size:45px;line-height:1.25;fill:#000000"
         sodipodi:role="line"
         id="tspan82280">teamă; nu am reușit</tspan><tspan
         y="2626.2332"
         x="1174.139"
         style="font-size:45px;line-height:1.25;fill:#000000"
         sodipodi:role="line"
         id="tspan200">niciodată să pornesc</tspan><tspan
         y="2682.4832"
         x="1174.139"
         style="font-size:45px;line-height:1.25;fill:#000000"
         sodipodi:role="line"
         id="tspan202">una.</tspan></text>
    <text
       id="text4246-4-2-7-3-6-7-6-6-4-5-1"
       y="2338.7527"
       x="1802.5892"
       style="font-style:normal;font-variant:normal;font-weight:normal;font-stretch:normal;line-height:0%;font-family:Lavi;-inkscape-font-specification:Lavi;text-align:center;letter-spacing:0px;word-spacing:0px;text-anchor:middle;fill:#000000;fill-opacity:1;stroke:none"
       xml:space="preserve"><tspan
         y="2338.7527"
         x="1802.5892"
         style="font-size:45px;line-height:1.25;fill:#000000"
         sodipodi:role="line"
         id="tspan186800-2">Serios?</tspan></text>
    <text
       id="text4246-4-2-7-3-6-7-6-6-4-5-1-6"
       y="2351.8303"
       x="2202.064"
       style="font-style:normal;font-variant:normal;font-weight:normal;font-stretch:normal;font-size:39px;line-height:0%;font-family:Lavi;-inkscape-font-specification:Lavi;text-align:center;letter-spacing:0px;word-spacing:0px;text-anchor:middle;fill:#000000;fill-opacity:1;stroke:none"
       xml:space="preserve"><tspan
         y="2351.8303"
         x="2202.064"
         style="font-size:39px;line-height:1.25;fill:#000000"
         sodipodi:role="line"
         id="tspan201029">Da, serios,</tspan><tspan
         y="2400.5803"
         x="2202.064"
         style="font-size:39px;line-height:1.25;fill:#000000"
         sodipodi:role="line"
         id="tspan94771">ha ha ha!</tspan></text>
    <text
       id="text4246-4-2-7-3-6-7-6-6-4-5-1-6-5"
       y="2911.1982"
       x="2205.9717"
       style="font-style:normal;font-variant:normal;font-weight:normal;font-stretch:normal;font-size:42.50630188px;line-height:0%;font-family:Lavi;-inkscape-font-specification:Lavi;text-align:center;letter-spacing:0px;word-spacing:0px;text-anchor:middle;fill:#000000;fill-opacity:1;stroke:none;stroke-width:1.08990002"
       xml:space="preserve"><tspan
         y="2911.1982"
         x="2205.9717"
         style="font-size:42.50630188px;line-height:1.25;fill:#000000;stroke-width:1.08990002"
         sodipodi:role="line"
         id="tspan201029-4">Hi-hi!</tspan></text>
    <text
       id="text4246-4-2-7-3-6-7-6-6-4-5-1-6-5-7"
       y="3002.9026"
       x="2200.3838"
       style="font-style:normal;font-variant:normal;font-weight:normal;font-stretch:normal;font-size:39px;line-height:0%;font-family:Lavi;-inkscape-font-specification:Lavi;text-align:center;letter-spacing:0px;word-spacing:0px;text-anchor:middle;fill:#000000;fill-opacity:1;stroke:none"
       xml:space="preserve"><tspan
         y="3002.9026"
         x="2200.3838"
         style="font-size:39px;line-height:1.25;fill:#000000"
         sodipodi:role="line"
         id="tspan104571">Este așa de</tspan><tspan
         y="3051.8135"
         x="2200.3838"
         style="font-size:39px;line-height:1.25;fill:#000000"
         sodipodi:role="line"
         id="tspan206">paranoică...</tspan></text>
  </g>
</svg>
