<?xml version="1.0" encoding="UTF-8" standalone="no"?>
<!-- Created with Inkscape (http://www.inkscape.org/) -->

<svg
   xmlns:dc="http://purl.org/dc/elements/1.1/"
   xmlns:cc="http://creativecommons.org/ns#"
   xmlns:rdf="http://www.w3.org/1999/02/22-rdf-syntax-ns#"
   xmlns:svg="http://www.w3.org/2000/svg"
   xmlns="http://www.w3.org/2000/svg"
   xmlns:xlink="http://www.w3.org/1999/xlink"
   xmlns:sodipodi="http://sodipodi.sourceforge.net/DTD/sodipodi-0.dtd"
   xmlns:inkscape="http://www.inkscape.org/namespaces/inkscape"
   id="svg2"
   version="1.1"
   inkscape:version="0.92.2 2405546, 2018-03-11"
   width="2481"
   height="3503"
   sodipodi:docname="E26P03.svg">
  <metadata
     id="metadata8">
    <rdf:RDF>
      <cc:Work
         rdf:about="">
        <dc:format>image/svg+xml</dc:format>
        <dc:type
           rdf:resource="http://purl.org/dc/dcmitype/StillImage" />
        <dc:title />
      </cc:Work>
    </rdf:RDF>
  </metadata>
  <defs
     id="defs6" />
  <sodipodi:namedview
     pagecolor="#ffffff"
     bordercolor="#666666"
     borderopacity="1"
     objecttolerance="10"
     gridtolerance="10"
     guidetolerance="10"
     inkscape:pageopacity="0"
     inkscape:pageshadow="2"
     inkscape:window-width="1920"
     inkscape:window-height="1056"
     id="namedview4"
     showgrid="false"
     inkscape:zoom="0.56852482"
     inkscape:cx="1203.3523"
     inkscape:cy="260.18705"
     inkscape:window-x="-2"
     inkscape:window-y="-8"
     inkscape:window-maximized="1"
     inkscape:current-layer="layer1" />
  <g
     inkscape:groupmode="layer"
     id="layer2"
     inkscape:label="artwork"
     sodipodi:insensitive="true">
    <image
       sodipodi:absref="/home/nightlock/peppercarrot/webcomics/new-ep26_Books-Are-Great/lang/kr/../gfx_Pepper-and-Carrot_by-David-Revoy_E26P03.png"
       xlink:href="../gfx_Pepper-and-Carrot_by-David-Revoy_E26P03.png"
       width="2481"
       height="3503"
       id="image10"
       x="0"
       y="0" />
  </g>
  <g
     inkscape:groupmode="layer"
     id="layer3"
     inkscape:label="speechbubbles"
     style="opacity:1">
    <path
       style="color:#000000;display:inline;overflow:visible;visibility:visible;fill:#ffffff;fill-opacity:1;fill-rule:nonzero;stroke:none;stroke-width:0.91370738px;marker:none;enable-background:accumulate"
       d="m 267.2018,623.49642 c 19.69594,-26.98761 262.663,-46.20731 318.79111,14.82975 39.11566,42.5367 24.02606,124.10935 -9.50113,145.34442 -33.52713,21.23515 -195.39394,27.21564 -241.39928,16.40149 -41.3705,-9.7247 -84.79488,-30.6561 -87.08427,-86.36645 -0.93438,-22.73759 -0.50243,-63.22153 19.19357,-90.20921 z"
       id="path4040"
       inkscape:connector-curvature="0"
       sodipodi:nodetypes="zssssz" />
    <path
       style="fill:#ffffff;stroke:none;stroke-width:0.99999994"
       d="m 628.34471,847.51507 c -38.61917,12.80883 -55.09288,-0.0828 -66.95346,-14.05699 -11.86058,-13.97408 -28.36174,-20.89656 -39.29055,-22.32443 -10.92881,-1.42786 -28.67404,2.49427 -37.73175,7.41599 -9.05781,4.92182 -23.30007,-9.35873 -32.51481,-17.85685 -12.1752,-11.22835 -10.17368,-21.3089 -10.17368,-21.3089 0,0 -63.56569,-10.64656 -52.32882,1.21103 11.23688,11.85757 53.851,43.51663 59.4257,47.15218 5.57479,3.63555 23.61454,12.58563 34.54483,10.2648 10.93033,-2.32073 19.07986,-12.5098 32.07626,-12.9737 13.38845,-0.4779 22.37583,3.75223 33.30162,12.67727 10.92577,8.92503 37.52895,25.44728 54.48293,19.70573 16.95397,-5.74156 25.16173,-9.90613 25.16173,-9.90613 z"
       id="path3023"
       inkscape:connector-curvature="0"
       sodipodi:nodetypes="csssscssssssc" />
    <path
       style="color:#000000;display:inline;overflow:visible;visibility:visible;fill:#ffffff;fill-opacity:1;fill-rule:nonzero;stroke:none;stroke-width:0.81484944px;marker:none;enable-background:accumulate"
       d="m 226.46068,1809.2981 c -2.80766,-10.0717 21.86801,-65.0207 126.07167,-63.2452 104.20368,1.7756 128.78094,39.3768 129.41493,52.9558 0.63399,13.5791 -22.5103,35.7911 -37.40482,39.9124 -14.89442,4.1212 -53.86373,14.1678 -79.60184,12.6882 -25.73795,-1.4798 -60.185,5.7848 -99.86964,-10.089 -31.54165,-12.6167 -36.61779,-29.5964 -38.6103,-32.2222 z"
       id="path3365"
       inkscape:connector-curvature="0"
       sodipodi:nodetypes="cssccsc" />
    <path
       style="color:#000000;display:inline;overflow:visible;visibility:visible;fill:#ffffff;fill-opacity:1;fill-rule:nonzero;stroke:none;stroke-width:0.97122324px;marker:none;enable-background:accumulate"
       d="m 1116.1732,2234.667 c -4.0922,-21.6149 -12.1701,-145.8211 168.9603,-137.5731 158.8399,7.2332 182.2624,107.6099 182.9728,136.7102 0.7102,29.1005 -11.7309,58.661 -39.9369,75.7502 -30.2337,16.3843 -83.6104,25.7515 -122.8425,22.2424 -39.2317,-3.5093 -91.8295,-0.5471 -132.2367,-17.3189 -27.7946,-11.5366 -52.4462,-49.5887 -56.917,-79.8108 z"
       id="path3365-5"
       inkscape:connector-curvature="0"
       sodipodi:nodetypes="cssccsc" />
    <path
       style="color:#000000;display:inline;overflow:visible;visibility:visible;fill:#ffffff;fill-opacity:1;fill-rule:nonzero;stroke:none;stroke-width:1px;marker:none;enable-background:accumulate"
       d="m 377.75121,1797.7955 c 0.14136,37.7496 7.44343,98.937 94.82871,86.7057 -14.99489,10.61 -114.59779,34.3786 -127.13109,-74.0559 -3.63685,-31.4647 8.70865,-21.0527 15.81183,-23.0996 7.10319,-2.047 16.49055,10.4498 16.49055,10.4498 z"
       id="path4064"
       inkscape:connector-curvature="0"
       sodipodi:nodetypes="ccszc" />
    <path
       style="color:#000000;display:inline;overflow:visible;visibility:visible;fill:#ffffff;fill-opacity:1;fill-rule:nonzero;stroke:none;stroke-width:1px;marker:none;enable-background:accumulate"
       d="m 1237.4731,2165.1562 c 16.4769,-33.9641 36.832,-92.1267 -47.0265,-119.5779 18.1333,-2.9332 118.0386,19.5304 81.6003,122.4254 -10.5733,29.8573 -17.0809,15.0765 -24.3604,13.7904 -7.2795,-1.2859 -10.2134,-16.6379 -10.2134,-16.6379 z"
       id="path4064-3"
       inkscape:connector-curvature="0"
       sodipodi:nodetypes="ccszc" />
    <path
       style="fill:#ffffff;stroke:none;stroke-width:0.94231075"
       d="M 49.192178,2683.9799 C 20.144722,2499.516 111.10358,2520.3773 344.95714,2519.2087 c 297.99863,-1.4892 292.61032,40.4705 297.40358,119.3056 11.02226,181.2842 -65.91132,220.0916 -374.19854,208.9581 -270.5309573,-9.77 -247.495787,-61.0033 -218.970002,-163.4925 z"
       id="path3280-8"
       inkscape:connector-curvature="0"
       sodipodi:nodetypes="csssc" />
    <path
       style="color:#000000;display:inline;overflow:visible;visibility:visible;fill:#ffffff;fill-opacity:1;fill-rule:nonzero;stroke:none;stroke-width:1.09098148px;marker:none;enable-background:accumulate"
       d="m 541.6664,2826.0288 c 14.75467,36.3891 56.10784,84.8029 132.56738,64.1383 -52.93998,24.1174 -112.04254,21.8254 -162.9129,-49.9788 -68.01242,-96.0004 -45.71056,-118.3536 -45.71056,-118.3536 z"
       id="path4064-6"
       inkscape:connector-curvature="0"
       sodipodi:nodetypes="ccscc" />
    <path
       style="color:#000000;display:inline;overflow:visible;visibility:visible;fill:#ffffff;fill-opacity:1;fill-rule:nonzero;stroke:none;stroke-width:0.98498011px;marker:none;enable-background:accumulate"
       d="m 1866.8691,2967.1271 c -2.2435,-17.8749 32.4697,-97.3439 169.3281,-85.4272 136.8583,11.9166 156.3236,54.5174 157.6876,94.0272 -2.3647,40.7155 -29.8036,70.4216 -49.9958,76.3799 -20.1922,5.9583 -50.5433,14.2286 -106.5701,15.4915 -64.7271,0.057 -102.8837,-2.4468 -143.8699,-34.9007 -39.0958,-28.7858 -24.3363,-60.8041 -26.5799,-65.5707 z"
       id="path3365-7"
       inkscape:connector-curvature="0"
       sodipodi:nodetypes="cscsccc" />
    <path
       style="color:#000000;display:inline;overflow:visible;visibility:visible;fill:#ffffff;fill-opacity:1;fill-rule:nonzero;stroke:none;stroke-width:1px;marker:none;enable-background:accumulate"
       d="m 1963.5548,2926.8144 c -22.0372,-41.7339 -131.901,-116.3258 -202.9973,-80.3598 84.8906,-21.0574 174.3494,70.9697 177.3562,85.6217 3.0068,14.6521 25.6411,-5.2619 25.6411,-5.2619 z"
       id="path3978"
       inkscape:connector-curvature="0"
       sodipodi:nodetypes="cccc" />
    <path
       style="color:#000000;display:inline;overflow:visible;visibility:visible;fill:#ffffff;fill-opacity:1;fill-rule:nonzero;stroke:none;stroke-width:0.58296984px;marker:none;enable-background:accumulate"
       d="m 234.7553,526.58536 c 15.11182,-14.31867 181.53977,-24.51596 224.60435,7.86814 30.0117,22.56846 28.429,63.39355 2.7051,74.66012 -25.72387,11.26661 -149.91701,14.43965 -185.21484,8.70205 -31.74173,-5.15958 -65.05931,-16.26504 -66.81585,-45.82297 -0.71691,-12.06376 9.60938,-31.08864 24.72124,-45.40734 z"
       id="path4040-3"
       inkscape:connector-curvature="0"
       sodipodi:nodetypes="zssssz" />
  </g>
  <g
     inkscape:groupmode="layer"
     id="layer1"
     inkscape:label="txt">
    <text
       id="text858"
       y="620.41235"
       x="421.66605"
       style="font-style:normal;font-variant:normal;font-weight:normal;font-stretch:normal;font-size:13.21078014px;line-height:100%;font-family:'Nanum Pen Script OTF';-inkscape-font-specification:'Nanum Pen Script OTF';text-align:center;letter-spacing:0px;word-spacing:0px;text-anchor:middle;fill:#000000;fill-opacity:1;stroke:none;stroke-width:1.10089839"
       xml:space="preserve"><tspan
         id="tspan856"
         y="630.0202"
         x="421.66605"
         style="font-style:normal;font-variant:normal;font-weight:normal;font-stretch:normal;font-size:49.54042816px;line-height:100%;font-family:'Nanum Pen Script OTF';-inkscape-font-specification:'Nanum Pen Script OTF';stroke-width:1.10089839"
         sodipodi:role="line"></tspan><tspan
         y="669.65253"
         x="421.66605"
         style="font-style:normal;font-variant:normal;font-weight:normal;font-stretch:normal;font-size:49.54042816px;line-height:100%;font-family:'Nanum Pen Script OTF';-inkscape-font-specification:'Nanum Pen Script OTF';stroke-width:1.10089839"
         sodipodi:role="line"
         id="tspan902">고양이들이 얼마나</tspan><tspan
         y="719.19299"
         x="421.66605"
         style="font-style:normal;font-variant:normal;font-weight:normal;font-stretch:normal;font-size:49.54042816px;line-height:100%;font-family:'Nanum Pen Script OTF';-inkscape-font-specification:'Nanum Pen Script OTF';stroke-width:1.10089839"
         sodipodi:role="line"
         id="tspan904">물을 싫어하는지</tspan><tspan
         y="768.7334"
         x="421.66605"
         style="font-style:normal;font-variant:normal;font-weight:normal;font-stretch:normal;font-size:49.54042816px;line-height:100%;font-family:'Nanum Pen Script OTF';-inkscape-font-specification:'Nanum Pen Script OTF';stroke-width:1.10089839"
         sodipodi:role="line"
         id="tspan906">나도 잘 알지.</tspan></text>
    <text
       id="text864"
       y="1821.1458"
       x="351.77786"
       style="font-style:normal;font-variant:normal;font-weight:normal;font-stretch:normal;font-size:15.92729664px;line-height:100%;font-family:'Nanum Pen Script OTF';-inkscape-font-specification:'Nanum Pen Script OTF';text-align:center;letter-spacing:0px;word-spacing:0px;text-anchor:middle;fill:#000000;fill-opacity:1;stroke:#000000;stroke-width:1.32727468;stroke-opacity:1"
       xml:space="preserve"><tspan
         y="1821.1458"
         x="351.77786"
         style="font-style:normal;font-variant:normal;font-weight:normal;font-stretch:normal;font-size:59.72736359px;line-height:100%;font-family:'Nanum Pen Script OTF';-inkscape-font-specification:'Nanum Pen Script OTF';stroke:#000000;stroke-width:1.32727468;stroke-opacity:1"
         sodipodi:role="line"
         id="tspan910">걱정 마!</tspan></text>
    <text
       transform="scale(0.99789912,1.0021053)"
       id="text872"
       y="2173.4004"
       x="1287.8796"
       style="font-style:normal;font-variant:normal;font-weight:normal;font-stretch:normal;font-size:14.80564499px;line-height:100%;font-family:'Nanum Pen Script OTF';-inkscape-font-specification:'Nanum Pen Script OTF';text-align:center;letter-spacing:0px;word-spacing:0px;text-anchor:middle;fill:#000000;fill-opacity:1;stroke:#000000;stroke-width:1.32750952;stroke-opacity:1"
       xml:space="preserve"><tspan
         id="tspan870"
         y="2173.4004"
         x="1287.8796"
         style="font-style:normal;font-variant:normal;font-weight:normal;font-stretch:normal;font-size:55.52116394px;line-height:100%;font-family:'Nanum Pen Script OTF';-inkscape-font-specification:'Nanum Pen Script OTF';stroke:#000000;stroke-width:1.32750952;stroke-opacity:1"
         sodipodi:role="line">이런 문제도</tspan><tspan
         y="2228.9216"
         x="1295.6331"
         style="font-style:normal;font-variant:normal;font-weight:normal;font-stretch:normal;font-size:55.52116394px;line-height:100%;font-family:'Nanum Pen Script OTF';-inkscape-font-specification:'Nanum Pen Script OTF';stroke:#000000;stroke-width:1.32750952;stroke-opacity:1"
         sodipodi:role="line"
         id="tspan919">책이 잘 </tspan><tspan
         y="2284.4426"
         x="1287.8796"
         style="font-style:normal;font-variant:normal;font-weight:normal;font-stretch:normal;font-size:55.52116394px;line-height:100%;font-family:'Nanum Pen Script OTF';-inkscape-font-specification:'Nanum Pen Script OTF';stroke:#000000;stroke-width:1.32750952;stroke-opacity:1"
         sodipodi:role="line"
         id="tspan921">해결할 거야!</tspan></text>
    <text
       id="text884"
       y="2617.6072"
       x="123.09389"
       style="font-style:normal;font-variant:normal;font-weight:normal;font-stretch:normal;font-size:14.0515995px;line-height:100%;font-family:'Nanum Pen Script OTF';-inkscape-font-specification:'Nanum Pen Script OTF';text-align:center;letter-spacing:0px;word-spacing:0px;text-anchor:middle;fill:#000000;fill-opacity:1;stroke:none;stroke-width:1.17096663"
       xml:space="preserve"><tspan
         id="tspan882"
         y="2617.6072"
         x="123.09389"
         style="font-style:normal;font-variant:normal;font-weight:normal;font-stretch:normal;font-size:52.69350052px;line-height:100%;font-family:'Nanum Pen Script OTF';-inkscape-font-specification:'Nanum Pen Script OTF';text-align:start;text-anchor:start;stroke-width:1.17096663"
         sodipodi:role="line">그리고 이 지하감옥에 들어온 지</tspan><tspan
         y="2670.3008"
         x="123.09389"
         style="font-style:normal;font-variant:normal;font-weight:normal;font-stretch:normal;font-size:52.69350052px;line-height:100%;font-family:'Nanum Pen Script OTF';-inkscape-font-specification:'Nanum Pen Script OTF';text-align:start;text-anchor:start;stroke-width:1.17096663"
         sodipodi:role="line"
         id="tspan935">10분도 채 안 됐지만,</tspan><tspan
         y="2722.9941"
         x="123.09389"
         style="font-style:normal;font-variant:normal;font-weight:normal;font-stretch:normal;font-size:52.69350052px;line-height:100%;font-family:'Nanum Pen Script OTF';-inkscape-font-specification:'Nanum Pen Script OTF';text-align:start;text-anchor:start;stroke-width:1.17096663"
         sodipodi:role="line"
         id="tspan937">난 여기 보물의 방에 들어와서</tspan><tspan
         y="2775.6877"
         x="123.09389"
         style="font-style:normal;font-variant:normal;font-weight:normal;font-stretch:normal;font-size:52.69350052px;line-height:100%;font-family:'Nanum Pen Script OTF';-inkscape-font-specification:'Nanum Pen Script OTF';text-align:start;text-anchor:start;stroke-width:1.17096663"
         sodipodi:role="line"
         id="tspan941">희귀한 물나무의 잎을 따고 있지.</tspan></text>
    <text
       transform="scale(0.99789912,1.0021053)"
       id="text890"
       y="2961.4922"
       x="2038.4771"
       style="font-style:normal;font-variant:normal;font-weight:normal;font-stretch:normal;font-size:17.98535728px;line-height:100%;font-family:'Nanum Pen Script OTF';-inkscape-font-specification:'Nanum Pen Script OTF';text-align:center;letter-spacing:0px;word-spacing:0px;text-anchor:middle;fill:#000000;fill-opacity:1;stroke:#000000;stroke-width:1.33273554;stroke-opacity:1;"
       xml:space="preserve"><tspan
         id="tspan888"
         y="2961.4922"
         x="2038.4771"
         style="font-style:normal;font-variant:normal;font-weight:normal;font-stretch:normal;font-size:67.44508362px;line-height:100%;font-family:'Nanum Pen Script OTF';-inkscape-font-specification:'Nanum Pen Script OTF';stroke-width:1.33273554;stroke:#000000;stroke-opacity:1;"
         sodipodi:role="line">책은 정말</tspan><tspan
         y="3028.9373"
         x="2038.4771"
         style="font-style:normal;font-variant:normal;font-weight:normal;font-stretch:normal;font-size:67.44508362px;line-height:100%;font-family:'Nanum Pen Script OTF';-inkscape-font-specification:'Nanum Pen Script OTF';stroke-width:1.33273554;stroke:#000000;stroke-opacity:1;"
         sodipodi:role="line"
         id="tspan947">마법이야!</tspan></text>
    <text
       id="text894"
       y="583.42981"
       x="343.65298"
       style="font-style:normal;font-variant:normal;font-weight:normal;font-stretch:normal;font-size:14.3554945px;line-height:100%;font-family:'Nanum Pen Script OTF';-inkscape-font-specification:'Nanum Pen Script OTF';text-align:center;letter-spacing:0px;word-spacing:0px;text-anchor:middle;fill:#000000;fill-opacity:1;stroke:none;stroke-width:1.19629121"
       xml:space="preserve"><tspan
         id="tspan892"
         y="583.42981"
         x="343.65298"
         style="font-style:normal;font-variant:normal;font-weight:normal;font-stretch:normal;font-size:53.83310318px;line-height:100%;font-family:'Nanum Pen Script OTF';-inkscape-font-specification:'Nanum Pen Script OTF';stroke-width:1.19629121"
         sodipodi:role="line">어이구, 당근;</tspan></text>
  </g>
</svg>
