<?xml version="1.0" encoding="UTF-8" standalone="no"?>
<!-- Created with Inkscape (http://www.inkscape.org/) -->

<svg
   id="svg2"
   version="1.1"
   inkscape:version="1.2.2 (732a01da63, 2022-12-09)"
   width="2481"
   height="663"
   sodipodi:docname="E10P00.svg"
   xml:space="preserve"
   xmlns:inkscape="http://www.inkscape.org/namespaces/inkscape"
   xmlns:sodipodi="http://sodipodi.sourceforge.net/DTD/sodipodi-0.dtd"
   xmlns:xlink="http://www.w3.org/1999/xlink"
   xmlns="http://www.w3.org/2000/svg"
   xmlns:svg="http://www.w3.org/2000/svg"
   xmlns:rdf="http://www.w3.org/1999/02/22-rdf-syntax-ns#"
   xmlns:cc="http://creativecommons.org/ns#"
   xmlns:dc="http://purl.org/dc/elements/1.1/"><sodipodi:namedview
     pagecolor="#ffffff"
     bordercolor="#666666"
     inkscape:pageopacity="0"
     inkscape:pageshadow="2"
     inkscape:window-width="1920"
     inkscape:window-height="1017"
     id="namedview70"
     showgrid="false"
     inkscape:zoom="0.4"
     inkscape:cx="1580"
     inkscape:cy="237.5"
     inkscape:current-layer="layer1"
     borderopacity="0.25"
     inkscape:showpageshadow="2"
     inkscape:pagecheckerboard="0"
     inkscape:deskcolor="#d1d1d1"
     inkscape:window-x="-8"
     inkscape:window-y="-8"
     inkscape:window-maximized="1" /><metadata
     id="metadata8"><rdf:RDF><cc:Work
         rdf:about=""><dc:format>image/svg+xml</dc:format><dc:type
           rdf:resource="http://purl.org/dc/dcmitype/StillImage" /><dc:title /></cc:Work></rdf:RDF></metadata><defs
     id="defs6"><filter
       y="-0.25"
       height="1.5"
       inkscape:menu-tooltip="Darkens the edge with an inner blur and adds a flexible glow"
       inkscape:menu="Shadows and Glows"
       inkscape:label="Dark And Glow"
       style="color-interpolation-filters:sRGB;"
       id="filter4140"><feGaussianBlur
         stdDeviation="4.6710210876803542"
         result="result6"
         id="feGaussianBlur4142" /><feComposite
         result="result8"
         in="SourceGraphic"
         operator="atop"
         in2="result6"
         id="feComposite4144"
         stdDeviation="4.7000000000000002" /><feComposite
         result="result9"
         operator="over"
         in2="SourceAlpha"
         in="result8"
         id="feComposite4146" /><feColorMatrix
         values="1 0 0 0 0 0 1 0 0 0 0 0 1 0 0 0 0 0 1 0 "
         result="result10"
         id="feColorMatrix4148" /><feBlend
         in="result10"
         mode="normal"
         in2="result6"
         id="feBlend4150" /></filter></defs><sodipodi:namedview
     pagecolor="#ffffff"
     bordercolor="#666666"
     borderopacity="1"
     objecttolerance="10"
     gridtolerance="10"
     guidetolerance="10"
     inkscape:pageopacity="0"
     inkscape:pageshadow="2"
     inkscape:window-width="1920"
     inkscape:window-height="1025"
     id="namedview4"
     showgrid="false"
     inkscape:zoom="0.46082619"
     inkscape:cx="1418.5251"
     inkscape:cy="434.36405"
     inkscape:window-x="0"
     inkscape:window-y="26"
     inkscape:window-maximized="1"
     inkscape:current-layer="layer1" /><g
     inkscape:groupmode="layer"
     id="layer2"
     inkscape:label="artwork"
     sodipodi:insensitive="true"><image
       xlink:href="../gfx_Pepper-and-Carrot_by-David-Revoy_E10P00.png"
       y="0"
       x="0"
       id="image10"
       height="663"
       width="2481" /></g><g
     inkscape:groupmode="layer"
     id="layer1"
     inkscape:label="txt"
     style="display:inline"><flowRoot
       xml:space="preserve"
       id="episode-title"
       style="font-style:normal;font-variant:normal;font-weight:normal;font-stretch:normal;line-height:0.01%;font-family:Arial;-inkscape-font-specification:Arial;letter-spacing:0px;word-spacing:0px;display:inline;fill:#241c1c;fill-opacity:1;stroke:none"
       transform="translate(-701.23633,-120.8471)"><flowRegion
         id="flowRegion2989"><rect
           id="rect2991"
           width="2405.8"
           height="107.55731"
           x="739.22333"
           y="644.36664"
           style="fill:#241c1c;fill-opacity:1" /></flowRegion><flowPara
         id="flowPara2993"
         style="font-style:normal;font-variant:normal;font-weight:normal;font-stretch:normal;font-size:72px;line-height:1.25;font-family:Lavi;-inkscape-font-specification:Lavi;text-align:center;text-anchor:middle;fill:#241c1c;fill-opacity:1">Epizodas 10: Specialus vasaros epizodas</flowPara></flowRoot><path
       style="fill:#241c1c;fill-opacity:1;stroke-width:1.00142"
       d="m 557.84049,514.37447 c -6.16967,-2.80571 -7.18974,-5.89834 -6.17077,-18.70914 0.44523,-5.59821 0.9174,-21.38613 1.0492,-35.08423 l 0.23963,-24.90565 -6.9193,-0.55275 c -11.29465,-0.90226 -24.42682,-9.17985 -24.42682,-15.39692 0,-2.19316 0.24036,-2.24954 7.75336,-1.81754 10.2126,0.58715 14.95604,-0.81181 20.48488,-6.04159 l 4.50212,-4.25859 0.64876,-46.61196 c 0.3568,-25.63652 0.93509,-53.41076 1.28511,-61.72049 l 0.63632,-15.10855 -9.4017,-2.43356 c -9.13429,-2.36431 -9.41021,-2.52059 -9.70048,-5.49415 -0.19251,-1.97171 0.46876,-4.03836 1.85883,-5.80897 1.94375,-2.47601 2.58439,-2.68431 6.46275,-2.10154 3.86594,0.58081 4.47602,0.3854 5.98073,-1.9156 0.92161,-1.40932 1.3794,-3.04278 1.01725,-3.6299 -0.83996,-1.36169 4.19431,-3.47927 12.22023,-5.1403 5.47841,-1.13379 6.64966,-1.08881 9.70814,0.37249 3.91398,1.87021 6.2008,5.58826 7.16925,11.65639 0.7181,4.49961 1.4831,4.81601 6.53301,2.70182 9.41525,-3.94167 28.34068,-2.55942 39.36411,2.87505 11.99016,5.91114 22.30713,18.82813 27.54151,34.48256 5.50147,16.45315 5.27527,43.25488 -0.50888,60.29443 -4.68904,13.81364 -15.00051,31.06664 -18.56732,31.06664 -2.22734,0 -4.94014,3.65777 -4.94014,6.66091 0,2.77733 -8.3163,10.21042 -15.94524,14.25187 -3.06026,1.62116 -11.19159,4.6107 -18.06959,6.64338 -18.96885,5.60589 -17.00738,1.61364 -17.00738,34.61616 v 28.04428 h 7.96849 c 5.08425,0 13.13725,-1.10425 22.24823,-3.05077 15.06091,-3.21762 19.12408,-3.41695 19.5455,-0.95888 0.30107,1.75618 -12.50135,10.69676 -20.74963,14.49057 -5.16005,2.37335 -5.57806,2.42229 -6.71879,0.78638 -2.40698,-3.45182 -3.39429,-4.25047 -5.25441,-4.25047 -2.66324,0 -5.03418,2.69252 -5.03418,5.71709 0,3.65815 -5.97977,8.93689 -12.23075,10.79688 -7.23102,2.1516 -17.27261,1.94457 -22.57203,-0.46535 z m 35.22484,-116.30499 c 4.90917,-1.08739 10.85906,-2.91485 13.22201,-4.06097 9.02759,-4.37881 19.01745,-18.50447 24.69664,-34.92107 6.33738,-18.31931 2.93293,-41.92343 -7.48802,-51.91638 -7.064,-6.77391 -21.42171,-10.94655 -29.02026,-8.43384 -1.9017,0.62885 -5.06774,2.82789 -7.03559,4.88676 l -3.57794,3.74341 -1.125,33.58063 c -1.49954,44.76014 -1.46257,59.14827 0.15185,59.12025 0.68782,-0.0119 5.26717,-0.91134 10.17631,-1.99879 z m 524.05597,90.61882 c -2.8892,-2.51715 -5.2524,-5.0564 -5.2524,-5.64278 0,-0.58638 1.848,-2.77556 4.1064,-4.86482 l 4.1069,-3.79869 0.4146,-10.33159 c 0.2279,-5.68242 0.8424,-22.78932 1.3658,-38.0153 0.8003,-23.27845 1.2283,-28.1668 2.6908,-30.71989 2.4417,-4.26318 0.6591,-6.25172 -5.6037,-6.25172 -2.5738,0 -5.22,-0.54127 -5.8801,-1.2029 -2.0996,-2.10385 -1.3165,-5.53807 1.8775,-8.23083 2.4732,-2.0853 4.1311,-2.59512 8.4381,-2.59512 6.7428,0 9.2409,0.95632 13.8315,5.29392 2.929,2.76827 3.6649,4.2035 3.6649,7.15208 v 3.68882 l 4.5359,-3.12715 c 3.1451,-2.16794 6.5583,-3.44249 11.1274,-4.15533 6.0317,-0.94083 6.833,-0.84951 9.4293,1.07416 1.5612,1.15628 4.2061,2.10235 5.8776,2.10235 3.8624,0 10.0181,5.4037 12.5403,11.00863 1.6037,3.56287 1.6578,4.38138 0.442,6.65856 -1.2639,2.36586 -1.1893,2.75667 0.8404,4.40353 5.2472,4.25713 0.6229,14.60677 -8.8904,19.89938 l -4.6144,2.56735 -2.3886,-2.77022 c -2.4887,-2.88683 -4.8625,-3.51981 -8.5935,-2.29143 -1.8654,0.61415 -2.519,0.1078 -4.252,-3.29663 -5.0707,-9.9591 0.096,-17.47413 6.9557,-10.11657 2.3107,2.47806 3.5944,3.00719 7.2974,3.00719 2.6746,0 4.6868,-0.50731 4.9698,-1.25301 1.4887,-3.9204 -5.8778,-11.00446 -13.2978,-12.78803 -6.5336,-1.5704 -11.6667,-0.0144 -17.4435,5.28782 l -4.6221,4.24242 -0.2067,30.7627 c -0.1435,21.35025 0.1309,31.10461 0.8969,31.88019 0.6072,0.61462 6.235,2.03167 12.5056,3.14901 6.2703,1.11733 11.6958,2.33363 12.0558,2.70286 0.3607,0.36921 -1.5454,2.61899 -4.2357,4.99952 -4.6624,4.12636 -4.9955,4.25494 -7.1303,2.75662 -2.995,-2.1022 -3.8849,-2.00085 -8.2015,0.93438 -3.3437,2.27355 -4.6333,2.50379 -13.896,2.48158 l -10.2096,-0.0244 z m -36.9076,0.1816 c -5.1848,-2.28035 -5.7638,-5.82174 -4.9969,-30.55467 0.611,-19.68493 0.8369,-21.67525 2.6532,-23.37069 2.5193,-2.35195 2.4928,-3.22786 -0.1731,-5.71661 -2.1084,-1.96764 -2.1446,-2.45547 -1.5479,-20.83897 0.3357,-10.35336 1.1303,-20.30397 1.7667,-22.11251 2.237,-6.36352 11.9938,-8.14455 15.4729,-2.82445 2.2877,3.4986 2.6799,14.82172 1.747,50.45512 -0.6024,23.01229 -1.1961,32.6638 -2.0607,33.53048 -1.5213,1.52426 -1.5837,5.48124 -0.101,6.39939 1.821,1.1276 0.5364,11.26401 -1.7011,13.42401 -2.6618,2.56917 -7.3311,3.24851 -11.0591,1.6089 z m 768.4757,-42.54808 c -7.6403,-3.51229 -16.779,-15.28721 -32.7437,-42.18882 -4.252,-7.16499 -6.5741,-12.0732 -6.1636,-13.03133 1.6505,-3.85813 -1.0606,-9.05498 -4.7243,-9.05498 -2.0095,0 -4.3439,-2.79389 -12.1052,-14.48604 -2.9092,-4.3837 -5.7706,-8.11521 -6.3574,-8.29222 -0.5868,-0.17705 -4.3009,3.68645 -8.2537,8.58556 -6.7115,8.31935 -7.1864,9.23082 -7.1968,13.80549 -0.02,9.00527 -1.0432,12.54138 -4.1377,14.3047 -3.5884,2.04495 -3.7023,5.23669 -0.3798,10.64144 4.66,7.58008 2.9311,18.52838 -3.9784,25.19643 -6.1717,5.95644 -12.3867,7.8204 -26.1881,7.85498 -11.0265,0.0275 -11.228,-0.0136 -14.2564,-2.91614 -1.6894,-1.61927 -3.0719,-3.67342 -3.0719,-4.56476 0,-1.89733 4.242,-6.06253 12.167,-11.9481 7.9196,-5.88166 8.8408,-8.34581 9.8939,-26.48152 0.4866,-8.36453 0.8988,-17.0624 0.9168,-19.32859 0.022,-2.70044 0.8942,-5.39293 2.5335,-7.81317 3.112,-4.59436 3.1076,-5.14147 -0.065,-8.08771 l -2.5663,-2.38339 1.567,-61.97339 c 0.8614,-34.0854 1.5662,-62.94424 1.5658,-64.13076 -4e-4,-1.48054 0.9115,-2.47586 2.9064,-3.17273 5.2653,-1.83903 4.8885,-8.46422 -0.5593,-9.83422 -4.7281,-1.18893 -18.9629,0.44786 -26.7892,3.08026 -4.1878,1.40866 -7.9527,2.56118 -8.366,2.56118 -0.414,0 -1.6153,-1.6062 -2.6709,-3.56934 l -1.9184,-3.56934 2.9419,-2.36574 c 6.2432,-5.02163 27.6657,-17.86954 34.6405,-20.77564 13.5853,-5.66053 24.1621,-3.91286 26.077,4.30892 0.4375,1.87937 0.5042,33.30124 0.1483,69.82642 -0.356,36.52519 -0.3897,66.40951 -0.075,66.40951 1.075,0 38.4852,-53.823 45.0234,-64.77818 4.1869,-7.0147 22.3561,-25.06691 26.2034,-26.03437 4.2274,-1.06303 5.4825,0.99796 5.4759,8.98848 0,4.72437 -0.975,10.71035 -2.8675,17.66998 -3.3628,12.36651 -5.1372,16.81847 -9.2839,23.29367 -2.774,4.33052 -3.4126,4.77375 -6.8835,4.77375 -3.8925,0 -6.9705,2.0025 -6.9705,4.53529 0,0.76165 0.5337,2.55753 1.1854,3.99074 1.3895,3.05533 0.883,4.0786 -8.8733,17.9476 l -6.2829,8.9315 1.8697,3.09738 c 6.7588,11.19822 27.3888,47.29169 30.0109,52.50775 2.5943,5.16111 3.0216,6.89117 2.3484,9.52286 -0.4517,1.76877 -0.6634,4.21552 -0.4703,5.43716 0.4578,2.89628 5.7272,7.30164 8.7336,7.30164 1.8017,0 3.7615,1.94632 8.3273,8.26988 7.2438,10.03163 9.4754,12.17915 17.4694,16.81013 5.6991,3.30176 6.2083,3.87784 6.2083,7.02154 0,5.08236 -2.586,5.96179 -17.5073,5.95312 -10.0001,-0.006 -13.3078,-0.37583 -16.5071,-1.84688 z m -541.0329,-3.5717 c -15.0487,-5.37869 -31.7163,-27.58922 -31.7163,-42.26408 0,-4.23365 0.1522,-4.4967 2.2507,-3.88944 3.8077,1.10187 7.1261,4.00463 9.8427,8.60987 l 2.5986,4.40638 6.5912,-0.26713 c 3.6884,-0.14954 6.8669,0.18155 7.2191,0.7518 0.8793,1.42564 3.4891,1.27271 3.9941,-0.23404 0.2306,-0.68916 0.9038,-3.15146 1.4963,-5.4717 0.7721,-3.02324 1.8491,-4.58755 3.8014,-5.52021 3.4235,-1.63619 4.2859,-6.97073 1.6049,-9.93839 -1.6831,-1.86411 -1.624,-2.60152 1.3771,-17.19772 7.1657,-34.84703 21.2399,-102.6219 21.745,-104.71493 0.3176,-1.31637 1.3053,-2.25543 2.371,-2.25543 1.005,0 2.6826,-0.94709 3.7275,-2.1047 2.0006,-2.21495 2.1215,-4.68749 0.8779,-17.94346 -0.4417,-4.70344 -0.028,-9.38142 1.4863,-16.81914 4.4889,-22.04874 10.9966,-32.27872 17.0446,-26.79463 4.3824,3.97419 7.3338,14.61564 24.0484,86.71726 5.0485,21.77732 9.3287,39.75337 9.5118,39.94687 0.5109,0.54004 1.5963,-3.93406 12.9689,-53.47934 12.0519,-52.50323 15.5715,-65.57449 19.1142,-70.97977 2.1526,-3.28336 2.9514,-3.77513 5.701,-3.50849 2.8601,0.2774 3.5675,1.04997 6.6994,7.3138 3.1047,6.20945 3.5016,7.88969 3.5016,14.81731 0,5.3211 0.414,8.07164 1.2987,8.6225 2.2207,1.38337 2.3076,1.79213 25.0942,117.98591 0.747,3.80667 0.609,4.19328 -2.0414,5.71716 -2.1244,1.22171 -2.8419,2.39078 -2.8419,4.62917 0,3.2992 0.88,4.13895 5.2848,5.0416 l 2.9583,0.60625 4.2115,21.03609 c 2.317,11.56991 4.7547,22.05107 5.4176,23.29156 1.125,2.10354 1.8667,2.25542 11.02,2.25542 8.6051,0 10.0419,0.25176 11.66,2.04312 1.7999,1.99274 1.7817,2.17314 -0.7371,7.318 -3.5505,7.2535 -11.8273,16.0347 -18.0365,19.13488 -4.0945,2.04431 -6.6264,2.57557 -12.2209,2.56382 -8.1213,-0.017 -11.1346,-1.23545 -14.1522,-5.72187 -2.8176,-4.18967 -4.8639,-17.22753 -3.2584,-20.75935 0.9222,-2.02708 0.7497,-3.38101 -0.9293,-7.29293 -2.3663,-5.5137 -5.3005,-22.78503 -15.2045,-89.50707 -3.8874,-26.18787 -7.2204,-48.06543 -7.4065,-48.61676 -0.5983,-1.76951 -2.4365,6.16747 -11.2593,48.61676 -8.7593,42.1416 -8.9326,42.71182 -13.8787,45.63971 -2.2166,1.31226 -2.2922,6.42876 -0.1186,8.02139 0.8939,0.6551 1.6258,2.1889 1.6258,3.40845 0,3.73228 -6.1195,30.46184 -7.6559,33.44111 -1.8839,3.65279 -5.3968,5.29971 -8.153,3.82202 -2.7864,-1.49447 -4.3651,-7.11756 -24.2198,-86.27489 -6.6655,-26.57521 -12.4966,-49.29648 -12.957,-50.49176 -1.2225,-3.17121 -1.4853,-2.0478 -5.5859,23.88942 -2.0049,12.68049 -4.5309,27.11513 -5.614,32.077 -1.083,4.96193 -2.5882,14.43467 -3.3462,21.05059 -1.7264,15.07548 -7.976,56.70385 -10.6102,70.66963 -2.8392,15.05499 -3.4555,16.60425 -7.344,18.45285 -4.0886,1.94393 -13.6248,2.01954 -18.857,0.14953 z m 731.6155,0.0905 c -6.1698,-1.67169 -12.9118,-5.59847 -15.401,-8.97051 -1.5435,-2.09048 -2.1691,-4.71447 -2.4495,-10.27467 -0.2069,-4.10693 -0.6142,-7.46719 -0.9051,-7.46719 -0.2908,0 -2.5265,1.84456 -4.9674,4.09895 -7.1225,6.57813 -12.1417,8.35573 -23.2975,8.25042 -12.8344,-0.12117 -19.1096,-2.51758 -27.0963,-10.34833 -6.3919,-6.26635 -10.6664,-14.08155 -13.4311,-24.55517 -3.0427,-11.52613 -4.3431,-54.95919 -2.641,-88.2205 0.5975,-11.67999 0.9014,-13.27435 2.9099,-15.28669 2.694,-2.69985 2.8036,-4.49305 0.5115,-8.38111 -2.0475,-3.47321 -1.2921,-5.22926 3.7231,-8.65115 5.0841,-3.4689 12.9583,-3.17263 17.2258,0.64817 l 3.2435,2.90358 0.6824,13.38555 c 0.3758,7.36205 0.7529,26.69251 0.8385,42.95657 0.2116,40.16397 1.0197,51.28751 4.19,57.66655 4.8252,9.7081 12.8958,12.03369 22.5361,6.4937 11.3247,-6.50755 15.9048,-17.2269 16.9873,-39.75672 l 0.6334,-13.18661 2.7966,-0.5605 c 5.7296,-1.14809 6.1821,-7.9611 0.6573,-9.89084 l -3.0607,-1.06899 0.6254,-24.65786 c 0.3443,-13.56189 1.1015,-26.32045 1.6833,-28.35252 2.8898,-10.08973 18.2089,-12.90581 24.4147,-4.48795 2.0303,2.75441 2.0882,3.7646 1.8405,32.07707 -0.4147,47.30671 -1.9336,81.7348 -3.7283,84.47926 -1.9126,2.92473 -1.9284,5.47527 -0.049,7.96445 0.9344,1.23825 1.48,4.3347 1.5002,8.5158 0.034,7.01348 1.8894,10.99977 9.536,20.48748 6.6114,8.20415 7.012,12.46708 1.3573,14.4422 -4.1003,1.43227 -15.1405,1.29871 -20.8655,-0.25244 z M 754.02107,434.42237 c -9.71572,-10.37372 -10.12637,-13.33353 -2.62719,-18.93668 4.99661,-3.73333 5.14752,-3.99201 5.75925,-9.87384 0.41896,-4.02821 3.62885,-106.63903 3.5771,-114.35036 -0.0117,-1.7472 -1.17315,-2.3459 -7.40718,-3.81848 -4.0663,-0.96058 -8.2306,-2.39662 -9.25403,-3.19121 -1.79052,-1.39021 -1.76636,-1.5261 0.64036,-3.60116 3.84074,-3.31142 16.37329,-8.81897 22.77311,-10.00794 7.20502,-1.3385 15.85976,-0.67761 17.90018,1.36679 0.91772,0.91952 2.02417,5.05645 2.70041,10.09649 l 1.14563,8.53859 3.0013,-2.50675 c 1.65071,-1.37869 5.47739,-3.69071 8.50371,-5.13773 4.67784,-2.23673 6.87986,-2.63605 14.69444,-2.66437 8.26615,-0.0299 9.40377,0.1938 11.29386,2.22203 1.156,1.24049 3.22421,2.25541 4.59603,2.25541 6.00526,0 13.87146,5.47835 18.60511,12.95724 3.57444,5.64742 3.94383,13.91104 0.83229,18.61858 -1.09323,1.65401 -1.99066,4.0446 -1.99428,5.31246 -0.0155,5.41437 -6.67678,14.72656 -12.39588,17.32879 -6.18736,2.81533 -15.19355,2.575 -19.74961,-0.52707 -3.97998,-2.7098 -7.23577,-8.48607 -6.24349,-11.07698 0.71398,-1.86427 1.51678,-1.72648 8.9859,1.54232 7.17774,3.14128 9.57918,2.30847 12.88887,-4.46962 2.51734,-5.15537 2.56972,-5.57127 1.06812,-8.48078 -2.47629,-4.79809 -9.48077,-8.33902 -17.65488,-8.92504 -6.29782,-0.45151 -7.52408,-0.20563 -13.37832,2.68207 -3.82284,1.88571 -8.0302,4.98348 -10.34118,7.61414 l -3.89616,4.43497 -0.65513,15.82692 c -0.36032,8.70479 -0.65662,29.21441 -0.65845,45.57691 -0.004,32.34687 0.0906,32.90039 5.60265,32.90039 1.35397,0 4.09287,0.68288 6.08649,1.51752 2.47437,1.03587 5.13581,1.31664 8.38618,0.8846 4.5618,-0.60635 14.08006,0.55974 22.31538,2.73382 l 3.87732,1.02358 -3.67042,2.49908 c -3.95626,2.69361 -5.42856,2.96925 -10.12418,1.89519 -3.93374,-0.8998 -7.36812,1.763 -8.32591,6.45522 -0.55403,2.71423 -1.31874,3.58312 -3.6715,4.17187 -3.92718,0.98271 -30.31216,2.87687 -40.07348,2.87687 h -7.71417 z m 862.69773,-0.50117 c -8.212,-12.91412 -8.284,-15.02609 -0.6549,-19.18641 l 5.0261,-2.74105 v -6.50289 c 0,-3.87705 0.6186,-7.70067 1.5313,-9.46932 1.2231,-2.36971 1.2931,-3.41211 0.3477,-5.1813 -1.2823,-2.40152 -1.2925,-17.32627 -0.047,-68.43678 0.3897,-15.98842 0.5486,-31.61481 0.3521,-34.7254 l -0.3563,-5.65562 -6.8982,-0.39056 c -8.8519,-0.50116 -9.7607,-1.38233 -7.5113,-7.28477 2.9026,-7.61408 9.1004,-10.58446 22.0866,-10.58446 6.8578,0 8.7567,0.3713 11.5524,2.25882 5.2575,3.55033 7.701,8.9672 9.4879,21.03619 l 0.5546,3.74802 5.0058,-3.96444 c 6.3577,-5.03574 10.0398,-6.02517 22.4479,-6.03206 9.3847,-0.005 10.4977,0.2177 17.2327,3.45189 13.6695,6.56364 20.3082,15.77121 21.0442,29.1841 0.5411,9.87516 -0.9742,13.42214 -9.7098,22.73045 l -5.8899,6.276 h -7.3512 c -6.042,0 -8.3757,-0.50445 -13.1092,-2.83316 -6.4127,-3.15535 -8.3812,-5.63453 -6.8102,-8.57661 1.2915,-2.41809 2.3156,-2.77786 10.3587,-3.64092 6.6272,-0.71109 6.6479,-0.72308 8.7543,-5.08328 2.2779,-4.71518 2.0789,-6.70409 -1.2176,-12.16082 -1.5853,-2.62417 -2.5485,-3.20237 -5.1728,-3.10355 -1.7735,0.0666 -5.0507,-0.93193 -7.2838,-2.2194 l -4.0593,-2.34082 -4.6819,2.9383 c -10.2001,6.40089 -15.0876,10.11176 -17.8441,13.54806 l -2.8824,3.59286 -0.9611,45.36751 c -0.5286,24.9521 -0.7455,45.71746 -0.4815,46.14523 0.2638,0.42774 2.1797,1.05013 4.2576,1.38303 2.0778,0.33292 4.5949,1.56156 5.5938,2.73022 1.671,1.9554 1.9562,1.99759 3.5761,0.52877 3.4582,-3.13574 17.8945,-1.40294 24.0768,2.88999 5.0771,3.5252 4.8511,3.83757 -8.4198,11.63795 l -10.0526,5.90905 -24.2728,0.01 -24.2729,0.01 -3.3464,-5.26265 z m 489.5819,0.56474 c -5.2339,-0.86893 -15.7371,-4.61708 -21.431,-7.64789 -4.3222,-2.30036 -7.1344,-4.78615 -10.3952,-9.18702 -7.5393,-10.17595 -9.1904,-14.85055 -10.3565,-29.32588 -1.2295,-15.26446 -0.1552,-20.60139 4.2523,-21.11471 3.2929,-0.3835 4.4233,1.07274 5.7565,7.41439 1.4893,7.08506 4.7871,15.60954 7.7073,19.92119 1.3517,1.99549 2.4571,4.70359 2.4571,6.01808 0,3.70005 2.7437,5.85049 6.4145,5.02797 3.321,-0.74414 4.555,-0.75953 23.599,-0.29436 13.8998,0.33957 16.4905,-0.41643 21.3812,-6.24081 3.7667,-4.48536 6.0871,-13.0881 4.6811,-17.35677 -2.2854,-6.93857 -8.7507,-10.82373 -26.0623,-15.66207 -10.0794,-2.81691 -11.8851,-3.65744 -14.5681,-6.78171 -2.7624,-3.21585 -3.4123,-3.5006 -6.6187,-2.8979 -3.2563,0.61205 -3.8692,0.32003 -7.2887,-3.47216 -5.555,-6.16088 -6.7496,-9.9252 -7.3066,-23.01514 -0.3862,-9.08894 -0.1227,-12.86016 1.2267,-17.54211 2.7332,-9.48671 7.5026,-17.44006 15.1323,-25.23603 9.607,-9.81624 17.4137,-13.54708 29.5629,-14.12912 7.6627,-0.36707 9.3158,-0.12117 14.1776,2.10884 3.0265,1.38836 6.6987,3.8691 8.16,5.51269 1.7516,1.9697 4.0062,3.20445 6.6145,3.62231 2.7807,0.44555 5.0668,1.78127 7.6931,4.49593 6.5546,6.77407 17.1986,27.25007 15.9127,30.60931 -0.5754,1.50058 -0.9685,1.47294 -4.4031,-0.31001 -2.0741,-1.07679 -6.472,-4.28459 -9.7736,-7.12843 -6.8109,-5.86664 -16.9806,-11.38663 -24.1533,-13.10948 -2.6729,-0.64201 -6.3484,-2.01393 -8.1681,-3.0487 -4.1341,-2.35082 -4.3607,-2.34392 -7.2929,0.22263 -1.322,1.15733 -4.5467,3.19692 -7.1653,4.53251 -5.6209,2.86659 -10.1668,8.7127 -12.256,15.7623 -2.5029,8.44547 -2.078,10.48241 3.2614,15.6333 4.1306,3.98487 6.1496,5.01065 15.4423,7.84532 8.1095,2.47364 10.8433,3.74259 11.3223,5.25552 0.3867,1.22036 1.5145,1.9945 2.9061,1.9945 4.1938,0 14.809,6.24871 21.734,12.79426 8.2636,7.81116 9.8719,12.01352 9.8719,25.79838 0,15.6468 -4.0464,24.90778 -15.3692,35.17456 -12.6032,11.42772 -29.9243,16.53441 -46.6582,13.75631 z m -1611.51014,-2.3446 c -4.38814,-2.68069 -6.28667,-7.60744 -6.50942,-16.89267 -0.29302,-12.21472 1.43927,-98.58243 2.26634,-112.99456 0.66121,-11.52087 1.01755,-13.39684 2.90364,-15.2867 2.43694,-2.44171 2.53699,-3.00864 1.16749,-6.61772 -0.7901,-2.08224 -0.60452,-2.96803 0.94771,-4.52322 2.66003,-2.66535 8.94411,-4.22823 12.59541,-3.13258 9.63429,2.89096 9.66276,2.98897 10.22229,35.1747 l 0.46184,26.56378 -2.61845,2.43014 c -3.13374,2.9084 -3.32267,5.38468 -0.61763,8.09509 1.89445,1.89814 1.9977,3.29829 1.94118,26.31318 -0.0884,35.99658 -1.20392,53.402 -3.63532,56.72676 -4.33425,5.92668 -13.09814,7.82552 -19.12508,4.1438 z m 202.73974,0.50276 c -4.42866,-2.41019 -7.15535,-7.84214 -6.41998,-12.78956 0.34559,-2.32498 0.54386,-5.35498 0.44063,-6.73328 -0.10323,-1.3783 -0.0995,-21.67701 0.008,-45.10827 0.23445,-50.96986 1.42588,-83.98846 3.15142,-87.33486 3.7858,-7.34205 10.46222,-10.13306 17.65542,-7.38053 7.24229,2.77132 7.77809,4.64486 8.16636,28.55654 0.32098,19.76965 0.24785,20.70738 -1.9281,24.71434 -2.15295,3.96472 -2.18104,4.28845 -0.58377,6.73101 1.47179,2.25066 1.67208,5.98826 1.63011,30.41802 -0.0697,40.56945 -1.23546,60.98074 -3.67309,64.31483 -4.03262,5.51557 -12.77192,7.70034 -18.44725,4.61176 z m 840.8096,0.12751 c -12.6051,-4.10884 -26.6922,-18.20677 -34.2878,-34.31463 -5.8612,-12.42998 -7.4427,-21.03366 -7.4385,-40.46807 0,-20.61583 1.361,-26.978 9.3089,-43.64816 6.3571,-13.33507 11.4173,-20.68169 19.3927,-28.15729 8.6146,-8.07426 14.044,-10.62504 23.822,-11.19225 26.2219,-1.5209 45.7005,14.01923 52.8936,42.19928 4.6391,18.17617 5.1187,45.59009 1.1301,64.67677 -2.0569,9.84212 -3.2287,12.20828 -6.0488,12.20828 -2.1329,0 -5.0346,3.08631 -5.0346,5.35519 0,0.92886 0.5364,2.54914 1.1916,3.60056 1,1.60401 0.7181,2.6026 -1.7509,6.20522 -7.8918,11.51661 -19.3003,20.02525 -30.4539,22.71303 -8.0315,1.93532 -18.182,2.30252 -22.7244,0.82207 z m 22.352,-29.48227 c 9.348,-4.78264 17.2106,-18.47017 19.2986,-33.5947 0.595,-4.31267 1.0667,-13.33428 1.0475,-20.0481 -0.085,-29.87434 -7.8612,-45.8963 -23.0297,-47.4538 -11.75,-1.20643 -19.9023,4.01633 -25.6467,16.43152 -1.8444,3.98595 -3.6346,8.65592 -3.9782,10.37768 -0.4559,2.28506 -1.4154,3.40654 -3.5521,4.15285 -4.1463,1.44833 -5.3307,5.1409 -2.9354,9.15295 1.5315,2.56492 2.0751,6.60087 2.92,21.6956 1.177,21.01787 2.6702,26.7097 8.9332,34.0406 5.9015,6.90823 8.7305,8.25636 16.3104,7.77307 3.9176,-0.24979 8.1444,-1.2546 10.6324,-2.52767 z m 323.8777,28.95881 c -2.0322,-1.24168 -3.7587,-3.54936 -4.9046,-6.5555 -1.6128,-4.23236 -1.7189,-7.81199 -1.2071,-40.81278 0.5372,-34.66671 0.6476,-36.29161 2.6531,-39.00969 2.6432,-3.58132 2.6479,-6.25668 0.017,-9.82117 -2.0363,-2.75966 -2.0563,-3.27787 -1.0587,-27.35818 1.1419,-27.58857 2.0482,-31.76155 7.5107,-34.60327 4.0683,-2.11661 10.2757,-2.07153 14.4611,0.10508 6.4111,3.33465 6.4904,4.03291 5.9323,52.22047 -0.4552,39.29489 -0.6635,43.44262 -2.3529,46.94175 -1.7638,3.65278 -1.77,3.98371 -0.13,6.84745 1.3431,2.3451 1.7161,5.36955 1.6898,13.70388 -0.051,16.13592 -1.6057,30.82324 -3.6266,34.25071 -3.2636,5.53668 -13.1364,7.66419 -18.9843,4.09125 z m -960.37726,-1.22191 c -2.49235,-2.80272 -7.82106,-5.02323 -10.10349,-4.21013 -0.99366,0.35398 -2.59349,1.32062 -3.55512,2.14811 -1.55969,1.34206 -2.16292,1.3173 -5.58632,-0.22953 -5.02243,-2.26925 -17.64054,-13.29584 -25.32306,-22.12907 -3.7042,-4.25899 -7.85366,-10.61131 -10.55768,-16.16243 l -4.4549,-9.14554 0.0357,-19.92422 c 0.0334,-18.63055 0.22484,-20.67272 2.9483,-31.45189 5.00215,-19.79812 11.02134,-30.71194 24.95798,-45.25305 10.35859,-10.80787 15.3357,-13.33765 26.2412,-13.3377 6.55089,-3e-5 8.48173,0.46083 15.07521,3.59823 10.05745,4.78575 19.8288,13.9115 24.01223,22.42604 4.59269,9.34747 6.27202,22.06212 5.54511,41.98473 -0.31976,8.76361 -0.79646,16.14941 -1.05938,16.41284 -0.45268,0.45366 -13.26736,3.60358 -53.8376,13.23375 l -17.7577,4.2151 v 3.74286 c 0,10.38125 9.27409,23.01502 19.43658,26.47777 5.75489,1.96091 17.71446,2.18066 28.08407,0.51603 3.85167,-0.6183 9.31514,-1.06829 12.14117,-0.99996 4.92344,0.1191 5.18735,-0.011 6.31756,-3.11616 0.64867,-1.78228 1.72904,-4.36819 2.40084,-5.74648 1.51096,-3.09996 16.41824,-15.30211 17.7141,-14.49965 0.51892,0.32137 0.94351,3.86871 0.94351,7.88306 0,10.36135 -3.6792,17.42384 -14.9563,28.70951 -9.77644,9.78394 -16.09211,13.32988 -27.70845,15.55683 -9.396,1.80129 -8.69008,1.84631 -10.95357,-0.69905 z m -3.40646,-90.67206 c 11.2799,-1.43283 20.94429,-3.02086 21.47652,-3.52888 1.1649,-1.11214 -1.94144,-20.71108 -4.11288,-25.94948 -1.93495,-4.66782 -7.62312,-10.3892 -12.53541,-12.60872 -3.52586,-1.59303 -4.45706,-1.645 -8.15589,-0.45481 -2.29659,0.73893 -6.48393,1.29016 -9.3052,1.22492 -6.57012,-0.15197 -9.38266,2.31236 -7.7092,6.75455 0.89508,2.37605 0.60442,3.92348 -1.79603,9.56152 -3.67068,8.62143 -5.87408,17.17978 -5.87408,22.81574 0,5.38241 0.47915,5.95567 4.43041,5.30011 1.69007,-0.28043 12.30184,-1.68217 23.58176,-3.11495 z m -579.02287,84.04418 c -10.07918,-12.88434 -8.45999,-21.9685 4.41026,-24.74362 l 3.13854,-0.67675 0.72697,-17.9572 c 0.66254,-16.36429 0.8945,-18.01042 2.61512,-18.55761 4.22815,-1.3446 4.74933,-7.41432 0.81772,-9.52265 -1.77304,-0.95075 -1.93129,-2.21667 -1.91144,-15.28563 l 0.0216,-14.24899 3.16399,-1.50361 c 5.38133,-2.55735 5.53974,-3.91196 1.46325,-12.51283 l -3.67008,-7.74339 v -31.27516 -31.27516 l -3.33626,-3.24001 c -2.19981,-2.13631 -4.67047,-3.42049 -7.25313,-3.76997 -2.15431,-0.29151 -4.92984,-0.73487 -6.1679,-0.98535 -3.71471,-0.75148 -2.7573,-4.3064 2.53689,-9.41933 8.43317,-8.14452 28.05829,-13.05619 52.11788,-13.04381 33.29376,0.0171 57.61346,12.33199 67.62512,34.24354 5.43184,11.88796 6.86279,19.92855 6.92764,38.92514 0.0509,14.93592 -0.26982,18.84886 -2.15875,26.33757 -5.51422,21.86084 -16.96066,40.33459 -30.97968,49.99892 -9.86503,6.80073 -28.63072,12.95535 -44.29658,14.52807 -3.57657,0.35905 -6.83358,1.14954 -7.23782,1.75668 -1.18241,1.77566 -0.87435,18.57083 0.38455,20.96726 1.55221,2.95482 2.79188,3.65963 6.46825,3.67778 1.71405,0.008 4.32292,0.96621 5.79748,2.12839 2.03546,1.60425 3.33265,1.92464 5.38718,1.33054 3.34712,-0.96787 17.65294,-0.7097 21.70143,0.39161 2.93158,0.79747 2.82699,0.90094 -5.51151,5.45521 -12.46914,6.81038 -17.84696,8.99115 -22.0293,8.93331 -2.71171,-0.0374 -4.36227,0.62078 -6.03807,2.40814 -3.02164,3.22272 -9.716,5.13052 -24.39026,6.95077 -16.93532,2.10081 -16.89933,2.10483 -20.32309,-2.27186 z m 67.57811,-79.9988 c 1.22293,-0.85822 2.22347,-2.16151 2.22347,-2.89612 0,-2.85358 3.60947,-5.81552 7.45993,-6.12162 4.71212,-0.37466 5.76637,-1.79559 5.15099,-6.94302 -0.35261,-2.95012 0.26623,-5.69079 2.3766,-10.52525 5.29846,-12.13742 6.44157,-18.23872 6.48343,-34.60396 0.0436,-17.06757 -1.8743,-25.68874 -7.42166,-33.36173 -3.35688,-4.64323 -11.6896,-9.92086 -17.05058,-10.79926 -5.32417,-0.87238 -7.7652,-2.12439 -8.4681,-4.34336 -1.35425,-4.27536 -8.76198,-3.29508 -10.54158,1.39504 -0.62305,1.64182 -1.98408,2.74977 -3.83327,3.1203 l -2.86731,0.57463 -0.65071,13.59581 c -0.35792,7.47775 -0.6508,30.85159 -0.6508,51.94188 v 38.34608 l 4.09482,0.69316 c 2.2521,0.38127 6.43412,0.40035 9.29348,0.0422 2.85927,-0.35794 6.30647,-0.20779 7.66033,0.3338 3.44102,1.37639 4.21359,1.32492 6.74096,-0.44877 z m 671.55628,9.73497 c -4.4289,-4.22165 -5.0082,-6.92769 -2.6794,-12.51266 1.8159,-4.35465 5.6179,-6.69171 10.856,-6.673 5.6093,0.02 7.1629,1.13196 7.2317,5.17567 0.046,2.66848 0.5034,3.39305 2.3075,3.64979 1.8489,0.26311 2.2509,0.95241 2.2509,3.85927 0,2.68813 -0.8175,4.3583 -3.4016,6.9471 -2.873,2.87898 -4.1093,3.40821 -7.9611,3.40821 -3.9212,0 -5.1265,-0.53988 -8.604,-3.85438 z M 912.23953,249.86636 c -10.36931,-6.33583 -12.3385,-19.81789 -4.12415,-28.23627 3.9636,-4.06213 6.4391,-4.98056 13.42405,-4.98056 7.05703,0 11.15922,2.59002 14.84632,9.37377 6.52674,12.00833 -2.05599,25.71131 -16.10009,25.70517 -3.10828,-10e-4 -6.15466,-0.70633 -8.04613,-1.86211 z M 500.72364,238.99269 c -4.15295,-2.04992 -8.6766,-8.11028 -9.55477,-12.80055 -1.57112,-8.39102 5.29939,-19.08584 13.18602,-20.52589 7.95205,-1.45204 17.62061,1.99885 14.46348,5.16216 -1.54942,1.55246 -1.55322,5.07396 -0.007,6.62309 0.66023,0.66157 2.68611,1.2029 4.50191,1.2029 3.17559,0 3.30145,0.15028 3.30145,3.94434 0,5.0865 -1.4637,8.87602 -4.8157,12.46818 -5.22472,5.599 -14.27145,7.2842 -21.07525,3.92577 z m 202.1761,0.0427 c -4.90764,-2.42346 -7.21167,-5.91679 -7.21167,-10.93428 0,-2.37403 -0.4502,-4.59523 -1.00044,-4.93602 -3.17256,-1.9646 1.593,-12.25047 7.4605,-16.1026 3.19863,-2.09996 13.21737,-2.18095 17.15884,-0.13875 8.54342,4.42667 11.97076,16.38929 7.15523,24.97423 -4.38458,7.81667 -15.4187,11.15909 -23.56246,7.13746 z m 1186.23506,-1.12707 c -2.6462,-1.70357 -5.2817,-4.43943 -6.2532,-6.48964 -3.4036,-7.18683 -1.3975,-16.98576 4.6321,-22.62303 4.8666,-4.5507 14.9439,-4.86712 21.3364,-0.67007 2.1211,1.39246 2.5083,2.28196 2.1145,4.86338 -0.6362,4.17698 -0.026,5.60916 2.8577,6.70764 4.901,1.86693 1.8553,13.39285 -4.7921,18.13533 -2.292,1.6353 -4.9884,2.4096 -9.2767,2.66354 -5.3169,0.31492 -6.5956,0.003 -10.6187,-2.58715 z"
       id="path916" /></g></svg>
