<?xml version="1.0" encoding="UTF-8" standalone="no"?>
<!-- Created with Inkscape (http://www.inkscape.org/) -->

<svg
   id="svg2"
   version="1.1"
   inkscape:version="1.1.1 (3bf5ae0d25, 2021-09-20)"
   width="2481"
   height="3503"
   sodipodi:docname="E36P11.svg"
   xmlns:inkscape="http://www.inkscape.org/namespaces/inkscape"
   xmlns:sodipodi="http://sodipodi.sourceforge.net/DTD/sodipodi-0.dtd"
   xmlns:xlink="http://www.w3.org/1999/xlink"
   xmlns="http://www.w3.org/2000/svg"
   xmlns:svg="http://www.w3.org/2000/svg"
   xmlns:rdf="http://www.w3.org/1999/02/22-rdf-syntax-ns#"
   xmlns:cc="http://creativecommons.org/ns#"
   xmlns:dc="http://purl.org/dc/elements/1.1/">
  <metadata
     id="metadata8">
    <rdf:RDF>
      <cc:Work
         rdf:about="">
        <dc:format>image/svg+xml</dc:format>
        <dc:type
           rdf:resource="http://purl.org/dc/dcmitype/StillImage" />
        <dc:title />
      </cc:Work>
    </rdf:RDF>
  </metadata>
  <defs
     id="defs6" />
  <sodipodi:namedview
     pagecolor="#1e1e1e"
     bordercolor="#111111"
     borderopacity="1"
     objecttolerance="10"
     gridtolerance="10"
     guidetolerance="10"
     inkscape:pageopacity="0"
     inkscape:pageshadow="2"
     inkscape:window-width="1920"
     inkscape:window-height="967"
     id="namedview4"
     showgrid="false"
     inkscape:zoom="0.32526914"
     inkscape:cx="985.33788"
     inkscape:cy="2654.7247"
     inkscape:window-x="0"
     inkscape:window-y="72"
     inkscape:window-maximized="1"
     inkscape:current-layer="layer3"
     inkscape:pagecheckerboard="0"
     inkscape:snap-global="false" />
  <g
     inkscape:groupmode="layer"
     id="layer2"
     inkscape:label="artwork"
     sodipodi:insensitive="true">
    <image
       xlink:href="../gfx_Pepper-and-Carrot_by-David-Revoy_E36P11.png"
       y="0"
       x="0"
       id="image10"
       height="3503"
       width="2481" />
  </g>
  <g
     inkscape:groupmode="layer"
     id="layer3"
     inkscape:label="speechbubbles"
     style="display:inline">
    <path
       style="color:#000000;display:inline;overflow:visible;visibility:visible;fill:#ffffff;fill-opacity:1;fill-rule:nonzero;stroke:none;stroke-width:0.649444px;marker:none;enable-background:accumulate"
       d="m 380.93482,282.95177 c -40.08071,21.41551 -88.98888,17.53589 -133.67898,16.52247 -46.66506,-3.44423 -102.13944,-16.67254 -123.24586,-58.54734 -19.71208,-38.78476 2.30487,-87.11707 44.39615,-105.22628 38.61839,-16.98124 83.02353,-18.66814 125.22269,-19.46171 54.79037,1.16875 114.97326,32.33519 123.46529,84.58625 4.62305,30.58574 -10.44138,62.20135 -36.15929,82.12661 z"
       id="path4040-40"
       inkscape:connector-curvature="0"
       sodipodi:nodetypes="zssssz" />
    <path
       style="color:#000000;display:inline;overflow:visible;visibility:visible;fill:#ffffff;fill-opacity:1;fill-rule:nonzero;stroke:none;stroke-width:0.895703px;marker:none;enable-background:accumulate"
       d="m 619.10987,105.88672 c -23.00204,0.48289 -46.52986,1.99485 -68.15295,10.55273 -16.2172,6.28483 -30.79802,17.59434 -39.44865,32.88401 -9.07579,15.11503 -12.82668,32.66921 -15.14283,49.9598 -3.15714,20.5909 -4.59257,42.02901 0.96739,62.34728 8.53264,29.028 33.91418,51.93542 63.23165,58.49046 38.35903,10.88095 79.5043,13.37614 118.48352,4.25676 22.3519,-5.64189 44.05999,-15.47968 61.37683,-30.96068 11.67587,-11.91714 17.18263,-28.63021 18.42793,-45.0154 2.50471,-25.0214 3.0049,-50.80265 -4.06523,-75.17205 -6.7314,-22.85714 -24.75493,-41.60583 -46.63887,-50.51416 -16.98464,-7.20666 -35.16137,-10.9992 -53.26769,-14.11157 -11.82275,-1.87992 -23.79811,-2.85024 -35.7711,-2.71718 z"
       id="path3365-90"
       inkscape:connector-curvature="0"
       sodipodi:nodetypes="csssssc" />
    <path
       style="color:#000000;display:inline;overflow:visible;visibility:visible;fill:#ffffff;fill-opacity:1;fill-rule:nonzero;stroke:none;stroke-width:0.976718px;marker:none;enable-background:accumulate"
       d="m 841.76473,253.23429 c 0.71845,-53.37318 14.71334,-103.84716 138.7752,-102.10038 93.02217,1.30895 117.79457,42.43199 119.85547,96.38138 1.4525,38.01967 -48.8732,73.2116 -128.79518,71.34686 -76.39013,-1.78194 -124.24892,-24.9245 -129.83549,-65.62786 z"
       id="path5026-3"
       inkscape:connector-curvature="0"
       sodipodi:nodetypes="csssc" />
    <path
       style="color:#000000;display:inline;overflow:visible;visibility:visible;fill:#ffffff;fill-opacity:1;fill-rule:nonzero;stroke:none;stroke-width:1.06703px;marker:none;enable-background:accumulate"
       d="m 958.1944,309.83323 c -43.34053,0.0194 -52.18434,75.22752 -14.63328,128.2568 -16.5114,-21.59304 -72.61174,-61.13455 -7.77479,-172.66812 29.32893,-50.45175 14.74185,29.39163 14.74185,29.39163 z"
       id="path4035-4"
       inkscape:connector-curvature="0"
       sodipodi:nodetypes="ccscc" />
    <path
       style="color:#000000;display:inline;overflow:visible;visibility:visible;fill:#ffffff;fill-opacity:1;fill-rule:nonzero;stroke:none;stroke-width:0.9173px;marker:none;enable-background:accumulate"
       d="m 1009.9776,1094.6387 c -24.13419,1.2085 -48.61006,8.1587 -69.6384,24.7635 -14.97264,13.0266 -24.59195,35.1962 -28.47725,58.3683 -7.25194,40.6355 -9.76695,83.2545 -4.70045,124.6504 2.15193,16.8919 5.40631,33.7263 11.11239,49.0989 3.79654,9.7174 9.60375,18.0181 16.78816,23.2214 9.74291,7.8311 20.28993,13.6082 30.82309,19.1591 20.83691,10.0451 42.98576,13.684 64.94286,15.7271 10.3759,0.8715 20.7769,-0.7959 30.8723,-4.0246 13.1893,-4.1673 26.0072,-10.3611 38.3853,-17.7595 16.3306,-10.4546 31.6239,-25.8231 40.8307,-47.2554 8.9976,-20.8618 11.8985,-45.2362 13.2349,-68.9875 1.8976,-30.8582 1.1877,-62.7145 -6.5246,-92.1643 -7.0448,-26.0245 -21.7503,-48.1845 -40.3811,-59.8383 -21.6976,-14.2476 -45.8146,-19.45 -69.5423,-23.2906 -9.2025,-1.3146 -18.472,-1.9984 -27.7256,-1.6685 z"
       id="path3365-90-4"
       inkscape:connector-curvature="0"
       sodipodi:nodetypes="csssssc" />
    <path
       style="fill:#ffffff;fill-rule:evenodd;stroke:none;stroke-width:1.18884px;stroke-linecap:butt;stroke-linejoin:miter;stroke-opacity:1"
       d="m 1051.5368,1104.645 c -7.0579,-18.4075 1.4646,-58.4739 28.7582,-72.4342 -20.0938,4.5574 -50.5407,19.6541 -55.3048,46.5586 -7.4355,41.9896 24.8168,27.8537 24.8168,27.8537 z"
       id="path4248"
       inkscape:connector-curvature="0"
       sodipodi:nodetypes="ccscc" />
    <path
       style="color:#000000;display:inline;overflow:visible;visibility:visible;fill:#ffffff;fill-opacity:1;fill-rule:nonzero;stroke:none;stroke-width:1.54322px;marker:none;enable-background:accumulate"
       d="m 1741.4481,1127.4191 c -49.997,1.4198 -99.8238,6.7054 -149.504,12.7837 -21.7541,3.0737 -48.4889,15.8294 -67.3107,29.0499 -28.7168,20.1359 -43.5191,47.8255 -43.0355,85.4331 -1.0518,27.9527 3.0357,57.3604 17.6434,80.8942 15.8054,25.0316 41.8486,40.6161 68.8105,45.9333 37.2594,8.5361 75.3647,10.9868 112.885,17.7239 59.4924,8.7759 118.8458,19.327 178.765,24.0112 58.2484,2.6559 116.388,-9.5178 171.4053,-29.9741 23.4617,-7.9034 47.5546,-16.9162 66.3248,-34.9633 18.0426,-17.1223 28.4067,-42.8694 29.4807,-68.861 2.3527,-25.8254 0.6261,-52.7167 -8.7149,-76.8016 -67.8021,-111.9688 -188.439,-81.2634 -275.9129,-83.0106 -33.607,-0.9654 -67.2128,-2.3118 -100.8367,-2.2187 z"
       id="path4546-6-5"
       inkscape:connector-curvature="0"
       sodipodi:nodetypes="cssssccccccccc" />
    <path
       style="color:#000000;display:inline;overflow:visible;visibility:visible;fill:#ffffff;fill-opacity:1;fill-rule:nonzero;stroke:none;stroke-width:1.00376px;marker:none;enable-background:accumulate"
       d="m 1657.1927,1379.0856 c -15.0304,0.8228 -30.249,1.6626 -44.9132,6.9453 -18.5042,7.1969 -35.8964,23.0564 -45.4583,46.1191 -6.6099,16.4831 -6.9698,37.2103 -0.4532,53.5179 7.0948,18.6103 20.2639,31.3175 33.9736,40.1677 22.3514,14.2411 47.4044,18.2254 71.9404,20.5546 29.727,2.5856 59.5797,1.8473 89.3745,2.4907 56.3471,0.4091 112.7396,1.1251 169.0932,-2.9241 21.6206,-1.9532 43.3711,-4.6686 64.4621,-12.1198 15.6195,-5.9381 31.2213,-15.9016 41.8022,-33.1699 11.6127,-19.5078 14.0073,-48.0006 5.6618,-69.9241 -7.0161,-19.5872 -20.7172,-33.8953 -36.1216,-39.9195 -32.8504,-15.7369 -68.4978,-20.3447 -103.37,-15.3958 -21.4518,2.7196 -42.9758,6.7602 -64.5066,4.9205 -24.2307,-1.3031 -48.4294,-3.7281 -72.7182,-3.3339 -35.008,-0.3329 -70.032,1.0316 -105.0473,1.8946 -1.2398,0.059 -2.4796,0.1179 -3.7194,0.177 z"
       id="path4546-6-5-7-9"
       inkscape:connector-curvature="0"
       sodipodi:nodetypes="cssssc" />
    <path
       style="color:#000000;display:inline;overflow:visible;visibility:visible;fill:#ffffff;fill-opacity:1;fill-rule:nonzero;stroke:none;stroke-width:1.16782px;marker:none;enable-background:accumulate"
       d="m 1842.6759,1049.9074 c -58.4661,16.7056 -74.2086,55.188 -42.9987,96.676 31.21,41.487 10.2962,43.1429 10.2962,43.1429 l -38.5277,-15.376 c 0,0 -61.7873,-122.5503 71.2302,-124.4429 z"
       id="path3072-56"
       inkscape:connector-curvature="0"
       sodipodi:nodetypes="ccccc" />
    <path
       style="color:#000000;display:inline;overflow:visible;visibility:visible;fill:#ffffff;fill-opacity:1;fill-rule:nonzero;stroke:none;stroke-width:0.531213px;marker:none;enable-background:accumulate"
       d="m 127.71057,1628.7066 c 14.81199,-15.0358 197.5306,-25.7438 239.74059,8.2618 29.4162,23.6983 18.06831,69.1449 -7.14512,80.9751 -25.21345,11.8308 -146.94219,15.1629 -181.53961,9.1377 -31.1118,-5.4175 -63.76829,-17.0791 -65.48998,-48.117 -0.70268,-12.6675 -0.37787,-35.2223 14.43412,-50.2576 z"
       id="path4040-5"
       inkscape:connector-curvature="0"
       sodipodi:nodetypes="zssssz" />
    <path
       style="color:#000000;display:inline;overflow:visible;visibility:visible;fill:#ffffff;fill-opacity:1;fill-rule:nonzero;stroke:none;stroke-width:0.791779px;marker:none;enable-background:accumulate"
       d="m 167.89482,1713.9843 c 22.77531,-23.9865 303.72852,-41.0687 368.63177,13.1798 45.23118,37.8056 27.78235,110.3057 -10.98653,129.1781 -38.7689,18.8736 -225.9424,24.1893 -279.14032,14.5772 -47.83839,-8.6422 -98.05191,-27.2459 -100.69924,-76.7601 -1.08042,-20.2082 -0.581,-56.1895 22.19432,-80.175 z"
       id="path4040-5-3"
       inkscape:connector-curvature="0"
       sodipodi:nodetypes="zssssz" />
    <path
       style="color:#000000;display:inline;overflow:visible;visibility:visible;fill:#ffffff;fill-opacity:1;fill-rule:nonzero;stroke:none;stroke-width:0.855677px;marker:none;enable-background:accumulate"
       d="m 467.32955,1948.136 c 13.3495,-41.5666 52.33232,-60.4288 7.51958,-104.8642 -33.47159,-33.1897 12.91326,-29.7973 12.91326,-29.7973 0,0 5.02259,-41.3782 24.01835,27.0751 18.99576,68.4534 -9.8869,64.3755 -44.45119,107.5864 z"
       id="path3072-6"
       inkscape:connector-curvature="0"
       sodipodi:nodetypes="csczc" />
    <path
       style="fill:#ffffff;stroke:none;stroke-width:1.06269"
       d="m 622.85732,1736.1201 c -11.22175,-76.5007 70.8139,-115.1924 131.15308,-112.723 88.78518,-8.7008 178.60453,-5.3418 267.0976,4.4695 66.501,10.7781 109.1027,94.2417 71.8849,156.3201 -42.1876,64.3363 -124.96626,56.6219 -190.17054,62.9721 -75.86992,1.7482 -155.17027,-0.035 -226.33463,-30.4452 -28.1094,-16.6843 -46.54473,-47.7754 -53.63041,-80.5935 z"
       id="path3286-6"
       inkscape:connector-curvature="0"
       sodipodi:nodetypes="csssssssc" />
    <path
       style="fill:#ffffff;stroke:none;stroke-width:0.983781"
       d="m 654.43933,1861.8906 c -11.02871,-64.0059 69.59578,-96.378 128.897,-94.312 87.25792,-7.2797 175.53222,-4.4694 262.50287,3.7395 65.3571,9.0177 107.226,78.8493 70.6485,130.7884 -41.4619,53.8283 -122.81658,47.3739 -186.89924,52.6869 -74.56478,1.4627 -152.50109,-0.029 -222.44125,-25.4726 -27.62587,-13.9592 -45.74409,-39.9722 -52.70788,-67.4302 z"
       id="path3286-6-7"
       inkscape:connector-curvature="0"
       sodipodi:nodetypes="csssssssc" />
    <path
       style="fill:#ffffff;stroke:none;stroke-width:0.835231"
       d="m 706.86459,1979.6494 c -3.51573,-53.9327 71.56051,-81.2101 124.22701,-79.4692 78.51387,-6.134 156.938,-3.7659 233.6672,3.151 57.3795,7.5985 87.8161,66.44 50.0791,110.205 -42.2782,45.3569 -114.1735,39.9181 -171.83111,44.3951 -66.62314,1.2324 -135.96052,-0.025 -195.80508,-21.4638 -23.25234,-11.7623 -36.83844,-33.6814 -40.33712,-56.8181 z"
       id="path3286-6-7-4"
       inkscape:connector-curvature="0"
       sodipodi:nodetypes="csssssssc" />
    <path
       style="fill:#ffffff;stroke:none;stroke-width:0.755494"
       d="m 1559.152,2242.2298 c -41.2274,1.1496 -82.8772,1.6662 -123.2973,9.5842 -23.8597,5.9071 -47.2609,17.0956 -61.2882,35.4411 -12.2305,17.5822 -10.6017,40.4129 0.033,58.2606 8.7764,16.9388 27.1342,29.7432 48.0083,33.5521 47.0795,12.6105 96.8184,13.8181 145.6901,13.8146 44.7736,-0.2432 89.5507,-2.4704 134.0297,-6.949 24.6847,-3.1053 50.1294,-9.3972 68.9784,-24.3357 22.8115,-17.9686 32.7556,-48.3102 21.4241,-73.5921 -7.8312,-17.3022 -25.7228,-30.0991 -45.8003,-35.6856 -21.1866,-6.0216 -43.7403,-5.5926 -65.7162,-7.1126 -40.2851,-2.1534 -80.6594,-3.7638 -121.0264,-3.0064 -0.3448,0.013 -0.6897,0.019 -1.0345,0.029 z"
       id="path3286-6-7-4-2-5"
       inkscape:connector-curvature="0"
       sodipodi:nodetypes="csssssssc" />
    <path
       style="display:inline;fill:#ffffff;stroke:none;stroke-width:1.01613"
       d="m 1576.6393,2336.9405 c -40.969,1.4867 -82.358,2.1546 -122.5249,12.395 -23.7103,7.6396 -46.9649,22.1096 -60.9043,45.8355 -12.154,22.7388 -10.5353,52.2654 0.032,75.3477 8.7213,21.9067 26.9642,38.4664 47.7075,43.3923 46.7846,16.3091 96.212,17.8708 144.7775,17.8663 44.4932,-0.3145 88.9898,-3.195 133.1902,-8.987 24.5301,-4.0161 49.8153,-12.1532 68.5464,-31.473 22.6685,-23.2385 32.5503,-62.479 21.2899,-95.1756 -7.7823,-22.3768 -25.5617,-38.9269 -45.5136,-46.1517 -21.0537,-7.7878 -43.4662,-7.2329 -65.3044,-9.1986 -40.0328,-2.7851 -80.1543,-4.8679 -120.2684,-3.8882 -0.3426,0.017 -0.6853,0.024 -1.0279,0.038 z"
       id="path3286-6-7-4-2-5-3"
       inkscape:connector-curvature="0"
       sodipodi:nodetypes="csssssssc" />
    <path
       style="color:#000000;display:inline;overflow:visible;visibility:visible;fill:#ffffff;fill-opacity:1;fill-rule:nonzero;stroke:none;stroke-width:1.03365px;marker:none;enable-background:accumulate"
       d="m 1109.0561,1984.7544 c -8.1997,41.8065 59.3043,70.6591 115.2035,48.7714 -22.9931,10.09 -81.6027,63.8105 -171.9044,-28.8625 -40.8476,-41.9203 41.4313,-16.5735 41.4313,-16.5735 z"
       id="path4035-4-5"
       inkscape:connector-curvature="0"
       sodipodi:nodetypes="ccscc" />
    <path
       style="color:#000000;display:inline;overflow:visible;visibility:visible;fill:#ffffff;fill-opacity:1;fill-rule:nonzero;stroke:none;stroke-width:1.14715px;marker:none;enable-background:accumulate"
       d="m 1640.0206,2360.0065 c 85.321,-69.4317 155.0537,-160.9776 126.0876,-275.9291 50.0818,114.8531 -29.8722,233.4391 -50.2498,258.0963 -21.5049,26.0213 -75.8378,17.8328 -75.8378,17.8328 z"
       id="path4008-7"
       inkscape:connector-curvature="0"
       sodipodi:nodetypes="ccsc" />
    <path
       style="color:#000000;display:inline;overflow:visible;visibility:visible;fill:#ffffff;fill-opacity:1;fill-rule:nonzero;stroke:none;stroke-width:0.923908px;marker:none;enable-background:accumulate"
       d="m 2001.7453,2460.1737 c 2.3308,-57.2299 42.207,-99.3601 147.9697,-89.3161 56.6523,5.381 120.9338,8.7247 118.1755,92.5586 -2.7583,83.8339 -95.096,82.3069 -114.1175,84.3966 -19.0213,2.0896 -118.4149,-6.0232 -136.2571,-34.4126 -11.1688,-17.7716 -15.7793,-35.5061 -15.7706,-53.2265 z"
       id="path4546-6-89"
       inkscape:connector-curvature="0"
       sodipodi:nodetypes="cssssc" />
    <path
       style="fill:#ffffff;fill-rule:evenodd;stroke:none;stroke-width:1px;stroke-linecap:butt;stroke-linejoin:miter;stroke-opacity:1"
       d="m 2129.4405,2394.4639 c 0,0 -20.8561,-32.9672 -21.8804,-43.1562 -1.0243,-10.189 2.4576,-31.6896 11.9397,-43.6552 -22.2118,19.0145 -28.0641,35.9803 -27.9104,44.0276 0.1532,8.0482 12.5159,40.8376 12.5159,40.8376 z"
       id="path1367"
       inkscape:connector-curvature="0"
       inkscape:transform-center-x="-1.8067567"
       inkscape:transform-center-y="-52.12792"
       sodipodi:nodetypes="cscscc" />
    <path
       style="color:#000000;display:inline;overflow:visible;visibility:visible;fill:#ffffff;fill-opacity:1;fill-rule:nonzero;stroke:none;stroke-width:0.942339px;marker:none;enable-background:accumulate"
       d="m 344.6648,2688.4895 c -50.60513,0.6858 -102.02477,2.7711 -150.91773,24.3851 -24.12609,11.1935 -47.03358,32.8779 -60.49879,65.6039 -12.11064,29.4399 -15.32361,68.0408 -5.42591,99.8612 8.75364,29.4772 27.61742,50.9417 48.51963,57.6339 28.10941,12.2624 57.1283,18.9119 86.0694,24.9663 78.01441,14.8955 157.66238,14.3387 235.13485,-6.9335 21.85061,-6.2164 43.84218,-16.3295 61.78001,-36.7355 14.41973,-15.9617 26.04566,-38.8328 29.75511,-65.496 6.32949,-40.7113 -2.58454,-87.3265 -24.7921,-113.6231 -16.09266,-18.8867 -36.4584,-26.4195 -56.17009,-31.9209 -32.93369,-8.7958 -66.38948,-11.6676 -99.71042,-15.156 -21.2265,-1.7269 -42.48493,-2.7043 -63.74396,-2.5854 z"
       id="path4546-7"
       inkscape:connector-curvature="0"
       sodipodi:nodetypes="cssssc" />
    <path
       style="color:#000000;display:inline;overflow:visible;visibility:visible;fill:#ffffff;fill-opacity:1;fill-rule:nonzero;stroke:none;stroke-width:1.19695px;marker:none;enable-background:accumulate"
       d="m 303.58607,2871.515 c -42.91512,0.9133 -77.26192,14.9476 -115.36948,36.8486 -23.38432,13.8142 -36.65583,33.4661 -47.44529,63.5937 -10.30005,28.0014 -23.72682,55.162 -19.34002,87.5599 3.23095,23.8616 3.30881,40.0649 16.63145,54.9498 43.65726,33.6423 123.72249,27.098 186.65808,28.9309 78.3916,2.283 166.3851,8.6095 234.20155,-22.444 18.14752,-8.3098 27.58934,-22.2276 33.37544,-49.7147 5.70967,-26.5987 -7.77551,-63.4034 -14.99231,-90.847 -6.90123,-24.8174 -21.22356,-46.875 -39.23772,-60.7698 -25.44768,-20.3622 -54.73491,-28.5139 -83.16492,-34.3029 -35.42865,-7.0056 -70.92697,-9.3211 -106.3664,-12.5627 -15.01441,-1.015 -30.01149,-1.4774 -44.95038,-1.2418 z"
       id="path4546-6-5-4"
       inkscape:connector-curvature="0"
       sodipodi:nodetypes="cssscascccccc" />
    <path
       style="color:#000000;display:inline;overflow:visible;visibility:visible;fill:#ffffff;fill-opacity:1;fill-rule:nonzero;stroke:none;stroke-width:0.94912px;marker:none;enable-background:accumulate"
       d="m 570.40008,2788.5105 c 0.70291,-20.5931 2.79564,-98.204 79.29359,-67.917 -12.96153,-15.3177 -101.3034,-57.4847 -117.55274,67.9555 -4.05901,31.3344 6.93857,21.4416 13.2428,23.8225 6.30431,2.3809 25.01635,-23.861 25.01635,-23.861 z"
       id="path4064-5"
       inkscape:connector-curvature="0"
       sodipodi:nodetypes="ccszc" />
    <path
       style="fill:#ffffff;stroke:none;stroke-width:0.768141"
       d="m 1428.308,2664.0968 c -58.2948,0.9488 -116.8445,3.0902 -174.4246,14.167 -21.7325,4.3516 -43.9499,9.9396 -62.7975,23.4841 -10.8786,7.8252 -19.9792,18.7862 -25.7854,31.8037 -9.8502,21.0464 -13.514,45.3604 -12.2122,68.9798 1.5531,23.2707 9.6713,46.6206 25.0806,62.6741 16.2459,17.4232 37.6538,27.0469 58.9971,33.5702 28.5827,8.4707 58.2243,10.824 87.637,12.4369 42.668,1.8951 85.378,0.6119 128.048,-0.4896 47.8693,-1.743 96.1214,-5.2785 142.6288,-18.9917 22.0534,-6.827 44.1421,-16.1258 62.0365,-32.6029 11.5313,-10.9855 20.5072,-26.3398 21.9801,-43.5667 1.8843,-16.5689 0.4326,-33.4187 -2.4214,-49.7335 -4.7884,-23.1475 -16.851,-44.4979 -34.1678,-58.2662 -21.0939,-17.7443 -46.8347,-26.4809 -72.3158,-32.3439 -37.9457,-8.4953 -76.7414,-10.5637 -115.338,-11.2159 -8.9823,-0.1219 -17.9638,-0.075 -26.9454,0.095 z"
       id="path3280-8-0"
       inkscape:connector-curvature="0"
       sodipodi:nodetypes="csssc" />
    <path
       style="color:#000000;display:inline;overflow:visible;visibility:visible;fill:#ffffff;fill-opacity:1;fill-rule:nonzero;stroke:none;stroke-width:1px;marker:none;enable-background:accumulate"
       d="m 1082.292,2940.1193 c 113.542,20.8726 200.4083,-3.0998 218.7186,-80.4717 46.1189,-33.921 62.3238,-8.1295 62.3238,-8.1295 0,0 15.2018,15.8558 14.518,26.1866 -2.6631,40.2341 -153.7188,114.3526 -295.5604,62.4146 z"
       id="path3072-7"
       inkscape:connector-curvature="0"
       sodipodi:nodetypes="cccsc" />
    <path
       style="fill:#ffffff;fill-rule:evenodd;stroke:none;stroke-width:1px;stroke-linecap:butt;stroke-linejoin:miter;stroke-opacity:1"
       d="m 611.87816,457.91854 c -12.3953,-22.626 4.8341,-35.579 4.6846,-49.244 -0.1543,-14.107 -33.2797,-25.956 -34.0153,-39.032 -0.7356,-13.076 20.5032,-26.957 19.032,-47.388 -1.4712,-20.432 -25.011,-24.518 -22.8041,-0.818 2.2069,23.701 -15.6571,27.839 -11.7699,46.584 6.483,31.261 30.8848,30.638 38.523,39.431 5.057,5.822 -4.6847,18.594 -2.4778,32.487 2.2069,13.894 8.8275,17.98 8.8275,17.98 z"
       id="path4272-2"
       inkscape:connector-curvature="0"
       sodipodi:nodetypes="csssssssc" />
    <path
       style="display:inline;fill:#ffffff;stroke:none;stroke-width:0.877336"
       d="M 395.5572,452.67668 C 407.56611,407.77396 413.32098,333.81277 360.54542,296.86263 333.08948,277.6397 320.11233,262.96148 320.11233,262.96148 l 22.24546,-19.14958 c 105.35115,77.35453 72.21397,163.85407 53.19941,208.86478 z"
       id="path3063-1-0"
       inkscape:connector-curvature="0"
       sodipodi:nodetypes="csccc" />
  </g>
  <g
     inkscape:groupmode="layer"
     id="layer1"
     inkscape:label="txt">
    <text
       id="text4246-4-2-7"
       y="197.36858"
       x="266.89975"
       style="font-style:normal;font-variant:normal;font-weight:normal;font-stretch:normal;line-height:0%;font-family:Lavi;-inkscape-font-specification:Lavi;text-align:center;letter-spacing:0px;word-spacing:0px;text-anchor:middle;fill:#000000;fill-opacity:1;stroke:none"
       xml:space="preserve"><tspan
         y="197.36858"
         x="266.89975"
         style="font-size:45px;line-height:1.25;fill:#000000"
         sodipodi:role="line"
         id="tspan2967">Kva er det</tspan><tspan
         y="253.61858"
         x="266.89975"
         style="font-size:45px;line-height:1.25;fill:#000000"
         sodipodi:role="line"
         id="tspan565">med henne?</tspan></text>
    <text
       id="text4246-4-2-7-3"
       y="177.71899"
       x="628.14661"
       style="font-style:normal;font-variant:normal;font-weight:normal;font-stretch:normal;line-height:0%;font-family:Lavi;-inkscape-font-specification:Lavi;text-align:center;letter-spacing:0px;word-spacing:0px;text-anchor:middle;fill:#000000;fill-opacity:1;stroke:none"
       xml:space="preserve"><tspan
         y="177.71899"
         x="628.14661"
         style="font-size:45px;line-height:1.25;fill:#000000"
         sodipodi:role="line"
         id="tspan10316">Pepar –</tspan><tspan
         y="233.96899"
         x="628.14661"
         style="font-size:45px;line-height:1.25;fill:#000000"
         sodipodi:role="line"
         id="tspan2264">går det</tspan><tspan
         y="290.21899"
         x="628.14661"
         style="font-size:45px;line-height:1.25;fill:#000000"
         sodipodi:role="line"
         id="tspan934">bra?</tspan></text>
    <text
       id="text4246-4-2-7-3-5"
       y="216.69748"
       x="973.67719"
       style="font-style:normal;font-variant:normal;font-weight:normal;font-stretch:normal;line-height:0%;font-family:Lavi;-inkscape-font-specification:Lavi;text-align:center;letter-spacing:0px;word-spacing:0px;text-anchor:middle;fill:#000000;fill-opacity:1;stroke:none"
       xml:space="preserve"><tspan
         y="216.69748"
         x="973.67719"
         style="font-size:45px;line-height:1.25;fill:#000000"
         sodipodi:role="line"
         id="tspan17268">Ja, alt</tspan><tspan
         y="272.94748"
         x="973.67719"
         style="font-size:45px;line-height:1.25;fill:#000000"
         sodipodi:role="line"
         id="tspan3472">i orden.</tspan></text>
    <text
       id="text4246-4-2-7-3-5-2"
       y="1185.1241"
       x="1029.0897"
       style="font-style:normal;font-variant:normal;font-weight:normal;font-stretch:normal;line-height:0%;font-family:Lavi;-inkscape-font-specification:Lavi;text-align:center;letter-spacing:0px;word-spacing:0px;text-anchor:middle;fill:#000000;fill-opacity:1;stroke:none"
       xml:space="preserve"><tspan
         y="1185.1241"
         x="1029.0897"
         style="font-size:45px;line-height:1.25;fill:#000000"
         sodipodi:role="line"
         id="tspan25929">Eg har</tspan><tspan
         y="1241.3741"
         x="1029.0897"
         style="font-size:45px;line-height:1.25;fill:#000000"
         sodipodi:role="line"
         id="tspan2030">berre</tspan><tspan
         y="1297.6241"
         x="1029.0897"
         style="font-size:45px;line-height:1.25;fill:#000000"
         sodipodi:role="line"
         id="tspan5394">innsett</tspan><tspan
         y="1353.8741"
         x="1029.0897"
         style="font-size:45px;line-height:1.25;fill:#000000"
         sodipodi:role="line"
         id="tspan2820">noko.</tspan></text>
    <text
       id="text4246-4-2-7-3-5-2-2"
       y="1208.8679"
       x="1807.067"
       style="font-style:normal;font-variant:normal;font-weight:normal;font-stretch:normal;line-height:0%;font-family:Lavi;-inkscape-font-specification:Lavi;text-align:center;letter-spacing:0px;word-spacing:0px;text-anchor:middle;fill:#000000;fill-opacity:1;stroke:none"
       xml:space="preserve"><tspan
         y="1208.8679"
         x="1807.067"
         style="font-size:45px;line-height:1.25;fill:#000000"
         sodipodi:role="line"
         id="tspan10142">Alt som har skjedd, er</tspan><tspan
         y="1265.1179"
         x="1807.067"
         style="font-size:45px;line-height:1.25;fill:#000000"
         sodipodi:role="line"
         id="tspan13443">– direkte eller indirekte –</tspan><tspan
         y="1321.3679"
         x="1807.067"
         style="font-size:45px;line-height:1.25;fill:#000000"
         sodipodi:role="line"
         id="tspan14769">følgjer av <tspan
   style="font-style:italic"
   id="tspan12353">mine</tspan> handlingar,</tspan><tspan
         y="1377.6179"
         x="1807.067"
         style="font-size:45px;line-height:1.25;fill:#000000"
         sodipodi:role="line"
         id="tspan19153"><tspan
   style="font-style:italic"
   id="tspan13365">mine</tspan> val ...</tspan></text>
    <text
       id="text4246-4-2-7-3-5-2-2-6"
       y="1390.0457"
       x="1804.7489"
       style="font-style:normal;font-variant:normal;font-weight:normal;font-stretch:normal;line-height:0%;font-family:Lavi;-inkscape-font-specification:Lavi;text-align:center;letter-spacing:0px;word-spacing:0px;text-anchor:middle;fill:#000000;fill-opacity:1;stroke:none"
       xml:space="preserve"><tspan
         y="1390.0457"
         x="1804.7489"
         style="font-style:normal;font-variant:normal;font-weight:normal;font-stretch:normal;font-size:45px;line-height:1.25;font-family:Lavi;-inkscape-font-specification:Lavi;fill:#000000"
         sodipodi:role="line"
         id="tspan48292" /><tspan
         y="1446.2957"
         x="1804.7489"
         style="font-style:normal;font-variant:normal;font-weight:normal;font-stretch:normal;font-size:45px;line-height:1.25;font-family:Lavi;-inkscape-font-specification:Lavi;fill:#000000"
         sodipodi:role="line"
         id="tspan16620">... med andre ord:</tspan><tspan
         y="1502.5457"
         x="1804.7489"
         style="font-style:normal;font-variant:normal;font-weight:bold;font-stretch:normal;font-size:45px;line-height:1.25;font-family:Lavi;-inkscape-font-specification:Lavi;fill:#000000"
         sodipodi:role="line"
         id="tspan9686">min kjedereaksjon!</tspan></text>
    <text
       id="text4246-4-2-7-3-5-2-2-6-7-2"
       y="1686.0707"
       x="247.80711"
       style="font-style:normal;font-variant:normal;font-weight:normal;font-stretch:normal;line-height:0%;font-family:Lavi;-inkscape-font-specification:Lavi;text-align:center;letter-spacing:0px;word-spacing:0px;text-anchor:middle;fill:#000000;fill-opacity:1;stroke:none"
       xml:space="preserve"><tspan
         y="1686.0707"
         x="247.80711"
         style="font-style:normal;font-variant:normal;font-weight:normal;font-stretch:normal;font-size:45px;line-height:1.25;font-family:Lavi;-inkscape-font-specification:Lavi;fill:#000000"
         sodipodi:role="line"
         id="tspan104696-2-8">Verkeleg?</tspan></text>
    <text
       id="text4246-4-2-7-3-5-2-2-6-7-2-9"
       y="1770.9875"
       x="357.0806"
       style="font-style:normal;font-variant:normal;font-weight:normal;font-stretch:normal;line-height:0%;font-family:Lavi;-inkscape-font-specification:Lavi;text-align:center;letter-spacing:0px;word-spacing:0px;text-anchor:middle;fill:#000000;fill-opacity:1;stroke:none"
       xml:space="preserve"><tspan
         y="1770.9875"
         x="357.0806"
         style="font-style:normal;font-variant:normal;font-weight:normal;font-stretch:normal;font-size:45px;line-height:1.25;font-family:Lavi;-inkscape-font-specification:Lavi;fill:#000000"
         sodipodi:role="line"
         id="tspan55293">Dette må du</tspan><tspan
         y="1827.2375"
         x="357.0806"
         style="font-style:normal;font-variant:normal;font-weight:normal;font-stretch:normal;font-size:45px;line-height:1.25;font-family:Lavi;-inkscape-font-specification:Lavi;fill:#000000"
         sodipodi:role="line"
         id="tspan31352">forklara for meg.</tspan></text>
    <text
       id="text4246-4-2-7-3-5-2-2-6-7-2-9-3"
       y="1704.7227"
       x="864.14386"
       style="font-style:normal;font-variant:normal;font-weight:normal;font-stretch:normal;line-height:0%;font-family:Lavi;-inkscape-font-specification:Lavi;text-align:center;letter-spacing:0px;word-spacing:0px;text-anchor:middle;fill:#000000;fill-opacity:1;stroke:none"
       xml:space="preserve"><tspan
         y="1704.7227"
         x="864.14386"
         style="font-style:normal;font-variant:normal;font-weight:normal;font-stretch:normal;font-size:45px;line-height:1.25;font-family:Lavi;-inkscape-font-specification:Lavi;fill:#000000"
         sodipodi:role="line"
         id="tspan72039">Nok snakk – me er</tspan><tspan
         y="1760.9727"
         x="864.14386"
         style="font-style:normal;font-variant:normal;font-weight:normal;font-stretch:normal;font-size:45px;line-height:1.25;font-family:Lavi;-inkscape-font-specification:Lavi;fill:#000000"
         sodipodi:role="line"
         id="tspan35119">midt i eit slag.</tspan></text>
    <text
       id="text4246-4-2-7-3-5-2-2-6-7-2-9-3-2"
       y="1844.8486"
       x="887.33484"
       style="font-style:normal;font-variant:normal;font-weight:normal;font-stretch:normal;line-height:0%;font-family:Lavi;-inkscape-font-specification:Lavi;text-align:center;letter-spacing:0px;word-spacing:0px;text-anchor:middle;fill:#000000;fill-opacity:1;stroke:none"
       xml:space="preserve"><tspan
         y="1844.8486"
         x="887.33484"
         style="font-style:normal;font-variant:normal;font-weight:normal;font-stretch:normal;font-size:45px;line-height:1.25;font-family:Lavi;-inkscape-font-specification:Lavi;fill:#000000"
         sodipodi:role="line"
         id="tspan78621">Me kan snakka om</tspan><tspan
         y="1901.0986"
         x="887.33484"
         style="font-style:normal;font-variant:normal;font-weight:normal;font-stretch:normal;font-size:45px;line-height:1.25;font-family:Lavi;-inkscape-font-specification:Lavi;fill:#000000"
         sodipodi:role="line"
         id="tspan38643">det på flyturen.</tspan></text>
    <text
       id="text4246-4-2-7-3-5-2-2-6-7-2-9-3-2-9"
       y="1992.9946"
       x="918.7879"
       style="font-style:normal;font-variant:normal;font-weight:normal;font-stretch:normal;line-height:0%;font-family:Lavi;-inkscape-font-specification:Lavi;text-align:center;letter-spacing:0px;word-spacing:0px;text-anchor:middle;fill:#000000;fill-opacity:1;stroke:none"
       xml:space="preserve"><tspan
         y="1992.9946"
         x="918.7879"
         style="font-style:normal;font-variant:normal;font-weight:normal;font-stretch:normal;font-size:45px;line-height:1.25;font-family:Lavi;-inkscape-font-specification:Lavi;fill:#000000"
         sodipodi:role="line"
         id="tspan184397-7">Hopp på, Pepar!</tspan></text>
    <text
       id="text4246-4-2-7-3-5-2-2-6-7-2-9-3-2-9-8"
       y="2328.5759"
       x="1583.8116"
       style="font-style:normal;font-variant:normal;font-weight:normal;font-stretch:normal;line-height:0%;font-family:Lavi;-inkscape-font-specification:Lavi;text-align:center;letter-spacing:0px;word-spacing:0px;text-anchor:middle;fill:#000000;fill-opacity:1;stroke:none"
       xml:space="preserve"><tspan
         y="2328.5759"
         x="1583.8116"
         style="font-style:normal;font-variant:normal;font-weight:normal;font-stretch:normal;font-size:45px;line-height:1.25;font-family:Lavi;-inkscape-font-specification:Lavi;fill:#000000"
         sodipodi:role="line"
         id="tspan189870">Torreya har rett.</tspan></text>
    <text
       id="text4246-4-2-7-3-5-2-2-6-7-2-9-3-2-9-8-3"
       y="2421.8018"
       x="1597.6956"
       style="font-style:normal;font-variant:normal;font-weight:normal;font-stretch:normal;line-height:0%;font-family:Lavi;-inkscape-font-specification:Lavi;text-align:center;letter-spacing:0px;word-spacing:0px;text-anchor:middle;fill:#000000;fill-opacity:1;stroke:none"
       xml:space="preserve"><tspan
         y="2421.8018"
         x="1597.6956"
         style="font-style:normal;font-variant:normal;font-weight:normal;font-stretch:normal;font-size:45px;line-height:1.25;font-family:Lavi;-inkscape-font-specification:Lavi;fill:#000000"
         sodipodi:role="line"
         id="tspan97393">Me må koma</tspan><tspan
         y="2478.0518"
         x="1597.6956"
         style="font-style:normal;font-variant:normal;font-weight:normal;font-stretch:normal;font-size:45px;line-height:1.25;font-family:Lavi;-inkscape-font-specification:Lavi;fill:#000000"
         sodipodi:role="line"
         id="tspan43448">oss til Kvalistad.</tspan></text>
    <text
       id="text4246-4-2-7-3-5-2-2-6-7-2-9-3-2-9-8-5"
       y="2443.1526"
       x="2137.3657"
       style="font-style:normal;font-variant:normal;font-weight:normal;font-stretch:normal;line-height:0%;font-family:Lavi;-inkscape-font-specification:Lavi;text-align:center;letter-spacing:0px;word-spacing:0px;text-anchor:middle;fill:#000000;fill-opacity:1;stroke:none"
       xml:space="preserve"><tspan
         y="2443.1526"
         x="2137.3657"
         style="font-style:normal;font-variant:normal;font-weight:normal;font-stretch:normal;font-size:45px;line-height:1.25;font-family:Lavi;-inkscape-font-specification:Lavi;fill:#000000"
         sodipodi:role="line"
         id="tspan106897">Nei,</tspan><tspan
         y="2499.4026"
         x="2137.3657"
         style="font-style:normal;font-variant:normal;font-weight:normal;font-stretch:normal;font-size:45px;line-height:1.25;font-family:Lavi;-inkscape-font-specification:Lavi;fill:#000000"
         sodipodi:role="line"
         id="tspan46509">vent litt.</tspan></text>
    <text
       id="text4246-4-2-7-3-5-2-2-6-7-2-9-3-2-9-8-5-1"
       y="2787.3799"
       x="355.44257"
       style="font-style:normal;font-variant:normal;font-weight:normal;font-stretch:normal;line-height:0%;font-family:Lavi;-inkscape-font-specification:Lavi;text-align:center;letter-spacing:0px;word-spacing:0px;text-anchor:middle;fill:#000000;fill-opacity:1;stroke:none"
       xml:space="preserve"><tspan
         y="2787.3799"
         x="355.44257"
         style="font-style:normal;font-variant:normal;font-weight:normal;font-stretch:normal;font-size:45px;line-height:1.25;font-family:Lavi;-inkscape-font-specification:Lavi;fill:#000000"
         sodipodi:role="line"
         id="tspan145655">Hæren til Wasabi</tspan><tspan
         y="2843.6299"
         x="355.44257"
         style="font-style:normal;font-variant:normal;font-weight:normal;font-stretch:normal;font-size:45px;line-height:1.25;font-family:Lavi;-inkscape-font-specification:Lavi;fill:#000000"
         sodipodi:role="line"
         id="tspan51024">er i ferd med å</tspan><tspan
         y="2899.8799"
         x="355.44257"
         style="font-style:normal;font-variant:normal;font-weight:normal;font-stretch:normal;font-size:45px;line-height:1.25;font-family:Lavi;-inkscape-font-specification:Lavi;fill:#000000"
         sodipodi:role="line"
         id="tspan52990">gå til motåtak.</tspan></text>
    <text
       id="text4246-4-2-7-3-5-2-2-6-7-2-9-3-2-9-8-5-1-3"
       y="2983.9509"
       x="357.85764"
       style="font-style:normal;font-variant:normal;font-weight:normal;font-stretch:normal;line-height:0%;font-family:Lavi;-inkscape-font-specification:Lavi;text-align:center;letter-spacing:0px;word-spacing:0px;text-anchor:middle;fill:#000000;fill-opacity:1;stroke:none"
       xml:space="preserve"><tspan
         y="2983.9509"
         x="357.85764"
         style="font-style:normal;font-variant:normal;font-weight:normal;font-stretch:normal;font-size:45px;line-height:1.25;font-family:Lavi;-inkscape-font-specification:Lavi;fill:#000000"
         sodipodi:role="line"
         id="tspan166612">Me kan ikkje</tspan><tspan
         y="3040.2009"
         x="357.85764"
         style="font-style:normal;font-variant:normal;font-weight:normal;font-stretch:normal;font-size:45px;line-height:1.25;font-family:Lavi;-inkscape-font-specification:Lavi;fill:#000000"
         sodipodi:role="line"
         id="tspan56787">berre la dei ta</tspan><tspan
         y="3096.4509"
         x="357.85764"
         style="font-style:normal;font-variant:normal;font-weight:normal;font-stretch:normal;font-size:45px;line-height:1.25;font-family:Lavi;-inkscape-font-specification:Lavi;fill:#000000"
         sodipodi:role="line"
         id="tspan60027">livet av kvarandre.</tspan></text>
    <text
       id="text4246-4-2-7-3-5-2-2-6-7-2-9-3-2-9-8-5-1-3-6"
       y="2745.4922"
       x="1416.436"
       style="font-style:normal;font-variant:normal;font-weight:normal;font-stretch:normal;line-height:0%;font-family:Lavi;-inkscape-font-specification:Lavi;text-align:center;letter-spacing:0px;word-spacing:0px;text-anchor:middle;fill:#000000;fill-opacity:1;stroke:none"
       xml:space="preserve"><tspan
         y="2745.4922"
         x="1416.436"
         style="font-style:normal;font-variant:normal;font-weight:normal;font-stretch:normal;font-size:45px;line-height:1.25;font-family:Lavi;-inkscape-font-specification:Lavi;fill:#000000"
         sodipodi:role="line"
         id="tspan179595">Eg kjenner det er</tspan><tspan
         y="2801.7422"
         x="1416.436"
         style="font-style:normal;font-variant:normal;font-weight:normal;font-stretch:normal;font-size:45px;line-height:1.25;font-family:Lavi;-inkscape-font-specification:Lavi;fill:#000000"
         sodipodi:role="line"
         id="tspan64321">mitt ansvar å få slutt</tspan><tspan
         y="2857.9922"
         x="1416.436"
         style="font-style:normal;font-variant:normal;font-weight:normal;font-stretch:normal;font-size:45px;line-height:1.25;font-family:Lavi;-inkscape-font-specification:Lavi;fill:#000000"
         sodipodi:role="line"
         id="tspan66135">på denne kampen.</tspan></text>
  </g>
</svg>
