<?xml version="1.0" encoding="UTF-8" standalone="no"?>
<!-- Created with Inkscape (http://www.inkscape.org/) -->

<svg
   id="svg2"
   version="1.1"
   inkscape:version="1.1.1 (3bf5ae0d25, 2021-09-20)"
   width="2481"
   height="3503"
   sodipodi:docname="E36P05.svg"
   xmlns:inkscape="http://www.inkscape.org/namespaces/inkscape"
   xmlns:sodipodi="http://sodipodi.sourceforge.net/DTD/sodipodi-0.dtd"
   xmlns:xlink="http://www.w3.org/1999/xlink"
   xmlns="http://www.w3.org/2000/svg"
   xmlns:svg="http://www.w3.org/2000/svg"
   xmlns:rdf="http://www.w3.org/1999/02/22-rdf-syntax-ns#"
   xmlns:cc="http://creativecommons.org/ns#"
   xmlns:dc="http://purl.org/dc/elements/1.1/">
  <metadata
     id="metadata8">
    <rdf:RDF>
      <cc:Work
         rdf:about="">
        <dc:format>image/svg+xml</dc:format>
        <dc:type
           rdf:resource="http://purl.org/dc/dcmitype/StillImage" />
        <dc:title />
      </cc:Work>
    </rdf:RDF>
  </metadata>
  <defs
     id="defs6">
    <filter
       inkscape:collect="always"
       style="color-interpolation-filters:sRGB"
       id="filter71410"
       x="-0.017062446"
       y="-0.056154443"
       width="1.0341249"
       height="1.1123089">
      <feGaussianBlur
         inkscape:collect="always"
         stdDeviation="2.9583482"
         id="feGaussianBlur71412" />
    </filter>
    <filter
       style="color-interpolation-filters:sRGB"
       id="filter4375-4-1-1-1-9-5-8-8-53"
       inkscape:label="soundFX1-Hippiah"
       x="-0.0014349399"
       y="-0.0055581411"
       width="1.0206821"
       height="1.0801105">
      <feFlood
         id="feFlood4377-7-9-0-8-1-7-3-1-4"
         flood-opacity="1"
         flood-color="rgb(43,143,96)"
         result="flood" />
      <feComposite
         id="feComposite4379-3-8-8-2-77-4-1-0-9"
         in2="SourceGraphic"
         in="flood"
         operator="in"
         result="composite1"
         baseFrequency="0.053999999999999999 0.053999999999999999" />
      <feMorphology
         id="feMorphology4393-1-0-49-8-9-3-0-1-0"
         operator="dilate"
         radius="6.2000000000000002"
         result="result3" />
      <feComposite
         id="feComposite4385-9-5-7-0-8-8-7-5-20"
         in2="result3"
         in="SourceGraphic"
         operator="over"
         result="fbSourceGraphic" />
      <feColorMatrix
         result="fbSourceGraphicAlpha"
         in="fbSourceGraphic"
         values="0 0 0 -1 0 0 0 0 -1 0 0 0 0 -1 0 0 0 0 1 0"
         id="feColorMatrix4544-9-1" />
      <feTurbulence
         id="feTurbulence4546-3-96"
         type="fractalNoise"
         numOctaves="5"
         seed="174"
         baseFrequency="0.053999999999999999 0.054054054054054057"
         result="turbulence" />
      <feDisplacementMap
         id="feDisplacementMap4548-8-21"
         in2="turbulence"
         in="fbSourceGraphic"
         scale="6.6"
         yChannelSelector="G"
         xChannelSelector="R"
         result="fbSourceGraphic" />
      <feColorMatrix
         result="fbSourceGraphicAlpha"
         in="fbSourceGraphic"
         values="0 0 0 -1 0 0 0 0 -1 0 0 0 0 -1 0 0 0 0 1 0"
         id="feColorMatrix4670-7-2" />
      <feFlood
         id="feFlood4672-4-0"
         flood-opacity="1"
         flood-color="rgb(39,84,60)"
         result="flood"
         in="fbSourceGraphic" />
      <feComposite
         id="feComposite4674-8-73"
         in2="fbSourceGraphic"
         in="flood"
         operator="in"
         result="composite1" />
      <feGaussianBlur
         id="feGaussianBlur4676-3-1"
         in="composite1"
         stdDeviation="0"
         result="blur" />
      <feOffset
         id="feOffset4678-6-1"
         dx="6"
         dy="6"
         result="offset" />
      <feComposite
         id="feComposite4680-4-90"
         in2="offset"
         in="fbSourceGraphic"
         operator="over"
         result="composite2" />
    </filter>
    <filter
       style="color-interpolation-filters:sRGB"
       id="filter4375-4-1-1-1-9-5-8-8-53-3"
       inkscape:label="soundFX1-Hippiah"
       x="-0.0022893506"
       y="-0.0063980529"
       width="1.0329968"
       height="1.0922163">
      <feFlood
         id="feFlood4377-7-9-0-8-1-7-3-1-4-1"
         flood-opacity="1"
         flood-color="rgb(47,114,125)"
         result="flood" />
      <feComposite
         id="feComposite4379-3-8-8-2-77-4-1-0-9-9"
         in2="SourceGraphic"
         in="flood"
         operator="in"
         result="composite1"
         baseFrequency="0.053999999999999999 0.053999999999999999" />
      <feMorphology
         id="feMorphology4393-1-0-49-8-9-3-0-1-0-4"
         operator="dilate"
         radius="6.2000000000000002"
         result="result3" />
      <feComposite
         id="feComposite4385-9-5-7-0-8-8-7-5-20-7"
         in2="result3"
         in="SourceGraphic"
         operator="over"
         result="fbSourceGraphic" />
      <feColorMatrix
         result="fbSourceGraphicAlpha"
         in="fbSourceGraphic"
         values="0 0 0 -1 0 0 0 0 -1 0 0 0 0 -1 0 0 0 0 1 0"
         id="feColorMatrix4544-9-1-8" />
      <feTurbulence
         id="feTurbulence4546-3-96-4"
         type="fractalNoise"
         numOctaves="5"
         seed="174"
         baseFrequency="0.053999999999999999 0.054054054054054057"
         result="turbulence" />
      <feDisplacementMap
         id="feDisplacementMap4548-8-21-5"
         in2="turbulence"
         in="fbSourceGraphic"
         scale="6.6"
         yChannelSelector="G"
         xChannelSelector="R"
         result="fbSourceGraphic" />
      <feColorMatrix
         result="fbSourceGraphicAlpha"
         in="fbSourceGraphic"
         values="0 0 0 -1 0 0 0 0 -1 0 0 0 0 -1 0 0 0 0 1 0"
         id="feColorMatrix4670-7-2-0" />
      <feFlood
         id="feFlood4672-4-0-3"
         flood-opacity="1"
         flood-color="rgb(39,84,60)"
         result="flood"
         in="fbSourceGraphic" />
      <feComposite
         id="feComposite4674-8-73-6"
         in2="fbSourceGraphic"
         in="flood"
         operator="in"
         result="composite1" />
      <feGaussianBlur
         id="feGaussianBlur4676-3-1-1"
         in="composite1"
         stdDeviation="0"
         result="blur" />
      <feOffset
         id="feOffset4678-6-1-0"
         dx="6"
         dy="6"
         result="offset" />
      <feComposite
         id="feComposite4680-4-90-6"
         in2="offset"
         in="fbSourceGraphic"
         operator="over"
         result="composite2" />
    </filter>
    <filter
       style="color-interpolation-filters:sRGB"
       id="filter5561-7-8-9"
       inkscape:label="Roughen"
       x="-0.0022914882"
       y="-0.00636438"
       width="1.004583"
       height="1.0127288">
      <feFlood
         id="feFlood5563-4-9-0"
         flood-opacity="1"
         flood-color="rgb(88,149,175)"
         result="flood" />
      <feComposite
         id="feComposite5565-6-3-0"
         in2="SourceGraphic"
         in="flood"
         operator="in"
         result="composite1" />
      <feMorphology
         id="feMorphology5567-3-48-3"
         operator="dilate"
         radius="5.2907629363257902"
         result="result3" />
      <feComposite
         id="feComposite5569-6-6-5"
         in2="result3"
         in="SourceGraphic"
         operator="over"
         result="fbSourceGraphic" />
      <feColorMatrix
         result="fbSourceGraphicAlpha"
         in="fbSourceGraphic"
         values="0 0 0 -1 0 0 0 0 -1 0 0 0 0 -1 0 0 0 0 1 0"
         id="feColorMatrix4681-5-3" />
      <feTurbulence
         id="feTurbulence4683-3-9"
         type="fractalNoise"
         numOctaves="1"
         seed="33"
         baseFrequency="0.016687459970111018 0.019900000000000001"
         result="turbulence" />
      <feDisplacementMap
         id="feDisplacementMap4685-0-6"
         in2="turbulence"
         in="fbSourceGraphic"
         scale="37.8"
         yChannelSelector="G"
         xChannelSelector="R" />
    </filter>
    <filter
       style="color-interpolation-filters:sRGB"
       id="filter5561-7-8-9-6"
       inkscape:label="Roughen"
       x="-0.0021500651"
       y="-0.0069203865"
       width="1.0043001"
       height="1.0138408">
      <feFlood
         id="feFlood5563-4-9-0-9"
         flood-opacity="1"
         flood-color="rgb(145,96,23)"
         result="flood" />
      <feComposite
         id="feComposite5565-6-3-0-3"
         in2="SourceGraphic"
         in="flood"
         operator="in"
         result="composite1" />
      <feMorphology
         id="feMorphology5567-3-48-3-7"
         operator="dilate"
         radius="5.2907629363257902"
         result="result3" />
      <feComposite
         id="feComposite5569-6-6-5-4"
         in2="result3"
         in="SourceGraphic"
         operator="over"
         result="fbSourceGraphic" />
      <feColorMatrix
         result="fbSourceGraphicAlpha"
         in="fbSourceGraphic"
         values="0 0 0 -1 0 0 0 0 -1 0 0 0 0 -1 0 0 0 0 1 0"
         id="feColorMatrix4681-5-3-5" />
      <feTurbulence
         id="feTurbulence4683-3-9-2"
         type="fractalNoise"
         numOctaves="3"
         seed="33"
         baseFrequency="0.025919978584009393 0.010629603437233135"
         result="turbulence" />
      <feDisplacementMap
         id="feDisplacementMap4685-0-6-5"
         in2="turbulence"
         in="fbSourceGraphic"
         scale="37.8"
         yChannelSelector="G"
         xChannelSelector="R" />
    </filter>
    <filter
       style="color-interpolation-filters:sRGB"
       id="filter5561-7-8-9-4"
       inkscape:label="Roughen"
       x="-0.0022914882"
       y="-0.00636438"
       width="1.004583"
       height="1.0127288">
      <feFlood
         id="feFlood5563-4-9-0-3"
         flood-opacity="1"
         flood-color="rgb(88,149,175)"
         result="flood" />
      <feComposite
         id="feComposite5565-6-3-0-0"
         in2="SourceGraphic"
         in="flood"
         operator="in"
         result="composite1" />
      <feMorphology
         id="feMorphology5567-3-48-3-78"
         operator="dilate"
         radius="5.2907629363257902"
         result="result3" />
      <feComposite
         id="feComposite5569-6-6-5-6"
         in2="result3"
         in="SourceGraphic"
         operator="over"
         result="fbSourceGraphic" />
      <feColorMatrix
         result="fbSourceGraphicAlpha"
         in="fbSourceGraphic"
         values="0 0 0 -1 0 0 0 0 -1 0 0 0 0 -1 0 0 0 0 1 0"
         id="feColorMatrix4681-5-3-8" />
      <feTurbulence
         id="feTurbulence4683-3-9-8"
         type="fractalNoise"
         numOctaves="1"
         seed="33"
         baseFrequency="0.016687459970111018 0.019900000000000001"
         result="turbulence" />
      <feDisplacementMap
         id="feDisplacementMap4685-0-6-4"
         in2="turbulence"
         in="fbSourceGraphic"
         scale="37.8"
         yChannelSelector="G"
         xChannelSelector="R" />
    </filter>
    <filter
       style="color-interpolation-filters:sRGB"
       id="filter4375-4-1-1-1-9-5-8-3-4"
       inkscape:label="Drop Shadow"
       x="-0.00069853879"
       y="-0.003998067"
       width="1.0143025"
       height="1.0818602">
      <feFlood
         id="feFlood4377-7-9-0-8-1-7-3-6"
         flood-opacity="1"
         flood-color="rgb(39,39,39)"
         result="flood" />
      <feComposite
         id="feComposite4379-3-8-8-2-77-4-1-7"
         in2="SourceGraphic"
         in="flood"
         operator="in"
         result="composite1" />
      <feMorphology
         id="feMorphology4393-1-0-49-8-9-3-0-5"
         operator="dilate"
         radius="6.2000000000000002"
         result="result3" />
      <feComposite
         id="feComposite4385-9-5-7-0-8-8-7-3"
         in2="result3"
         in="SourceGraphic"
         operator="over"
         result="fbSourceGraphic" />
      <feColorMatrix
         result="fbSourceGraphicAlpha"
         in="fbSourceGraphic"
         values="0 0 0 -1 0 0 0 0 -1 0 0 0 0 -1 0 0 0 0 1 0"
         id="feColorMatrix4544-5" />
      <feTurbulence
         id="feTurbulence4546-6"
         type="fractalNoise"
         numOctaves="3"
         seed="37"
         baseFrequency="0.129 0.0050000000000000001"
         result="turbulence" />
      <feDisplacementMap
         id="feDisplacementMap4548-2"
         in2="turbulence"
         in="fbSourceGraphic"
         scale="6.6"
         yChannelSelector="G"
         xChannelSelector="R"
         result="fbSourceGraphic" />
      <feColorMatrix
         result="fbSourceGraphicAlpha"
         in="fbSourceGraphic"
         values="0 0 0 -1 0 0 0 0 -1 0 0 0 0 -1 0 0 0 0 1 0"
         id="feColorMatrix4670-9-3" />
      <feFlood
         id="feFlood4672-1-0"
         flood-opacity="0.40999999999999998"
         flood-color="rgb(34,52,102)"
         result="flood"
         in="fbSourceGraphic" />
      <feComposite
         id="feComposite4674-2-3"
         in2="fbSourceGraphic"
         in="flood"
         operator="in"
         result="composite1" />
      <feGaussianBlur
         id="feGaussianBlur4676-7"
         in="composite1"
         stdDeviation="0"
         result="blur" />
      <feOffset
         id="feOffset4678-0-0"
         dx="6"
         dy="6"
         result="offset" />
      <feComposite
         id="feComposite4680-9"
         in2="offset"
         in="fbSourceGraphic"
         operator="over"
         result="composite2" />
    </filter>
    <filter
       style="color-interpolation-filters:sRGB"
       id="filter4375-4-1-1-1-9-5-8-3-4-2"
       inkscape:label="Drop Shadow"
       x="-0.00069853879"
       y="-0.003998067"
       width="1.0143025"
       height="1.0818602">
      <feFlood
         id="feFlood4377-7-9-0-8-1-7-3-6-0"
         flood-opacity="1"
         flood-color="rgb(39,39,39)"
         result="flood" />
      <feComposite
         id="feComposite4379-3-8-8-2-77-4-1-7-6"
         in2="SourceGraphic"
         in="flood"
         operator="in"
         result="composite1" />
      <feMorphology
         id="feMorphology4393-1-0-49-8-9-3-0-5-8"
         operator="dilate"
         radius="6.2000000000000002"
         result="result3" />
      <feComposite
         id="feComposite4385-9-5-7-0-8-8-7-3-9"
         in2="result3"
         in="SourceGraphic"
         operator="over"
         result="fbSourceGraphic" />
      <feColorMatrix
         result="fbSourceGraphicAlpha"
         in="fbSourceGraphic"
         values="0 0 0 -1 0 0 0 0 -1 0 0 0 0 -1 0 0 0 0 1 0"
         id="feColorMatrix4544-5-2" />
      <feTurbulence
         id="feTurbulence4546-6-6"
         type="fractalNoise"
         numOctaves="3"
         seed="37"
         baseFrequency="0.129 0.0050000000000000001"
         result="turbulence" />
      <feDisplacementMap
         id="feDisplacementMap4548-2-6"
         in2="turbulence"
         in="fbSourceGraphic"
         scale="6.6"
         yChannelSelector="G"
         xChannelSelector="R"
         result="fbSourceGraphic" />
      <feColorMatrix
         result="fbSourceGraphicAlpha"
         in="fbSourceGraphic"
         values="0 0 0 -1 0 0 0 0 -1 0 0 0 0 -1 0 0 0 0 1 0"
         id="feColorMatrix4670-9-3-4" />
      <feFlood
         id="feFlood4672-1-0-9"
         flood-opacity="0.40999999999999998"
         flood-color="rgb(34,52,102)"
         result="flood"
         in="fbSourceGraphic" />
      <feComposite
         id="feComposite4674-2-3-5"
         in2="fbSourceGraphic"
         in="flood"
         operator="in"
         result="composite1" />
      <feGaussianBlur
         id="feGaussianBlur4676-7-0"
         in="composite1"
         stdDeviation="0"
         result="blur" />
      <feOffset
         id="feOffset4678-0-0-4"
         dx="6"
         dy="6"
         result="offset" />
      <feComposite
         id="feComposite4680-9-8"
         in2="offset"
         in="fbSourceGraphic"
         operator="over"
         result="composite2" />
    </filter>
    <filter
       style="color-interpolation-filters:sRGB"
       id="filter4375-4-1-1-1-9-5-8-3-4-2-2"
       inkscape:label="Drop Shadow"
       x="-0.00075824278"
       y="-0.003998067"
       width="1.015525"
       height="1.0818602">
      <feFlood
         id="feFlood4377-7-9-0-8-1-7-3-6-0-2"
         flood-opacity="1"
         flood-color="rgb(39,39,39)"
         result="flood" />
      <feComposite
         id="feComposite4379-3-8-8-2-77-4-1-7-6-6"
         in2="SourceGraphic"
         in="flood"
         operator="in"
         result="composite1" />
      <feMorphology
         id="feMorphology4393-1-0-49-8-9-3-0-5-8-1"
         operator="dilate"
         radius="6.2000000000000002"
         result="result3" />
      <feComposite
         id="feComposite4385-9-5-7-0-8-8-7-3-9-0"
         in2="result3"
         in="SourceGraphic"
         operator="over"
         result="fbSourceGraphic" />
      <feColorMatrix
         result="fbSourceGraphicAlpha"
         in="fbSourceGraphic"
         values="0 0 0 -1 0 0 0 0 -1 0 0 0 0 -1 0 0 0 0 1 0"
         id="feColorMatrix4544-5-2-6" />
      <feTurbulence
         id="feTurbulence4546-6-6-1"
         type="fractalNoise"
         numOctaves="3"
         seed="37"
         baseFrequency="0.129 0.0050000000000000001"
         result="turbulence" />
      <feDisplacementMap
         id="feDisplacementMap4548-2-6-5"
         in2="turbulence"
         in="fbSourceGraphic"
         scale="6.6"
         yChannelSelector="G"
         xChannelSelector="R"
         result="fbSourceGraphic" />
      <feColorMatrix
         result="fbSourceGraphicAlpha"
         in="fbSourceGraphic"
         values="0 0 0 -1 0 0 0 0 -1 0 0 0 0 -1 0 0 0 0 1 0"
         id="feColorMatrix4670-9-3-4-9" />
      <feFlood
         id="feFlood4672-1-0-9-4"
         flood-opacity="0.40999999999999998"
         flood-color="rgb(34,52,102)"
         result="flood"
         in="fbSourceGraphic" />
      <feComposite
         id="feComposite4674-2-3-5-9"
         in2="fbSourceGraphic"
         in="flood"
         operator="in"
         result="composite1" />
      <feGaussianBlur
         id="feGaussianBlur4676-7-0-0"
         in="composite1"
         stdDeviation="0"
         result="blur" />
      <feOffset
         id="feOffset4678-0-0-4-9"
         dx="6"
         dy="6"
         result="offset" />
      <feComposite
         id="feComposite4680-9-8-1"
         in2="offset"
         in="fbSourceGraphic"
         operator="over"
         result="composite2" />
    </filter>
    <filter
       style="color-interpolation-filters:sRGB"
       id="filter4375-4-1-1-1-9-5-8-3-4-2-2-9"
       inkscape:label="Drop Shadow"
       x="-0.00069853879"
       y="-0.003998067"
       width="1.0143025"
       height="1.0818602">
      <feFlood
         id="feFlood4377-7-9-0-8-1-7-3-6-0-2-7"
         flood-opacity="1"
         flood-color="rgb(39,39,39)"
         result="flood" />
      <feComposite
         id="feComposite4379-3-8-8-2-77-4-1-7-6-6-7"
         in2="SourceGraphic"
         in="flood"
         operator="in"
         result="composite1" />
      <feMorphology
         id="feMorphology4393-1-0-49-8-9-3-0-5-8-1-6"
         operator="dilate"
         radius="6.2000000000000002"
         result="result3" />
      <feComposite
         id="feComposite4385-9-5-7-0-8-8-7-3-9-0-7"
         in2="result3"
         in="SourceGraphic"
         operator="over"
         result="fbSourceGraphic" />
      <feColorMatrix
         result="fbSourceGraphicAlpha"
         in="fbSourceGraphic"
         values="0 0 0 -1 0 0 0 0 -1 0 0 0 0 -1 0 0 0 0 1 0"
         id="feColorMatrix4544-5-2-6-3" />
      <feTurbulence
         id="feTurbulence4546-6-6-1-6"
         type="fractalNoise"
         numOctaves="3"
         seed="37"
         baseFrequency="0.129 0.0050000000000000001"
         result="turbulence" />
      <feDisplacementMap
         id="feDisplacementMap4548-2-6-5-5"
         in2="turbulence"
         in="fbSourceGraphic"
         scale="6.6"
         yChannelSelector="G"
         xChannelSelector="R"
         result="fbSourceGraphic" />
      <feColorMatrix
         result="fbSourceGraphicAlpha"
         in="fbSourceGraphic"
         values="0 0 0 -1 0 0 0 0 -1 0 0 0 0 -1 0 0 0 0 1 0"
         id="feColorMatrix4670-9-3-4-9-6" />
      <feFlood
         id="feFlood4672-1-0-9-4-3"
         flood-opacity="0.40999999999999998"
         flood-color="rgb(34,52,102)"
         result="flood"
         in="fbSourceGraphic" />
      <feComposite
         id="feComposite4674-2-3-5-9-9"
         in2="fbSourceGraphic"
         in="flood"
         operator="in"
         result="composite1" />
      <feGaussianBlur
         id="feGaussianBlur4676-7-0-0-4"
         in="composite1"
         stdDeviation="0"
         result="blur" />
      <feOffset
         id="feOffset4678-0-0-4-9-8"
         dx="6"
         dy="6"
         result="offset" />
      <feComposite
         id="feComposite4680-9-8-1-1"
         in2="offset"
         in="fbSourceGraphic"
         operator="over"
         result="composite2" />
    </filter>
    <filter
       style="color-interpolation-filters:sRGB"
       id="filter4375-4-1-1-1-9-5-8-3-4-2-2-9-8"
       inkscape:label="Drop Shadow"
       x="-0.00075824278"
       y="-0.003998067"
       width="1.015525"
       height="1.0818602">
      <feFlood
         id="feFlood4377-7-9-0-8-1-7-3-6-0-2-7-8"
         flood-opacity="1"
         flood-color="rgb(39,39,39)"
         result="flood" />
      <feComposite
         id="feComposite4379-3-8-8-2-77-4-1-7-6-6-7-5"
         in2="SourceGraphic"
         in="flood"
         operator="in"
         result="composite1" />
      <feMorphology
         id="feMorphology4393-1-0-49-8-9-3-0-5-8-1-6-0"
         operator="dilate"
         radius="6.2000000000000002"
         result="result3" />
      <feComposite
         id="feComposite4385-9-5-7-0-8-8-7-3-9-0-7-9"
         in2="result3"
         in="SourceGraphic"
         operator="over"
         result="fbSourceGraphic" />
      <feColorMatrix
         result="fbSourceGraphicAlpha"
         in="fbSourceGraphic"
         values="0 0 0 -1 0 0 0 0 -1 0 0 0 0 -1 0 0 0 0 1 0"
         id="feColorMatrix4544-5-2-6-3-6" />
      <feTurbulence
         id="feTurbulence4546-6-6-1-6-3"
         type="fractalNoise"
         numOctaves="3"
         seed="37"
         baseFrequency="0.129 0.0050000000000000001"
         result="turbulence" />
      <feDisplacementMap
         id="feDisplacementMap4548-2-6-5-5-8"
         in2="turbulence"
         in="fbSourceGraphic"
         scale="6.6"
         yChannelSelector="G"
         xChannelSelector="R"
         result="fbSourceGraphic" />
      <feColorMatrix
         result="fbSourceGraphicAlpha"
         in="fbSourceGraphic"
         values="0 0 0 -1 0 0 0 0 -1 0 0 0 0 -1 0 0 0 0 1 0"
         id="feColorMatrix4670-9-3-4-9-6-5" />
      <feFlood
         id="feFlood4672-1-0-9-4-3-6"
         flood-opacity="0.40999999999999998"
         flood-color="rgb(34,52,102)"
         result="flood"
         in="fbSourceGraphic" />
      <feComposite
         id="feComposite4674-2-3-5-9-9-1"
         in2="fbSourceGraphic"
         in="flood"
         operator="in"
         result="composite1" />
      <feGaussianBlur
         id="feGaussianBlur4676-7-0-0-4-1"
         in="composite1"
         stdDeviation="0"
         result="blur" />
      <feOffset
         id="feOffset4678-0-0-4-9-8-5"
         dx="6"
         dy="6"
         result="offset" />
      <feComposite
         id="feComposite4680-9-8-1-1-9"
         in2="offset"
         in="fbSourceGraphic"
         operator="over"
         result="composite2" />
    </filter>
  </defs>
  <sodipodi:namedview
     pagecolor="#1e1e1e"
     bordercolor="#111111"
     borderopacity="1"
     objecttolerance="10"
     gridtolerance="10"
     guidetolerance="10"
     inkscape:pageopacity="0"
     inkscape:pageshadow="2"
     inkscape:window-width="1920"
     inkscape:window-height="967"
     id="namedview4"
     showgrid="false"
     inkscape:zoom="0.23000001"
     inkscape:cx="219.5652"
     inkscape:cy="2502.1738"
     inkscape:window-x="0"
     inkscape:window-y="72"
     inkscape:window-maximized="1"
     inkscape:current-layer="layer3"
     inkscape:pagecheckerboard="0"
     inkscape:snap-global="false" />
  <g
     inkscape:groupmode="layer"
     id="layer2"
     inkscape:label="artwork"
     sodipodi:insensitive="true">
    <image
       xlink:href="../gfx_Pepper-and-Carrot_by-David-Revoy_E36P05.png"
       y="0"
       x="0"
       id="image10"
       height="3503"
       width="2481" />
  </g>
  <g
     inkscape:groupmode="layer"
     id="layer4"
     inkscape:label="speechbubbles-whisper"
     style="display:inline;opacity:0.7;mix-blend-mode:screen;filter:url(#filter71410)">
    <path
       style="fill:#cdf0ff;fill-opacity:1;stroke:none;stroke-width:0.594265"
       d="m 1560.8296,770.21016 c -53.621,0.32284 -107.6138,0.68213 -160.5297,9.49729 -23.0964,3.78568 -45.5125,13.16213 -62.0946,28.48292 -13.6152,13.44165 -20.0459,31.7244 -21.505,49.68364 -1.0146,12.74689 0.2821,25.74406 4.5459,37.94899 4.4959,11.85025 13.3035,22.62712 25.5707,28.64158 16.2665,8.64985 35.1849,11.53168 53.5877,13.84251 41.4712,4.92371 83.3815,3.63255 125.0892,4.46466 51.4177,0.46204 102.8213,-1.04223 154.2311,-1.50549 15.7839,-0.40827 32.004,-1.40835 46.7018,-7.1095 11.7159,-4.47148 22.1965,-11.97893 28.7353,-21.98035 7.3549,-10.81476 10.251,-23.63064 10.6388,-36.2123 1.4736,-17.73188 0.6036,-36.21764 -7.427,-52.70097 -7.5924,-14.88165 -22.0917,-26.19569 -38.5047,-32.60226 -18.7351,-7.74187 -38.9438,-11.99758 -59.1506,-15.13588 -32.9984,-4.86942 -66.5339,-5.39585 -99.8889,-5.31484 z"
       id="path3280-8-0"
       inkscape:connector-curvature="0"
       sodipodi:nodetypes="csssc" />
    <path
       style="display:inline;opacity:1;mix-blend-mode:normal;fill:#cdf0ff;fill-opacity:1;stroke:none;stroke-width:0.674876;filter:url(#filter71410)"
       d="m 1510.5889,648.50693 c -57.9256,0.32037 -116.2529,0.67687 -173.4167,9.42412 -24.9506,3.75651 -49.1663,13.06071 -67.0794,28.26344 -14.7083,13.33809 -21.6553,31.47996 -23.2313,49.30083 -1.0962,12.64866 0.3045,25.54568 4.9107,37.65657 4.8569,11.75895 14.3714,22.45277 27.6234,28.42089 17.5723,8.58321 38.0095,11.44282 57.8897,13.73586 44.8003,4.88577 90.0751,3.60455 135.1312,4.43026 55.5452,0.45847 111.0753,-1.03421 166.6123,-1.49391 17.0511,-0.40512 34.5732,-1.39749 50.4508,-7.05471 12.6564,-4.43702 23.9784,-11.88663 31.0422,-21.81098 7.9453,-10.73144 11.0738,-23.44857 11.4929,-35.93328 1.5918,-17.59524 0.6519,-35.93857 -8.0235,-52.29489 -8.2017,-14.76698 -23.865,-25.99384 -41.5956,-32.35105 -20.2391,-7.68221 -42.0703,-11.90514 -63.8991,-15.01926 -35.6474,-4.8319 -71.8749,-5.35427 -107.9076,-5.27389 z"
       id="path3280-8-0-5"
       inkscape:connector-curvature="0"
       sodipodi:nodetypes="csssc"
       transform="matrix(1.0578906,0,0,0.80830275,-42.015343,142.35622)" />
    <path
       style="color:#000000;display:inline;overflow:visible;visibility:visible;fill:#cdf0ff;fill-opacity:1;fill-rule:nonzero;stroke:none;stroke-width:1.5882px;marker:none;enable-background:accumulate"
       d="m 424.63667,372.42773 c -18.15838,0.35119 -36.25271,2.0841 -54.38848,2.95124 -53.38294,2.9774 -107.41266,1.63162 -159.96699,12.89642 -20.85894,4.41733 -41.68728,11.1059 -59.26098,23.51414 -13.24547,9.237 -24.4496,21.86424 -30.30349,37.05469 -5.42529,13.33163 -7.09732,27.87732 -6.64658,42.18071 0.24606,18.90357 1.73052,37.90177 5.9923,56.35398 3.70351,14.18309 11.0729,38.7609 22.0293,48.62341 18.63468,17.9054 42.77055,29.06558 67.50989,35.70521 30.25871,2.04764 61.67998,-2.15211 92.75671,-0.77784 47.83402,1.61213 95.69612,0.24803 143.53549,-0.33609 68.25155,-1.64732 136.6805,-4.72764 204.20452,-15.36437 16.99206,-3.52167 34.07278,-10.76908 45.47779,-24.30953 12.05008,-14.85928 16.97857,-33.84743 20.82902,-52.20651 6.6435,-34.08196 4.93722,-70.49296 -8.92556,-102.62699 -10.17779,-21.00893 -30.94968,-35.81708 -53.54551,-40.72158 -21.91536,-6.00123 -44.44742,-9.23505 -66.76398,-13.321 -34.84787,-4.88867 -70.15071,-4.21452 -105.13306,-7.61979 -19.09384,-1.49773 -38.24735,-2.22389 -57.40039,-1.9961 z"
       id="path3365-7"
       inkscape:connector-curvature="0"
       sodipodi:nodetypes="cscsccccccccccccccc" />
    <path
       style="color:#000000;display:inline;overflow:visible;visibility:visible;fill:#cdf0ff;fill-opacity:1;fill-rule:nonzero;stroke:none;stroke-width:0.97384px;marker:none;enable-background:accumulate"
       d="m 155.44483,270.42166 c 4.7427,-77.25609 52.85575,-132.56643 176.17186,-114.6595 66.05484,9.5908 141.10257,16.74283 134.92224,129.93735 -6.18042,113.19452 -114.09876,107.35076 -136.41441,109.39525 -22.31579,2.04607 -138.25243,-12.98906 -158.11509,-52.09064 -12.43359,-24.4762 -17.19933,-48.6336 -16.5646,-72.58246 z"
       id="path4546-6-21"
       inkscape:connector-curvature="0"
       sodipodi:nodetypes="cssssc" />
    <path
       style="color:#000000;display:inline;overflow:visible;visibility:visible;fill:#cdf0ff;fill-opacity:1;fill-rule:nonzero;stroke:none;stroke-width:1.16605px;marker:none;enable-background:accumulate"
       d="m 576.7625,783.79063 c 6.87857,43.45749 58.0929,91.09727 131.04664,66.83739 -39.36853,34.33047 -133.85457,42.9943 -166.01805,-46.38918 -12.49502,-34.72413 6.28964,-25.83481 14.11032,-29.48502 7.82082,-3.65023 20.86109,9.03681 20.86109,9.03681 z"
       id="path4064-5"
       inkscape:connector-curvature="0"
       sodipodi:nodetypes="ccszc" />
    <path
       style="color:#000000;display:inline;overflow:visible;visibility:visible;fill:#cdf0ff;fill-opacity:1;fill-rule:nonzero;stroke:none;stroke-width:1.06937px;marker:none;enable-background:accumulate"
       d="m 447.19746,606.30945 c -55.85031,1.92697 -111.8743,0.5922 -167.59885,4.77368 -37.73422,4.25202 -75.41059,13.83876 -106.83692,32.30621 -22.73789,15.56992 -35.20953,39.7437 -37.85066,63.90834 -3.84655,27.12845 -4.24293,55.0649 3.98429,81.67359 7.89954,20.28069 27.49853,36.0393 49.78496,45.56301 28.76014,12.6848 61.2607,17.08838 93.03184,21.09961 46.44485,5.30006 93.37502,7.81359 140.24835,7.16264 36.64087,-0.55283 73.07647,-4.15256 109.5217,-7.07217 28.04873,-2.29707 56.90462,-4.14282 82.93366,-13.98108 36.34778,-13.92932 64.59357,-43.16773 70.44314,-76.60266 3.88529,-20.53231 1.26154,-41.4202 -1.83478,-61.89338 -3.70269,-20.31428 -11.59035,-41.02111 -28.56739,-56.36836 -16.69922,-15.17098 -40.03088,-24.37854 -64.08811,-27.87816 -40.5985,-7.75805 -82.19733,-11.45427 -123.77704,-12.55891 -6.46392,-0.11204 -12.92896,-0.14928 -19.39419,-0.13236 z"
       id="path4546-6-2"
       inkscape:connector-curvature="0"
       sodipodi:nodetypes="cssssssscc" />
    <path
       inkscape:connector-curvature="0"
       style="color:#000000;display:inline;overflow:visible;visibility:visible;fill:#cdf0ff;fill-opacity:1;fill-rule:nonzero;stroke:none;stroke-width:0.766576px;marker:none;enable-background:accumulate"
       d="m 1557.5787,101.80337 -19.1672,27.04329 -0.5986,-6.75989 -7.1915,5.21811 c -30.2256,-6.60013 -68.7092,-5.22468 -98.828,-0.48508 l -8.3864,-4.73303 -1.2167,6.41047 c -1.3731,0.26529 -2.7312,0.53528 -4.0536,0.8137 l -9.1052,-5.87295 1.1387,7.70679 c -0.1647,0.041 -0.3268,0.083 -0.4903,0.12463 l -12.6273,-6.47893 2.3336,9.48193 c -0.5897,0.19862 -1.167,0.39791 -1.7296,0.59876 l -16.1777,-14.13681 6.542,18.46172 c -0.9532,0.57189 -1.7759,1.14514 -2.4754,1.71905 l -8.2598,-6.6598 4.0514,11.1778 c -0.9178,1.06818 -1.7849,2.1119 -2.6162,3.13868 l -10.4192,-1.46981 5.7843,7.6176 c -6.8365,9.91765 -9.3553,18.31754 -8.8595,28.05866 0.1,1.95526 0.2864,3.84951 0.5499,5.68962 l -2.2666,4.60721 3.6282,2.04767 c 0.5856,2.17072 1.2939,4.25591 2.1194,6.2578 l -9.3422,12.65364 h 11.3804 l -9.5837,10.81735 17.8933,-7.57239 c 0.227,0.24201 0.46,0.47956 0.6917,0.71837 l -6.0063,12.93953 12.5786,-4.05738 -11.979,14.87473 24.5577,-8.78922 -3.5936,15.55037 15.5737,-10.1417 1.4232,-0.0254 c 4.2816,1.74068 8.7416,3.35241 13.3495,4.85646 24.3066,7.93381 69.7221,2.68289 102.1586,-5.66279 l 16.0423,7.59314 -5.2335,-10.63164 c 0.3424,-0.10577 0.6668,-0.21383 1.0044,-0.32011 l 16.8076,11.62732 -3.5936,-9.46479 16.1723,8.11238 -10.1822,-16.22602 8.9839,4.73302 -6.332,-8.16854 c 0.7411,-0.47867 1.4787,-0.97994 2.2125,-1.50284 l 8.3129,2.23465 -5.1502,-4.65001 c 1.2202,-0.99449 2.4195,-2.04544 3.5871,-3.15329 l 12.9434,3.74585 -7.0822,-10.12462 c 0.7081,-0.88589 1.3958,-1.79237 2.0555,-2.72086 h 9.8186 l -4.4964,-9.22657 c 6.3885,-14.16969 6.2391,-31.28727 -8.185,-47.65425 l 2.4991,-5.99512 -7.1882,0.67564 0.5997,-18.92972 -11.3815,6.7599 3.5946,-14.19789 -7.1883,6.76115 0.5986,-25.0153 z"
       id="path4040-0" />
    <path
       style="color:#000000;display:inline;overflow:visible;visibility:visible;fill:#cdf0ff;fill-opacity:1;fill-rule:nonzero;stroke:none;stroke-width:1.0095px;marker:none;enable-background:accumulate"
       d="m 1555.5293,190.0438 c -30.0498,0.11683 -60.6481,1.87077 -87.1444,13.99044 -21.9823,10.84887 -36.6351,31.29585 -37.0815,52.51254 -0.6183,9.54938 1.1798,19.84255 8.7388,27.44604 7.6146,7.9071 17.9613,13.6889 28.704,18.32386 18.867,7.35179 40.0732,8.07668 60.5185,9.34063 52.3494,3.08134 104.9162,1.90588 157.2542,-0.71092 15.9432,-0.98614 32.4245,-3.29892 46.0738,-10.60708 11.6881,-6.36267 19.8672,-16.81831 22.2456,-28.21042 2.6957,-12.19992 0.2547,-24.83182 -4.5774,-36.45127 -9.1915,-23.73891 -21.8905,-30.4113 -42.0985,-33.83047 -15.4223,-3.1774 -31.2306,-4.79219 -46.7564,-7.56221 -34.9269,-5.08354 -70.4235,-4.37926 -105.8767,-4.24114 z"
       id="path3525"
       inkscape:connector-curvature="0"
       sodipodi:nodetypes="scccccccccccs" />
    <path
       style="color:#000000;display:inline;overflow:visible;visibility:visible;opacity:1;mix-blend-mode:normal;fill:#cdf0ff;fill-opacity:1;fill-rule:nonzero;stroke:none;stroke-width:1.20762px;marker:none;filter:url(#filter71410);enable-background:accumulate"
       d="m 1558.7077,251.21979 c -38.5028,0.11683 -77.7085,4.85061 -111.6582,16.97028 -28.166,10.84887 -46.9406,31.29585 -47.5126,52.51254 -0.7922,9.54938 1.5117,19.84255 11.1971,27.44604 9.7566,7.9071 23.0138,13.6889 36.7784,18.32386 24.1743,7.35179 51.3458,8.07668 77.5425,9.34063 67.0753,3.08134 134.4293,1.90588 201.49,-0.71092 20.428,-0.98614 41.5455,-3.29892 59.0344,-10.60708 14.9759,-6.36267 25.4559,-16.81831 28.5034,-28.21042 3.4539,-12.19992 0.3262,-24.83182 -5.8651,-36.45127 -4.5169,-8.05689 -10.6705,-15.9164 -19.7266,-22.25491 -9.1206,-6.10138 -21.3924,-9.9721 -34.2142,-11.57556 -19.7606,-3.1774 -40.0159,-4.79219 -59.909,-7.56221 -44.752,-5.08354 -90.2339,-7.3591 -135.6601,-7.22098 z"
       id="path3525-3"
       inkscape:connector-curvature="0"
       transform="matrix(1.0142139,0,0,1.0389355,-42.813495,-7.8474403)" />
    <path
       style="color:#000000;display:inline;overflow:visible;visibility:visible;fill:#cdf0ff;fill-opacity:1;fill-rule:nonzero;stroke:none;stroke-width:1.01303px;marker:none;enable-background:accumulate"
       d="m 1597.2558,371.70754 c 10.4512,19.41838 40.774,81.79773 50.6468,88.07436 2.8896,-9.82512 5.7473,-17.90146 11.17,-24.35407 7.0349,9.03181 16.3243,42.36729 48.0374,59.29587 -29.3145,-31.82897 -38.9085,-82.28038 -41.2774,-102.11115 -7.0014,10.53422 -13.5965,22.36641 -19.0054,34.45882 -8.2948,-14.89318 -25.007,-65.72521 -25.007,-65.72521 z"
       id="path5066"
       inkscape:connector-curvature="0"
       inkscape:transform-center-x="-84.299102"
       inkscape:transform-center-y="74.621182"
       sodipodi:nodetypes="cccccccc" />
    <path
       style="color:#000000;display:inline;overflow:visible;visibility:visible;fill:#cdf0ff;fill-opacity:1;fill-rule:nonzero;stroke:none;stroke-width:1.38277px;marker:none;enable-background:accumulate"
       d="m 2000.9286,813.76945 c -57.7171,0.51886 -116.2982,-0.54624 -172.7047,12.65569 -29.5397,7.10335 -58.764,17.50406 -83.2788,34.78415 -19.4727,15.29 -29.3669,39.20037 -30.0495,62.58383 -1.3819,30.47278 10.4309,62.03534 34.5551,83.06728 16.4112,13.5835 37.372,21.0338 58.145,26.6919 32.7051,7.8948 66.5689,9.8803 100.1182,12.3434 37.6225,2.4435 75.3566,1.5182 113.0235,0.7853 48.3819,-0.3947 96.8652,0.2097 145.099,-3.9626 44.4687,-3.4998 88.9262,-9.0313 132.1479,-19.6109 24.0375,-8.5052 42.3954,-27.63903 52.6428,-49.26475 11.6861,-25.5233 12.2437,-54.76192 4.3864,-81.31877 -6.2923,-19.97581 -19.4506,-38.97497 -39.3748,-49.162 -17.1679,-8.70483 -36.5814,-12.25743 -55.5738,-15.69333 -32.529,-5.1372 -65.5375,-6.55943 -98.3313,-9.54253 -53.4896,-3.87143 -107.1789,-4.48376 -160.805,-4.35667 z"
       id="path4546"
       inkscape:connector-curvature="0"
       sodipodi:nodetypes="cssssc" />
    <path
       style="color:#000000;display:inline;overflow:visible;visibility:visible;fill:#cdf0ff;fill-opacity:1;fill-rule:nonzero;stroke:none;stroke-width:0.842081px;marker:none;enable-background:accumulate"
       d="m 1506.5532,595.26091 c 75.4519,60.39743 56.9468,85.78975 35.0694,108.60088 -9.7816,43.4519 27.8915,11.49337 27.8915,11.49337 0,0 16.3645,5.723 18.2949,-4.40932 5.7529,-30.19196 13.8625,-84.43858 -81.2558,-115.68493 z"
       id="path3072-7"
       inkscape:connector-curvature="0"
       sodipodi:nodetypes="cccsc" />
    <path
       style="color:#000000;display:inline;overflow:visible;visibility:visible;fill:#cdf0ff;fill-opacity:1;fill-rule:nonzero;stroke:none;stroke-width:0.938813px;marker:none;enable-background:accumulate"
       d="m 229.20094,1145.215 c 28.42179,-15.7636 321.78005,-30.9961 390.91557,3.7944 53.8629,27.1049 29.74735,105.0589 -11.76361,124.2324 -41.51099,19.1743 -241.92308,29.4293 -298.88365,21.6731 -51.22196,-6.9737 -104.987,-23.4385 -107.82159,-70.8683 -1.15685,-19.3575 -0.86852,-63.0679 27.55328,-78.8316 z"
       id="path4040-5"
       inkscape:connector-curvature="0"
       sodipodi:nodetypes="zssssz" />
    <path
       style="color:#000000;display:inline;overflow:visible;visibility:visible;fill:#cdf0ff;fill-opacity:1;fill-rule:nonzero;stroke:none;stroke-width:0.872516px;marker:none;enable-background:accumulate"
       d="m 406.87389,1255.1023 c 7.94954,36.9036 7.20414,99.0576 -50.66037,104.8276 39.14102,-0.7724 74.40634,-0.2804 77.3845,-97.7159 0.96501,-31.5719 -10.96916,-19.1536 -16.68888,-19.9997 -5.7198,-0.8461 -10.03525,12.888 -10.03525,12.888 z"
       id="path4064-5-1"
       inkscape:connector-curvature="0"
       sodipodi:nodetypes="ccszc" />
    <path
       style="color:#000000;display:inline;overflow:visible;visibility:visible;fill:#cdf0ff;fill-opacity:1;fill-rule:nonzero;stroke:none;stroke-width:1.31264px;marker:none;enable-background:accumulate"
       d="m 714.2412,1244.4474 c 8.17831,-6.0632 53.85059,-25.4218 49.95201,-4.6437 57.97934,-26.5714 100.62696,-16.4047 144.14601,-8.3265 14.24809,-8.0512 19.14962,-20.5783 57.11392,-17.2711 -3.19516,-8.1434 11.40748,-13.5807 41.89176,-16.6038 -37.93804,-5.2611 -43.75152,-10.3723 30.7091,-15.1063 -55.3708,-1.0507 -106.79466,2.5944 -51.37896,-26.2081 -20.31018,-0.6411 -73.86745,26.1315 -38.74467,-18.8432 -48.45561,13.2993 -40.28645,7.7415 -55.01146,-13.9086 -22.29422,18.4278 -37.41427,17.9513 -56.72359,1.5313 -17.76416,11.8284 -37.2327,22.7274 -68.79592,0.281 -12.17994,11.7922 -35.77722,5.1471 -53.56634,2.5581 30.95075,16.3408 12.13255,22.9685 -33.77025,26.3331 48.9612,24.4091 9.05683,25.554 -6.28023,31.4957 64.23216,8.8827 29.03626,25.088 14.36134,35.1988 76.08468,-5.3234 26.49056,10.4309 26.09728,23.5133 z"
       id="path3549-3-3"
       inkscape:connector-curvature="0"
       sodipodi:nodetypes="cccccccccccccccc" />
    <path
       style="color:#000000;display:inline;overflow:visible;visibility:visible;fill:#cdf0ff;fill-opacity:1;fill-rule:nonzero;stroke:none;stroke-width:0.941391px;marker:none;enable-background:accumulate"
       d="m 1000.6119,1176.5649 c -30.9363,0.2244 -61.86093,1.0033 -92.75256,2.0611 -30.57816,1.1237 -61.51881,3.0966 -90.59093,9.5621 -29.33205,6.7068 -53.34264,22.4147 -62.55121,41.3461 -4.17879,9.2844 -5.6445,19.0189 -5.334,28.6533 5.44575,24.0558 12.7196,64.3595 31.46622,70.4214 29.2538,11.4672 89.76401,9.4712 123.70814,11.2775 37.48082,2.25 75.15267,2.5913 112.74264,3.6352 50.0253,0.6441 100.8821,-3.6746 147.1891,-16.1271 21.3576,-5.7956 42.1029,-13.9395 55.6179,-26.2054 12.4844,-11.4225 17.2157,-25.7527 15.2294,-39.4853 -1.4114,-9.7067 -4.7833,-19.3862 -10.9678,-28.3354 -6.6749,-9.6348 -17.2154,-18.2067 -30.7134,-24.3673 -21.6627,-10.3704 -47.4832,-16.3708 -73.0848,-21.5891 -38.7791,-7.5631 -79.4171,-11.0598 -119.9587,-10.8471 z"
       id="path3525-0"
       inkscape:connector-curvature="0"
       sodipodi:nodetypes="ccccccccccccccc" />
    <path
       style="color:#000000;display:inline;overflow:visible;visibility:visible;fill:#cdf0ff;fill-opacity:1;fill-rule:nonzero;stroke:none;stroke-width:0.826729px;marker:none;enable-background:accumulate"
       d="m 782.59274,1281.3323 c -25.84472,-12.074 -72.33153,-26.7304 -120.7757,37.9223 2.50649,-13.8385 51.01915,-90.6993 133.13792,-64.4425 23.82869,7.6191 8.70285,12.8385 5.48327,18.4333 -3.21963,5.5949 -17.84549,8.0869 -17.84549,8.0869 z"
       id="path4064-5-5"
       inkscape:connector-curvature="0"
       sodipodi:nodetypes="ccszc" />
  </g>
  <g
     inkscape:groupmode="layer"
     id="layer3"
     inkscape:label="speechbubbles"
     style="display:inline">
    <path
       style="fill:#ffffff;fill-rule:evenodd;stroke:none;stroke-width:1.12112px;stroke-linecap:butt;stroke-linejoin:miter;stroke-opacity:1"
       d="m 1769.7468,2272.4595 c 1.1285,-22.1113 -9.6724,-63.1783 -48.4987,-20.2826 20.8633,-51.1394 6.264,-57.6216 -11.5917,-60.0028 16.9868,-18.4342 32.2701,-37.5994 18.3461,-69.2988 25.6249,-10.3624 35.0645,-36.1309 32.2911,-73.5246 20.0636,29.2108 39.5648,45.3444 55.5127,-21.1279 0.3918,52.0385 28.0473,61.4392 50.5536,5.9159 -8.3861,43.3235 -1.8397,54.4 15.8506,41.4104 -13.145,27.2641 -13.5592,47.9501 -0.5367,61.693 -30.034,28.839 -28.9937,46.3692 -3.3138,54.932 -44.3667,7.5195 -43.7153,43.308 -49.4378,70.1441 -14.905,-41.7496 -62.9392,-0.094 -59.1754,10.1413 z"
       id="path1087"
       inkscape:connector-curvature="0"
       sodipodi:nodetypes="cccccccccccc" />
    <path
       style="fill:#ffffff;fill-rule:evenodd;stroke:none;stroke-width:1.06373px;stroke-linecap:butt;stroke-linejoin:miter;stroke-opacity:1"
       d="m 1770.2493,2231.6638 c -19.0777,43.0082 -23.2758,54.3372 -25.8221,64.7397 -2.5463,10.4023 5.6859,6.8223 12.1263,2.8326 4.2084,-2.5888 21.9688,-21.8087 3.3636,9.5674 -18.6054,31.376 -43.0605,75.0078 -50.224,88.7479 16.3572,-24.1323 43.1378,-61.7395 51.3165,-73.8057 8.1784,-12.066 21.9004,-34.2199 25.6816,-40.8795 4.5995,-8.1013 6.3566,-16.4311 -2.0206,-15.2185 -13.6412,3.4217 -32.7515,33.0786 -0.2047,-18.3826 32.5467,-51.461 43.1335,-129.6409 43.1335,-129.6409 z"
       id="path1089"
       inkscape:connector-curvature="0"
       sodipodi:nodetypes="csccccscccc" />
    <path
       style="fill:#ffffff;fill-rule:evenodd;stroke:none;stroke-width:0.831706px;stroke-linecap:butt;stroke-linejoin:miter;stroke-opacity:1"
       d="m 2089.1948,2042.5405 c 9.4166,21.5114 20.7662,29.1104 37.7343,-3.7245 2.3125,14.6705 13.7478,28.4717 59.0934,-5.2702 -26.0259,38.4364 -15.1091,39.8147 0,36.9882 -21.9503,48.2289 -6.7376,48.3526 4.9838,44.1126 -26.9012,30.947 -23.3763,43.3188 -10.6795,50.0906 -9.0703,17.7859 -15.4069,34.7091 3.5597,43.6527 -14.8331,6.4979 -35.836,7.2569 -29.1906,33.7361 -19.617,-30.1872 -29.9942,-12.4155 -45.3597,6.4619 -12.1812,-14.2433 -30.8229,-32.8743 -64.9953,-4.1024 18.9252,-29.3587 11.4374,-41.8271 -3.5599,-49.4934 28.1754,-29.7325 6.1806,-35.852 -15.6633,-42.0415 39.4909,-8.3812 28.2675,-35.6906 17.7993,-62.7193 18.4904,3.2477 37.0465,6.9038 46.2778,-47.6908 z"
       id="path4489"
       inkscape:connector-curvature="0"
       sodipodi:nodetypes="cccccccccccccc" />
    <path
       style="display:inline;fill:#ffffff;fill-rule:evenodd;stroke:none;stroke-width:0.613269px;stroke-linecap:butt;stroke-linejoin:miter;stroke-opacity:1"
       d="m 2050.4839,2346.9651 c 30.4226,-62.3404 57.7024,-138.4267 45.1473,-145.322 l 45.6441,-4.5536 c 12.2842,-6.1841 -67.8344,105.652 -90.7914,149.8756 z"
       id="path1881"
       sodipodi:nodetypes="cccc" />
    <path
       style="fill:#ffffff;fill-rule:evenodd;stroke:none;stroke-width:0.894962px;stroke-linecap:butt;stroke-linejoin:miter;stroke-opacity:1"
       d="m 234.71895,2792.221 c 49.06425,23.2835 121.48459,72.5815 57.42178,-30.1389 36.70046,22.7296 85.5853,69.6195 93.308,26.7208 13.66551,14.3332 20.19693,8.3302 10.6265,-23.6451 37.10877,37.2743 51.80299,19.8291 70.56827,12.3223 25.24486,26.8218 40.47316,19.2559 46.35797,-20.3869 1.47372,81.2826 49.9687,18.4117 97.81458,-21.3637 -1.16935,18.7109 -23.85585,72.8372 19.03377,19.0307 -1.64737,26.9803 1.2088,48.6889 100.2489,-42.191 -39.74258,76.5968 -19.06719,58.0472 3.91875,35.8591 -31.71885,81.5351 62.71614,23.3615 88.87282,13.068 -65.02174,44.7279 -123.06489,87.5699 4.6946,80.1994 -28.46733,10.9696 -25.30058,10.6403 -43.32294,16.0653 -28.06812,10.3568 -60.035,31.1746 -71.68251,68.4068 -52.00687,-20.0272 -83.72163,29.3978 -81.98555,70.3509 -52.33629,-57.4487 -80.98049,-54.1787 -82.80122,17.8354 -32.87042,-57.7809 -62.02662,-67.0591 -85.67087,-4.3589 -9.30211,-74.7544 -48.52399,-41.4246 -79.44045,-38.0979 -11.98406,-27.7842 -50.96985,-4.8065 -92.02459,22.0606 59.29916,-69.6003 12.82135,-60.155 -62.31753,-29.292 87.5748,-55.12 80.36546,-61.6312 -13.84875,-51.2136 107.24045,-36.2954 78.36029,-72.3833 20.22847,-121.2313 z"
       id="path740849"
       sodipodi:nodetypes="cccccccccccccccccccccc" />
    <path
       style="fill:#ffffff;fill-rule:evenodd;stroke:none;stroke-width:0.848683px;stroke-linecap:butt;stroke-linejoin:miter;stroke-opacity:1"
       d="m 119.16471,3153.4072 c 78.68664,-57.6007 123.21997,-82.1486 205.1307,-133.2401 -7.83771,1.1428 -16.85169,0.5498 -33.95583,2.4746 44.40967,-31.9361 127.98192,-84.356 177.31274,-111.978 l 39.30638,8.6938 c -33.90117,21.5568 -100.1754,49.5671 -144.53011,78.987 13.36537,1.1076 45.30961,-6.8913 51.44897,-3.6006 -109.39776,65.0579 -192.92074,101.1133 -294.71285,158.6633 z"
       id="path743009"
       sodipodi:nodetypes="cccccccc" />
    <path
       style="fill:#ffffff;fill-rule:evenodd;stroke:none;stroke-width:0.981483px;stroke-linecap:butt;stroke-linejoin:miter;stroke-opacity:1"
       d="m 965.29403,2814.1682 c 52.62547,34.419 90.76277,49.6883 39.73667,-52.8939 48.1762,32.8277 81.4512,35.587 66.3584,-59.2517 62.4986,65.7766 89.3797,62.9578 99.734,28.31 64.5777,48.4731 115.1886,-0.5939 129.4656,-31.0677 30.4694,32.283 94.9209,35.1752 145.1302,-17.2822 -5.9029,31.3357 -26.8492,77.4885 88.5326,-10.6346 -47.4445,69.3282 -9.2734,74.9442 64.9814,47.4431 -45.0523,45.4774 -77.93,88.6536 -11.4578,89.8307 -34.3231,19.2762 -21.9289,30.6099 -13.7319,33.9358 -29.1782,13.0132 -5.8746,21.6154 18.1567,30.1563 -68.3084,40.0865 -48.358,56.6219 -51.6239,79.3524 -56.0179,9.0944 -50.4428,26.4001 -53.2363,42.5902 -54.0133,-65.7696 -59.5001,13.2563 -55.9143,33.2131 -23.6922,-64.3737 -68.9967,-25.7231 -101.022,20.2685 23.9382,-65.6298 -8.83,-99.773 -71.7129,-20.1748 5.2697,-29.3996 -15.6348,-82.9692 -82.5684,-4.4867 8.4661,-35.6684 -3.2354,-31.7758 -25.3076,-7.5399 21.9542,-63.7722 -44.1075,-38.0662 -80.6811,-11.0928 5.5832,-31.2935 4.6488,-28.8325 -18.5633,-29.9753 -4.726,-48.7182 -35.6664,-76.2056 -60.04659,-102.0676 18.33899,-15.5992 -18.64692,-45.5188 -26.22948,-58.6329 z"
       id="path745117"
       sodipodi:nodetypes="cccccccccccccccccccccc" />
    <path
       style="display:inline;fill:#ffffff;fill-rule:evenodd;stroke:none;stroke-width:1.08288px;stroke-linecap:butt;stroke-linejoin:miter;stroke-opacity:1"
       d="m 212.85754,2697.2946 c 41.65211,21.6368 65.37776,8.3633 64.6628,-52.5065 19.87196,63.6753 33.66221,76.888 41.8407,43.5373 26.30915,24.9975 42.74144,15.3651 55.78757,-6.1391 4.86264,25.2745 15.29059,13.7119 24.31541,11.4366 2.97241,5.5123 -7.23658,21.143 34.00789,-2.7246 2.67166,7.4349 6.27059,13.6947 30.42956,-6.0995 6.25884,30.6817 26.34007,-4.6372 46.91233,-42.3005 -12.81711,44.9309 -7.50235,50.4931 8.87533,32.0347 -7.48778,18.7461 -11.9662,33.1127 16.4826,-0.4382 -9.73939,34.1522 15.81199,8.6341 57.05553,-43.4165 -20.63065,37.3908 -75.33848,102.6042 -39.30488,93.7312 -5.02511,10.9066 -31.50854,12.0908 21.8704,22.6045 -9.96513,8.1225 -31.82923,11.0128 -6.45072,37.9673 3.40018,3.1031 -7.98287,6.4792 13.74201,13.2457 -12.82445,0.7883 -20.68931,3.8794 -8.87532,16.107 -23.40931,1.8446 -14.65056,15.1053 2.53582,31.3568 -33.89997,-19.5416 -35.76557,-10.8782 -36.76916,-1.4556 -42.48658,-27.0523 -44.98056,-16.7885 -50.71583,-9.5492 -20.70906,2.5265 -41.41812,0.8099 -62.12717,38.4728 -5.42344,-21.411 -16.29674,-37.1548 -62.12699,-16.5463 20.12299,-30.2123 -8.50462,-9.2244 -30.42956,4.724 12.00654,-36.2974 -18.46448,-9.9894 -57.05552,28.2865 21.61083,-41.0019 -5.92317,-38.036 -42.29409,-6.6107 13.74202,-39.456 -5.64901,-41.6564 -59.13787,-37.2464 25.60142,-16.504 40.53072,-35.3714 13.94697,-63.4312 29.96748,5.8259 38.90636,-3.6324 17.75055,-34.9648 32.68653,24.0313 17.8252,-14.4067 5.07164,-50.0753 z"
       id="path4508"
       inkscape:connector-curvature="0"
       sodipodi:nodetypes="cccccccccccccccccccccccccccc" />
  </g>
  <g
     inkscape:groupmode="layer"
     id="layer1"
     inkscape:label="txt"
     style="display:inline">
    <text
       id="text4246-4-2"
       y="223.73524"
       x="313.56003"
       style="font-style:normal;font-variant:normal;font-weight:normal;font-stretch:normal;line-height:0%;font-family:Lavi;-inkscape-font-specification:Lavi;text-align:center;letter-spacing:0px;word-spacing:0px;text-anchor:middle;fill:#000000;fill-opacity:1;stroke:none"
       xml:space="preserve"><tspan
         y="223.73524"
         x="313.56003"
         style="font-size:45px;line-height:1.25"
         sodipodi:role="line"
         id="tspan3499">Det er</tspan><tspan
         y="279.98523"
         x="313.56003"
         style="font-size:45px;line-height:1.25"
         sodipodi:role="line"
         id="tspan527">forferdeleg,</tspan><tspan
         y="336.23523"
         x="313.56003"
         style="font-size:45px;line-height:1.25"
         sodipodi:role="line"
         id="tspan9826">Pepar!</tspan></text>
    <text
       id="text4246-4-2-3"
       y="462.33887"
       x="416.29889"
       style="font-style:normal;font-variant:normal;font-weight:normal;font-stretch:normal;line-height:0%;font-family:Lavi;-inkscape-font-specification:Lavi;text-align:center;letter-spacing:0px;word-spacing:0px;text-anchor:middle;fill:#000000;fill-opacity:1;stroke:none"
       xml:space="preserve"><tspan
         y="462.33887"
         x="416.29889"
         style="font-size:45px;line-height:1.25"
         sodipodi:role="line"
         id="tspan536142">Wasabi ynskjer rett</tspan><tspan
         y="518.58887"
         x="416.29889"
         style="font-weight:bold;font-size:45px;line-height:1.25"
         sodipodi:role="line"
         id="tspan1059"><tspan
   id="tspan1057"
   style="font-weight:normal;font-size:45px;line-height:1.25">og slett å </tspan>herska over<tspan
   style="font-weight:normal"
   id="tspan2379"> alle</tspan></tspan><tspan
         y="574.83887"
         x="416.29889"
         style="font-size:45px;line-height:1.25"
         sodipodi:role="line"
         id="tspan21503">dei andre magiskulane ...</tspan></text>
    <text
       id="text4246-4-2-3-2-0"
       y="695.06628"
       x="406.14056"
       style="font-style:normal;font-variant:normal;font-weight:normal;font-stretch:normal;line-height:0%;font-family:Lavi;-inkscape-font-specification:Lavi;text-align:center;letter-spacing:0px;word-spacing:0px;text-anchor:middle;fill:#000000;fill-opacity:1;stroke:none"
       xml:space="preserve"><tspan
         y="695.06628"
         x="406.14056"
         style="font-size:45px;line-height:1.25"
         sodipodi:role="line"
         id="tspan32942">Og ved morgongry</tspan><tspan
         y="751.31628"
         x="406.14056"
         style="font-size:45px;line-height:1.25"
         sodipodi:role="line"
         id="tspan13387">dreg ho med ein hekse-</tspan><tspan
         y="807.56628"
         x="406.14056"
         style="font-size:45px;line-height:1.25"
         sodipodi:role="line"
         id="tspan13391">hær til Kvalistad ...</tspan></text>
    <text
       id="text4246-4-2-3-2-8-2"
       y="198.74683"
       x="1475.1392"
       style="font-style:normal;font-variant:normal;font-weight:normal;font-stretch:normal;line-height:0%;font-family:Lavi;-inkscape-font-specification:Lavi;text-align:center;letter-spacing:0px;word-spacing:0px;text-anchor:middle;fill:#000000;fill-opacity:1;stroke:none"
       xml:space="preserve"><tspan
         y="198.74683"
         x="1475.1392"
         style="font-size:45px;line-height:1.25"
         sodipodi:role="line"
         id="tspan397614-2">Å nei!</tspan></text>
    <text
       id="text4246-4-2-3-2-8"
       y="265.43832"
       x="1596.2267"
       style="font-style:normal;font-variant:normal;font-weight:normal;font-stretch:normal;font-size:12.7131px;line-height:0%;font-family:Lavi;-inkscape-font-specification:Lavi;text-align:center;letter-spacing:0px;word-spacing:0px;text-anchor:middle;fill:#000000;fill-opacity:1;stroke:none;stroke-width:1.05942"
       xml:space="preserve"><tspan
         y="265.43832"
         x="1596.2267"
         style="font-style:normal;font-variant:normal;font-weight:bold;font-stretch:normal;font-size:47.674px;line-height:1.25;font-family:Lavi;-inkscape-font-specification:'Lavi Bold';stroke-width:1.05942"
         sodipodi:role="line"
         id="tspan397614">Koriander!</tspan></text>
    <text
       id="text4246-4-2-3-2-8-2-6"
       y="337.67358"
       x="1587.1143"
       style="font-style:normal;font-variant:normal;font-weight:normal;font-stretch:normal;line-height:0%;font-family:Lavi;-inkscape-font-specification:Lavi;text-align:center;letter-spacing:0px;word-spacing:0px;text-anchor:middle;display:inline;fill:#000000;fill-opacity:1;stroke:none"
       xml:space="preserve"><tspan
         y="337.67358"
         x="1587.1143"
         style="font-size:45px;line-height:1.25"
         sodipodi:role="line"
         id="tspan397614-2-7">Og riket hennar!</tspan></text>
    <text
       id="text4246-4-2-3-2-89-3"
       y="751.40149"
       x="1531.424"
       style="font-style:normal;font-variant:normal;font-weight:normal;font-stretch:normal;line-height:0%;font-family:Lavi;-inkscape-font-specification:Lavi;text-align:center;letter-spacing:0px;word-spacing:0px;text-anchor:middle;display:inline;fill:#000000;fill-opacity:1;stroke:none"
       xml:space="preserve"><tspan
         y="751.40149"
         x="1531.424"
         style="font-size:45px;line-height:1.25"
         sodipodi:role="line"
         id="tspan437866-6">Og Zombiah-magien!</tspan></text>
    <text
       id="text4246-4-2-3-2-89"
       y="847.81287"
       x="1540.4373"
       style="font-style:normal;font-variant:normal;font-weight:normal;font-stretch:normal;line-height:0%;font-family:Lavi;-inkscape-font-specification:Lavi;text-align:center;letter-spacing:0px;word-spacing:0px;text-anchor:middle;fill:#000000;fill-opacity:1;stroke:none"
       xml:space="preserve"><tspan
         y="847.81287"
         x="1540.4373"
         style="font-size:45px;line-height:1.25"
         sodipodi:role="line"
         id="tspan64660">Me må skunda oss</tspan><tspan
         y="904.06287"
         x="1540.4373"
         style="font-size:45px;line-height:1.25"
         sodipodi:role="line"
         id="tspan27094">og åtvara henne.</tspan></text>
    <text
       id="text4246-4-2-3-2-89-1"
       y="887.9967"
       x="2037.538"
       style="font-style:normal;font-variant:normal;font-weight:normal;font-stretch:normal;line-height:0%;font-family:Lavi;-inkscape-font-specification:Lavi;text-align:center;letter-spacing:0px;word-spacing:0px;text-anchor:middle;fill:#000000;fill-opacity:1;stroke:none"
       xml:space="preserve"><tspan
         y="887.9967"
         x="2037.538"
         style="font-size:45px;line-height:1.25"
         sodipodi:role="line"
         id="tspan74743">Ein drake med ryttar</tspan><tspan
         y="944.2467"
         x="2037.538"
         style="font-size:45px;line-height:1.25"
         sodipodi:role="line"
         id="tspan30689">står klar oppe på plattforma</tspan><tspan
         y="1000.4967"
         x="2037.538"
         style="font-size:45px;line-height:1.25"
         sodipodi:role="line"
         id="tspan30691">for å hjelpa oss vekk.</tspan></text>
    <text
       id="text4246-4-2-3-2-89-1-3"
       y="1199.2419"
       x="426.70673"
       style="font-style:normal;font-variant:normal;font-weight:normal;font-stretch:normal;font-size:42px;line-height:0%;font-family:Lavi;-inkscape-font-specification:Lavi;text-align:center;letter-spacing:0px;word-spacing:0px;text-anchor:middle;fill:#000000;fill-opacity:1;stroke:none"
       xml:space="preserve"><tspan
         y="1199.2419"
         x="426.70673"
         style="font-size:42px;line-height:1.25"
         sodipodi:role="line"
         id="tspan81847">Der – endeleg fekk</tspan><tspan
         y="1251.7419"
         x="426.70673"
         style="font-size:42px;line-height:1.25"
         sodipodi:role="line"
         id="tspan35350">eg opp låsen!</tspan></text>
    <text
       xml:space="preserve"
       style="font-style:normal;font-variant:normal;font-weight:normal;font-stretch:normal;line-height:0%;font-family:Lavi;-inkscape-font-specification:Lavi;letter-spacing:0px;word-spacing:0px;opacity:1;fill:#c6fffd;fill-opacity:1;stroke:#ffffff;stroke-width:0.966714;stroke-miterlimit:4;stroke-dasharray:none;stroke-opacity:1;filter:url(#filter4375-4-1-1-1-9-5-8-8-53-3)"
       x="787.65729"
       y="1584.5073"
       id="text4580-6-0-0-5"
       transform="matrix(0.38167106,-0.131018,-0.06124078,0.5210622,211.83481,671.63947)"><tspan
         sodipodi:role="line"
         id="tspan4582-1-1-0-67"
         x="787.65729"
         y="1584.5073"
         style="font-size:70px;line-height:1.25;fill:#c6fffd;fill-opacity:1;stroke:#ffffff;stroke-width:0.966714;stroke-miterlimit:4;stroke-dasharray:none;stroke-opacity:1"><tspan
           style="font-size:93.1495px;fill:#c6fffd;fill-opacity:1;stroke:#ffffff;stroke-width:0.966714;stroke-miterlimit:4;stroke-dasharray:none;stroke-opacity:1"
           id="tspan4315-8-9-7">Tsing!</tspan></tspan></text>
    <text
       id="text4246-4-2-3-2-89-1-3-5"
       y="1191.9653"
       x="830.38177"
       style="font-style:normal;font-variant:normal;font-weight:normal;font-stretch:normal;font-size:42px;line-height:0%;font-family:Lavi;-inkscape-font-specification:Lavi;text-align:center;letter-spacing:0px;word-spacing:0px;text-anchor:middle;fill:#000000;fill-opacity:1;stroke:none;stroke-width:0.892381"
       xml:space="preserve"><tspan
         y="1191.9653"
         x="830.38177"
         style="font-size:42px;line-height:1.25;stroke-width:0.892381"
         sodipodi:role="line"
         id="tspan601787-4">Bra jobba!</tspan></text>
    <text
       id="text4246-4-2-3-2-89-1-3-5-7"
       y="1252.7395"
       x="988.63171"
       style="font-style:normal;font-variant:normal;font-weight:normal;font-stretch:normal;font-size:42px;line-height:0%;font-family:Lavi;-inkscape-font-specification:Lavi;text-align:center;letter-spacing:0px;word-spacing:0px;text-anchor:middle;fill:#000000;fill-opacity:1;stroke:none;stroke-width:0.892381"
       xml:space="preserve"><tspan
         y="1252.7395"
         x="988.63171"
         style="font-size:42px;line-height:1.25;stroke-width:0.892381"
         sodipodi:role="line"
         id="tspan100729">Eg skal berre henta</tspan><tspan
         y="1305.2395"
         x="988.63171"
         style="font-size:42px;line-height:1.25;stroke-width:0.892381"
         sodipodi:role="line"
         id="tspan38430">Gulrot og hatten min.</tspan></text>
    <text
       xml:space="preserve"
       style="color:#000000;font-style:normal;font-variant:normal;font-weight:normal;font-stretch:normal;line-height:0%;font-family:Arial;-inkscape-font-specification:Arial;letter-spacing:9.01069px;word-spacing:0px;clip-rule:nonzero;display:inline;overflow:visible;visibility:visible;isolation:auto;mix-blend-mode:normal;color-interpolation:sRGB;color-interpolation-filters:linearRGB;solid-color:#000000;solid-opacity:1;fill:#d7e3f4;fill-opacity:1;fill-rule:nonzero;stroke:#ffffff;stroke-width:1.1156;stroke-linecap:butt;stroke-linejoin:miter;stroke-miterlimit:4;stroke-dasharray:none;stroke-dashoffset:0;stroke-opacity:1;marker:none;filter:url(#filter5561-7-8-9);color-rendering:auto;image-rendering:auto;shape-rendering:auto;text-rendering:auto;enable-background:accumulate"
       x="1705.2566"
       y="1742.2045"
       id="text4251-9-3"
       transform="matrix(0.46605294,-0.42399792,0.36516967,0.87774403,-45.077611,677.8872)"><tspan
         sodipodi:role="line"
         id="tspan4253-3-7"
         x="1705.2566"
         y="1742.2045"
         style="font-style:normal;font-variant:normal;font-weight:normal;font-stretch:normal;font-size:160.12px;line-height:1.25;font-family:Lavi;-inkscape-font-specification:Lavi;fill:#d7e3f4;fill-opacity:1"><tspan
           style="font-size:90px;fill:#d7e3f4;fill-opacity:1"
           id="tspan4349-9-9">Piiip!</tspan></tspan></text>
    <text
       xml:space="preserve"
       style="color:#000000;font-style:normal;font-variant:normal;font-weight:normal;font-stretch:normal;line-height:0%;font-family:Arial;-inkscape-font-specification:Arial;letter-spacing:9.01069px;word-spacing:0px;clip-rule:nonzero;display:inline;overflow:visible;visibility:visible;isolation:auto;mix-blend-mode:normal;color-interpolation:sRGB;color-interpolation-filters:linearRGB;solid-color:#000000;solid-opacity:1;fill:#eaeab1;fill-opacity:1;fill-rule:nonzero;stroke:#ffffff;stroke-width:1.1156;stroke-linecap:butt;stroke-linejoin:miter;stroke-miterlimit:4;stroke-dasharray:none;stroke-dashoffset:0;stroke-opacity:1;marker:none;filter:url(#filter5561-7-8-9-6);color-rendering:auto;image-rendering:auto;shape-rendering:auto;text-rendering:auto;enable-background:accumulate"
       x="1705.2566"
       y="1742.2045"
       id="text4251-9-3-4"
       transform="matrix(0.38674208,-0.29679826,0.72566441,0.90119606,159.82834,465.35004)"><tspan
         sodipodi:role="line"
         id="tspan4253-3-7-7"
         x="1705.2566"
         y="1742.2045"
         style="font-style:normal;font-variant:normal;font-weight:normal;font-stretch:normal;font-size:90px;line-height:1.25;font-family:Lavi;-inkscape-font-specification:Lavi;fill:#eaeab1;fill-opacity:1"><tspan
   style="font-size:73.2418px"
   id="tspan687173">FRE</tspan>S<tspan
   style="font-size:103.317px"
   id="tspan160865">!</tspan></tspan></text>
    <text
       xml:space="preserve"
       style="color:#000000;font-style:normal;font-variant:normal;font-weight:normal;font-stretch:normal;line-height:0%;font-family:Arial;-inkscape-font-specification:Arial;letter-spacing:9.01069px;word-spacing:0px;clip-rule:nonzero;display:inline;overflow:visible;visibility:visible;isolation:auto;mix-blend-mode:normal;color-interpolation:sRGB;color-interpolation-filters:linearRGB;solid-color:#000000;solid-opacity:1;fill:#d7e3f4;fill-opacity:1;fill-rule:nonzero;stroke:#ffffff;stroke-width:1.1156;stroke-linecap:butt;stroke-linejoin:miter;stroke-miterlimit:4;stroke-dasharray:none;stroke-dashoffset:0;stroke-opacity:1;marker:none;filter:url(#filter5561-7-8-9-4);color-rendering:auto;image-rendering:auto;shape-rendering:auto;text-rendering:auto;enable-background:accumulate"
       x="1705.2566"
       y="1742.2045"
       id="text4251-9-3-3"
       transform="matrix(0.45234231,-0.36477271,0.35442689,0.88178533,788.88373,751.13002)"><tspan
         sodipodi:role="line"
         id="tspan4253-3-7-1"
         x="1705.2566"
         y="1742.2045"
         style="font-style:normal;font-variant:normal;font-weight:normal;font-stretch:normal;font-size:160.12px;line-height:1.25;font-family:Lavi;-inkscape-font-specification:Lavi;fill:#d7e3f4;fill-opacity:1"><tspan
           style="font-size:90px;fill:#d7e3f4;fill-opacity:1"
           id="tspan4349-9-9-49">Piiip!</tspan></tspan></text>
    <g
       id="text4251-g894"
       transform="translate(-294.71653,-1245.0637)">
      <text
         xml:space="preserve"
         style="font-style:normal;font-variant:normal;font-weight:normal;font-stretch:normal;line-height:0%;font-family:Lavi;-inkscape-font-specification:Lavi;letter-spacing:0px;word-spacing:0px;display:inline;fill:#ffffff;fill-opacity:1;stroke:#000000;stroke-width:0.649528;stroke-miterlimit:4;stroke-dasharray:none;stroke-opacity:1;filter:url(#filter4375-4-1-1-1-9-5-8-3-4)"
         x="787.65729"
         y="1584.5073"
         id="text4580-6-0-3"
         transform="matrix(0.56396936,0.29200899,-0.49083985,0.74440634,2289.6299,1539.4683)"
         inkscape:transform-center-x="-5.9254429"
         inkscape:transform-center-y="0.58615246"><tspan
           sodipodi:role="line"
           id="tspan4582-1-1-6"
           x="787.65729"
           y="1584.5073"
           style="font-style:normal;font-variant:normal;font-weight:normal;font-stretch:normal;font-size:70px;line-height:1.25;font-family:Combah;-inkscape-font-specification:Combah;fill:#ffffff;fill-opacity:1;stroke:#000000;stroke-width:0.649528;stroke-opacity:1"><tspan
             style="font-style:normal;font-variant:normal;font-weight:normal;font-stretch:normal;font-size:93.1495px;font-family:Combah;-inkscape-font-specification:Combah;fill:#ffffff;fill-opacity:1;stroke:#000000;stroke-width:0.649528;stroke-opacity:1"
             id="tspan4315-8-0">KLANK</tspan><tspan
             style="font-style:normal;font-variant:normal;font-weight:normal;font-stretch:normal;font-size:114.732px;font-family:Combah;-inkscape-font-specification:Combah;fill:#ffffff;fill-opacity:1;stroke:#000000;stroke-width:0.649528;stroke-opacity:1"
             id="tspan4313-2-6">!</tspan></tspan></text>
    </g>
    <g
       id="text4251-g894-7-7-2-8"
       transform="matrix(0.08279068,-0.70073798,0.69675909,0.08896039,-1012.5833,3236.9208)">
      <text
         xml:space="preserve"
         style="font-style:normal;font-variant:normal;font-weight:normal;font-stretch:normal;line-height:0%;font-family:Lavi;-inkscape-font-specification:Lavi;letter-spacing:0px;word-spacing:0px;display:inline;fill:#ffffff;fill-opacity:1;stroke:#000000;stroke-width:0.649528;stroke-miterlimit:4;stroke-dasharray:none;stroke-opacity:1;filter:url(#filter4375-4-1-1-1-9-5-8-3-4-2-2-9-8)"
         x="787.65729"
         y="1584.5073"
         id="text4580-6-0-3-1-7-9-4"
         transform="matrix(0.56396936,0.29200899,-0.49083985,0.74440634,2281.3949,1535.2837)"
         inkscape:transform-center-x="-5.9254429"
         inkscape:transform-center-y="0.58615246"><tspan
           sodipodi:role="line"
           id="tspan4582-1-1-6-7-1-3-8"
           x="787.65729"
           y="1584.5073"
           style="font-style:normal;font-variant:normal;font-weight:normal;font-stretch:normal;font-size:70px;line-height:1.25;font-family:Combah;-inkscape-font-specification:Combah;fill:#ffffff;fill-opacity:1;stroke:#000000;stroke-width:0.649528;stroke-opacity:1"><tspan
             style="font-style:normal;font-variant:normal;font-weight:normal;font-stretch:normal;font-size:93.1495px;font-family:Combah;-inkscape-font-specification:Combah;fill:#ffffff;fill-opacity:1;stroke:#000000;stroke-width:0.649528;stroke-opacity:1"
             id="tspan4315-8-0-2-1-9-1">KLINK</tspan><tspan
             style="font-style:normal;font-variant:normal;font-weight:normal;font-stretch:normal;font-size:114.732px;font-family:Combah;-inkscape-font-specification:Combah;fill:#ffffff;fill-opacity:1;stroke:#000000;stroke-width:0.649528;stroke-opacity:1"
             id="tspan4313-2-6-7-5-0-0">!</tspan></tspan></text>
    </g>
    <g
       id="text4251-g894-7"
       transform="matrix(0.2660753,-0.65352272,0.64804701,0.27096543,-962.9723,2539.9528)">
      <text
         xml:space="preserve"
         style="font-style:normal;font-variant:normal;font-weight:normal;font-stretch:normal;line-height:0%;font-family:Lavi;-inkscape-font-specification:Lavi;letter-spacing:0px;word-spacing:0px;display:inline;fill:#ffffff;fill-opacity:1;stroke:#000000;stroke-width:0.649528;stroke-miterlimit:4;stroke-dasharray:none;stroke-opacity:1;filter:url(#filter4375-4-1-1-1-9-5-8-3-4-2)"
         x="787.65729"
         y="1584.5073"
         id="text4580-6-0-3-1"
         transform="matrix(0.56396936,0.29200899,-0.49083985,0.74440634,2281.3949,1535.2837)"
         inkscape:transform-center-x="-5.9254429"
         inkscape:transform-center-y="0.58615246"><tspan
           sodipodi:role="line"
           id="tspan4582-1-1-6-7"
           x="787.65729"
           y="1584.5073"
           style="font-style:normal;font-variant:normal;font-weight:normal;font-stretch:normal;font-size:70px;line-height:1.25;font-family:Combah;-inkscape-font-specification:Combah;fill:#ffffff;fill-opacity:1;stroke:#000000;stroke-width:0.649528;stroke-opacity:1"><tspan
             style="font-style:normal;font-variant:normal;font-weight:normal;font-stretch:normal;font-size:93.1495px;font-family:Combah;-inkscape-font-specification:Combah;fill:#ffffff;fill-opacity:1;stroke:#000000;stroke-width:0.649528;stroke-opacity:1"
             id="tspan4315-8-0-2">KLANK</tspan><tspan
             style="font-style:normal;font-variant:normal;font-weight:normal;font-stretch:normal;font-size:114.732px;font-family:Combah;-inkscape-font-specification:Combah;fill:#ffffff;fill-opacity:1;stroke:#000000;stroke-width:0.649528;stroke-opacity:1"
             id="tspan4313-2-6-7">!</tspan></tspan></text>
    </g>
    <g
       id="text4251-g894-7-7"
       transform="matrix(0.45457311,-0.53967703,0.53296055,0.45753715,-1047.5736,1867.716)">
      <text
         xml:space="preserve"
         style="font-style:normal;font-variant:normal;font-weight:normal;font-stretch:normal;line-height:0%;font-family:Lavi;-inkscape-font-specification:Lavi;letter-spacing:0px;word-spacing:0px;display:inline;fill:#ffffff;fill-opacity:1;stroke:#000000;stroke-width:0.649528;stroke-miterlimit:4;stroke-dasharray:none;stroke-opacity:1;filter:url(#filter4375-4-1-1-1-9-5-8-3-4-2-2)"
         x="787.65729"
         y="1584.5073"
         id="text4580-6-0-3-1-7"
         transform="matrix(0.56396936,0.29200899,-0.49083985,0.74440634,2281.3949,1535.2837)"
         inkscape:transform-center-x="-5.9254429"
         inkscape:transform-center-y="0.58615246"><tspan
           sodipodi:role="line"
           id="tspan4582-1-1-6-7-1"
           x="787.65729"
           y="1584.5073"
           style="font-style:normal;font-variant:normal;font-weight:normal;font-stretch:normal;font-size:70px;line-height:1.25;font-family:Combah;-inkscape-font-specification:Combah;fill:#ffffff;fill-opacity:1;stroke:#000000;stroke-width:0.649528;stroke-opacity:1"><tspan
             style="font-style:normal;font-variant:normal;font-weight:normal;font-stretch:normal;font-size:93.1495px;font-family:Combah;-inkscape-font-specification:Combah;fill:#ffffff;fill-opacity:1;stroke:#000000;stroke-width:0.649528;stroke-opacity:1"
             id="tspan4315-8-0-2-1">KLINK</tspan><tspan
             style="font-style:normal;font-variant:normal;font-weight:normal;font-stretch:normal;font-size:114.732px;font-family:Combah;-inkscape-font-specification:Combah;fill:#ffffff;fill-opacity:1;stroke:#000000;stroke-width:0.649528;stroke-opacity:1"
             id="tspan4313-2-6-7-5">!</tspan></tspan></text>
    </g>
    <g
       id="text4251-g894-7-7-2"
       transform="matrix(0.23227068,-0.66628698,0.66106879,0.23743471,-799.5741,2807.9446)">
      <text
         xml:space="preserve"
         style="font-style:normal;font-variant:normal;font-weight:normal;font-stretch:normal;line-height:0%;font-family:Lavi;-inkscape-font-specification:Lavi;letter-spacing:0px;word-spacing:0px;display:inline;fill:#ffffff;fill-opacity:1;stroke:#000000;stroke-width:0.649528;stroke-miterlimit:4;stroke-dasharray:none;stroke-opacity:1;filter:url(#filter4375-4-1-1-1-9-5-8-3-4-2-2-9)"
         x="787.65729"
         y="1584.5073"
         id="text4580-6-0-3-1-7-9"
         transform="matrix(0.56396936,0.29200899,-0.49083985,0.74440634,2281.3949,1535.2837)"
         inkscape:transform-center-x="-5.9254429"
         inkscape:transform-center-y="0.58615246"><tspan
           sodipodi:role="line"
           id="tspan4582-1-1-6-7-1-3"
           x="787.65729"
           y="1584.5073"
           style="font-style:normal;font-variant:normal;font-weight:normal;font-stretch:normal;font-size:70px;line-height:1.25;font-family:Combah;-inkscape-font-specification:Combah;fill:#ffffff;fill-opacity:1;stroke:#000000;stroke-width:0.649528;stroke-opacity:1"><tspan
             style="font-style:normal;font-variant:normal;font-weight:normal;font-stretch:normal;font-size:93.1495px;font-family:Combah;-inkscape-font-specification:Combah;fill:#ffffff;fill-opacity:1;stroke:#000000;stroke-width:0.649528;stroke-opacity:1"
             id="tspan4315-8-0-2-1-9">KLANK</tspan><tspan
             style="font-style:normal;font-variant:normal;font-weight:normal;font-stretch:normal;font-size:114.732px;font-family:Combah;-inkscape-font-specification:Combah;fill:#ffffff;fill-opacity:1;stroke:#000000;stroke-width:0.649528;stroke-opacity:1"
             id="tspan4313-2-6-7-5-0">!</tspan></tspan></text>
    </g>
    <text
       xml:space="preserve"
       style="font-style:normal;font-variant:normal;font-weight:normal;font-stretch:normal;font-size:27.2915px;line-height:0%;font-family:Lavi;-inkscape-font-specification:Lavi;text-align:center;letter-spacing:0px;word-spacing:0px;text-anchor:middle;display:inline;fill:#000000;fill-opacity:1;stroke:none;stroke-width:1.12112"
       x="2884.5964"
       y="1786.5194"
       id="text4246-3-5"
       transform="matrix(0.81263366,0,-0.31508537,1.2305668,0,0)"><tspan
         sodipodi:role="line"
         style="font-style:normal;font-variant:normal;font-weight:bold;font-stretch:normal;font-size:102.343px;line-height:1.2;font-family:Lavi;-inkscape-font-specification:'Lavi Bold';stroke-width:1.12112"
         x="2884.5964"
         y="1786.5194"
         id="tspan872-2"><tspan
   id="tspan714918"
   style="font-style:normal;font-variant:normal;font-weight:bold;font-stretch:normal;font-size:70.343px;font-family:Lavi;-inkscape-font-specification:'Lavi Bold'">!</tspan><tspan
   style="font-style:normal;font-variant:normal;font-weight:bold;font-stretch:normal;font-size:82.343px;font-family:Lavi;-inkscape-font-specification:'Lavi Bold'"
   id="tspan706548">!</tspan>!</tspan></text>
    <text
       xml:space="preserve"
       style="font-style:normal;font-variant:normal;font-weight:normal;font-stretch:normal;font-size:27.2915px;line-height:0%;font-family:Lavi;-inkscape-font-specification:Lavi;text-align:center;letter-spacing:0px;word-spacing:0px;text-anchor:middle;fill:#000000;fill-opacity:1;stroke:none;stroke-width:1.12112"
       x="3270.3779"
       y="1775.1808"
       id="text4246-3-5-3"
       transform="matrix(0.81263366,0,-0.31508537,1.2305668,0,0)"><tspan
         sodipodi:role="line"
         style="font-style:normal;font-variant:normal;font-weight:bold;font-stretch:normal;font-size:102.343px;line-height:1.2;font-family:Lavi;-inkscape-font-specification:'Lavi Bold';stroke-width:1.12112"
         x="3270.3779"
         y="1775.1808"
         id="tspan872-2-0"><tspan
   id="tspan714918-4"
   style="font-style:normal;font-variant:normal;font-weight:bold;font-stretch:normal;font-size:70.343px;font-family:Lavi;-inkscape-font-specification:'Lavi Bold'">!</tspan><tspan
   style="font-style:normal;font-variant:normal;font-weight:bold;font-stretch:normal;font-size:82.343px;font-family:Lavi;-inkscape-font-specification:'Lavi Bold'"
   id="tspan706548-4">!</tspan>!</tspan></text>
    <text
       id="text4246-4-2-3-2-89-1-3-5-7-4-36"
       y="2648.5903"
       x="716.84241"
       style="font-style:normal;font-variant:normal;font-weight:normal;font-stretch:normal;font-size:77.051px;line-height:0%;font-family:Lavi;-inkscape-font-specification:Lavi;text-align:center;letter-spacing:2.03292px;word-spacing:0px;text-anchor:middle;display:inline;fill:#000000;fill-opacity:1;stroke:none;stroke-width:1.14598"
       xml:space="preserve"
       transform="matrix(0.9221206,-0.14287509,-0.10645386,1.100951,0,0)"><tspan
         y="2648.5903"
         x="717.85889"
         style="font-style:normal;font-variant:normal;font-weight:bold;font-stretch:normal;font-size:77.051px;font-family:Lavi;-inkscape-font-specification:'Lavi Bold';stroke-width:1.14598"
         sodipodi:role="line"
         id="tspan719137-75">VAKT!</tspan></text>
    <text
       id="text4246-4-2-3-2-89-1-3-5-7-4"
       y="2715.6487"
       x="845.6933"
       style="font-style:normal;font-variant:normal;font-weight:normal;font-stretch:normal;font-size:74.9842px;line-height:0%;font-family:Lavi;-inkscape-font-specification:Lavi;text-align:center;letter-spacing:1.8073px;word-spacing:0px;text-anchor:middle;fill:#000000;fill-opacity:1;stroke:none;stroke-width:1.11523"
       xml:space="preserve"
       transform="matrix(0.90670241,-0.16525211,-0.0914871,1.1195718,0,0)"><tspan
         y="2715.6487"
         x="846.59692"
         style="font-style:normal;font-variant:normal;font-weight:bold;font-stretch:normal;font-size:74.9842px;line-height:1.25;font-family:Lavi;-inkscape-font-specification:'Lavi Bold';stroke-width:1.11523"
         sodipodi:role="line"
         id="tspan719137">HJELP TIL!</tspan></text>
    <text
       id="text4246-4-2-3-2-89-1-3-5-7-4-3"
       y="2858.0952"
       x="1568.261"
       style="font-style:normal;font-variant:normal;font-weight:normal;font-stretch:normal;font-size:48.9104px;line-height:0%;font-family:Lavi;-inkscape-font-specification:Lavi;text-align:center;letter-spacing:0px;word-spacing:0px;text-anchor:middle;fill:#000000;fill-opacity:1;stroke:none;stroke-width:0.727446"
       xml:space="preserve"
       transform="matrix(0.97563945,-0.08959889,-0.08011561,1.0323263,0,0)"><tspan
         y="2858.0952"
         x="1568.261"
         style="font-style:normal;font-variant:normal;font-weight:bold;font-stretch:normal;font-size:48.9104px;line-height:1.25;font-family:Lavi;-inkscape-font-specification:'Lavi Bold';stroke-width:0.727446"
         sodipodi:role="line"
         id="tspan202987">EIN INNTRENGJAR</tspan><tspan
         y="2919.2332"
         x="1568.261"
         style="font-style:normal;font-variant:normal;font-weight:bold;font-stretch:normal;font-size:48.9104px;line-height:1.25;font-family:Lavi;-inkscape-font-specification:'Lavi Bold';stroke-width:0.727446"
         sodipodi:role="line"
         id="tspan82365">PRØVER Å HJELPA</tspan><tspan
         y="2980.3711"
         x="1568.261"
         style="font-style:normal;font-variant:normal;font-weight:bold;font-stretch:normal;font-size:48.9104px;line-height:1.25;font-family:Lavi;-inkscape-font-specification:'Lavi Bold';stroke-width:0.727446"
         sodipodi:role="line"
         id="tspan82367">FANGEN Å FLYKTA!</tspan></text>
    <text
       xml:space="preserve"
       style="font-size:40px;line-height:1.25;font-family:sans-serif;letter-spacing:0px;word-spacing:0px"
       x="441.6676"
       y="1194.1654"
       id="text33142"><tspan
         sodipodi:role="line"
         id="tspan33140" /></text>
  </g>
</svg>
