<?xml version="1.0" encoding="UTF-8" standalone="no"?>
<!-- Created with Inkscape (http://www.inkscape.org/) -->

<svg
   id="svg2"
   version="1.1"
   inkscape:version="1.1.1 (3bf5ae0d25, 2021-09-20)"
   width="2481"
   height="3503"
   sodipodi:docname="E36P09.svg"
   xmlns:inkscape="http://www.inkscape.org/namespaces/inkscape"
   xmlns:sodipodi="http://sodipodi.sourceforge.net/DTD/sodipodi-0.dtd"
   xmlns:xlink="http://www.w3.org/1999/xlink"
   xmlns="http://www.w3.org/2000/svg"
   xmlns:svg="http://www.w3.org/2000/svg"
   xmlns:rdf="http://www.w3.org/1999/02/22-rdf-syntax-ns#"
   xmlns:cc="http://creativecommons.org/ns#"
   xmlns:dc="http://purl.org/dc/elements/1.1/">
  <metadata
     id="metadata8">
    <rdf:RDF>
      <cc:Work
         rdf:about="">
        <dc:format>image/svg+xml</dc:format>
        <dc:type
           rdf:resource="http://purl.org/dc/dcmitype/StillImage" />
        <dc:title />
      </cc:Work>
    </rdf:RDF>
  </metadata>
  <defs
     id="defs6">
    <filter
       style="color-interpolation-filters:sRGB"
       id="filter4375-4-1-1-1-9-6-9-2-1-7-1"
       inkscape:label="deevad outline effect"
       x="-0.0032722622"
       y="-0.010664709"
       width="1.0065445"
       height="1.0213294">
      <feFlood
         id="feFlood4377-7-9-0-8-1-0-2-2-06-3-9"
         flood-opacity="1"
         flood-color="rgb(0,0,0)"
         result="flood" />
      <feComposite
         id="feComposite4379-3-8-8-2-77-6-0-8-3-6-4"
         in2="SourceGraphic"
         in="flood"
         operator="in"
         result="composite1" />
      <feMorphology
         id="feMorphology4393-1-0-49-8-9-2-2-9-2-1-7"
         operator="dilate"
         radius="4"
         result="result3" />
      <feComposite
         id="feComposite4385-9-5-7-0-8-6-3-7-0-2-8"
         in2="result3"
         in="SourceGraphic"
         operator="over"
         result="composite2" />
    </filter>
    <filter
       style="color-interpolation-filters:sRGB"
       id="filter4375-4-1-1-1-9-6-9-2-1-7-1-3"
       inkscape:label="deevad outline effect"
       x="-0.0035469919"
       y="-0.010964841"
       width="1.007094"
       height="1.0219297">
      <feFlood
         id="feFlood4377-7-9-0-8-1-0-2-2-06-3-9-6"
         flood-opacity="1"
         flood-color="rgb(0,0,0)"
         result="flood" />
      <feComposite
         id="feComposite4379-3-8-8-2-77-6-0-8-3-6-4-7"
         in2="SourceGraphic"
         in="flood"
         operator="in"
         result="composite1" />
      <feMorphology
         id="feMorphology4393-1-0-49-8-9-2-2-9-2-1-7-5"
         operator="dilate"
         radius="4"
         result="result3" />
      <feComposite
         id="feComposite4385-9-5-7-0-8-6-3-7-0-2-8-3"
         in2="result3"
         in="SourceGraphic"
         operator="over"
         result="composite2" />
    </filter>
    <filter
       style="color-interpolation-filters:sRGB"
       id="filter4375-4-1-1-1-9-5-8"
       inkscape:label="Drop Shadow"
       x="-0.00081513583"
       y="-0.0054734909"
       width="1.0114872"
       height="1.0771344">
      <feFlood
         id="feFlood4377-7-9-0-8-1-7-3"
         flood-opacity="1"
         flood-color="rgb(108,125,133)"
         result="flood" />
      <feComposite
         id="feComposite4379-3-8-8-2-77-4-1"
         in2="SourceGraphic"
         in="flood"
         operator="in"
         result="composite1" />
      <feMorphology
         id="feMorphology4393-1-0-49-8-9-3-0"
         operator="dilate"
         radius="6.2000000000000002"
         result="result3" />
      <feComposite
         id="feComposite4385-9-5-7-0-8-8-7"
         in2="result3"
         in="SourceGraphic"
         operator="over"
         result="fbSourceGraphic" />
      <feColorMatrix
         result="fbSourceGraphicAlpha"
         in="fbSourceGraphic"
         values="0 0 0 -1 0 0 0 0 -1 0 0 0 0 -1 0 0 0 0 1 0"
         id="feColorMatrix4544" />
      <feTurbulence
         id="feTurbulence4546"
         type="fractalNoise"
         numOctaves="3"
         seed="37"
         baseFrequency="0.129 0.0050000000000000001"
         result="turbulence" />
      <feDisplacementMap
         id="feDisplacementMap4548"
         in2="turbulence"
         in="fbSourceGraphic"
         scale="6.6"
         yChannelSelector="G"
         xChannelSelector="R"
         result="fbSourceGraphic" />
      <feColorMatrix
         result="fbSourceGraphicAlpha"
         in="fbSourceGraphic"
         values="0 0 0 -1 0 0 0 0 -1 0 0 0 0 -1 0 0 0 0 1 0"
         id="feColorMatrix4670" />
      <feFlood
         id="feFlood4672"
         flood-opacity="1"
         flood-color="rgb(17,52,65)"
         result="flood"
         in="fbSourceGraphic" />
      <feComposite
         id="feComposite4674"
         in2="fbSourceGraphic"
         in="flood"
         operator="in"
         result="composite1" />
      <feGaussianBlur
         id="feGaussianBlur4676"
         in="composite1"
         stdDeviation="0"
         result="blur" />
      <feOffset
         id="feOffset4678"
         dx="6"
         dy="6"
         result="offset" />
      <feComposite
         id="feComposite4680"
         in2="offset"
         in="fbSourceGraphic"
         operator="over"
         result="composite2" />
    </filter>
    <filter
       style="color-interpolation-filters:sRGB"
       id="filter4375-4-1-1-1-9-5-8-2"
       inkscape:label="Drop Shadow"
       x="-0.0019961096"
       y="-0.0055514814"
       width="1.0281299"
       height="1.0782335">
      <feFlood
         id="feFlood4377-7-9-0-8-1-7-3-9"
         flood-opacity="1"
         flood-color="rgb(108,125,133)"
         result="flood" />
      <feComposite
         id="feComposite4379-3-8-8-2-77-4-1-1"
         in2="SourceGraphic"
         in="flood"
         operator="in"
         result="composite1" />
      <feMorphology
         id="feMorphology4393-1-0-49-8-9-3-0-2"
         operator="dilate"
         radius="6.2000000000000002"
         result="result3" />
      <feComposite
         id="feComposite4385-9-5-7-0-8-8-7-7"
         in2="result3"
         in="SourceGraphic"
         operator="over"
         result="fbSourceGraphic" />
      <feColorMatrix
         result="fbSourceGraphicAlpha"
         in="fbSourceGraphic"
         values="0 0 0 -1 0 0 0 0 -1 0 0 0 0 -1 0 0 0 0 1 0"
         id="feColorMatrix4544-0" />
      <feTurbulence
         id="feTurbulence4546-9"
         type="fractalNoise"
         numOctaves="3"
         seed="37"
         baseFrequency="0.129 0.0050000000000000001"
         result="turbulence" />
      <feDisplacementMap
         id="feDisplacementMap4548-3"
         in2="turbulence"
         in="fbSourceGraphic"
         scale="6.6"
         yChannelSelector="G"
         xChannelSelector="R"
         result="fbSourceGraphic" />
      <feColorMatrix
         result="fbSourceGraphicAlpha"
         in="fbSourceGraphic"
         values="0 0 0 -1 0 0 0 0 -1 0 0 0 0 -1 0 0 0 0 1 0"
         id="feColorMatrix4670-6" />
      <feFlood
         id="feFlood4672-0"
         flood-opacity="1"
         flood-color="rgb(17,52,65)"
         result="flood"
         in="fbSourceGraphic" />
      <feComposite
         id="feComposite4674-6"
         in2="fbSourceGraphic"
         in="flood"
         operator="in"
         result="composite1" />
      <feGaussianBlur
         id="feGaussianBlur4676-2"
         in="composite1"
         stdDeviation="0"
         result="blur" />
      <feOffset
         id="feOffset4678-6"
         dx="6"
         dy="6"
         result="offset" />
      <feComposite
         id="feComposite4680-1"
         in2="offset"
         in="fbSourceGraphic"
         operator="over"
         result="composite2" />
    </filter>
    <filter
       style="color-interpolation-filters:sRGB"
       id="filter4375-4-1-1-1-9-5-8-9"
       inkscape:label="Drop Shadow"
       x="-0.0021826963"
       y="-0.0063908122"
       width="1.0307593"
       height="1.0900616">
      <feFlood
         id="feFlood4377-7-9-0-8-1-7-3-2"
         flood-opacity="1"
         flood-color="rgb(108,125,133)"
         result="flood" />
      <feComposite
         id="feComposite4379-3-8-8-2-77-4-1-2"
         in2="SourceGraphic"
         in="flood"
         operator="in"
         result="composite1" />
      <feMorphology
         id="feMorphology4393-1-0-49-8-9-3-0-8"
         operator="dilate"
         radius="6.2000000000000002"
         result="result3" />
      <feComposite
         id="feComposite4385-9-5-7-0-8-8-7-9"
         in2="result3"
         in="SourceGraphic"
         operator="over"
         result="fbSourceGraphic" />
      <feColorMatrix
         result="fbSourceGraphicAlpha"
         in="fbSourceGraphic"
         values="0 0 0 -1 0 0 0 0 -1 0 0 0 0 -1 0 0 0 0 1 0"
         id="feColorMatrix4544-7" />
      <feTurbulence
         id="feTurbulence4546-3"
         type="fractalNoise"
         numOctaves="3"
         seed="37"
         baseFrequency="0.129 0.0050000000000000001"
         result="turbulence" />
      <feDisplacementMap
         id="feDisplacementMap4548-6"
         in2="turbulence"
         in="fbSourceGraphic"
         scale="6.6"
         yChannelSelector="G"
         xChannelSelector="R"
         result="fbSourceGraphic" />
      <feColorMatrix
         result="fbSourceGraphicAlpha"
         in="fbSourceGraphic"
         values="0 0 0 -1 0 0 0 0 -1 0 0 0 0 -1 0 0 0 0 1 0"
         id="feColorMatrix4670-1" />
      <feFlood
         id="feFlood4672-2"
         flood-opacity="1"
         flood-color="rgb(17,52,65)"
         result="flood"
         in="fbSourceGraphic" />
      <feComposite
         id="feComposite4674-9"
         in2="fbSourceGraphic"
         in="flood"
         operator="in"
         result="composite1" />
      <feGaussianBlur
         id="feGaussianBlur4676-3"
         in="composite1"
         stdDeviation="0"
         result="blur" />
      <feOffset
         id="feOffset4678-1"
         dx="6"
         dy="6"
         result="offset" />
      <feComposite
         id="feComposite4680-9"
         in2="offset"
         in="fbSourceGraphic"
         operator="over"
         result="composite2" />
    </filter>
    <filter
       style="color-interpolation-filters:sRGB"
       id="filter4375-4-1-1-1-9-5-8-2-4"
       inkscape:label="Drop Shadow"
       x="-0.0030821314"
       y="-0.0089887546"
       width="1.0434345"
       height="1.1266728">
      <feFlood
         id="feFlood4377-7-9-0-8-1-7-3-9-7"
         flood-opacity="1"
         flood-color="rgb(108,125,133)"
         result="flood" />
      <feComposite
         id="feComposite4379-3-8-8-2-77-4-1-1-8"
         in2="SourceGraphic"
         in="flood"
         operator="in"
         result="composite1" />
      <feMorphology
         id="feMorphology4393-1-0-49-8-9-3-0-2-4"
         operator="dilate"
         radius="6.2000000000000002"
         result="result3" />
      <feComposite
         id="feComposite4385-9-5-7-0-8-8-7-7-5"
         in2="result3"
         in="SourceGraphic"
         operator="over"
         result="fbSourceGraphic" />
      <feColorMatrix
         result="fbSourceGraphicAlpha"
         in="fbSourceGraphic"
         values="0 0 0 -1 0 0 0 0 -1 0 0 0 0 -1 0 0 0 0 1 0"
         id="feColorMatrix4544-0-0" />
      <feTurbulence
         id="feTurbulence4546-9-3"
         type="fractalNoise"
         numOctaves="3"
         seed="37"
         baseFrequency="0.129 0.0050000000000000001"
         result="turbulence" />
      <feDisplacementMap
         id="feDisplacementMap4548-3-6"
         in2="turbulence"
         in="fbSourceGraphic"
         scale="6.6"
         yChannelSelector="G"
         xChannelSelector="R"
         result="fbSourceGraphic" />
      <feColorMatrix
         result="fbSourceGraphicAlpha"
         in="fbSourceGraphic"
         values="0 0 0 -1 0 0 0 0 -1 0 0 0 0 -1 0 0 0 0 1 0"
         id="feColorMatrix4670-6-1" />
      <feFlood
         id="feFlood4672-0-0"
         flood-opacity="1"
         flood-color="rgb(17,52,65)"
         result="flood"
         in="fbSourceGraphic" />
      <feComposite
         id="feComposite4674-6-6"
         in2="fbSourceGraphic"
         in="flood"
         operator="in"
         result="composite1" />
      <feGaussianBlur
         id="feGaussianBlur4676-2-3"
         in="composite1"
         stdDeviation="0"
         result="blur" />
      <feOffset
         id="feOffset4678-6-2"
         dx="6"
         dy="6"
         result="offset" />
      <feComposite
         id="feComposite4680-1-0"
         in2="offset"
         in="fbSourceGraphic"
         operator="over"
         result="composite2" />
    </filter>
  </defs>
  <sodipodi:namedview
     pagecolor="#1e1e1e"
     bordercolor="#111111"
     borderopacity="1"
     objecttolerance="10"
     gridtolerance="10"
     guidetolerance="10"
     inkscape:pageopacity="0"
     inkscape:pageshadow="2"
     inkscape:window-width="1920"
     inkscape:window-height="967"
     id="namedview4"
     showgrid="false"
     inkscape:zoom="0.748119"
     inkscape:cx="1438.9422"
     inkscape:cy="2289.0743"
     inkscape:window-x="0"
     inkscape:window-y="72"
     inkscape:window-maximized="1"
     inkscape:current-layer="layer1"
     inkscape:pagecheckerboard="0"
     inkscape:snap-global="false" />
  <g
     inkscape:groupmode="layer"
     id="layer2"
     inkscape:label="artwork"
     sodipodi:insensitive="true">
    <image
       xlink:href="../gfx_Pepper-and-Carrot_by-David-Revoy_E36P09.png"
       y="0"
       x="0"
       id="image10"
       height="3503"
       width="2481" />
  </g>
  <g
     inkscape:groupmode="layer"
     id="layer3"
     inkscape:label="speechbubbles"
     style="display:inline">
    <path
       inkscape:connector-curvature="0"
       style="color:#000000;display:inline;overflow:visible;visibility:visible;fill:#ffffff;fill-opacity:1;fill-rule:nonzero;stroke:none;stroke-width:1.25361px;marker:none;enable-background:accumulate"
       d="m 1541.1894,117.91027 -49.3752,21.45391 8.0249,-4.10725 -21.5602,1.32186 c -52.5175,-11.92395 -119.3833,-9.43903 -171.7152,-0.87637 l -14.5718,-8.5508 -2.1138,11.58129 c -2.3859,0.47929 -4.7456,0.96706 -7.0433,1.47005 l -15.8205,-10.6102 1.9787,13.92326 c -0.2863,0.0741 -0.5679,0.14998 -0.8522,0.22515 l -21.9401,-11.70499 4.0548,17.13028 c -1.0246,0.35883 -2.0277,0.71887 -3.0054,1.08173 l -28.1089,-25.53986 11.3669,33.35334 c -1.6562,1.0332 -3.0856,2.06885 -4.3012,3.10569 l -14.3515,-12.03175 7.0395,20.19407 c -1.5948,1.92979 -3.1014,3.81538 -4.5457,5.67039 l -18.1036,-2.65538 10.0505,13.76212 c -11.8787,17.91743 -16.255,33.09287 -15.3936,50.69139 0.1729,3.5324 0.4976,6.95462 0.9553,10.279 l -13.1591,8.98413 15.5251,3.03872 c 1.0175,3.92169 2.2482,7.68883 3.6825,11.30547 l -16.2323,22.86037 h 19.7737 l -16.6517,19.54285 31.0897,-13.68046 c 0.3945,0.43725 0.7993,0.8664 1.2018,1.29785 l -10.4361,23.37682 21.8558,-7.33015 -20.8139,26.87301 51.7496,-21.33175 -1.1343,38.61662 27.0596,-18.32222 2.473,-0.0458 c 7.4393,3.14477 0.9985,0.98656 9.005,3.70378 42.2332,14.33341 121.1432,4.84698 177.5019,-10.23049 l 27.874,13.71791 -9.0931,-19.20734 c 0.5948,-0.19107 1.1586,-0.38631 1.7451,-0.57833 l 29.2035,21.00617 -6.2439,-17.09929 28.0995,14.656 -17.6917,-29.31428 15.6097,8.55078 -11.0021,-14.75746 c 1.2877,-0.86477 2.5695,-1.77038 3.8444,-2.71506 l 14.4436,4.03717 -8.9484,-8.40082 c 2.1201,-1.79667 4.2038,-3.69533 6.2328,-5.69679 l 22.4893,6.76731 -12.3055,-18.29135 c 1.2303,-1.60048 2.4252,-3.23815 3.5715,-4.91557 h 17.0599 l -7.8125,-16.66891 c 11.0999,-25.59929 10.8403,-56.52429 -14.2217,-86.09323 l 8.6433,-13.34945 -16.7906,3.73918 6.7977,-28.87215 -25.5313,6.88586 15.3106,-17.5449 -21.5546,4.10955 17.1118,-17.79012 z"
       id="path4040-0"
       sodipodi:nodetypes="ccccccccccccccccccccccsccccccccccccccccccccccccccccccccccccccccccccc" />
    <path
       style="display:inline;fill:#ffffff;stroke:none;stroke-width:0.769327"
       d="m 1619.5184,195.86955 c -1.2031,-25.44453 20.3692,-89.14228 125.5975,-84.35101 105.2285,4.79126 138.1634,32.77852 141.247,78.0064 4.8781,71.54865 -50.4655,90.9301 -129.9752,95.96848 -109.4452,6.93533 -138.1411,-43.6501 -136.8693,-89.62387 z"
       id="path3280-8-3"
       inkscape:connector-curvature="0"
       sodipodi:nodetypes="csssc" />
    <path
       style="display:inline;fill:#ffffff;stroke:none;stroke-width:0.80542"
       d="m 1774.6751,249.67798 c -20.8678,0.21662 -42.3159,3.20971 -60.5982,12.33019 -14.0925,7.30063 -23.0859,20.35785 -26.6934,33.9509 -3.9205,13.98027 -3.4703,29.41631 4.3466,42.37084 5.4741,8.83576 15.0608,15.37458 25.7613,19.03411 15.1863,5.35916 31.8239,6.33012 48.0528,6.63259 18.435,0.22126 36.8828,-0.54295 55.2352,-2.02941 18.3584,-1.65499 36.9781,-4.2969 53.7491,-11.25767 10.7285,-4.51426 20.992,-10.73007 27.463,-19.5531 5.3232,-7.17972 7.9398,-15.79249 7.3093,-24.30152 -0.5976,-16.81839 -12.7788,-32.44743 -29.6117,-40.59346 -18.4029,-9.6473 -40.0297,-13.16766 -61.1826,-14.96156 -14.5628,-1.22902 -29.2019,-1.70477 -43.8314,-1.62191 z"
       id="path3280-8-3-6"
       inkscape:connector-curvature="0"
       sodipodi:nodetypes="csssc" />
    <path
       style="display:inline;fill:#ffffff;stroke:none;stroke-width:0.706745"
       d="m 2022.2923,643.52487 c -1.2705,-25.74974 21.5088,-90.21152 132.6251,-85.36279 111.1166,4.84873 145.8944,33.1717 149.1506,78.94207 5.151,72.40687 -53.3073,91.75603 -137.2479,97.11961 -86.534,5.52844 -145.8708,-44.17369 -144.5278,-90.69889 z"
       id="path3280-8-3-6-5"
       inkscape:connector-curvature="0"
       sodipodi:nodetypes="csssc" />
    <path
       style="display:inline;fill:#ffffff;stroke:none;stroke-width:0.763259"
       d="m 1865.7774,325.68171 c -24.6972,0.16965 -49.7966,4.79332 -72.2879,17.79491 -12.5821,6.52202 -24.453,17.1139 -30.6026,32.43239 -3.4576,8.44487 -4.291,18.49595 -1.8293,27.50453 3.0236,12.37218 10.8286,15.70132 20.3453,21.04571 17.0847,11.73967 36.7435,15.51047 55.997,17.98866 32.5528,3.42652 65.1524,6.29152 97.6665,4.35743 25.7881,-2.29943 52.0157,-5.36586 76.2904,-17.01035 10.9034,-5.68552 21.0093,-15.85578 24.889,-29.96606 4.9682,-19.31787 -2.829,-42.23429 -17.6295,-51.3646 -15.8577,-11.66764 -34.333,-16.21864 -52.4247,-19.36662 -25.1712,-3.76656 -50.5743,-1.53778 -75.8449,-2.89772 -8.1894,-0.19542 -16.377,-0.58208 -24.5693,-0.51828 z"
       id="path3280-8-3-6-1"
       inkscape:connector-curvature="0"
       sodipodi:nodetypes="csssccccccccc" />
    <path
       style="color:#000000;display:inline;overflow:visible;visibility:visible;fill:#ffffff;fill-opacity:1;fill-rule:nonzero;stroke:none;stroke-width:0.726834px;marker:none;enable-background:accumulate"
       d="m 1990.0515,515.26762 c 26.4763,-24.04182 38.2287,-79.53679 -27.9332,-97.77721 -29.9281,-8.25083 -20.468,15.10178 -20.468,15.10178 18.7003,6.91299 84.5389,19.28667 48.4012,82.67543 z"
       id="path4035-4"
       inkscape:connector-curvature="0"
       sodipodi:nodetypes="cscc" />
    <path
       style="color:#000000;display:inline;overflow:visible;visibility:visible;fill:#ffffff;fill-opacity:1;fill-rule:nonzero;stroke:none;stroke-width:0.713612px;marker:none;enable-background:accumulate"
       d="m 2204.2506,476.24383 c -23.0277,37.50683 -18.8501,78.43783 1.0934,93.4597 10.7271,39.43047 -6.908,30.85147 -6.908,30.85147 l -15.2972,-3.10415 c -17.3389,-33.28799 -28.1116,-92.76105 21.1118,-121.20702 z"
       id="path3072-56"
       inkscape:connector-curvature="0"
       sodipodi:nodetypes="ccccc" />
    <path
       style="display:inline;fill:#ffffff;stroke:none;stroke-width:1.03462"
       d="m 258.99049,1310.5729 c 0.62395,-49.3642 23.6482,-93.7507 128.24592,-85.8281 104.5978,7.9226 138.94667,13.241 139.16056,80.5467 0.22393,70.4385 -51.7903,87.0056 -130.96104,89.7321 -81.61649,2.8105 -136.12244,-25.8149 -136.44544,-84.4507 z"
       id="path3280-64"
       inkscape:connector-curvature="0"
       sodipodi:nodetypes="csssc" />
    <path
       style="display:inline;fill:#ffffff;stroke:none;stroke-width:1.21693"
       d="m 283.00547,1469.4105 c 0.85904,-52.3128 32.55779,-99.3281 176.56321,-90.8275 144.00554,8.5006 191.29552,14.1713 191.58999,85.4983 0.30831,74.6471 -71.30254,92.1519 -180.30127,94.9619 -112.3659,2.8967 -187.40725,-27.4933 -187.85193,-89.6327 z"
       id="path3280-64-3"
       inkscape:connector-curvature="0"
       sodipodi:nodetypes="csssc" />
    <path
       style="fill:#ffffff;fill-rule:evenodd;stroke:none;stroke-width:0.744339px;stroke-linecap:butt;stroke-linejoin:miter;stroke-opacity:1"
       d="m 514.9694,1536.754 c -11.53719,28.8096 -11.89495,35.669 -10.75405,46.6441 1.14092,10.9751 18.8596,27.895 37.58928,32.4679 18.72967,4.5729 32.89639,19.2064 27.10954,29.267 -5.78678,10.0605 -29.03251,49.8451 33.59167,62.1921 -56.81275,-21.5856 -26.68209,-49.5976 -22.04127,-56.4569 4.64088,-6.8595 9.09415,-27.4534 -18.92786,-43.916 -28.02209,-16.4627 -44.32532,-25.8975 -18.18083,-57.9083 26.14444,-32.0106 -28.38648,-12.2899 -28.38648,-12.2899 z"
       id="path1081"
       inkscape:connector-curvature="0"
       sodipodi:nodetypes="ccccccssc" />
    <path
       style="color:#000000;display:inline;overflow:visible;visibility:visible;fill:#ffffff;fill-opacity:1;fill-rule:nonzero;stroke:none;stroke-width:0.896517px;marker:none;enable-background:accumulate"
       d="m 1247.4718,1777.6476 c -36.208,1.1992 -72.9111,6.4876 -106.8377,23.1631 -23.3959,13.2634 -41.1075,40.8624 -46.9742,72.0559 -3.0885,16.586 -2.1328,34.2744 2.8425,50.141 8.0489,26.9417 24.8222,48.5213 43.9294,63.8475 18.9448,15.1852 40.8703,23.4754 62.9588,27.8314 36.1725,7.579 72.9791,8.4682 109.5736,8.056 19.825,-0.517 39.6325,-4.287 58.4998,-12.0114 13.9477,-5.4695 27.7328,-11.8864 40.7147,-20.3224 12.734,-9.9107 22.8124,-24.2404 31.6675,-39.1789 7.8383,-15.0294 10.1643,-33.8704 7.6379,-51.3932 -4.1893,-36.4546 -23.0144,-69.9425 -49.435,-86.4426 -16.1853,-10.4775 -34.1563,-15.3538 -51.7837,-20.4421 -25.5615,-6.7358 -51.5112,-10.9099 -77.4866,-14.1733 -8.4181,-0.8196 -16.8622,-1.267 -25.307,-1.131 z"
       id="path4040-40"
       inkscape:connector-curvature="0"
       sodipodi:nodetypes="zssssz" />
    <path
       style="display:inline;fill:#ffffff;stroke:none;stroke-width:1.12774"
       d="m 997.79569,2046.0596 c 6.49141,-45.4345 28.91611,-63.9387 164.05351,-68.1391 67.5687,-2.1001 197.8138,-2.9885 262.6563,12.2698 64.8426,15.2595 64.2827,46.6667 64.5776,59.0351 0.2951,12.3673 5.7146,43.0257 -60.887,55.0441 -66.6016,12.0183 -205.2242,5.3966 -259.8103,5.863 -109.1723,0.9337 -167.0494,-0.1341 -170.59011,-64.0729 z"
       id="path3270-6-0"
       inkscape:connector-curvature="0"
       sodipodi:nodetypes="csssssc" />
    <path
       style="display:inline;fill:#ffffff;stroke:none;stroke-width:1.0441"
       d="m 1407.1279,2168.5833 c -3.032,42.0055 -14.5758,82.4276 -86.5597,89.6161 -35.9922,3.5941 -105.4114,6.4678 -140.1777,-12.2478 -34.7664,-18.7169 -34.8798,-59.0244 -35.1992,-74.891 -0.3195,-15.865 -3.6107,-55.132 31.7355,-71.4399 35.3464,-16.3078 109.3301,-9.6565 138.4227,-10.9815 58.1853,-2.6512 89.0525,-2.0514 91.7784,79.9441 z"
       id="path3270-6-0-4"
       inkscape:connector-curvature="0"
       sodipodi:nodetypes="csssssc" />
    <path
       style="color:#000000;display:inline;overflow:visible;visibility:visible;fill:#ffffff;fill-opacity:1;fill-rule:nonzero;stroke:none;stroke-width:1px;marker:none;enable-background:accumulate"
       d="m 1222.7234,1834.4092 c 38.7674,-26.2088 5.5435,-82.6347 -60.2586,-97.084 25.29,5.3642 112.2954,4.2086 101.853,112.7345 -5.1653,53.6821 -27.461,-10.4151 -27.461,-10.4151 z"
       id="path4035-4-3"
       inkscape:connector-curvature="0"
       sodipodi:nodetypes="ccscc" />
    <path
       style="color:#000000;display:inline;overflow:visible;visibility:visible;fill:#ffffff;fill-opacity:1;fill-rule:nonzero;stroke:none;stroke-width:0.715515px;marker:none;enable-background:accumulate"
       d="m 1748.1971,1935.4829 c -34.1402,0.3334 -68.479,6.9102 -101.4102,24.8148 -12.376,10.3649 -21.3224,31.669 -27.3255,54.3601 -4.6283,20.7554 -1.7753,46.8336 7.0854,61.7885 10.3225,19.5316 24.6619,28.0636 38.526,33.276 23.5158,8.2896 47.523,6.5091 71.3087,7.8837 42.8076,1.1479 85.6569,3.0434 128.4407,-0.9457 17.9897,-1.958 36.0453,-5.4709 53.5423,-14.0306 12.474,-7.8573 23.4332,-28.2256 25.4715,-53.8778 2.3247,-28.7899 -6.4175,-58.7237 -19.9009,-71.3201 -14.1536,-14.465 -23.9502,-22.8355 -39.4444,-28.4103 -41.0991,-15.3558 -89.4787,-12.6703 -131.232,-13.5481 -1.6873,-0.018 -3.3745,0 -5.0616,0.016 z"
       id="path4040-3"
       inkscape:connector-curvature="0"
       sodipodi:nodetypes="zsssszcccccccz" />
    <path
       style="color:#000000;display:inline;overflow:visible;visibility:visible;fill:#ffffff;fill-opacity:1;fill-rule:nonzero;stroke:none;stroke-width:0.820449px;marker:none;enable-background:accumulate"
       d="m 1778.6233,2079.4394 c -28.4064,0.562 -56.7971,1.5649 -85.1677,2.7497 -34.9898,1.6513 -55.319,3.1245 -81.0625,9.1727 -56.7982,13.3443 -66.5206,52.9263 -67.454,87.6263 -0.723,26.8775 17.5236,62.4441 48.5455,69.7579 38.9947,10.8626 90.9163,8.0124 132.1347,9.6627 43.5509,1.8396 87.2514,1.593 130.7576,-0.7607 41.3502,-2.3786 82.992,-3.46 123.8343,-9.1908 13.7319,-2.0369 27.7661,-4.3255 39.7452,-9.9768 26.4888,-11.7898 34.167,-29.9806 35.5846,-52.6129 1.0177,-13.2833 1.5035,-33.0416 -7.299,-46.4319 -17.8297,-27.1222 -40.1754,-35.1388 -72.5007,-42.086 -38.0036,-9.2936 -77.8624,-13.569 -117.62,-16.0569 -26.4463,-1.4936 -52.9818,-1.9189 -79.498,-1.8533 z"
       id="path4040-3-8"
       inkscape:connector-curvature="0"
       sodipodi:nodetypes="zssazcccccsccz" />
    <path
       style="color:#000000;display:inline;overflow:visible;visibility:visible;fill:#ffffff;fill-opacity:1;fill-rule:nonzero;stroke:none;stroke-width:1.49143px;marker:none;enable-background:accumulate"
       d="m 1859.0308,1792.5605 c -57.9392,8.6615 -89.2515,79.9233 -55.8969,143.4452 36.3703,71.8319 38.8267,79.1688 38.8267,79.1688 l -67.2439,14.1513 c 0,0 -65.093,-227.513 84.3141,-236.7653 z"
       id="path3072-5"
       inkscape:connector-curvature="0"
       inkscape:transform-center-x="13.076208"
       inkscape:transform-center-y="-28.97548"
       sodipodi:nodetypes="ccccc" />
    <path
       style="fill:#ffffff;stroke:none;stroke-width:1.02243"
       d="m 122.32915,2423.2315 c -0.65099,-46.575 18.78716,-57.033 38.51304,-63.589 19.72588,-6.5549 81.03137,0.7107 76.52794,57.7048 -4.50335,56.993 -34.16537,64.8916 -58.67289,62.3722 -24.50759,-2.5194 -52.81201,-12.3567 -56.36809,-56.488 z"
       id="path3938-8"
       inkscape:connector-curvature="0"
       sodipodi:nodetypes="csssc" />
    <path
       style="color:#000000;display:inline;overflow:visible;visibility:visible;fill:#ffffff;fill-opacity:1;fill-rule:nonzero;stroke:none;stroke-width:0.705046px;marker:none;enable-background:accumulate"
       d="m 198.99826,2535.3479 c -21.21366,-18.4099 -27.69466,-26.333 -17.76531,-61.1618 9.92883,-34.8282 -1.89984,-37.3442 -1.89984,-37.3442 l -17.26661,17.1288 c 0,0 -16.48003,75.3965 36.93176,81.3772 z"
       id="path3072-5-5"
       inkscape:connector-curvature="0" />
    <path
       style="fill:#ffffff;fill-rule:evenodd;stroke:none;stroke-width:0.749286px;stroke-linecap:butt;stroke-linejoin:miter;stroke-opacity:1"
       d="m 708.75495,2449.0155 c 14.5963,-5.0277 29.45823,-7.6419 14.76359,-43.3636 20.36423,17.6363 51.43599,27.3966 64.4721,-10.3504 10.65105,35.9524 36.70966,20.1185 52.44579,10.2994 -11.51376,43.378 4.24036,35.1798 24.6432,29.1678 -34.8123,39.3654 -23.48569,65.7992 -2.37948,83.4552 -33.1887,-8.7171 -48.73493,-0.3027 -39.05901,31.0035 -23.90174,-32.391 -51.48174,-26.1466 -43.431,4.7626 -5.92921,-14.6738 -5.30213,-45.4111 -37.27911,1.9875 10.10638,-49.4182 -5.62787,-39.5296 -30.4995,-21.2855 14.72945,-17.2591 29.25012,-41.013 -4.40012,-38.3256 21.01857,-16.0026 28.32042,-28.1664 0.72354,-47.3509 z"
       id="path4584-7"
       inkscape:connector-curvature="0"
       sodipodi:nodetypes="cccccccccccc" />
    <path
       style="color:#000000;display:inline;overflow:visible;visibility:visible;fill:#ffffff;fill-opacity:1;fill-rule:nonzero;stroke:none;stroke-width:0.903953px;marker:none;enable-background:accumulate"
       d="m 781.98136,2627.2511 c 16.94744,-54.9279 15.7357,-83.4683 13.28083,-110.1888 -1.15529,-12.5729 -25.39345,0.9196 -25.39345,0.9196 l 6.2837,24.2557 c 0,0 14.8528,36.3747 5.82892,85.0135 z"
       id="path4000-2"
       inkscape:connector-curvature="0"
       sodipodi:nodetypes="csccc"
       inkscape:transform-center-x="2.4319054"
       inkscape:transform-center-y="-49.401625" />
    <path
       style="display:inline;fill:#ffffff;fill-rule:evenodd;stroke:none;stroke-width:0.936706px;stroke-linecap:butt;stroke-linejoin:miter;stroke-opacity:1"
       d="m 1091.5314,2386.4076 c 34.0316,21.7746 27.7654,31.2802 -20.2085,28.0878 76.4853,33.4358 44.9112,38.4404 -3.5144,39.0109 32.5079,12.2127 68.4776,24.1635 -6.1506,44.4726 43.2477,3.2928 80.9303,7.942 7.0292,39.791 38.3417,-1.3079 70.0166,-4.204 30.7522,40.5716 51.6585,-28.2156 80.173,-34.6217 73.8051,23.4065 26.05,-28.9142 59.1941,-51.6771 65.0188,-10.923 11.8061,-27.8161 32.848,-17.464 65.8977,7.022 -6.4447,-17.6591 -25.8621,-45.6462 32.5095,-11.7032 -17.646,-26.5591 -18.9096,-55.5279 49.1259,-30.2747 -26.5705,-25.2188 -55.6231,-59.7778 10.7533,-60.1176 -51.0485,-12.711 -33.5258,1.1783 -1.8967,-15.2579 -59.1474,-9.0838 -23.2543,-15.8532 -0.7518,-16.9548 -27.181,-8.1536 -56.2328,-13.6133 1.6377,-50.6039 -63.6995,15.3566 -45.2651,-10.616 -42.1744,-28.8681 -29.3963,14.4932 -62.6391,37.2415 -65.019,-6.2418 -39.434,53.9488 -54.3647,12.7039 -76.4413,-0.7801 -22.9616,64.1941 -75.0136,5.0311 -89.6203,0.7801 29.7878,26.2745 34.9888,38.1711 -30.7524,8.5826 z"
       id="path1096"
       inkscape:connector-curvature="0"
       sodipodi:nodetypes="cccccccccccccccccccc" />
    <path
       style="color:#000000;display:inline;overflow:visible;visibility:visible;fill:#ffffff;fill-opacity:1;fill-rule:nonzero;stroke:none;stroke-width:1.09189px;marker:none;enable-background:accumulate"
       d="m 1307.2436,2488.0482 c 34.4691,10.3214 137.2116,18.8814 147.5061,20.5688 -2.7296,-8.2946 -2.8183,-15.8452 -3.0574,-21.7386 18.7731,4.1984 104.5487,26.9164 121.1894,37.5539 -39.5082,-27.2781 -102.8788,-47.4443 -134.3176,-52.7848 -1.8623,7.7288 -1.338,12.6103 -2.4791,16.6583 -15.8621,-2.1642 -120.7089,-19.7202 -120.7089,-19.7202 z"
       id="path5066"
       inkscape:connector-curvature="0"
       sodipodi:nodetypes="cccccccc" />
    <path
       style="color:#000000;display:inline;overflow:visible;visibility:visible;fill:#ffffff;fill-opacity:1;fill-rule:nonzero;stroke:none;stroke-width:1px;marker:none;enable-background:accumulate"
       d="m 1243.158,494.41111 c -11.0023,-15.06298 -38.8277,-56.07942 -16.1175,-66.94339 6.656,-3.61412 12.7461,-3.99316 17.5532,-10.18221 -1.5928,-28.79108 -29.0451,-53.82693 -8.5176,-97.73612 2.2848,-5.53581 5.4855,-11.00583 10.7601,-14.34816 13.1154,-9.17132 32.0236,-11.14031 46.5765,-3.23776 8.8026,5.8805 12.0877,18.99851 5.3452,27.21065 -3.4903,4.3872 -9.5362,5.74632 -15.0619,5.40264 -10.2475,1.19375 -25.7267,8.83678 -29.9056,17.75168 -8.6972,20.74768 -1.1751,35.54466 5.9227,53.81721 2.4542,13.57995 -3.3565,25.01922 -9.1759,26.29344 -7.0448,1.62984 -15.4205,2.75049 -19.696,9.04109 -4.4656,11.69677 4.8011,35.34372 12.3168,52.93093 z"
       id="path4496-9"
       inkscape:connector-curvature="0"
       inkscape:transform-center-x="-20.153642"
       inkscape:transform-center-y="-26.822495"
       sodipodi:nodetypes="ccccccccccccc" />
  </g>
  <g
     inkscape:groupmode="layer"
     id="layer1"
     inkscape:label="txt"
     style="display:inline">
    <text
       xml:space="preserve"
       style="font-style:normal;font-variant:normal;font-weight:normal;font-stretch:normal;line-height:0%;font-family:Lavi;-inkscape-font-specification:Lavi;letter-spacing:0px;word-spacing:0px;fill:#ffffff;fill-opacity:1;stroke:#98b9ca;stroke-width:0.992362;stroke-miterlimit:4;stroke-dasharray:none;stroke-opacity:1;filter:url(#filter4375-4-1-1-1-9-5-8-2-4)"
       x="787.65729"
       y="1584.5073"
       id="text4580-6-0-8"
       transform="matrix(0.55850362,-0.1661484,-0.08410394,0.62710861,382.81364,-390.83474)"><tspan
         sodipodi:role="line"
         id="tspan4582-1-1-7"
         x="787.65729"
         y="1584.5073"
         style="font-size:70px;line-height:1.25;fill:#ffffff;fill-opacity:1;stroke:#98b9ca;stroke-opacity:1">Host!</tspan></text>
    <text
       xml:space="preserve"
       style="font-style:normal;font-variant:normal;font-weight:normal;font-stretch:normal;line-height:0%;font-family:Lavi;-inkscape-font-specification:Lavi;letter-spacing:0px;word-spacing:0px;fill:#ffffff;fill-opacity:1;stroke:#98b9ca;stroke-width:0.992362;stroke-miterlimit:4;stroke-dasharray:none;stroke-opacity:1;filter:url(#filter4375-4-1-1-1-9-5-8-9)"
       x="787.65729"
       y="1584.5073"
       id="text4580-6-0"
       transform="matrix(0.55414523,-0.18015174,-0.06829474,0.62902664,410.31777,-333.56887)"><tspan
         sodipodi:role="line"
         id="tspan4582-1-1"
         x="787.65729"
         y="1584.5073"
         style="font-size:70px;line-height:1.25;fill:#ffffff;fill-opacity:1;stroke:#98b9ca;stroke-opacity:1"><tspan
           style="font-size:93.1495px;fill:#ffffff;fill-opacity:1;stroke:#98b9ca;stroke-opacity:1"
           id="tspan4315-8">Hark!</tspan></tspan></text>
    <text
       xml:space="preserve"
       style="font-style:normal;font-variant:normal;font-weight:normal;font-stretch:normal;font-size:48px;line-height:0%;font-family:Lavi;-inkscape-font-specification:Lavi;text-align:center;letter-spacing:0px;word-spacing:0px;text-anchor:middle;fill:#000000;fill-opacity:1;stroke:none;stroke-width:0.925737"
       x="1383.3242"
       y="223.20978"
       id="text4246-1-3-2-8"
       transform="scale(0.99789912,1.0021053)"><tspan
         sodipodi:role="line"
         style="font-style:normal;font-variant:normal;font-weight:bold;font-stretch:normal;font-size:48px;line-height:1.25;font-family:Lavi;-inkscape-font-specification:'Lavi Bold';stroke-width:0.925737"
         x="1383.3242"
         y="223.20978"
         id="tspan22950">Shichimi!</tspan><tspan
         sodipodi:role="line"
         style="font-style:normal;font-variant:normal;font-weight:bold;font-stretch:normal;font-size:48px;line-height:1.25;font-family:Lavi;-inkscape-font-specification:'Lavi Bold';stroke-width:0.925737"
         x="1383.3242"
         y="283.20978"
         id="tspan19618">Går det bra?</tspan></text>
    <text
       id="text4246-4-2-7"
       y="181.51349"
       x="1756.3845"
       style="font-style:normal;font-variant:normal;font-weight:normal;font-stretch:normal;line-height:0%;font-family:Lavi;-inkscape-font-specification:Lavi;text-align:center;letter-spacing:0px;word-spacing:0px;text-anchor:middle;fill:#000000;fill-opacity:1;stroke:none"
       xml:space="preserve"><tspan
         y="181.51349"
         x="1756.3845"
         style="font-size:45px;line-height:1.25"
         sodipodi:role="line"
         id="tspan52511">Ja, det</tspan><tspan
         y="237.76349"
         x="1756.3845"
         style="font-size:45px;line-height:1.25"
         sodipodi:role="line"
         id="tspan973">gjekk fint.</tspan></text>
    <text
       id="text4246-4-2-7-0"
       y="322.47653"
       x="1793.0919"
       style="font-style:normal;font-variant:normal;font-weight:normal;font-stretch:normal;line-height:0%;font-family:Lavi;-inkscape-font-specification:Lavi;text-align:center;letter-spacing:0px;word-spacing:0px;text-anchor:middle;fill:#000000;fill-opacity:1;stroke:none"
       xml:space="preserve"><tspan
         y="322.47653"
         x="1793.0919"
         style="font-size:45px;line-height:1.25"
         sodipodi:role="line"
         id="tspan33428">Og du?</tspan></text>
    <text
       id="text4246-4-2-7-0-7"
       y="403.45312"
       x="1897.4279"
       style="font-style:normal;font-variant:normal;font-weight:normal;font-stretch:normal;line-height:0%;font-family:Lavi;-inkscape-font-specification:Lavi;text-align:center;letter-spacing:0px;word-spacing:0px;text-anchor:middle;fill:#000000;fill-opacity:1;stroke:none"
       xml:space="preserve"><tspan
         y="403.45312"
         x="1897.4279"
         style="font-size:45px;line-height:1.25"
         sodipodi:role="line"
         id="tspan33376-3-5">Og Gulrot?</tspan></text>
    <text
       id="text4246-4-2-7-0-7-5"
       y="632.40613"
       x="2164.313"
       style="font-style:normal;font-variant:normal;font-weight:normal;font-stretch:normal;line-height:0%;font-family:Lavi;-inkscape-font-specification:Lavi;text-align:center;letter-spacing:0px;word-spacing:0px;text-anchor:middle;fill:#000000;fill-opacity:1;stroke:none"
       xml:space="preserve"><tspan
         y="632.40613"
         x="2164.313"
         style="font-size:45px;line-height:1.25"
         sodipodi:role="line"
         id="tspan33376-3-5-4">Bra med</tspan><tspan
         y="688.65613"
         x="2164.313"
         style="font-size:45px;line-height:1.25"
         sodipodi:role="line"
         id="tspan54789">oss òg.</tspan></text>
    <text
       id="text4246-4-2-7-0-7-5-7"
       y="1294.6642"
       x="391.92505"
       style="font-style:normal;font-variant:normal;font-weight:normal;font-stretch:normal;line-height:0%;font-family:Lavi;-inkscape-font-specification:Lavi;text-align:center;letter-spacing:0px;word-spacing:0px;text-anchor:middle;fill:#000000;fill-opacity:1;stroke:none"
       xml:space="preserve"><tspan
         y="1294.6642"
         x="391.92505"
         style="font-size:45px;line-height:1.25"
         sodipodi:role="line"
         id="tspan46488">Kva i alle</tspan><tspan
         y="1350.9142"
         x="391.92505"
         style="font-size:45px;line-height:1.25"
         sodipodi:role="line"
         id="tspan55362">dagar?!</tspan></text>
    <text
       id="text4246-4-2-7-0-7-5-7-5"
       y="1458.0037"
       x="466.41241"
       style="font-style:normal;font-variant:normal;font-weight:normal;font-stretch:normal;line-height:0%;font-family:Lavi;-inkscape-font-specification:Lavi;text-align:center;letter-spacing:0px;word-spacing:0px;text-anchor:middle;fill:#000000;fill-opacity:1;stroke:none"
       xml:space="preserve"><tspan
         y="1458.0037"
         x="466.41241"
         style="font-size:45px;line-height:1.25"
         sodipodi:role="line"
         id="tspan50627">Eg ... kan ikkje</tspan><tspan
         y="1514.2537"
         x="466.41241"
         style="font-size:45px;line-height:1.25"
         sodipodi:role="line"
         id="tspan56510">tru det ...</tspan></text>
    <text
       id="text4246-4-2-7-0-7-5-7-5-7"
       y="1853.1066"
       x="1271.5372"
       style="font-style:normal;font-variant:normal;font-weight:normal;font-stretch:normal;line-height:0%;font-family:Lavi;-inkscape-font-specification:Lavi;text-align:center;letter-spacing:0px;word-spacing:0px;text-anchor:middle;fill:#000000;fill-opacity:1;stroke:none"
       xml:space="preserve"><tspan
         y="1853.1066"
         x="1271.5372"
         style="font-size:45px;line-height:1.25"
         sodipodi:role="line"
         id="tspan61312">Kva gjer</tspan><tspan
         y="1909.3566"
         x="1271.5372"
         style="font-size:45px;line-height:1.25"
         sodipodi:role="line"
         id="tspan62136">alle krigarane</tspan><tspan
         y="1965.6066"
         x="1271.5372"
         style="font-size:45px;line-height:1.25"
         sodipodi:role="line"
         id="tspan62138">her?!</tspan></text>
    <text
       id="text4246-4-2-7-0-7-5-7-5-7-2"
       y="2061.1086"
       x="1241.1755"
       style="font-style:normal;font-variant:normal;font-weight:normal;font-stretch:normal;line-height:0%;font-family:Lavi;-inkscape-font-specification:Lavi;text-align:center;letter-spacing:0px;word-spacing:0px;text-anchor:middle;fill:#000000;fill-opacity:1;stroke:none"
       xml:space="preserve"><tspan
         y="2061.1086"
         x="1241.1755"
         style="font-size:45px;line-height:1.25"
         sodipodi:role="line"
         id="tspan60233-4">Og med <tspan
   style="font-style:italic;font-variant:normal;font-weight:normal;font-stretch:normal;font-family:Lavi;-inkscape-font-specification:'Lavi Italic'"
   id="tspan77904">katapultar</tspan>?!</tspan></text>
    <text
       id="text4246-4-2-7-0-7-5-7-5-7-2-7"
       y="2163.5408"
       x="1275.5557"
       style="font-style:normal;font-variant:normal;font-weight:normal;font-stretch:normal;line-height:0%;font-family:Lavi;-inkscape-font-specification:Lavi;text-align:center;letter-spacing:0px;word-spacing:0px;text-anchor:middle;fill:#000000;fill-opacity:1;stroke:none"
       xml:space="preserve"><tspan
         y="2163.5408"
         x="1275.5557"
         style="font-size:45px;line-height:1.25"
         sodipodi:role="line"
         id="tspan80758">Kva vil</tspan><tspan
         y="2219.7908"
         x="1275.5557"
         style="font-size:45px;line-height:1.25"
         sodipodi:role="line"
         id="tspan66551">dei oss?</tspan></text>
    <text
       id="text4246-4-2-7-0-7-5-7-5-7-2-7-0"
       y="2017.1302"
       x="1780.3765"
       style="font-style:normal;font-variant:normal;font-weight:normal;font-stretch:normal;line-height:0%;font-family:Lavi;-inkscape-font-specification:Lavi;text-align:center;letter-spacing:0px;word-spacing:0px;text-anchor:middle;fill:#000000;fill-opacity:1;stroke:none"
       xml:space="preserve"><tspan
         y="2017.1302"
         x="1780.3765"
         style="font-size:45px;line-height:1.25"
         sodipodi:role="line"
         id="tspan87192-8">Ikkje godt</tspan><tspan
         y="2073.3804"
         x="1780.3765"
         style="font-size:45px;line-height:1.25"
         sodipodi:role="line"
         id="tspan27658">å seia ...</tspan></text>
    <text
       id="text4246-4-2-7-0-7-5-7-5-7-2-7-0-6"
       y="2158.4067"
       x="1798.2789"
       style="font-style:normal;font-variant:normal;font-weight:normal;font-stretch:normal;line-height:0%;font-family:Lavi;-inkscape-font-specification:Lavi;text-align:center;letter-spacing:0px;word-spacing:0px;text-anchor:middle;fill:#000000;fill-opacity:1;stroke:none"
       xml:space="preserve"><tspan
         y="2158.4067"
         x="1798.2789"
         style="font-size:45px;line-height:1.25"
         sodipodi:role="line"
         id="tspan89762">Men <tspan
   style="font-style:normal;font-variant:normal;font-weight:bold;font-stretch:normal;font-family:Lavi;-inkscape-font-specification:'Lavi Bold'"
   id="tspan10728">dei to der<tspan
   style="font-weight:normal"
   id="tspan3240"> dreg</tspan></tspan></tspan><tspan
         y="2214.6567"
         x="1798.2789"
         style="font-size:45px;line-height:1.25"
         sodipodi:role="line"
         id="tspan5232">eg iallfall kjensel på.</tspan></text>
    <text
       id="text4246-4-2-7-0-7-5-7-5-7-2-7-0-6-4"
       y="2545.9878"
       x="171.54672"
       style="font-style:normal;font-variant:normal;font-weight:normal;font-stretch:normal;font-size:20.1855px;line-height:0%;font-family:Lavi;-inkscape-font-specification:Lavi;text-align:center;letter-spacing:0px;word-spacing:0px;text-anchor:middle;fill:#000000;fill-opacity:1;stroke:none;stroke-width:1.68213"
       xml:space="preserve"
       transform="scale(1.0415118,0.96014276)"><tspan
         y="2545.9878"
         x="171.54672"
         style="font-style:normal;font-variant:normal;font-weight:normal;font-stretch:normal;font-size:75.6958px;line-height:1.25;font-family:Lavi;-inkscape-font-specification:Lavi;stroke-width:1.68213"
         sodipodi:role="line"
         id="tspan94572-1">?</tspan></text>
    <text
       id="text4246-4-2-7-0-7-5-7-5-7-2-7-0-6-4-4"
       y="2570.4646"
       x="757.89764"
       style="font-style:normal;font-variant:normal;font-weight:normal;font-stretch:normal;font-size:18.2467px;line-height:0%;font-family:Lavi;-inkscape-font-specification:Lavi;text-align:center;letter-spacing:0px;word-spacing:0px;text-anchor:middle;fill:#000000;fill-opacity:1;stroke:none;stroke-width:1.52057"
       xml:space="preserve"
       transform="scale(1.0289557,0.97185912)"><tspan
         y="2570.4646"
         x="757.89764"
         style="font-style:normal;font-variant:normal;font-weight:normal;font-stretch:normal;font-size:68.4254px;line-height:1.25;font-family:Lavi;-inkscape-font-specification:Lavi;stroke-width:1.52057"
         sodipodi:role="line"
         id="tspan94572-1-9"><tspan
   style="font-size:63.2767px;stroke-width:1.52057"
   id="tspan113997"><tspan
   style="font-size:58.7569px;stroke-width:1.52057"
   id="tspan117389">!</tspan>!</tspan>!</tspan></text>
    <text
       id="text4246-4-2-7-0-7-5-7-5-7-2-7-0-6-2"
       y="2474.2937"
       x="1230.8217"
       style="font-style:normal;font-variant:normal;font-weight:normal;font-stretch:normal;font-size:11.0046px;line-height:0%;font-family:Lavi;-inkscape-font-specification:Lavi;text-align:center;letter-spacing:0px;word-spacing:0px;text-anchor:middle;fill:#000000;fill-opacity:1;stroke:none;stroke-width:0.917051"
       xml:space="preserve"><tspan
         y="2474.2937"
         x="1230.8217"
         style="font-size:41.2673px;line-height:1.25;stroke-width:0.917051"
         sodipodi:role="line"
         id="tspan119847">Torreya –</tspan><tspan
         y="2525.8779"
         x="1230.8217"
         style="font-size:41.2673px;line-height:1.25;stroke-width:0.917051"
         sodipodi:role="line"
         id="tspan94490">her!</tspan></text>
  </g>
</svg>
