<?xml version="1.0" encoding="UTF-8" standalone="no"?>
<svg
   id="svg2"
   version="1.1"
   inkscape:version="1.1 (ce6663b3b7, 2021-05-25)"
   width="2481"
   height="3503"
   sodipodi:docname="E35P05.svg"
   xmlns:inkscape="http://www.inkscape.org/namespaces/inkscape"
   xmlns:sodipodi="http://sodipodi.sourceforge.net/DTD/sodipodi-0.dtd"
   xmlns:xlink="http://www.w3.org/1999/xlink"
   xmlns="http://www.w3.org/2000/svg"
   xmlns:svg="http://www.w3.org/2000/svg"
   xmlns:rdf="http://www.w3.org/1999/02/22-rdf-syntax-ns#"
   xmlns:cc="http://creativecommons.org/ns#"
   xmlns:dc="http://purl.org/dc/elements/1.1/">
  <metadata
     id="metadata8">
    <rdf:RDF>
      <cc:Work
         rdf:about="">
        <dc:format>image/svg+xml</dc:format>
        <dc:type
           rdf:resource="http://purl.org/dc/dcmitype/StillImage" />
        <dc:title />
      </cc:Work>
    </rdf:RDF>
  </metadata>
  <defs
     id="defs6" />
  <sodipodi:namedview
     pagecolor="#ffffff"
     bordercolor="#666666"
     borderopacity="1"
     objecttolerance="10"
     gridtolerance="10"
     guidetolerance="10"
     inkscape:pageopacity="0"
     inkscape:pageshadow="2"
     inkscape:window-width="1920"
     inkscape:window-height="1015"
     id="namedview4"
     showgrid="false"
     inkscape:zoom="0.40000002"
     inkscape:cx="1436.2499"
     inkscape:cy="2717.4999"
     inkscape:window-x="0"
     inkscape:window-y="0"
     inkscape:window-maximized="1"
     inkscape:current-layer="layer3"
     inkscape:document-rotation="0"
     inkscape:snap-global="false"
     inkscape:pagecheckerboard="0" />
  <g
     inkscape:groupmode="layer"
     id="layer2"
     inkscape:label="artwork"
     sodipodi:insensitive="true">
    <image
       xlink:href="../gfx_Pepper-and-Carrot_by-David-Revoy_E35P05.png"
       y="0"
       x="0"
       id="image10"
       height="3503"
       width="2481" />
  </g>
  <g
     inkscape:groupmode="layer"
     id="layer3"
     inkscape:label="speechbubbles">
    <path
       style="color:#000000;display:inline;overflow:visible;visibility:visible;fill:#ffffff;fill-opacity:1;fill-rule:nonzero;stroke:none;stroke-width:1.30021px;marker:none;enable-background:accumulate"
       d="m 1288.2039,3036.6191 c 2.8377,-37.887 15.5573,-37.563 59.3522,-3.293 -11.5565,-67.5679 47.2423,-70.7627 102.0421,-77.6163 -6.285,-18.9846 -30.5485,-40.7882 8.7853,-52.6213 -21.1272,-11.316 -21.1955,-26.37 -2.4737,-44.7586 -43.7377,8.7626 -60.1893,3.3676 -8.4588,-37.4037 -48.8243,23.1627 -95.5801,43.782 -77.1663,-15.6939 -18.4885,8.0953 -28.8033,55.1828 -101.2152,-30.9488 -0.8198,39.6593 -73.4789,72.2902 -109.1613,21.0924 18.0644,42.6588 -41.1497,91.6123 -68.9155,57.3627 16.4945,23.9146 2.8616,47.3008 -17.9239,51.2192 59.014,6.3274 47.1751,20.8236 6.3246,44.8713 121.5505,3.7537 54.6582,27.6445 55.254,43.8171 73.9955,-14.8744 69.2401,15.3441 79.834,37.7459 70.4672,-68.33 49.0588,-56.1255 73.7225,6.227 z"
       id="path3549-3-1"
       inkscape:connector-curvature="0"
       sodipodi:nodetypes="ccccccccccccccc" />
    <path
       style="color:#000000;display:inline;overflow:visible;visibility:visible;fill:#ffffff;fill-opacity:1;fill-rule:nonzero;stroke:none;stroke-width:1.0931px;marker:none;enable-background:accumulate"
       d="m 1243.009,2922.758 c -6.444,30.0563 -42.7885,32.5766 -56.1678,26.4672 26.9698,33.6236 26.0296,54.5143 -10.5878,57.758 61.408,60.5985 19.6225,70.9626 1.3282,66.7946 48.2165,20.8835 50.785,70.3701 18.0597,72.7463 55.4203,0.8888 37.2836,42.3617 39.6197,75.3924 4.6982,-15.4994 27.0184,-62.6866 28.3615,-10.1468 30.3279,-38.979 66.9615,-58.1159 84.3157,5.2157 14.7698,-44.1297 29.4954,-62.7807 28.3618,-10.1468 36.5949,-68.457 69.4806,-43.8156 102.5611,-24.4672 -7.5308,-20.9938 -27.424,-53.1645 37.8098,-44.9659 -22.9553,-19.8306 -23.9149,-33.5516 26.9831,-42.9171 -28.4817,-12.3711 -33.7306,-25.1317 19.1533,-38.8641 -40.2417,-1.3283 -77.7672,-4.0497 -30.5549,-50.8811 -14.8119,-1.1331 -49.9545,37.9442 -33.5696,-76.4165 -25.4696,36.6108 -52.6433,56.8175 -86.7219,-19.8729 -16.1277,38.313 -44.1007,57.2718 -56.2702,9.4158 -4.3742,20.4019 -22.5111,28.0747 -37.9082,29.0051 -5.9539,-8.1039 -12.0951,-19.1113 -18.5033,-33.5326 -10.4738,30.281 -26.1416,50.7315 -56.2702,9.4159 z"
       id="path3549-3-7"
       inkscape:connector-curvature="0"
       sodipodi:nodetypes="cccccccccccccccccccc" />
    <path
       style="fill:#ffffff;fill-rule:evenodd;stroke:none;stroke-width:1.65188px;stroke-linecap:butt;stroke-linejoin:miter;stroke-opacity:1"
       d="m 1204.7404,2519.8617 c 50.5917,78.9459 60.9555,113.3414 65.2028,134.3512 -41.2056,-22.133 -58.2095,-26.0517 -64.1574,-16.5377 -5.9478,9.5142 78.8131,323.8736 78.8131,323.8736 l 27.3427,-77.0906 c 0,0 -45.9792,-134.5245 -55.8759,-162.7161 -9.897,-28.1916 -17.6794,-59.5815 -17.6794,-59.5815 0,0 32.7448,22.5895 42.5581,23.1114 9.813,0.5218 45.9229,-15.5328 -76.204,-165.4103 z"
       id="path891"
       inkscape:connector-curvature="0"
       inkscape:transform-center-x="-51.96084"
       inkscape:transform-center-y="220.66697"
       sodipodi:nodetypes="ccsccscsc" />
    <path
       style="fill:#ffffff;fill-rule:evenodd;stroke:none;stroke-width:1px;stroke-linecap:butt;stroke-linejoin:miter;stroke-opacity:1"
       d="m 2185.1028,3280.612 c 1.0808,-19.455 14.0506,-55.122 33.5054,-61.607 19.4547,-6.485 73.4956,-6.485 84.3038,-3.242 10.8082,3.242 28.1013,27.02 32.4246,36.748 4.3233,9.727 16.2123,44.313 -3.2424,58.364 -19.4548,14.051 -38.9095,24.859 -59.4451,23.778 -20.5356,-1.081 -61.6067,-8.647 -71.334,-21.616 -9.7274,-12.97 -16.2123,-32.425 -16.2123,-32.425 z"
       id="path1355"
       inkscape:connector-curvature="0" />
    <path
       style="fill:#ffffff;fill-rule:evenodd;stroke:none;stroke-width:1.40704px;stroke-linecap:butt;stroke-linejoin:miter;stroke-opacity:1"
       d="m 2210.3858,3260.9854 c 0,0 -9.9729,30.1184 -20.5324,37.3461 -10.5597,7.2275 -37.179,18.9359 -56.6531,11.8546 35.6758,21.6634 55.6021,14.7863 64.3759,10.0326 8.7751,-4.7533 39.4153,-35.3687 39.4153,-35.3687 z"
       id="path1367"
       inkscape:connector-curvature="0" />
  </g>
  <g
     inkscape:groupmode="layer"
     id="layer1"
     inkscape:label="txt">
    <text
       xml:space="preserve"
       style="font-style:normal;font-variant:normal;font-weight:normal;font-stretch:normal;font-size:64px;line-height:1.25;font-family:Lavi;-inkscape-font-specification:Lavi;text-align:center;letter-spacing:0px;word-spacing:0px;text-anchor:middle;fill:#000000;fill-opacity:1;stroke:none"
       x="1781.5028"
       y="2937.1594"
       id="text4246-3-2-2"
       transform="skewX(-9.8231434)"><tspan
         style="font-style:normal;font-variant:normal;font-weight:bold;font-stretch:normal;font-size:64px;font-family:Lavi;-inkscape-font-specification:'Lavi Bold'"
         sodipodi:role="line"
         x="1791.5028"
         y="2937.1594"
         id="tspan905">LLAMPS! </tspan></text>
    <text
       xml:space="preserve"
       style="font-style:normal;font-variant:normal;font-weight:normal;font-stretch:normal;font-size:56px;line-height:1.25;font-family:Lavi;-inkscape-font-specification:Lavi;text-align:center;letter-spacing:0px;word-spacing:0px;text-anchor:middle;fill:#000000;fill-opacity:1;stroke:none"
       x="1354.6593"
       y="3061.1643"
       id="text4246-3-2-2-7"><tspan
         style="font-style:normal;font-variant:normal;font-weight:bold;font-stretch:normal;font-size:56px;font-family:Lavi;-inkscape-font-specification:'Lavi Bold'"
         sodipodi:role="line"
         x="1354.6593"
         y="3061.1643"
         id="tspan905-5"> QUÈ</tspan><tspan
         style="font-style:normal;font-variant:normal;font-weight:bold;font-stretch:normal;font-size:56px;font-family:Lavi;-inkscape-font-specification:'Lavi Bold'"
         sodipodi:role="line"
         x="1354.6593"
         y="3131.1643"
         id="tspan935"> FAIG?!</tspan></text>
    <text
       xml:space="preserve"
       style="font-style:normal;font-variant:normal;font-weight:normal;font-stretch:normal;font-size:56px;line-height:1.25;font-family:Lavi;-inkscape-font-specification:Lavi;text-align:center;letter-spacing:0px;word-spacing:0px;text-anchor:middle;fill:#000000;fill-opacity:1;stroke:none"
       x="2261.2617"
       y="3292.04"
       id="text4246-3-2-2-7-3"><tspan
         style="font-style:normal;font-variant:normal;font-weight:bold;font-stretch:normal;font-size:56px;font-family:Lavi;-inkscape-font-specification:'Lavi Bold'"
         sodipodi:role="line"
         x="2261.2617"
         y="3292.04"
         id="tspan935-6">Oh!</tspan></text>
  </g>
</svg>
