<?xml version="1.0" encoding="UTF-8" standalone="no"?>
<!-- Created with Inkscape (http://www.inkscape.org/) -->

<svg
   id="svg2"
   version="1.1"
   inkscape:version="1.1 (c68e22c387, 2021-05-23)"
   width="2481"
   height="3503"
   sodipodi:docname="E36P02.svg"
   xmlns:inkscape="http://www.inkscape.org/namespaces/inkscape"
   xmlns:sodipodi="http://sodipodi.sourceforge.net/DTD/sodipodi-0.dtd"
   xmlns:xlink="http://www.w3.org/1999/xlink"
   xmlns="http://www.w3.org/2000/svg"
   xmlns:svg="http://www.w3.org/2000/svg"
   xmlns:rdf="http://www.w3.org/1999/02/22-rdf-syntax-ns#"
   xmlns:cc="http://creativecommons.org/ns#"
   xmlns:dc="http://purl.org/dc/elements/1.1/">
  <metadata
     id="metadata8">
    <rdf:RDF>
      <cc:Work
         rdf:about="">
        <dc:format>image/svg+xml</dc:format>
        <dc:type
           rdf:resource="http://purl.org/dc/dcmitype/StillImage" />
      </cc:Work>
    </rdf:RDF>
  </metadata>
  <defs
     id="defs6">
    <filter
       x="-0.032294048"
       width="1.0625661"
       height="1.3663621"
       inkscape:label="magic-Fx-red_background"
       id="filter4375-4-1-1-1-9-5-8-8-3-3-3-6-1-3"
       style="color-interpolation-filters:sRGB"
       y="-0.13001217">
      <feFlood
         radius="5.0999999999999996"
         result="flood"
         flood-color="rgb(136,138,133)"
         flood-opacity="1"
         id="feFlood4377-7-9-0-8-1-7-3-1-6-61-6-2-0-1" />
      <feComposite
         baseFrequency="0.053999999999999999 0.053999999999999999"
         result="composite1"
         operator="in"
         in="flood"
         in2="SourceGraphic"
         id="feComposite4379-3-8-8-2-77-4-1-0-7-2-7-6-6-4" />
      <feMorphology
         result="result3"
         radius="0.96959439099754563"
         operator="dilate"
         id="feMorphology4393-1-0-49-8-9-3-0-1-5-9-5-1-3-9" />
      <feComposite
         numOctaves="4"
         result="fbSourceGraphic"
         operator="over"
         in="SourceGraphic"
         in2="result3"
         id="feComposite4385-9-5-7-0-8-8-7-5-3-3-3-8-2-2" />
      <feColorMatrix
         id="feColorMatrix4544-9-5-1-5-7-0-0"
         values="0 0 0 -1 0 0 0 0 -1 0 0 0 0 -1 0 0 0 0 1 0"
         in="fbSourceGraphic"
         result="fbSourceGraphicAlpha" />
      <feTurbulence
         result="turbulence"
         baseFrequency="0.062 0.054054054054054057"
         seed="172"
         numOctaves="4.4123222748815163"
         type="fractalNoise"
         id="feTurbulence4546-3-6-9-6-9-6-6" />
      <feDisplacementMap
         result="fbSourceGraphic"
         xChannelSelector="R"
         yChannelSelector="G"
         scale="11.642079"
         in="fbSourceGraphic"
         in2="turbulence"
         id="feDisplacementMap4548-8-2-4-2-2-1-8" />
      <feColorMatrix
         scale="10.800000000000001"
         id="feColorMatrix4670-7-9-7-9-0-5-9"
         values="0 0 0 -1 0 0 0 0 -1 0 0 0 0 -1 0 0 0 0 1 0"
         in="fbSourceGraphic"
         result="fbSourceGraphicAlpha" />
      <feComposite
         result="composite1"
         operator="in"
         in="flood"
         in2="fbSourceGraphic"
         id="feComposite4674-8-2-4-1-2-5-2" />
      <feGaussianBlur
         result="blur"
         stdDeviation="1.5865199271065846"
         in="composite1"
         id="feGaussianBlur4676-3-7-50-2-3-4-6" />
      <feOffset
         result="offset"
         dy="5.2374444725016502"
         dx="-0.42771311737301687"
         id="feOffset4678-6-0-3-7-7-7-6" />
      <feComposite
         result="composite2"
         operator="over"
         in="fbSourceGraphic"
         in2="offset"
         id="feComposite4680-4-9-6-0-5-6-4" />
      <feGaussianBlur
         stdDeviation="0.76414472307477677"
         id="feGaussianBlur58-9-9-5-9" />
      <feOffset
         dx="0"
         dy="0"
         id="feOffset60-3-2-6-5" />
    </filter>
    <filter
       style="color-interpolation-filters:sRGB"
       id="filter4375-4-1-1-1-9-5-8-3-4"
       inkscape:label="Drop Shadow"
       x="-0.0007699657"
       y="-0.0039836934"
       width="1.015765"
       height="1.0815659">
      <feFlood
         id="feFlood4377-7-9-0-8-1-7-3-6"
         flood-opacity="1"
         flood-color="rgb(39,39,39)"
         result="flood" />
      <feComposite
         id="feComposite4379-3-8-8-2-77-4-1-7"
         in2="SourceGraphic"
         in="flood"
         operator="in"
         result="composite1" />
      <feMorphology
         id="feMorphology4393-1-0-49-8-9-3-0-5"
         operator="dilate"
         radius="6.2000000000000002"
         result="result3" />
      <feComposite
         id="feComposite4385-9-5-7-0-8-8-7-3"
         in2="result3"
         in="SourceGraphic"
         operator="over"
         result="fbSourceGraphic" />
      <feColorMatrix
         result="fbSourceGraphicAlpha"
         in="fbSourceGraphic"
         values="0 0 0 -1 0 0 0 0 -1 0 0 0 0 -1 0 0 0 0 1 0"
         id="feColorMatrix4544-5" />
      <feTurbulence
         id="feTurbulence4546-6"
         type="fractalNoise"
         numOctaves="3"
         seed="37"
         baseFrequency="0.129 0.0050000000000000001"
         result="turbulence" />
      <feDisplacementMap
         id="feDisplacementMap4548-2"
         in2="turbulence"
         in="fbSourceGraphic"
         scale="6.6"
         yChannelSelector="G"
         xChannelSelector="R"
         result="fbSourceGraphic" />
      <feColorMatrix
         result="fbSourceGraphicAlpha"
         in="fbSourceGraphic"
         values="0 0 0 -1 0 0 0 0 -1 0 0 0 0 -1 0 0 0 0 1 0"
         id="feColorMatrix4670-9-3" />
      <feFlood
         id="feFlood4672-1-0"
         flood-opacity="0.40999999999999998"
         flood-color="rgb(34,52,102)"
         result="flood"
         in="fbSourceGraphic" />
      <feComposite
         id="feComposite4674-2-3"
         in2="fbSourceGraphic"
         in="flood"
         operator="in"
         result="composite1" />
      <feGaussianBlur
         id="feGaussianBlur4676-7"
         in="composite1"
         stdDeviation="0"
         result="blur" />
      <feOffset
         id="feOffset4678-0-0"
         dx="6"
         dy="6"
         result="offset" />
      <feComposite
         id="feComposite4680-9"
         in2="offset"
         in="fbSourceGraphic"
         operator="over"
         result="composite2" />
    </filter>
  </defs>
  <sodipodi:namedview
     pagecolor="#1e1e1e"
     bordercolor="#111111"
     borderopacity="1"
     objecttolerance="10"
     gridtolerance="10"
     guidetolerance="10"
     inkscape:pageopacity="0"
     inkscape:pageshadow="2"
     inkscape:window-width="1366"
     inkscape:window-height="745"
     id="namedview4"
     showgrid="false"
     inkscape:zoom="0.46000002"
     inkscape:cx="1704.3478"
     inkscape:cy="2985.8694"
     inkscape:window-x="-8"
     inkscape:window-y="-8"
     inkscape:window-maximized="1"
     inkscape:current-layer="layer1"
     inkscape:pagecheckerboard="0"
     inkscape:snap-global="false" />
  <g
     inkscape:groupmode="layer"
     id="layer2"
     inkscape:label="artwork"
     sodipodi:insensitive="true"
     style="display:inline">
    <image
       xlink:href="../gfx_Pepper-and-Carrot_by-David-Revoy_E36P02.png"
       y="0"
       x="0"
       id="image10"
       height="3503"
       width="2481" />
  </g>
  <g
     inkscape:groupmode="layer"
     id="layer3"
     inkscape:label="speechbubbles"
     style="display:inline">
    <path
       style="fill:#ffffff;fill-rule:evenodd;stroke:none;stroke-width:1.51807px;stroke-linecap:butt;stroke-linejoin:miter;stroke-opacity:1"
       d="m 1632.3357,3206.4764 c -40.8174,0.045 -120.0103,12.9419 -50.437,49.2533 -89.614,-18.0303 -105.4971,-3.184 -114.6092,14.6812 -29.8198,-15.904 -61.4453,-30.0771 -124.0398,-14.5716 -12.545,-24.9118 -57.9819,-32.9308 -128.2385,-28.2031 59.5777,-21.4739 94.6926,-41.6992 -24.721,-54.0373 96.862,-3.1342 121.5972,-31.1057 24.2627,-50.5371 78.3548,6.0465 100.6676,-1.0415 81.156,-17.9317 47.246,11.6215 85.6003,10.9419 114.5702,-2.7208 45.7433,28.3175 78.6115,26.3594 101.2703,0.3947 2.3418,43.6817 69.0573,41.1468 117.4545,45.4166 -81.5386,17.0103 -16.6876,62.535 3.3318,58.2558 z"
       id="path1087"
       inkscape:connector-curvature="0"
       sodipodi:nodetypes="cccccccccccc" />
    <path
       style="color:#000000;display:inline;overflow:visible;visibility:visible;fill:#ffffff;fill-opacity:1;fill-rule:nonzero;stroke:none;stroke-width:1.25596px;marker:none;enable-background:accumulate"
       d="m 1660.5567,3199.4042 c -34.6184,0.2263 -69.9022,1.8199 -102.8188,13.0854 -20.9528,6.6629 -41.7833,16.0239 -57.3208,31.4223 -13.6025,16.6015 -14.8766,39.1321 -12.8089,59.3315 1.8685,16.3119 10.2411,31.5577 22.9686,42.4774 23.1463,21.8076 54.5232,34.4172 86.5843,37.6247 22.6926,2.6558 45.5015,4.4456 68.3116,5.833 43.8038,1.8222 87.7736,-0.8644 131.1272,-6.9764 26.5156,-4.1552 52.3521,-17.3215 67.2788,-39.2571 16.2417,-22.9342 18.3601,-52.7562 11.8955,-79.1707 -3.7061,-14.6476 -13.3296,-27.7327 -26.8722,-35.4935 -31.3922,-18.5298 -68.6629,-25.0252 -104.9946,-26.8555 -27.7642,-1.0888 -55.5566,-2.1725 -83.3507,-2.0211 z"
       id="path3525-1"
       inkscape:connector-curvature="0"
       sodipodi:nodetypes="ccccc" />
    <path
       style="display:inline;fill:#ffffff;fill-rule:evenodd;stroke:none;stroke-width:1.15535px;stroke-linecap:butt;stroke-linejoin:miter;stroke-opacity:1"
       d="m 1689.5967,3128.6539 c 0,0 -32.5032,0.5122 -35.8686,17.9644 -3.3663,17.4516 24.539,59.2603 24.539,59.2603 0,0 -45.1119,0.7369 -45.1178,48.4326 -0.01,47.6953 47.113,85.7891 43.4135,52.8962 -3.6991,-32.8931 -34.8285,-95.2011 56.3216,-84.9196 -32.3662,-27.7763 -52.1364,-60.1065 -52.668,-63.6644 -1.9951,-13.3523 30.9323,-20.3265 45.1813,-19.8929 -64.6236,-55.3255 -17.6069,-82.8485 -7.229,-135.1096 -26.5229,47.7737 -71.2674,83.4938 -28.572,125.033 z"
       id="path4394-0"
       inkscape:connector-curvature="0"
       sodipodi:nodetypes="cscsscsccc" />
    <path
       style="display:inline;fill:#ffffff;fill-rule:evenodd;stroke:none;stroke-width:1.19036px;stroke-linecap:butt;stroke-linejoin:miter;stroke-opacity:1"
       d="m 2098.4948,2198.5782 c -5.6223,9.3652 -10.1499,20.2228 -19.9866,26.2598 -8.0109,4.6087 -18.5513,1.3641 -24.5405,-4.9372 -4.5847,-4.3684 -8.8581,-9.0289 -13.3461,-13.4886 1.7532,8.2123 2.7841,17.1629 -0.8366,25.0586 -6.4299,5.2699 -16.5771,3.1589 -21.9805,-2.5176 -1.9542,-1.3789 -3.9083,-2.7578 -5.8625,-4.1367 2.307,10.4861 -0.1527,22.5651 -8.578,29.9766 -8.2854,3.8263 -18.4612,-0.6367 -22.9967,-7.8872 -1.8554,-1.9146 -3.7107,-3.8291 -5.566,-5.7437 4.688,4.7151 3.3271,14.3631 -3.5455,16.3761 -8.9458,1.3432 -17.0286,-3.7639 -24.1191,-8.3516 -7.8527,-5.1353 -15.0955,-11.0707 -22.4129,-16.8839 10.0983,11.2585 20.5111,23.1749 24.5207,37.9121 0.3893,6.1843 -9.0911,9.6193 -13.1362,4.9278 -2.468,-1.1485 -4.901,-2.3646 -7.3424,-3.5645 6.6896,6.3869 13.6868,13.3899 15.8579,22.5508 -3.1993,6.3366 -11.9631,7.7735 -18.2183,5.219 -2.4952,-0.4708 -4.9904,-0.9416 -7.4858,-1.4124 12.2821,13.2081 20.0328,31.4213 17.1959,49.3465 -3.3136,15.2174 -14.2647,27.1681 -23.6771,39.2189 -0.9709,0.8102 -1.508,2.7141 0.4561,1.8858 15.3774,-2.5934 31.6791,-4.716 46.7823,0.3406 9.4277,3.7684 13.5259,16.4082 7.8607,24.6672 4.5217,-3.889 11.0524,-7.3641 17.142,-4.8867 7.6425,3.2897 10.564,12.183 9.9041,19.7432 -0.2139,5.8807 -2.0447,11.5424 -3.7352,17.1474 7.3237,-10.3551 15.0403,-21.41 27.0326,-27.0918 7.6074,-2.2408 15.2985,6.071 13.0859,13.2207 0.1252,2.0088 3.1004,0.9918 3.1994,-0.5194 8.3172,-9.672 20.0758,-17.6764 33.417,-18.2785 4.4859,0.5295 7.6147,5.3928 6.5219,9.5616 6.9477,-5.4657 15.4592,-10.4435 24.774,-9.4575 12.9,0.6157 23.9374,8.1002 33.774,15.5392 2.6217,1.9825 5.1809,4.0411 7.7622,6.0726 2.7161,-8.9364 5.5131,-18.8743 13.6182,-24.7014 8.9808,-4.6708 20.4187,-1.0511 26.915,5.9933 5.5399,4.6637 10.2634,10.131 15.1326,15.4269 2.1128,-9.7726 14.8476,-14.5942 23.7888,-10.4305 9.4475,3.7713 16.9417,10.8988 23.6216,18.1876 1.72,2.02 3.3709,4.0937 5.0035,6.1804 -1.9508,-7.4534 -4.8967,-15.1807 -3.0521,-22.9473 4.2433,-3.6425 10.8126,-1.401 14.1082,2.3765 6.9534,4.9325 13.0534,10.9285 18.3916,17.4672 -3.2027,-9.9466 3.059,-22.239 13.8602,-24.5459 12.474,-3.7154 25.6754,-0.4554 37.6619,3.4086 7.895,2.7277 15.3743,6.4531 22.6466,10.4635 -10.1844,-7.5463 -17.5109,-20.0775 -15.4932,-32.7604 1.7922,-8.9338 10.368,-14.9362 18.9264,-17.3786 0.6615,-0.2129 2.5227,-0.3432 1.0906,-1.1227 -5.4573,-3.8955 -12.9261,-6.4461 -15.4226,-13.1184 -2.8586,-7.8087 1.7031,-16.2274 7.8526,-21.2393 4.9057,-4.1718 10.1196,-7.983 15.3479,-11.7634 -9.6653,-3.4558 -20.7147,-5.4723 -27.8899,-13.2452 -4.8355,-6.2561 -1.8198,-15.57 4.3625,-19.8693 11.633,-11.0196 25.6754,-19.1474 38.8307,-28.282 -21.739,5.3957 -43.6611,12.3507 -66.3908,11.2735 -9.548,-1.5136 -14.3445,-13.7163 -9.205,-21.3692 2.6634,-8.4403 7.1711,-16.1581 11.1282,-24.0625 -17.2699,5.2297 -34.3225,12.3822 -52.6439,13.1172 -4.1911,-2.5234 -2.999,-8.9796 0.8267,-11.2773 0.6937,-1.2561 2.3954,-2.2696 1.9918,-3.8848 -10.1963,6.3476 -21.3236,12.5914 -33.7639,12.957 -8.7618,-2.0389 -14.0894,-12.2569 -10.9006,-20.3535 -2.0658,-2.3696 -5.1496,0.016 -7.1376,1.2506 -21.4636,10.1855 -47.4613,12.9586 -69.9206,4.1279 -18.122,-7.1928 -33.163,-20.3543 -44.5186,-35.6226 -0.2007,-0.1246 -0.4532,-0.1831 -0.6875,-0.1231 z"
       id="path4289-9-3"
       inkscape:connector-curvature="0"
       sodipodi:nodetypes="cccccccccccccccccccccccc" />
    <path
       style="color:#000000;display:inline;overflow:visible;visibility:visible;fill:#ffffff;fill-opacity:1;fill-rule:nonzero;stroke:none;stroke-width:0.634675px;marker:none;enable-background:accumulate"
       d="m 2065.5689,2358.3715 c -1.019,14.0823 -77.982,87.5377 3.591,185.0685 -57.766,-96.8638 17.7385,-154.6405 29.7695,-166.83 -23.5374,-29.6642 -17.4947,-9.4644 -33.3605,-18.2385 z"
       id="path4024-3"
       inkscape:connector-curvature="0"
       sodipodi:nodetypes="cccc" />
  </g>
  <g
     inkscape:groupmode="layer"
     id="layer1"
     inkscape:label="txt"
     style="display:inline">
    <text
       transform="matrix(1.0109872,-0.19833599,-0.21684929,1.1745089,102.88627,624.18095)"
       id="text4580-6-0-0-3-3-6-2-9-8-0"
       y="1584.5073"
       x="787.65729"
       style="font-style:normal;font-variant:normal;font-weight:normal;font-stretch:normal;line-height:0;font-family:Lavi;-inkscape-font-specification:Lavi;letter-spacing:3.03024px;word-spacing:0px;opacity:0.75027;fill:#ffffff;fill-opacity:1;stroke:#837567;stroke-width:1.52377;stroke-miterlimit:4;stroke-dasharray:none;stroke-opacity:1;paint-order:stroke fill markers;filter:url(#filter4375-4-1-1-1-9-5-8-8-3-3-3-6-1-3)"
       xml:space="preserve"
       inkscape:label="FXB-3"><tspan
         style="font-style:normal;font-variant:normal;font-weight:bold;font-stretch:normal;font-size:70px;line-height:1.25;font-family:Drukah;-inkscape-font-specification:'Drukah Bold';fill:#ffffff;fill-opacity:1;stroke:#837567;stroke-width:1.52377;stroke-miterlimit:4;stroke-dasharray:none;stroke-opacity:1;paint-order:stroke fill markers"
         y="1584.5073"
         x="787.65729"
         id="tspan4582-1-1-0-6-9-0-8-3-4-4"
         sodipodi:role="line"><tspan
   style="letter-spacing:-3.73913px"
   id="tspan19018">Fs</tspan>ch<tspan
   style="font-size:59.826px"
   id="tspan39837">h...</tspan></tspan></text>
    <text
       id="text4246-5-8"
       y="3201.8108"
       x="1431.5361"
       style="font-style:normal;font-variant:normal;font-weight:normal;font-stretch:normal;font-size:53.7995px;line-height:0%;font-family:Lavi;-inkscape-font-specification:Lavi;text-align:center;letter-spacing:0px;word-spacing:0px;text-anchor:middle;fill:#000000;fill-opacity:1;stroke:none;stroke-width:1.05513"
       xml:space="preserve"
       inkscape:label="kingB"><tspan
         y="3201.8108"
         x="1431.5361"
         style="font-style:normal;font-variant:normal;font-weight:bold;font-stretch:normal;font-size:53.7995px;line-height:1.25;font-family:Lavi;-inkscape-font-specification:'Lavi Bold';stroke-width:1.05513"
         sodipodi:role="line"
         id="tspan858">Verdammt!</tspan></text>
    <text
       id="text4246-5-8-3"
       y="3284.23"
       x="1686.7274"
       style="font-style:normal;font-variant:normal;font-weight:normal;font-stretch:normal;font-size:45px;line-height:0%;font-family:Lavi;-inkscape-font-specification:Lavi;text-align:center;letter-spacing:0px;word-spacing:0px;text-anchor:middle;fill:#000000;fill-opacity:1;stroke:none;stroke-width:0.88255"
       xml:space="preserve"
       inkscape:label="kingB"><tspan
         y="3284.23"
         x="1686.7274"
         style="font-style:normal;font-variant:normal;font-weight:bold;font-stretch:normal;font-size:45px;line-height:1.25;font-family:Lavi;-inkscape-font-specification:'Lavi Bold';stroke-width:0.88255"
         sodipodi:role="line"
         id="tspan1363">Ich kann hier gar </tspan><tspan
         y="3340.48"
         x="1686.7274"
         style="font-style:normal;font-variant:normal;font-weight:bold;font-stretch:normal;font-size:45px;line-height:1.25;font-family:Lavi;-inkscape-font-specification:'Lavi Bold';stroke-width:0.88255"
         sodipodi:role="line"
         id="tspan1367">nichts machen!</tspan></text>
    <text
       xml:space="preserve"
       style="font-style:normal;font-variant:normal;font-weight:normal;font-stretch:normal;line-height:0%;font-family:Lavi;-inkscape-font-specification:Lavi;text-align:center;letter-spacing:0px;word-spacing:0px;text-anchor:middle;fill:#000000;fill-opacity:1;stroke:none"
       x="2138.511"
       y="2317.1406"
       id="text4246-7-6-4-6-4-5-6"
       inkscape:label="kingB"><tspan
         sodipodi:role="line"
         style="font-style:normal;font-variant:normal;font-weight:bold;font-stretch:normal;font-size:45px;line-height:1.25;font-family:Lavi;-inkscape-font-specification:'Lavi Bold'"
         x="2138.511"
         y="2317.1406"
         id="tspan50694">Blödes magisches </tspan><tspan
         sodipodi:role="line"
         style="font-style:normal;font-variant:normal;font-weight:bold;font-stretch:normal;font-size:45px;line-height:1.25;font-family:Lavi;-inkscape-font-specification:'Lavi Bold'"
         x="2138.511"
         y="2373.3906"
         id="tspan4277">Gefängnis! Grrrr!</tspan></text>
    <text
       xml:space="preserve"
       style="font-style:normal;font-variant:normal;font-weight:normal;font-stretch:normal;line-height:0%;font-family:Lavi;-inkscape-font-specification:Lavi;letter-spacing:0px;word-spacing:0px;display:inline;fill:#ffffff;fill-opacity:1;stroke:#000000;stroke-width:0.649528;stroke-miterlimit:4;stroke-dasharray:none;stroke-opacity:1;filter:url(#filter4375-4-1-1-1-9-5-8-3-4)"
       x="787.65729"
       y="1584.5073"
       id="text4580-6-0-3"
       transform="matrix(0.56396936,0.29200899,-0.49083985,0.74440634,2292.4537,1543.4282)"
       inkscape:transform-center-x="-5.9254429"
       inkscape:transform-center-y="0.58615246"><tspan
         sodipodi:role="line"
         id="tspan4582-1-1-6"
         x="787.65729"
         y="1584.5073"
         style="font-style:normal;font-variant:normal;font-weight:normal;font-stretch:normal;font-size:70px;line-height:1.25;font-family:Combah;-inkscape-font-specification:Combah;fill:#ffffff;fill-opacity:1;stroke:#000000;stroke-width:0.649528;stroke-opacity:1"><tspan
           style="font-style:normal;font-variant:normal;font-weight:normal;font-stretch:normal;font-size:93.1495px;font-family:Combah;-inkscape-font-specification:Combah;fill:#ffffff;fill-opacity:1;stroke:#000000;stroke-width:0.649528;stroke-opacity:1"
           id="tspan4315-8-0">SCHEPPER</tspan><tspan
           style="font-style:normal;font-variant:normal;font-weight:normal;font-stretch:normal;font-size:114.732px;font-family:Combah;-inkscape-font-specification:Combah;fill:#ffffff;fill-opacity:1;stroke:#000000;stroke-width:0.649528;stroke-opacity:1"
           id="tspan4313-2-6">!</tspan></tspan></text>
  </g>
</svg>
