<?xml version="1.0" encoding="UTF-8" standalone="no"?>
<!-- Created with Inkscape (http://www.inkscape.org/) -->

<svg
   id="svg2"
   version="1.1"
   inkscape:version="1.1.2 (0a00cf5339, 2022-02-04)"
   width="2481"
   height="3503"
   sodipodi:docname="E37P06.svg"
   xmlns:inkscape="http://www.inkscape.org/namespaces/inkscape"
   xmlns:sodipodi="http://sodipodi.sourceforge.net/DTD/sodipodi-0.dtd"
   xmlns:xlink="http://www.w3.org/1999/xlink"
   xmlns="http://www.w3.org/2000/svg"
   xmlns:svg="http://www.w3.org/2000/svg"
   xmlns:rdf="http://www.w3.org/1999/02/22-rdf-syntax-ns#"
   xmlns:cc="http://creativecommons.org/ns#"
   xmlns:dc="http://purl.org/dc/elements/1.1/">
  <metadata
     id="metadata8">
    <rdf:RDF>
      <cc:Work
         rdf:about="">
        <dc:format>image/svg+xml</dc:format>
        <dc:type
           rdf:resource="http://purl.org/dc/dcmitype/StillImage" />
        <dc:title />
      </cc:Work>
    </rdf:RDF>
  </metadata>
  <defs
     id="defs6" />
  <sodipodi:namedview
     pagecolor="#ffffff"
     bordercolor="#666666"
     borderopacity="1"
     objecttolerance="10"
     gridtolerance="10"
     guidetolerance="10"
     inkscape:pageopacity="0"
     inkscape:pageshadow="2"
     inkscape:window-width="1920"
     inkscape:window-height="1011"
     id="namedview4"
     showgrid="false"
     inkscape:zoom="0.4946937"
     inkscape:cx="1201.7537"
     inkscape:cy="2825.9911"
     inkscape:window-x="1920"
     inkscape:window-y="32"
     inkscape:window-maximized="1"
     inkscape:current-layer="layer1"
     inkscape:pagecheckerboard="0"
     inkscape:showpageshadow="0"
     inkscape:deskcolor="#d1d1d1" />
  <g
     inkscape:groupmode="layer"
     id="layer2"
     inkscape:label="artwork"
     sodipodi:insensitive="true">
    <image
       xlink:href="../gfx_Pepper-and-Carrot_by-David-Revoy_E37P06.png"
       y="0"
       x="0"
       id="image10"
       height="3503"
       width="2481" />
  </g>
  <g
     inkscape:groupmode="layer"
     id="layer3"
     inkscape:label="speechbubbles">
    <path
       style="fill:#ffffff;fill-rule:evenodd;stroke:none;stroke-width:1.66364px;stroke-linecap:butt;stroke-linejoin:miter;stroke-opacity:1"
       d="m 129.095,234.6388 c -1.62857,-66.38441 40.71746,-78.0979 63.51907,-82.00397 22.8018,-3.90372 117.26601,-23.42938 153.0973,7.80977 35.83129,31.23917 45.60361,83.95585 29.31655,103.4815 -16.28686,19.52329 -68.40523,48.81059 -100.97914,50.76245 C 241.47505,316.64039 171.44105,304.9269 148.63944,277.59144 125.83763,250.25839 129.095,234.6388 129.095,234.6388 Z"
       id="path1365"
       inkscape:connector-curvature="0" />
    <path
       style="fill:#ffffff;fill-rule:evenodd;stroke:none;stroke-width:1.18625px;stroke-linecap:butt;stroke-linejoin:miter;stroke-opacity:1"
       d="m 276.57128,286.65867 c 0,0 -8.31854,14.71485 -3.94644,34.32306 4.3721,19.60821 13.90542,39.57744 34.7933,54.14841 -41.89702,-20.22752 -65.69947,-37.55159 -66.67128,-74.5854 -0.97218,-37.03494 35.82442,-13.88607 35.82442,-13.88607 z"
       id="path1357"
       inkscape:connector-curvature="0" />
    <path
       style="fill:#ffffff;fill-rule:evenodd;stroke:none;stroke-width:0.785069px;stroke-linecap:butt;stroke-linejoin:miter;stroke-opacity:1"
       d="m 993.26171,186.69449 c -40.63103,1.19933 -81.73707,1.06407 -121.60006,7.17005 -17.92906,3.00488 -36.14035,7.33198 -49.90747,15.91505 -14.81571,9.96483 -22.77784,23.4875 -27.43469,36.97735 -8.87885,25.3834 -8.20968,52.74566 6.14029,77.18691 6.96681,11.80298 17.70936,23.15357 33.85608,30.17922 16.64296,7.03635 35.65567,10.91293 54.40237,14.57496 32.00518,5.31467 65.28633,4.83621 97.98087,3.84562 29.1145,-0.93525 58.7033,-3.13143 85.8474,-10.68482 15.013,-4.07172 29.8947,-9.24132 41.0504,-17.2826 11.9221,-9.16557 17.9964,-21.02196 21.4554,-32.78302 5.6692,-20.11772 3.7795,-40.79732 -0.5528,-60.94206 -1.9382,-10.05474 -3.4905,-20.58654 -11.3687,-29.48613 -7.8118,-8.41882 -20.8665,-13.75329 -33.7782,-18.10981 -29.6592,-10.12528 -62.5692,-16.84501 -96.09089,-16.56072 z"
       id="path1353"
       inkscape:connector-curvature="0"
       sodipodi:nodetypes="csssscscsscsc" />
    <path
       style="color:#000000;display:inline;overflow:visible;visibility:visible;fill:#ffffff;fill-opacity:1;fill-rule:nonzero;stroke:none;stroke-width:0.861851px;marker:none;enable-background:accumulate"
       d="m 953.70508,340.64258 c -7.89156,5.93196 -11.59104,16.28682 -10.73276,25.94957 0.42223,4.4898 2.07058,8.76171 2.48862,13.25746 1.01197,7.55227 1.05293,15.42171 -1.40821,22.71484 -1.20442,1.72882 -3.79048,1.05453 -5.01568,-0.29626 -10.07465,-6.60916 -20.06188,-13.83162 -31.69135,-17.45527 -3.79347,-0.92218 -7.49599,1.78526 -9.23632,5.00153 -1.4402,2.77657 -2.01316,5.92993 -2.32924,9.01606 -0.55273,6.5806 1.28554,13.1049 3.96106,19.05818 3.14714,8.05533 6.31422,16.4571 5.93458,25.25193 -0.84545,6.13098 -8.24835,10.22802 -13.88693,7.6472 -6.28697,-1.87961 -10.73205,-6.98767 -15.56562,-11.11151 -8.86497,-7.84865 -17.5953,-16.18188 -28.30526,-21.49467 -7.38254,-2.49937 -15.71863,0.24411 -21.23633,5.4668 -3.28278,2.9805 -6.07223,6.44058 -8.94141,9.80664 5.8814,-4.02407 11.87998,-8.29236 18.92579,-9.9668 5.92728,0.27474 10.83062,3.99283 15.65346,7.04174 9.22342,6.01627 16.39972,14.65414 22.20637,23.90936 3.76567,5.4691 7.51953,11.12941 12.67093,15.3981 3.2658,1.63675 6.90342,2.34098 10.46142,3.03947 5.33481,0.86184 10.93374,1.00049 16.1436,-0.58041 5.05084,-2.68449 7.63974,-8.48655 7.90731,-14.00736 1.31557,-10.50648 -1.34041,-20.96489 -4.32747,-30.9597 -1.34044,-4.77497 -2.55206,-9.60437 -3.14531,-14.53651 1.14339,-2.41987 4.68319,-2.64674 6.56055,-0.98047 7.59492,3.4498 13.00439,10.01681 19.08789,15.47852 8.59672,6.12612 21.82202,3.74033 27.89071,-4.84806 5.2193,-6.70376 6.94821,-15.35423 7.43486,-23.65494 0.82894,-10.02392 1.61175,-20.28559 5.5879,-29.65192 1.16442,-3.02572 2.64205,-5.92432 4.30918,-8.70251 -0.35144,-1.98682 -2.65366,-2.40619 -4.00685,-3.52799 -9.0205,-5.41384 -18.041,-10.82769 -27.06151,-16.24154 l -0.16601,-0.0293 z m 33.15039,19.79687 c -0.62158,0.68067 0.23902,-0.002 0,0 z"
       id="path5058-2"
       inkscape:connector-curvature="0"
       sodipodi:nodetypes="cscsssssscssssccscccc" />
    <path
       style="display:inline;fill:#ffffff;fill-rule:evenodd;stroke:none;stroke-width:1.00035px;stroke-linecap:butt;stroke-linejoin:miter;stroke-opacity:1"
       d="m 1173.1445,85.397215 c 44.9453,-0.463414 60.0909,0.344733 70.4996,1.354983 -1.9326,-2.470478 61.5065,-1.417509 132.8018,0.05891 -21.2124,-1.809131 35.3248,-1.928643 105.7041,-0.916818 -7.9601,-0.872767 10.223,58.90568 85.2118,22.77656 -22.6559,45.96681 -57.6548,76.28253 105.0693,21.06561 -47.6435,30.80918 -122.6459,69.74115 -18.6835,97.02039 -93.6198,12.02554 -117.5557,68.3397 -93.1353,95.0235 -44.6019,-54.00492 -83.2814,-45.12274 -65.899,41.03095 -44.8638,-40.90446 -81.6297,-68.53391 -90.1741,-21.98864 -17.6878,-26.16528 -59.5979,-27.42913 -80.4616,29.64513 -31.7772,-54.69918 -66.4919,-67.60153 -101.526,1.96349 -0.4956,-44.63382 -17.7092,-76.51256 -50.8253,-53.59717 z"
       id="path1100"
       inkscape:connector-curvature="0"
       sodipodi:nodetypes="cccccccccccccc" />
    <path
       style="display:inline;fill:#ffffff;fill-rule:evenodd;stroke:none;stroke-width:1.02035px;stroke-linecap:butt;stroke-linejoin:miter;stroke-opacity:1"
       d="m 2394.4792,802.66902 c -42.3914,0.57491 -56.6763,-0.42767 -66.4936,-1.68097 1.8228,3.06484 -58.0116,1.75854 -125.2556,-0.0731 20.0069,2.24438 -97.0198,12.60536 -163.3999,11.35011 6.0023,-10.18279 -47.7931,-10.17152 -73.0835,-0.15757 72.6255,-32.45072 98.2079,-98.5348 7.6797,-124.01874 64.3462,-4.85589 79.7958,-55.87849 -8.9939,-87.15318 81.6144,7.45346 77.8782,-15.36555 18.6475,-63.01035 69.4585,29.93175 127.1999,4.51295 86.8406,-58.17298 53.0056,35.31915 133.3928,77.20862 100.9827,-24.06269 56.3922,74.78739 76.8707,84.93972 96.549,14.13424 29.9715,67.85899 70.9604,59.05285 88.0025,15.25449 -3.1588,45.57622 10.5614,72.74359 41.7957,44.31509 z"
       id="path1100-1"
       inkscape:connector-curvature="0"
       sodipodi:nodetypes="cccccccccccccc" />
    <path
       style="display:inline;fill:#ffffff;fill-rule:evenodd;stroke:none;stroke-width:1.21129px;stroke-linecap:butt;stroke-linejoin:miter;stroke-opacity:1"
       d="m 1418.7386,299.99278 c 32.8791,33.53516 56.7879,77.06946 103.0231,108.5417 l -39.4041,4.85315 c 33.1236,33.29864 86.1701,72.49084 86.1701,72.49084 0,0 -36.1582,-9.1905 -137.95,-87.08512 l 35.6661,-4.58596 c -28.5603,-35.78999 -82.3648,-65.49689 -123.704,-98.20746 z"
       id="path957"
       sodipodi:nodetypes="cccccccc" />
    <path
       style="display:inline;fill:#ffffff;fill-rule:evenodd;stroke:none;stroke-width:1.15094px;stroke-linecap:butt;stroke-linejoin:miter;stroke-opacity:1"
       d="m 2135.3316,677.94435 c -94.5252,-53.78313 -255.9511,-97.55437 -255.9511,-97.55437 0,0 30.8361,-7.14437 136.3682,19.77436 l 147.9944,28.48852 c 276.9342,105.20644 -79.315,87.53799 -28.4115,49.29149 z"
       id="path957-2"
       sodipodi:nodetypes="ccccc" />
    <path
       style="fill:#ffffff;fill-rule:evenodd;stroke:none;stroke-width:2.30311px;stroke-linecap:butt;stroke-linejoin:miter;stroke-opacity:1"
       d="m 1331.9518,974.41263 c 8.9444,-66.69688 46.9586,-100.04422 98.3897,-107.19149 51.4309,-7.14507 272.8077,-2.38022 301.8773,14.29234 29.07,16.67477 89.4451,54.78697 62.6118,133.39362 -26.8337,78.607 -120.7512,66.697 -167.7099,66.697 -46.9586,0 -225.8489,7.1473 -254.9184,-23.8198 -29.0698,-30.9671 -38.0142,-7.1451 -40.2505,-83.37167 z"
       id="path1297"
       inkscape:connector-curvature="0" />
    <path
       style="fill:#ffffff;fill-rule:evenodd;stroke:none;stroke-width:0.989485px;stroke-linecap:butt;stroke-linejoin:miter;stroke-opacity:1"
       d="m 1763.2585,1028.0138 c -44.1943,0.4776 -88.2501,4.4721 -132.3793,6.3997 -17.8399,3.2608 -35.7582,8.5253 -50.9365,18.6533 -11.9275,11.8857 -18.883,27.5524 -25.3416,42.7933 -5.6704,17.9917 -1.6704,37.0434 2.1145,54.9799 3.101,13.4516 9.4876,26.4406 19.9623,35.7311 9.0462,9.0827 20.2489,17.1447 33.4249,18.3904 12.4726,1.7647 25.0699,2.5188 37.517,4.482 25.5943,2.9413 51.3275,7.2967 77.1671,5.3437 35.2311,-3.4753 70.2482,-9.046 104.9202,-16.1266 9.1978,-2.1013 18.5013,-6.6801 23.2064,-15.2103 5.0168,-7.7973 9.4563,-16.0168 13.1648,-24.4921 4.4491,-13.6935 2.3424,-28.2568 2.8118,-42.3754 -0.1919,-11.669 0.2171,-24.209 -6.2762,-34.4855 -6.335,-10.6355 -15.5998,-19.1342 -24.5975,-27.5061 -9.7617,-8.49 -21.5607,-14.2286 -33.7611,-18.3694 -13.0771,-4.9184 -26.9082,-8.5816 -40.9968,-8.208 z"
       id="path1299"
       inkscape:connector-curvature="0"
       sodipodi:nodetypes="ccssssssscscc" />
    <path
       style="display:inline;fill:#ffffff;fill-rule:evenodd;stroke:none;stroke-width:1.5214px;stroke-linecap:butt;stroke-linejoin:miter;stroke-opacity:1"
       d="m 1645.8318,1117.0506 c 39.4469,26.7075 75.8106,19.7454 75.1335,-39.6058 18.8198,64.6794 31.88,79.4106 39.6255,48.0532 24.9163,27.8998 40.4786,20.7498 52.8341,1.5849 4.6052,25.2625 14.4809,15.4205 23.028,14.4285 2.8151,5.7695 -6.8534,19.6011 32.2074,1.9574 2.5303,7.5991 5.9387,14.1808 28.8186,-1.8135 5.9277,30.7158 24.9456,-0.9446 44.4287,-34.8196 -12.1385,42.0008 -7.1053,48.1362 8.4054,32.388 -7.0914,17.2334 -11.3328,30.6118 15.6101,1.8067 -9.2238,31.9255 14.9748,10.5482 54.0347,-34.5313 -29.1831,38.1584 -55.5604,95.6848 11.4139,76.4166 -18.7185,13.1987 -50.2098,54.7231 0.3431,72.1924 -9.4375,6.5569 -38.2501,-4.3023 -14.2152,25.3768 3.2201,3.4816 -7.5602,5.2255 13.0144,14.7569 -12.1454,-0.9713 -19.5938,0.9723 -8.4053,14.4759 -22.1701,-1.3764 -31.9536,30.0889 -15.677,48.2378 -32.1053,-23.6177 -33.8721,-15.437 -34.8226,-6.3999 -40.2372,-32.0934 -42.5992,-22.4398 -48.0309,-16.1697 -19.6126,-0.3477 -39.2253,-4.825 -58.8379,29.0312 -5.1364,-21.5776 -15.434,-38.3774 -58.8379,-24.5271 19.0577,-26.6838 -8.0543,-10.1324 -28.8184,0.474 11.3708,-33.707 -17.487,-12.2271 -54.0349,19.8026 20.4666,-36.9846 -2.7787,-24.1001 -37.2241,1.5613 26.2523,-66.8582 1.9252,-78.1859 -58.8378,-58.0023 24.2461,-12.5955 39.8161,-61.9501 14.6398,-92.8682 28.381,9.7324 38.3558,-17.1386 6.2618,-34.501 42.5117,13.3182 28.3845,-32.0489 -2.057,-59.3058 z"
       id="path4508-2"
       inkscape:connector-curvature="0"
       sodipodi:nodetypes="cccccccccccccccccccccccccccc" />
    <path
       style="display:inline;fill:#ffffff;fill-rule:evenodd;stroke:none;stroke-width:1.61078px;stroke-linecap:butt;stroke-linejoin:miter;stroke-opacity:1"
       d="m 1653.0882,1228.435 c 61.5991,27.5102 118.3836,20.3389 117.3262,-40.7962 29.3888,66.6234 49.7828,81.7973 61.878,49.4975 38.9088,28.7383 63.2104,21.3734 82.5041,1.6325 7.1915,26.0218 22.6131,15.884 35.9599,14.8622 4.396,5.9429 -10.7019,20.1902 50.2942,2.0162 3.9512,7.8275 9.2736,14.607 45.002,-1.868 9.2566,31.639 38.9544,-0.973 69.3787,-35.8661 -18.9553,43.2631 -11.0954,49.5829 13.1257,33.3614 -11.0739,17.7514 -17.6969,31.5319 24.3762,1.861 -14.4038,32.885 23.3841,10.8652 84.3789,-35.5691 -45.5713,39.3052 -86.7613,98.5606 17.8237,78.7133 -29.2302,13.5954 -78.4063,56.3678 0.5356,74.3621 -14.7373,6.754 -59.7303,-4.4316 -22.1978,26.1396 5.0284,3.5862 -11.8058,5.3825 20.3229,15.2004 -18.9661,-1.0005 -30.5972,1.0015 -13.1259,14.911 -34.6198,-1.4178 -49.8975,30.9932 -24.4805,49.6875 -50.1347,-24.3275 -52.8936,-15.9009 -54.3779,-6.5922 -62.8332,-33.058 -66.5215,-23.1142 -75.0033,-16.6557 -30.6268,-0.3581 -61.2532,-4.97 -91.8798,29.9038 -8.0206,-22.2262 -24.1013,-39.5309 -91.8795,-25.2643 29.7599,-27.4858 -12.5773,-10.4369 -45.002,0.4882 17.7563,-34.72 -27.3071,-12.5946 -84.3791,20.3978 31.9601,-38.0962 -4.3392,-24.8244 -58.1279,1.6082 40.9947,-68.8676 3.0062,-80.5358 -91.8796,-59.7455 37.8621,-12.9741 62.1758,-63.8121 22.8612,-95.6594 44.3188,10.0249 59.8953,-17.6537 9.7783,-35.5379 66.3848,13.7184 44.3244,-33.0122 -3.2123,-61.0883 z"
       id="path4508-2-3"
       inkscape:connector-curvature="0"
       sodipodi:nodetypes="cccccccccccccccccccccccccccc" />
    <path
       style="color:#000000;display:inline;overflow:visible;visibility:visible;fill:#ffffff;fill-opacity:1;fill-rule:nonzero;stroke:none;stroke-width:0.969926px;marker:none;enable-background:accumulate"
       d="m 1246.2312,1001.9329 c 22.2211,-34.14103 39.9857,-36.59103 52.6492,-39.61603 1.7643,3.396 6.1135,8.794 6.1135,8.794 1.3611,-5.44434 56.7367,-23.68633 64.0338,-12.39927 10.1747,-0.224 10.4078,17.98503 10.4078,17.98503 -1.59,-7.94978 -77.0372,12.13063 -85.791,20.76224 -4.4313,-9.518 -7.9052,-13.563 -7.9875,-17.682 -7.6447,-0.519 -31.1799,10.299 -39.4258,22.15603 z"
       id="path4456-5"
       inkscape:connector-curvature="0"
       sodipodi:nodetypes="cccccccc" />
    <path
       style="display:inline;fill:#ffffff;fill-rule:evenodd;stroke:none;stroke-width:0.82688px;stroke-linecap:butt;stroke-linejoin:miter;stroke-opacity:1"
       d="m 223.03839,2049.9977 c 44.40963,1.9562 108.39666,5.8779 57.9817,-1.6857 32.66257,1.8313 74.4298,5.4214 86.29409,2.504 11.54755,1.0885 18.41219,0.7184 12.62143,-1.5634 31.52989,2.8416 47.3862,1.7361 66.08925,1.3475 21.2963,2.0346 36.6284,1.6171 46.39705,-1.0877 -7.1015,5.6406 50.2879,1.5728 95.63051,-0.7951 -3.07518,1.2879 -30.40238,4.8783 16.18142,1.4514 -4.39723,1.8574 -3.94257,3.3811 100.135,-2.2207 -45.96467,5.0275 -24.28187,3.8873 -0.012,2.5113 -38.82049,5.4257 29.77888,9.4415 55.83106,8.9116 -77.90021,15.1943 -113.62842,42.3338 12.24418,88.4165 -49.05016,0.2837 -123.65447,-22.422 -98.99442,77.9462 -73.57472,-54.7599 -108.93439,-5.4464 -93.80044,40.6583 -43.95744,-62.393 -71.64944,-62.0197 -80.92629,9.4158 -25.33646,-60.767 -52.20379,-72.9244 -81.34293,-12.945 10.95777,-89.6863 -56.59211,-63.2022 -89.46096,-23.7851 25.74854,-41.6566 -20.31954,-48.5646 -72.57645,-9.3964 63.90502,-63.2583 18.53891,-58.536 -56.43499,-35.3941 89.38703,-46.0158 76.25662,-65.3801 -14.79036,-64.4883 111.07935,-6.0948 89.32452,-76.0106 38.93318,-79.8011 z"
       id="path740849"
       sodipodi:nodetypes="cccccccccccccccccccccc" />
    <path
       style="color:#000000;display:inline;overflow:visible;visibility:visible;fill:#ffffff;fill-opacity:1;fill-rule:nonzero;stroke:none;stroke-width:1px;marker:none;enable-background:accumulate"
       d="m 625.17576,2198.464 c 32.4119,11.8493 68.59806,43.3077 68.15392,52.5243 2.57923,-9.5085 6.6039,-17.4308 9.62749,-23.6657 13.04254,7.2714 43.8298,44.5047 61.80037,65.0819 -15.05247,-42.9 -51.67758,-88.1131 -70.34793,-102.0634 -0.43359,10.3146 -2.88747,18.5199 -5.87724,22.4034 -19.74556,7.9495 -28.17774,-60.2326 -25.11612,-64.3964 z"
       id="path5066-6"
       inkscape:connector-curvature="0"
       sodipodi:nodetypes="cccccccc" />
    <path
       style="color:#000000;display:inline;overflow:visible;visibility:visible;fill:#ffffff;fill-opacity:1;fill-rule:nonzero;stroke:none;stroke-width:1.71778px;marker:none;enable-background:accumulate"
       d="m 1876.7755,2268.1362 c 11.7561,76.7939 -80.6656,46.5565 -111.8121,31.507 63.0292,40.8155 94.4663,69.9248 -22.5914,68.0358 115.6097,58.0789 20.6766,60.3091 0.7095,78.5943 93.9627,11.6338 52.5463,93.5064 34.9161,96.2133 109.5495,0.03 72.5004,2.1424 76.1711,3.8204 9.7338,-0.789 55.2188,-3.1932 56.3665,-0.5235 73.9154,-2.5576 162.1416,-4.2154 166.5562,0.2415 30.4686,-2.2467 98.0865,0.9233 56.3667,-0.5235 74.3184,-3.4891 138.6314,-2.246 203.4819,-1.2719 17.7712,-1.0525 20.6837,-2.6659 76.0465,-2.2956 -7.2048,-1.0397 -12.7199,-66.3049 -7.9448,-76.2806 -6.2698,-14.3738 -7.3916,-29.3556 4.3679,-45.8568 -8.9105,-1.3044 -17.2147,-4.2642 -6.6052,-59.6777 -14.6023,2.9472 -104.9075,10.7526 -20.6806,-87.0778 -63.7337,45.3282 -187.9919,81.096 -170.8929,-22.8262 -35.6174,61.4705 -92.1787,88.3576 -111.5259,11.4433 -37.6563,69.8993 -84.0492,43.9845 -111.404,-4.9652 -21.7717,36.7737 -58.586,89.9323 -111.5255,11.4432 z"
       id="path3549-3-7-5"
       inkscape:connector-curvature="0"
       sodipodi:nodetypes="ccccccccccccccccccc" />
    <path
       style="display:inline;fill:#ffffff;fill-rule:evenodd;stroke:none;stroke-width:1.21419px;stroke-linecap:butt;stroke-linejoin:miter;stroke-opacity:1"
       d="m 1636.5226,2851.0879 c 21.774,-17.5421 20.3717,-56.2808 -6.3018,-68.6302 57.8746,-6.8043 13.0235,-36.2852 -16.4355,-70.6616 44.0346,20.9428 97.9946,59.1249 75.3907,-44.1382 31.2374,29.3266 56.7506,54.8915 76.3203,10.9689 9.9324,20.5299 30.3058,39.644 52.668,5.748 7.843,16.8092 16.7725,10.2693 26.8401,-20.7305 9.1423,38.2507 30.873,37.7324 53.5479,-3.0234 15.8866,41.8271 33.3992,76.5636 72.0236,19.2446 -5.9374,42.8166 14.0697,40.9106 45.8036,18.7903 -4.7817,18.5992 0.5687,24.7809 37.9905,9.9228 -9.9509,17.9945 -23.4241,28.8096 12.6562,23.41 -16.0334,16.3572 -33.626,52.5399 21.0054,43.5697 -42.861,27.6514 -18.4657,38.7879 -17.5436,54.8278 -30.6711,-9.6423 -44.8693,-5.4783 -14.1469,36.3353 -15.9289,-0.6819 -57.9551,-46.4501 -38.8072,13.4668 -24.3772,-33.6181 -51.7536,6.8157 -37.847,8.3712 l -57.9095,11.8883 -90.5652,-11.5149 -64.474,-0.1188 -56.299,17.2087 c 8.8514,-26.0708 -7.6245,-27.0344 -22.1809,-23.2365 -4.3063,-7.7029 6.753,-26.1596 -24.9519,-14.6865 1.7327,-18.9066 -13.662,-16.5481 -26.7838,-17.0118 z"
       id="path1058"
       sodipodi:nodetypes="cccccccccccccccccccccccc" />
    <path
       style="display:inline;fill:#ffffff;fill-rule:evenodd;stroke:none;stroke-width:1.77268px;stroke-linecap:butt;stroke-linejoin:miter;stroke-opacity:1"
       d="m 1645.9771,2941.468 c 62.3221,-0.564 54.0651,24.3209 31.621,54.3208 17.2658,-2.4972 57.6467,-30.8832 33.7027,12.7743 52.2816,-17.1872 20.0722,15.3496 15.8239,31.346 21.0746,-3.9811 33.9758,9.9983 8.3442,64.2347 25.8829,-13.3678 65.4349,-61.8023 62.4875,-1.207 20.9537,-8.148 48.4844,-37.9225 51.9784,11.3421 34.9699,-42.9233 66.9782,-47.9291 73.9006,29.0303 25.7408,-50.4279 48.1558,-60.3628 65.7607,-11.7245 24.5133,-33.3751 59.486,-42.9419 90.302,18.5467 -8.9963,-49.1763 4.6606,-80.27 105.4737,-41.7949 -0.7311,-43.5134 20.305,-63.6289 104.3747,-15.9887 -17.8675,-28.4314 -61.0668,-73.2488 39.4961,-25.0736 -52.8882,-60.0737 4.4955,-99.8146 48.5332,-142.0164 -53.6233,30.1268 -59.3031,19.1753 -39.0994,-13.9538 -85.2703,40.6688 -76.3271,-17.4218 -53.6376,-89.9222 -62.4394,39.9028 -53.4824,17.515 -38.5131,-3.1528 -110.9762,43.3129 -64.6916,-21.3041 -54.4442,-46.2554 -80.3911,113.1449 -56.7553,44.0695 -47.881,0.8522 -45.6391,67.3729 -64.8776,67.8886 -56.1689,2.7325 -76.5361,81.5495 -27.3395,18.2394 -52.3269,21.8871 0,0 -261.4365,70.8008 -291.4645,82.2928 -30.028,11.492 -15.1888,8.9844 -73.0715,16.2874 32.0921,9.7203 32.0439,37.0168 -25.1916,45.4424 z"
       id="path961"
       sodipodi:nodetypes="ccccccccccccccccccccczcc" />
    <path
       style="display:inline;fill:#ffffff;fill-rule:evenodd;stroke:none;stroke-width:1px;stroke-linecap:butt;stroke-linejoin:miter;stroke-opacity:1"
       d="m 1487.7373,2719.1203 100.518,94.2706 6.505,-33.2379 70.6075,62.6158 11.5455,-27.2884 -90.5705,-67.709 -8.6863,37.6437 z"
       id="path4667-2"
       inkscape:connector-curvature="0" />
  </g>
  <g
     inkscape:groupmode="layer"
     id="layer1"
     inkscape:label="txt"
     style="display:inline">
    <text
       xml:space="preserve"
       style="font-style:normal;font-variant:normal;font-weight:normal;font-stretch:normal;font-size:45.3333px;line-height:125%;font-family:Lavi;-inkscape-font-specification:Lavi;text-align:center;letter-spacing:0px;word-spacing:0px;text-anchor:middle;fill:#000000;fill-opacity:1;stroke:none"
       x="253.43634"
       y="239.12724"
       id="text4246-70-2-2-2-7-4-9-9-6-1-2-3-9-2-7-9"><tspan
         sodipodi:role="line"
         style="font-size:45.3333px"
         x="253.43634"
         y="239.12724"
         id="tspan1721">Allora?</tspan></text>
    <text
       xml:space="preserve"
       style="font-style:normal;font-variant:normal;font-weight:normal;font-stretch:normal;font-size:45.3333px;line-height:125%;font-family:Lavi;-inkscape-font-specification:Lavi;text-align:center;letter-spacing:0px;word-spacing:0px;text-anchor:middle;fill:#000000;fill-opacity:1;stroke:none"
       x="964.81384"
       y="267.42014"
       id="text4246-70-2-2-2-7-4-9-9-6-1-2-3-9-2-7-9-3"><tspan
         sodipodi:role="line"
         style="font-size:45.3333px"
         x="964.81384"
         y="267.42014"
         id="tspan1018">Non vi ha fatto</tspan><tspan
         sodipodi:role="line"
         style="font-size:45.3333px"
         x="964.81384"
         y="324.08676"
         id="tspan666">piangere?</tspan></text>
    <text
       xml:space="preserve"
       style="font-style:normal;font-variant:normal;font-weight:normal;font-stretch:normal;font-size:62.7287px;line-height:125%;font-family:Lavi;-inkscape-font-specification:Lavi;text-align:center;letter-spacing:0px;word-spacing:0px;text-anchor:middle;fill:#000000;fill-opacity:1;stroke:none;stroke-width:0.807928"
       x="1378.2051"
       y="189.3369"
       id="text4246-70-2-2-2-7-4-9-9-6-1-2-3-9-2-7-9-3-7"><tspan
         sodipodi:role="line"
         style="font-style:normal;font-variant:normal;font-weight:bold;font-stretch:normal;font-size:62.7287px;font-family:Lavi;-inkscape-font-specification:'Lavi Bold';stroke-width:0.807928"
         x="1378.2051"
         y="189.3369"
         id="tspan1088">MA SEI</tspan><tspan
         sodipodi:role="line"
         style="font-style:normal;font-variant:normal;font-weight:bold;font-stretch:normal;font-size:62.7287px;font-family:Lavi;-inkscape-font-specification:'Lavi Bold';stroke-width:0.807928"
         x="1378.2051"
         y="267.74777"
         id="tspan1320">SERIA?!</tspan></text>
    <text
       xml:space="preserve"
       style="font-style:normal;font-variant:normal;font-weight:normal;font-stretch:normal;font-size:62.2419px;line-height:125%;font-family:Lavi;-inkscape-font-specification:Lavi;text-align:center;letter-spacing:0px;word-spacing:0px;text-anchor:middle;fill:#000000;fill-opacity:1;stroke:none;stroke-width:0.83075"
       x="2208.9949"
       y="609.21252"
       id="text4246-70-2-2-2-7-4-9-9-6-1-2-3-9-2-7-9-3-7-6"><tspan
         sodipodi:role="line"
         style="font-style:normal;font-variant:normal;font-weight:bold;font-stretch:normal;font-size:62.2419px;font-family:Lavi;-inkscape-font-specification:'Lavi Bold';stroke-width:0.83075"
         x="2208.9949"
         y="609.21252"
         id="tspan1163">È TUTTO</tspan><tspan
         sodipodi:role="line"
         style="font-style:normal;font-variant:normal;font-weight:bold;font-stretch:normal;font-size:62.2419px;font-family:Lavi;-inkscape-font-specification:'Lavi Bold';stroke-width:0.83075"
         x="2208.9949"
         y="687.01489"
         id="tspan2507">QUELLO</tspan><tspan
         sodipodi:role="line"
         style="font-style:normal;font-variant:normal;font-weight:bold;font-stretch:normal;font-size:62.2419px;font-family:Lavi;-inkscape-font-specification:'Lavi Bold';stroke-width:0.83075"
         x="2208.9949"
         y="764.81726"
         id="tspan3213">CHE HAI?!</tspan></text>
    <text
       xml:space="preserve"
       style="font-style:normal;font-variant:normal;font-weight:normal;font-stretch:normal;font-size:49.902px;line-height:125%;font-family:Lavi;-inkscape-font-specification:Lavi;text-align:center;letter-spacing:0px;word-spacing:0px;text-anchor:middle;fill:#000000;fill-opacity:1;stroke:none;stroke-width:1.10078"
       x="1568.7133"
       y="920.40802"
       id="text4246-70-2-2-2-7-4-9-9-6-1-2-3-9-2-7-9-3-2"><tspan
         sodipodi:role="line"
         style="font-style:normal;font-variant:normal;font-weight:normal;font-stretch:normal;font-size:49.902px;font-family:Lavi;-inkscape-font-specification:Lavi;stroke-width:1.10078"
         x="1568.7133"
         y="920.40802"
         id="tspan1229">Loro, almeno,</tspan><tspan
         sodipodi:role="line"
         style="font-style:normal;font-variant:normal;font-weight:normal;font-stretch:normal;font-size:49.902px;font-family:Lavi;-inkscape-font-specification:Lavi;stroke-width:1.10078"
         x="1568.7133"
         y="982.78552"
         id="tspan4723">hanno provato ad</tspan><tspan
         sodipodi:role="line"
         style="font-style:normal;font-variant:normal;font-weight:normal;font-stretch:normal;font-size:49.902px;font-family:Lavi;-inkscape-font-specification:Lavi;stroke-width:1.10078"
         x="1568.7133"
         y="1045.163"
         id="tspan5899">usare la poesia!</tspan></text>
    <text
       xml:space="preserve"
       style="font-style:normal;font-variant:normal;font-weight:normal;font-stretch:normal;font-size:49.902px;line-height:125%;font-family:Lavi;-inkscape-font-specification:Lavi;text-align:center;letter-spacing:0px;word-spacing:0px;text-anchor:middle;fill:#000000;fill-opacity:1;stroke:none;stroke-width:1.10078"
       x="1720.6929"
       y="1113.8121"
       id="text4246-70-2-2-2-7-4-9-9-6-1-2-3-9-2-7-9-3-2-3"><tspan
         sodipodi:role="line"
         style="font-style:normal;font-variant:normal;font-weight:normal;font-stretch:normal;font-size:49.902px;font-family:Lavi;-inkscape-font-specification:Lavi;stroke-width:1.10078"
         x="1720.6929"
         y="1113.8121"
         id="tspan1237">La scrittura</tspan><tspan
         sodipodi:role="line"
         style="font-style:normal;font-variant:normal;font-weight:normal;font-stretch:normal;font-size:49.902px;font-family:Lavi;-inkscape-font-specification:Lavi;stroke-width:1.10078"
         x="1720.6929"
         y="1176.1896"
         id="tspan8371">di tragedie!</tspan></text>
    <text
       xml:space="preserve"
       style="font-style:normal;font-variant:normal;font-weight:normal;font-stretch:normal;font-size:83.9231px;line-height:125%;font-family:Lavi;-inkscape-font-specification:Lavi;text-align:center;letter-spacing:0px;word-spacing:0px;text-anchor:middle;fill:#000000;fill-opacity:1;stroke:none;stroke-width:1.5433"
       x="1839.7914"
       y="1281.439"
       id="text4246-70-2-2-2-7-4-9-9-6-1-2-3-9-2-7-9-3-2-3-6-1"><tspan
         sodipodi:role="line"
         style="font-style:normal;font-variant:normal;font-weight:bold;font-stretch:normal;font-size:83.9231px;font-family:Lavi;-inkscape-font-specification:'Lavi Bold';stroke-width:1.5433"
         x="1839.7914"
         y="1281.439"
         id="tspan37654-7">L’ARTE!</tspan></text>
    <text
       xml:space="preserve"
       style="font-style:normal;font-variant:normal;font-weight:normal;font-stretch:normal;font-size:85.7143px;line-height:125%;font-family:Lavi;-inkscape-font-specification:Lavi;text-align:center;letter-spacing:0px;word-spacing:0px;text-anchor:middle;fill:#000000;fill-opacity:1;stroke:none;stroke-width:1.57622"
       x="1955.2333"
       y="1396.6663"
       id="text4246-70-2-2-2-7-4-9-9-6-1-2-3-9-2-7-9-3-2-3-6-1-9"><tspan
         sodipodi:role="line"
         style="font-style:normal;font-variant:normal;font-weight:bold;font-stretch:normal;font-size:85.7143px;font-family:Lavi;-inkscape-font-specification:'Lavi Bold';stroke-width:1.57622"
         x="1955.2333"
         y="1396.6663"
         id="tspan37654-7-2">IL TEATRO!</tspan></text>
    <text
       xml:space="preserve"
       style="font-style:normal;font-variant:normal;font-weight:normal;font-stretch:normal;font-size:63.2403px;line-height:125%;font-family:Lavi;-inkscape-font-specification:Lavi;text-align:center;letter-spacing:0px;word-spacing:0px;text-anchor:middle;fill:#000000;fill-opacity:1;stroke:none;stroke-width:1.39501"
       x="483.78723"
       y="2154.6296"
       id="text4246-70-2-2-2-7-4-9-9-6-1-2-3-9-2-7-9-3-2-3-0-7"><tspan
         sodipodi:role="line"
         style="font-style:normal;font-variant:normal;font-weight:bold;font-stretch:normal;font-size:63.2403px;font-family:Lavi;-inkscape-font-specification:'Lavi Bold';stroke-width:1.39501"
         x="483.78723"
         y="2154.6296"
         id="tspan100735-9">E TU?!</tspan></text>
    <text
       xml:space="preserve"
       style="font-style:normal;font-variant:normal;font-weight:normal;font-stretch:normal;font-size:63.2403px;line-height:125%;font-family:Lavi;-inkscape-font-specification:Lavi;text-align:center;letter-spacing:0px;word-spacing:0px;text-anchor:middle;fill:#000000;fill-opacity:1;stroke:none;stroke-width:1.39501"
       x="2081.9277"
       y="2395.3088"
       id="text4246-70-2-2-2-7-4-9-9-6-1-2-3-9-2-7-9-3-2-3-0"><tspan
         sodipodi:role="line"
         style="font-style:normal;font-variant:normal;font-weight:bold;font-stretch:normal;font-size:63.2403px;font-family:Lavi;-inkscape-font-specification:'Lavi Bold';stroke-width:1.39501"
         x="2081.9277"
         y="2395.3088"
         id="tspan1360">TU VIENI</tspan><tspan
         sodipodi:role="line"
         style="font-style:normal;font-variant:normal;font-weight:bold;font-stretch:normal;font-size:63.2403px;font-family:Lavi;-inkscape-font-specification:'Lavi Bold';stroke-width:1.39501"
         x="2081.9277"
         y="2474.3591"
         id="tspan15953">IMPREPARATA!</tspan></text>
    <text
       xml:space="preserve"
       style="font-style:normal;font-variant:normal;font-weight:normal;font-stretch:normal;font-size:51.0809px;line-height:125%;font-family:Lavi;-inkscape-font-specification:Lavi;text-align:center;letter-spacing:0px;word-spacing:0px;text-anchor:middle;fill:#000000;fill-opacity:1;stroke:none;stroke-width:1.01681"
       x="1840.9806"
       y="2783.5793"
       id="text4246-70-2-2-2-7-4-9-9-6-1-2-3-9-2-7-9-3-2-3-0-2"><tspan
         sodipodi:role="line"
         style="font-style:normal;font-variant:normal;font-weight:bold;font-stretch:normal;font-size:51.0809px;font-family:Lavi;-inkscape-font-specification:'Lavi Bold';stroke-width:1.01681"
         x="1840.9806"
         y="2783.5793"
         id="tspan1430">SÌ, È COSÌ;</tspan><tspan
         sodipodi:role="line"
         style="font-style:normal;font-variant:normal;font-weight:bold;font-stretch:normal;font-size:51.0809px;font-family:Lavi;-inkscape-font-specification:'Lavi Bold';stroke-width:1.01681"
         x="1840.9806"
         y="2847.4304"
         id="tspan19513">SCIÒ!</tspan></text>
    <text
       xml:space="preserve"
       style="font-style:normal;font-variant:normal;font-weight:normal;font-stretch:normal;font-size:49.6865px;line-height:125%;font-family:Lavi;-inkscape-font-specification:Lavi;text-align:center;letter-spacing:0px;word-spacing:0px;text-anchor:middle;fill:#000000;fill-opacity:1;stroke:none;stroke-width:0.946337"
       x="2019.1799"
       y="2912.3391"
       id="text4246-70-2-2-2-7-4-9-9-6-1-2-3-9-2-7-9-3-2-3-0-2-9"><tspan
         sodipodi:role="line"
         style="font-style:normal;font-variant:normal;font-weight:bold;font-stretch:normal;font-size:49.6865px;font-family:Lavi;-inkscape-font-specification:'Lavi Bold';stroke-width:0.946337"
         x="2019.1799"
         y="2912.3391"
         id="tspan1505">VATTENE E TORNA</tspan><tspan
         sodipodi:role="line"
         style="font-style:normal;font-variant:normal;font-weight:bold;font-stretch:normal;font-size:49.6865px;font-family:Lavi;-inkscape-font-specification:'Lavi Bold';stroke-width:0.946337"
         x="2019.1799"
         y="2974.4473"
         id="tspan22322">QUANDO AVRAI</tspan><tspan
         sodipodi:role="line"
         style="font-style:normal;font-variant:normal;font-weight:bold;font-stretch:normal;font-size:49.6865px;font-family:Lavi;-inkscape-font-specification:'Lavi Bold';stroke-width:0.946337"
         x="2019.1799"
         y="3036.5554"
         id="tspan34907">TROVATO DI MEGLIO!</tspan></text>
  </g>
</svg>
