<?xml version="1.0" encoding="UTF-8" standalone="no"?>
<!-- Created with Inkscape (http://www.inkscape.org/) -->

<svg
   xmlns:dc="http://purl.org/dc/elements/1.1/"
   xmlns:cc="http://creativecommons.org/ns#"
   xmlns:rdf="http://www.w3.org/1999/02/22-rdf-syntax-ns#"
   xmlns:svg="http://www.w3.org/2000/svg"
   xmlns="http://www.w3.org/2000/svg"
   xmlns:xlink="http://www.w3.org/1999/xlink"
   xmlns:sodipodi="http://sodipodi.sourceforge.net/DTD/sodipodi-0.dtd"
   xmlns:inkscape="http://www.inkscape.org/namespaces/inkscape"
   id="svg2"
   version="1.1"
   inkscape:version="0.92.2 5c3e80d, 2017-08-06"
   width="2481"
   height="3503"
   sodipodi:docname="E32P07.svg">
  <metadata
     id="metadata8">
    <rdf:RDF>
      <cc:Work
         rdf:about="">
        <dc:format>image/svg+xml</dc:format>
        <dc:type
           rdf:resource="http://purl.org/dc/dcmitype/StillImage" />
        <dc:title></dc:title>
      </cc:Work>
    </rdf:RDF>
  </metadata>
  <defs
     id="defs6" />
  <sodipodi:namedview
     pagecolor="#ffffff"
     bordercolor="#666666"
     borderopacity="1"
     objecttolerance="10"
     gridtolerance="10"
     guidetolerance="10"
     inkscape:pageopacity="0"
     inkscape:pageshadow="2"
     inkscape:window-width="1920"
     inkscape:window-height="1130"
     id="namedview4"
     showgrid="false"
     inkscape:zoom="0.46000002"
     inkscape:cx="1027.8838"
     inkscape:cy="2583.6635"
     inkscape:window-x="0"
     inkscape:window-y="1"
     inkscape:window-maximized="1"
     inkscape:current-layer="layer1" />
  <g
     inkscape:groupmode="layer"
     id="layer2"
     inkscape:label="artwork"
     sodipodi:insensitive="true">
    <image
       sodipodi:absref="/Users/gand/Documents/Pepper&amp;Carrot/ep32_The-Battlefield/lang/it/../gfx_Pepper-and-Carrot_by-David-Revoy_E32P07.png"
       xlink:href="../gfx_Pepper-and-Carrot_by-David-Revoy_E32P07.png"
       width="2481"
       height="3503"
       id="image10"
       x="0"
       y="0" />
  </g>
  <g
     inkscape:groupmode="layer"
     id="layer3"
     inkscape:label="speechbubbles" />
  <g
     inkscape:groupmode="layer"
     id="layer1"
     inkscape:label="txt">
    <path
       style="color:#000000;display:inline;overflow:visible;visibility:visible;opacity:1;fill:#ffffff;fill-opacity:1;fill-rule:nonzero;stroke:none;stroke-width:1px;marker:none;enable-background:accumulate"
       d="m 1056.8386,2202.0169 c -10.399,3.1097 -19.0647,10.6359 -24.862,19.6711 -4.6138,7.2893 -17.2509,15.4965 -15.9508,24.1556 0.9045,6.2645 3.4885,12.2114 7.0602,17.4088 4.9823,4.1786 10.7717,7.2309 16.4747,10.2898 13.956,7.1808 39.0329,12.0634 54.1262,16.1118 11.6919,3.244 23.3837,6.488 35.0756,9.732 5.0949,3.3041 6.8782,10.3837 4.7324,15.9258 -2.5523,8.028 -5.7927,15.981 -6.4238,24.4649 0.469,8.3691 7.2362,15.6672 15.3278,17.4183 23.1263,6.8834 46.95,10.9935 70.7295,14.8666 16.8553,2.5917 33.8211,4.4192 50.6435,7.2326 8.6937,1.344 17.4528,2.335 26.2503,2.6075 -14.7027,-2.9835 -29.0454,-7.4415 -43.6031,-11.0191 -17.5491,-3.9894 -35.2233,-7.6141 -52.357,-13.1989 -12.1385,-3.8263 -24.3458,-7.4273 -36.5828,-10.9238 -2.1361,-0.6181 -4.2722,-1.2362 -6.4082,-1.8543 -3.8086,-2.8565 -4.791,-8.4047 -3.0215,-12.6797 3.1112,-10.0301 7.2356,-19.7537 9.5683,-30.0176 0.1907,-7.1989 -5.0046,-13.8258 -11.6328,-16.2568 -8.1859,-3.2713 -16.7215,-5.5386 -25.1516,-8.0754 -10.6728,-3.1009 -17.6074,-6.3044 -28.2511,-9.5031 -1.634,-0.5123 -3.3158,-0.9349 -4.8985,-1.5745 -6.4463,-4.0275 -11.4798,-10.04 -14.9988,-16.7269 -0.6308,-10.1283 2.4237,-19.9428 4.0156,-29.8414 0.7111,-3.8042 0.5769,-8.0798 -1.8053,-11.3085 -2.8415,-4.4602 -11.7784,-7.3612 -17.0919,-7.1782 -0.3216,0.091 -0.6432,0.1823 -0.9649,0.2734 z m 241.4961,179.3652 c 1.4323,-0.5267 2.8646,-1.0533 4.2969,-1.58 -1.4323,0.5267 -2.8646,1.0533 -4.2969,1.58 z"
       id="path4496-04"
       inkscape:connector-curvature="0"
       sodipodi:nodetypes="ccccccccccccccccccccccccccccccc" />
    <path
       style="display:inline;fill:#ffffff;stroke:none;stroke-width:0.87079054"
       d="m 731.41653,1905.4081 c -42.73947,0.4576 -86.0124,2.7441 -127.27484,14.7728 -20.14495,5.847 -39.82895,16.2085 -52.79655,33.1266 -9.52509,12.5975 -11.98776,28.9982 -11.51021,44.4111 0.38558,13.295 1.64669,27.2637 8.82964,38.831 5.45016,9.0361 14.05413,15.6846 23.01563,20.9912 16.68067,9.5108 35.69594,13.5422 54.27311,17.5585 46.65721,9.436 94.4612,10.5152 141.90516,10.702 48.25904,-0.023 96.60387,-1.0537 144.63205,-6.0832 24.85847,-2.9808 50.1079,-8.6634 71.50416,-22.2221 16.17662,-10.4821 28.44542,-27.8411 30.40842,-47.283 1.5039,-13.5933 -0.2135,-27.5392 -4.7067,-40.4407 -6.0797,-16.8601 -18.22042,-31.7154 -34.32242,-39.8596 -18.99383,-10.1879 -40.68189,-13.3074 -61.80172,-15.8555 -28.53516,-3.1206 -57.25214,-3.9042 -85.87814,-5.8237 -32.06355,-1.6969 -64.16424,-2.9144 -96.27759,-2.8254 z"
       id="path3280-8-1"
       inkscape:connector-curvature="0"
       sodipodi:nodetypes="csssc" />
    <path
       style="color:#000000;display:inline;overflow:visible;visibility:visible;fill:#ffffff;fill-opacity:1;fill-rule:nonzero;stroke:none;stroke-width:0.92272598px;marker:none;enable-background:accumulate"
       d="m 978.24809,2056.7855 c -45.79731,0.5583 -92.04142,7.5814 -135.11458,26.6485 -14.38172,6.5486 -28.90864,14.8196 -39.0468,28.9938 -18.45651,25.4605 -23.57248,63.87 -11.27407,94.3332 11.44835,29.7087 35.89358,51.2776 62.83153,57.5283 44.47751,14.5995 90.86235,19.5355 136.9076,18.8803 28.32213,0.095 57.21383,-0.1131 84.52503,-10.1004 19.2676,-6.9492 37.9375,-18.0301 52.2101,-35.119 19.4373,-23.6098 29.8245,-57.9485 25.5905,-90.7435 -2.1998,-16.4745 -9.3579,-31.905 -19.9338,-42.9467 -10.9633,-11.9207 -24.7965,-19.3159 -38.8369,-24.6626 -26.4375,-10.7025 -54.0409,-16.8698 -81.737,-20.8081 -11.9974,-1.4562 -24.06179,-2.1098 -36.12161,-2.0038 z"
       id="path4546-1"
       inkscape:connector-curvature="0"
       sodipodi:nodetypes="cssssc" />
    <text
       xml:space="preserve"
       style="font-style:normal;font-variant:normal;font-weight:normal;font-stretch:normal;line-height:0%;font-family:Lavi;-inkscape-font-specification:Lavi;text-align:center;letter-spacing:0px;word-spacing:0px;text-anchor:middle;display:inline;fill:#000000;fill-opacity:1;stroke:none"
       x="778.37128"
       y="1980.6964"
       id="text4246-7-6-1-7-6-3-5-6"><tspan
         sodipodi:role="line"
         style="font-size:45px;line-height:1.25"
         x="786.28143"
         y="1980.6964"
         id="tspan979">Ripensandoci bene... </tspan><tspan
         sodipodi:role="line"
         style="font-size:45px;line-height:1.25"
         x="778.37128"
         y="2036.9464"
         id="tspan848">richiama la bambina.</tspan></text>
    <text
       xml:space="preserve"
       style="font-style:normal;font-variant:normal;font-weight:normal;font-stretch:normal;line-height:0%;font-family:Lavi;-inkscape-font-specification:Lavi;text-align:center;letter-spacing:0px;word-spacing:0px;text-anchor:middle;display:inline;fill:#000000;fill-opacity:1;stroke:none"
       x="969.6701"
       y="2120.6045"
       id="text4246-7-6-1-7-6-3-5-6-4"><tspan
         sodipodi:role="line"
         style="font-size:45px;line-height:1.25"
         x="969.6701"
         y="2120.6045"
         id="tspan829">Questa</tspan><tspan
         sodipodi:role="line"
         style="font-size:45px;line-height:1.25"
         x="977.58026"
         y="2176.8545"
         id="tspan834">mi sa che ci </tspan><tspan
         sodipodi:role="line"
         style="font-size:45px;line-height:1.25"
         x="969.6701"
         y="2233.1045"
         id="tspan836">costa troppo.</tspan></text>
    <text
       xml:space="preserve"
       style="font-style:normal;font-variant:normal;font-weight:normal;font-stretch:normal;font-size:43.85733414px;line-height:0%;font-family:Lavi;-inkscape-font-specification:'Lavi, Normal';font-variant-ligatures:normal;font-variant-caps:normal;font-variant-numeric:normal;font-feature-settings:normal;text-align:center;letter-spacing:0px;word-spacing:0px;writing-mode:lr-tb;text-anchor:middle;display:inline;fill:#241c1c;fill-opacity:1;stroke:#000000;stroke-width:0.82200003;stroke-miterlimit:4;stroke-dasharray:none;stroke-opacity:1"
       x="3600.9629"
       y="3317.343"
       id="text4213"
       transform="matrix(0.96049651,0,-0.32716292,1.0411282,0,0)"><tspan
         sodipodi:role="line"
         id="tspan3562"
         x="3600.9629"
         y="3317.343"
         style="font-style:normal;font-variant:normal;font-weight:normal;font-stretch:normal;font-size:43.85733414px;line-height:1.25;font-family:Lavi;-inkscape-font-specification:'Lavi, Normal';font-variant-ligatures:normal;font-variant-caps:normal;font-variant-numeric:normal;font-feature-settings:normal;text-align:end;writing-mode:lr-tb;text-anchor:end;stroke-width:0.82200003">CONTINUA…</tspan><tspan
         sodipodi:role="line"
         x="3600.9629"
         y="3344.7539"
         style="font-style:normal;font-variant:normal;font-weight:normal;font-stretch:normal;font-size:43.85733414px;line-height:1.25;font-family:Lavi;-inkscape-font-specification:'Lavi, Normal';font-variant-ligatures:normal;font-variant-caps:normal;font-variant-numeric:normal;font-feature-settings:normal;text-align:center;writing-mode:lr-tb;text-anchor:middle;stroke-width:0.82200003"
         id="tspan856" /><tspan
         sodipodi:role="line"
         x="3600.9629"
         y="3344.7539"
         style="font-style:normal;font-variant:normal;font-weight:normal;font-stretch:normal;font-size:43.85733414px;line-height:1.25;font-family:Lavi;-inkscape-font-specification:'Lavi, Normal';font-variant-ligatures:normal;font-variant-caps:normal;font-variant-numeric:normal;font-feature-settings:normal;text-align:center;writing-mode:lr-tb;text-anchor:middle;stroke-width:0.82200003"
         id="tspan858" /></text>
  </g>
</svg>
