<?xml version="1.0" encoding="UTF-8" standalone="no"?>
<!-- Created with Inkscape (http://www.inkscape.org/) -->

<svg
   id="svg2"
   version="1.1"
   inkscape:version="1.2.2 (b0a8486541, 2022-12-01)"
   width="2481"
   height="3503"
   sodipodi:docname="E38P05.svg"
   xmlns:inkscape="http://www.inkscape.org/namespaces/inkscape"
   xmlns:sodipodi="http://sodipodi.sourceforge.net/DTD/sodipodi-0.dtd"
   xmlns:xlink="http://www.w3.org/1999/xlink"
   xmlns="http://www.w3.org/2000/svg"
   xmlns:svg="http://www.w3.org/2000/svg"
   xmlns:rdf="http://www.w3.org/1999/02/22-rdf-syntax-ns#"
   xmlns:cc="http://creativecommons.org/ns#"
   xmlns:dc="http://purl.org/dc/elements/1.1/">
  <metadata
     id="metadata8">
    <rdf:RDF>
      <cc:Work
         rdf:about="">
        <dc:format>image/svg+xml</dc:format>
        <dc:type
           rdf:resource="http://purl.org/dc/dcmitype/StillImage" />
        <dc:title />
      </cc:Work>
    </rdf:RDF>
  </metadata>
  <defs
     id="defs6">
    <filter
       inkscape:label="underwater"
       inkscape:menu="Distort"
       inkscape:menu-tooltip="Something like a water noise"
       height="1.0511301"
       y="-0.025565068"
       width="1.0310469"
       x="-0.015523466"
       style="color-interpolation-filters:sRGB"
       id="filter4172">
      <feTurbulence
         numOctaves="1"
         seed="196"
         type="fractalNoise"
         baseFrequency="0.017000000000000001"
         result="result1"
         id="feTurbulence4174" />
      <feGaussianBlur
         stdDeviation="2"
         result="result2"
         id="feGaussianBlur4176" />
      <feDisplacementMap
         scale="50"
         yChannelSelector="B"
         xChannelSelector="R"
         in="SourceGraphic"
         in2="result2"
         id="feDisplacementMap4178" />
    </filter>
  </defs>
  <sodipodi:namedview
     pagecolor="#ffffff"
     bordercolor="#666666"
     borderopacity="1"
     objecttolerance="10"
     gridtolerance="10"
     guidetolerance="10"
     inkscape:pageopacity="0"
     inkscape:pageshadow="2"
     inkscape:window-width="1920"
     inkscape:window-height="1003"
     id="namedview4"
     showgrid="false"
     inkscape:zoom="0.529"
     inkscape:cx="1153.1191"
     inkscape:cy="2793.0057"
     inkscape:window-x="0"
     inkscape:window-y="0"
     inkscape:window-maximized="1"
     inkscape:current-layer="layer1"
     inkscape:showpageshadow="0"
     inkscape:pagecheckerboard="0"
     inkscape:deskcolor="#d1d1d1" />
  <g
     inkscape:groupmode="layer"
     id="layer2"
     inkscape:label="artwork"
     sodipodi:insensitive="true">
    <image
       xlink:href="../gfx_Pepper-and-Carrot_by-David-Revoy_E38P05.png"
       y="0"
       x="0"
       id="image10"
       height="3503"
       width="2481" />
  </g>
  <g
     inkscape:groupmode="layer"
     id="layer3"
     inkscape:label="speechbubbles">
    <path
       style="color:#000000;display:inline;overflow:visible;visibility:visible;fill:#ffffff;fill-opacity:1;fill-rule:nonzero;stroke:none;stroke-width:0.807924px;marker:none;enable-background:accumulate"
       d="m 421.80637,861.85403 c -28.78181,-0.37007 -57.96815,3.48398 -84.97277,15.39437 -10.98521,5.37881 -20.24033,16.66814 -22.49255,30.47565 -1.56799,13.41911 2.45328,27.81499 11.04646,37.16166 7.27023,7.29946 16.75785,10.43511 25.8567,13.2704 20.4816,5.79442 41.67402,6.22528 62.62565,7.01942 14.7161,0.41978 29.45266,0.96576 44.16312,0.17935 18.41006,-1.18601 36.95092,-3.79789 54.45803,-10.71928 9.43245,-3.76346 18.74717,-9.78935 24.2589,-19.72442 5.7308,-10.22838 6.99001,-24.00697 2.06735,-35.01304 -4.41357,-10.46431 -12.91684,-17.97351 -22.22051,-21.95902 -17.44787,-8.84935 -36.57437,-11.39274 -55.30752,-13.87075 -13.1262,-1.43166 -26.31246,-1.81063 -39.48286,-2.21434 z"
       id="path4040-4-4"
       inkscape:connector-curvature="0"
       sodipodi:nodetypes="zssssz" />
    <path
       style="fill:#ffffff;fill-rule:evenodd;stroke:none;stroke-width:0.999992px;stroke-linecap:butt;stroke-linejoin:miter;stroke-opacity:1"
       d="m 435.26341,563.21672 c 16.27678,-7.70306 54.74615,26.14786 39.58227,51.34243 -8.28227,13.76087 -48.97093,53.80439 -43.9925,66.35898 8.40555,21.19708 75.83803,24.06425 75.34563,52.97874 -1.26904,74.51888 -53.41279,72.33106 -59.81975,139.52761 -3.58819,37.63308 -34.40093,22.34932 -33.33057,3.73049 4.2792,-74.43645 66.79894,-75.39649 71.06678,-137.361 1.53877,-22.34137 -67.05507,-30.56749 -73.83163,-54.62707 -6.77656,-24.05958 42.65978,-65.6915 48.95364,-74.90388 19.06934,-27.91202 -17.29835,-49.15245 -23.97387,-47.0463 z"
       id="path4324-2"
       inkscape:connector-curvature="0"
       sodipodi:nodetypes="cssssssssc" />
    <path
       style="display:inline;fill:#ffffff;fill-opacity:1;stroke:none;stroke-width:1.02784"
       d="m 1197.206,625.51532 c -49.0322,-0.44449 -98.2623,4.77227 -143.5301,20.20367 -48.5279,17.21023 -81.46787,62.35193 -84.10521,111.03199 -1.52941,26.09684 5.41255,53.70051 22.59899,75.88049 14.48222,18.55125 34.55322,32.89748 55.93482,43.84802 26.2295,13.32012 54.6681,21.91586 83.2478,28.41944 27.7297,6.13903 55.8415,10.18038 83.9706,12.65777 53.1538,4.17213 106.1191,1.70112 158.7396,-1.53212 37.2166,-3.53102 73.328,-13.19668 106.2359,-28.33515 19.819,-8.43608 39.5428,-18.3178 53.8326,-33.7499 16.5055,-17.1472 26.5196,-39.53822 28.5161,-63.03449 2.4913,-23.27877 -1.2056,-48.12875 -14.286,-69.38667 -11.9193,-18.86911 -29.3335,-34.19466 -47.0177,-48.47463 -16.1792,-12.45719 -35.2709,-21.7632 -55.4902,-25.87571 -35.6227,-8.65875 -72.0102,-12.49669 -108.2223,-15.91163 -46.8207,-4.04148 -93.6664,-5.19828 -140.4249,-5.74108 z"
       id="path3238-0"
       inkscape:connector-curvature="0"
       sodipodi:nodetypes="cssssc" />
    <path
       style="color:#000000;display:inline;overflow:visible;visibility:visible;fill:#ffffff;fill-opacity:1;fill-rule:nonzero;stroke:none;stroke-width:0.999996px;marker:none;enable-background:accumulate"
       d="m 1148.6419,483.92962 c -46.7972,0.23302 -94.0361,6.91259 -138.1168,24.81261 -23.08452,9.25073 -43.40723,28.17604 -53.61798,53.03997 -4.18925,10.55254 -3.4092,22.64185 -0.90706,33.57163 4.01616,19.25685 16.01614,35.92224 31.47746,45.68574 9.9195,6.47307 21.34458,9.1346 32.50078,11.69854 21.5853,4.48658 43.5863,5.71587 65.4902,6.74437 24.7303,1.04107 49.4888,1.68274 74.1545,4.04214 47.3042,3.71231 95.0488,6.46939 142.2345,-0.39796 31.9219,-4.24248 63.8579,-10.13143 94.4376,-21.33927 12.3783,-5.01913 23.185,-14.62578 30.4565,-26.73159 6.5874,-10.81062 9.4837,-24.15057 8.215,-37.08249 -1.5828,-19.02165 -10.8861,-37.05529 -24.955,-48.23051 -14.4123,-12.26074 -31.1725,-20.81411 -48.4156,-27.00832 -22.3978,-7.69969 -45.9237,-9.86872 -69.2219,-11.43138 -47.8332,-3.92125 -95.7416,-7.49363 -143.7322,-7.37348 z"
       id="path3365-74"
       inkscape:connector-curvature="0"
       sodipodi:nodetypes="csssssc" />
    <path
       style="color:#000000;display:inline;overflow:visible;visibility:visible;fill:#ffffff;fill-opacity:1;fill-rule:nonzero;stroke:none;stroke-width:0.999994px;marker:none;enable-background:accumulate"
       d="m 1092.3968,293.64527 c -33.8506,0.78137 -68.3339,3.75385 -99.80936,14.63141 -34.73708,12.04826 -65.24183,33.25357 -82.99957,60.72162 -15.12065,24.74876 -15.63319,54.53598 -4.13157,80.33079 7.87697,18.61656 23.16248,35.26384 43.63213,45.76542 18.74778,10.01407 41.00155,14.7031 63.12947,16.12186 22.967,1.63823 46.05,0.84655 69.0606,1.68912 40.9612,0.96314 81.8784,2.8797 122.8345,3.94552 30.4692,0.69769 61.0619,0.79259 91.4007,-1.90057 30.3305,-3.96596 58.8329,-13.91816 86.5707,-24.34574 21.5674,-8.91617 40.1524,-23.19775 50.7067,-41.13289 11.4135,-17.98639 16.6509,-39.16139 11.3408,-59.17363 -5.0018,-16.56212 -18.0181,-30.64086 -32.9052,-42.2039 -29.4759,-23.51357 -67.7063,-39.86001 -108.4843,-44.96004 -21.7565,-2.87335 -43.7988,-3.74758 -65.7274,-5.32116 -47.6893,-2.84135 -95.5104,-4.28316 -143.3256,-4.19268 -0.4309,0.008 -0.8617,0.0166 -1.2926,0.0248 z"
       id="path4546-6-3"
       inkscape:connector-curvature="0"
       sodipodi:nodetypes="cssssssc" />
    <path
       style="fill:#ffffff;fill-rule:evenodd;stroke:none;stroke-width:0.999999px;stroke-linecap:butt;stroke-linejoin:miter;stroke-opacity:1"
       d="m 1097.2088,1498.1612 c -50.1074,232.9948 317.2826,138.0065 348.2465,127.5914 25.2848,-6.3546 42.8921,-91.6966 9.8197,-155.958 -17.4489,-37.4489 -309.4186,-95.437 -358.0662,28.3666 z"
       id="path4430-0"
       inkscape:connector-curvature="0"
       sodipodi:nodetypes="cccc" />
    <path
       style="fill:#ffffff;fill-rule:evenodd;stroke:none;stroke-width:0.999998px;stroke-linecap:butt;stroke-linejoin:miter;stroke-opacity:1"
       d="m 1665.3875,867.24265 c -47.6883,36.63018 -121.3078,34.71042 -164.497,-19.84273 -42.9447,-54.24437 -27.7187,24.61422 -27.7187,24.61422 0,0 103.5598,86.80674 192.2157,-4.77149 z"
       id="path914"
       inkscape:connector-curvature="0"
       sodipodi:nodetypes="cscc" />
    <path
       style="color:#000000;display:inline;overflow:visible;visibility:visible;fill:#ffffff;fill-opacity:1;fill-rule:nonzero;stroke:none;stroke-width:1.44363px;marker:none;enable-background:accumulate"
       d="m 1339.0908,1623.6053 c -58.6804,0.7716 -117.9182,6.3674 -173.7688,23.2029 -39.056,11.7174 -75.767,32.549 -99.7864,62.9309 -25.4822,32.6695 -35.8918,73.5289 -33.0035,112.9859 2.4111,35.318 21.0757,70.136 52.5086,92.0639 24.6399,16.5738 54.5232,25.2096 84.1737,31.5645 39.5562,7.9396 79.9915,11.3785 120.2296,15.2699 62.4515,4.5786 125.1516,2.1194 187.7156,1.7622 31.0345,-0.5514 62.1379,-0.3682 93.0804,-2.836 47.6638,-4.5312 94.4812,-15.8603 138.3732,-33.0327 24.6554,-10.4657 46.3447,-27.858 57.4651,-50.4275 11.3144,-22.3863 13.191,-47.5547 11.0884,-71.7607 -2.2808,-30.3048 -10.4975,-60.9643 -29.1653,-86.6937 -18.4601,-25.5733 -46.6932,-44.7019 -77.8665,-56.4505 -50.5455,-19.4654 -105.7263,-25.8509 -160.0486,-30.6564 -55.8598,-4.8701 -111.9624,-7.8675 -168.0983,-7.9531 -0.9657,0.01 -1.9314,0.021 -2.8972,0.031 z"
       id="path4546-6-5-3"
       inkscape:connector-curvature="0"
       sodipodi:nodetypes="cssssc" />
    <path
       style="color:#000000;display:inline;overflow:visible;visibility:visible;fill:#ffffff;fill-opacity:1;fill-rule:nonzero;stroke:none;stroke-width:1px;marker:none;enable-background:accumulate"
       d="m 1734.4698,1831.6628 c 62.1287,15.8148 150.4475,-33.6088 136.8651,-118.9732 -8.8478,92.8343 -96.9988,91.9805 -130.0298,76.4776 -19.3706,-12.294 -6.8353,42.4956 -6.8353,42.4956 z"
       id="path3978-4"
       inkscape:connector-curvature="0"
       sodipodi:nodetypes="cccc" />
    <path
       style="display:inline;fill:#ffffff;stroke:none;stroke-width:1"
       d="m 917.38033,2397.4226 c -5.2069,-10.7866 -17.1717,-15.0052 -25.6304,-13.039 -8.45839,1.9675 -11.4441,2.5263 -18.2896,8.7513 -6.8457,6.2252 -25.67917,11.3207 -33.31721,7.9632 -7.63783,-3.3561 -47.89164,-12.1144 -47.89164,-12.1144 0,0 20.67765,21.3567 29.65507,27.1533 8.97867,5.7973 6.3573,2.1556 10.75117,3.341 4.39314,1.1846 20.97342,-0.094 30.05862,-2.4708 7.13511,-1.8659 16.12447,-3.9027 23.29985,-12.6861 4.76574,-5.8354 18.47194,-4.2799 21.40374,4.5948 3.2536,9.8488 10.0144,11.0209 24.9122,8.2211 13.8184,-2.5977 34.3544,-11.9913 34.3544,-11.9913 -47.4943,6.1566 -43.47,4.3673 -49.3062,-7.7231 z"
       id="path3023-0"
       inkscape:connector-curvature="0"
       sodipodi:nodetypes="sssscsssssscs" />
    <path
       id="path3549-3-8"
       style="color:#000000;display:inline;overflow:visible;visibility:visible;opacity:1;fill:#ffffff;fill-opacity:1;fill-rule:nonzero;stroke:none;stroke-width:0.854406px;marker:none;enable-background:accumulate"
       d="m 102.15625,2217.2109 v 190.7752 c 43.83625,-4.2611 58.78942,7.4053 37.0332,38.431 58.02104,-48.2216 85.04749,-2.7227 83.1211,27.3326 33.39971,-49.7982 82.65082,-44.6663 103.83398,13.8446 34.79188,-83.4598 72.9266,-60.9606 108.04297,-19.6391 -13.4105,-40.547 3.37577,-89.0974 63.47461,-31.4717 -30.56695,-48.6459 -12.21009,-64.1644 9.85351,-70.59 v -30.726 c -7.60523,-13.8763 -9.83213,-31.447 0,-47.6574 v -70.2992 z" />
    <path
       style="fill:#ffffff;fill-rule:evenodd;stroke:none;stroke-width:0.999998px;stroke-linecap:butt;stroke-linejoin:miter;stroke-opacity:1"
       d="m 614.98881,2331.2948 c 6.57512,-4.5025 30.9863,6.1034 47.23431,-14.5751 16.19068,-5.8238 33.06234,8.5107 49.40116,1.3841 14.33141,-9.4751 32.46796,-10.8364 45.27819,1.061 14.36386,11.2529 34.42337,-0.9091 49.44359,7.0829 6.24188,10.2604 6.48874,24.2764 25.17031,26.9861 20.09836,6.5494 -1.65107,22.3736 -0.26812,33.4774 1.29355,11.641 17.1596,30.782 -7.21514,34.0234 -16.96883,3.6696 -17.31233,19.095 -31.90536,26.234 -11.7402,6.8974 -35.28869,-4.7334 -52.1666,2.2019 -13.26157,2.3364 -24.06652,16.2037 -32.02042,2.0306 -13.94698,-10.4421 -35.59419,-14.7145 -53.8245,-9.226 -18.76606,-1.2476 -17.91699,-24.2238 -38.31236,-23.6428 -19.06357,0.857 -30.24122,-11.0952 -21.50112,-24.5407 4.04556,-12.2665 -22.30758,-21.9987 -7.48377,-32.292 14.25762,-6.1411 16.87054,-24.2606 28.16983,-30.2048 z"
       id="path16024"
       sodipodi:nodetypes="cccccccccccccccc" />
    <path
       style="color:#000000;display:inline;overflow:visible;visibility:visible;fill:#ffffff;fill-opacity:1;fill-rule:nonzero;stroke:none;stroke-width:1px;marker:none;enable-background:accumulate"
       d="m 2087.9681,3285.9397 c 0.5382,-35.4026 11.0244,-68.8822 103.9813,-67.7236 69.6996,0.8683 88.2609,28.1452 89.8052,63.9302 1.0883,25.2186 -36.6197,48.5616 -96.5036,47.3246 -57.2375,-1.1819 -93.0971,-16.5325 -97.2829,-43.5312 z"
       id="path5026-3"
       inkscape:connector-curvature="0"
       sodipodi:nodetypes="csssc" />
    <path
       style="display:inline;fill:#ffffff;fill-rule:evenodd;stroke:none;stroke-width:1px;stroke-linecap:butt;stroke-linejoin:miter;stroke-opacity:1"
       d="m 2216.2701,3274.5534 c -61.8984,-21.049 28.9638,-64.9043 19.6446,-80.7113 -6.8485,-11.6163 -47.2918,2.0303 -76.0255,-47.5276 36.5257,35.7762 71.9507,15.1139 89.789,28.9312 33.8795,26.2412 -13.779,72.8752 -16.93,82.2108 -4.2143,12.4859 -16.4781,17.0969 -16.4781,17.0969 z"
       id="path4186-80"
       inkscape:connector-curvature="0"
       sodipodi:nodetypes="cscssc" />
    <path
       style="display:inline;fill:#ffffff;stroke:none;stroke-width:1"
       d="m 150.33564,197.02745 c -0.56248,-16.53428 17.59238,-62.27919 95.40492,-57.01611 77.81255,5.26308 101.82519,24.09797 103.52442,53.50769 2.68819,46.52623 -38.52788,57.79921 -97.42464,59.61049 -60.71626,1.86792 -98.18412,-14.27969 -101.5047,-56.10207 z"
       id="path3280-9"
       inkscape:connector-curvature="0"
       sodipodi:nodetypes="csssc" />
    <path
       style="color:#000000;display:inline;overflow:visible;visibility:visible;fill:#ffffff;fill-opacity:1;fill-rule:nonzero;stroke:none;stroke-width:1px;marker:none;enable-background:accumulate"
       d="m 243.93137,340.60992 c -25.02662,-22.16944 -37.57619,-65.64997 -6.57569,-106.68443 31.00051,-41.03445 15.89917,-51.35957 15.89917,-51.35957 l -32.36315,12.91552 c 0,0 -47.82019,105.74427 23.03967,145.12848 z"
       id="path3072-6"
       inkscape:connector-curvature="0"
       sodipodi:nodetypes="csccc" />
    <path
       style="fill:#ffffff;stroke:none;stroke-width:1.1243"
       d="m 953.9822,259.61165 c -0.9247,-49.31229 26.6861,-60.38495 54.7056,-67.32626 28.0194,-6.94013 115.1003,0.75255 108.7035,61.09627 -6.3968,60.34256 -48.53,68.70534 -83.3415,66.03787 -34.81158,-2.66747 -75.0164,-13.08297 -80.0676,-59.80788 z"
       id="path3938-8-5"
       inkscape:connector-curvature="0"
       sodipodi:nodetypes="csssc" />
  </g>
  <g
     inkscape:groupmode="layer"
     id="layer1"
     inkscape:label="txt">
    <text
       id="text4178-0-7"
       y="210.26805"
       x="250.5466"
       style="font-style:normal;font-variant:normal;font-weight:normal;font-stretch:normal;line-height:0%;font-family:Lavi;-inkscape-font-specification:Lavi;text-align:center;letter-spacing:0px;word-spacing:0px;text-anchor:middle;fill:#000000;fill-opacity:1;stroke:none"
       xml:space="preserve"><tspan
         y="210.26805"
         x="250.5466"
         style="font-size:40.6767px;line-height:1.25"
         sodipodi:role="line"
         id="tspan13656-7">Estas tio.</tspan></text>
    <text
       id="text4178-0"
       y="927.02161"
       x="423.54248"
       style="font-style:normal;font-variant:normal;font-weight:normal;font-stretch:normal;font-size:11.3747px;line-height:0%;font-family:Lavi;-inkscape-font-specification:Lavi;text-align:center;letter-spacing:0px;word-spacing:0px;text-anchor:middle;fill:#000000;fill-opacity:1;stroke:none;stroke-width:1"
       xml:space="preserve"><tspan
         y="927.02161"
         x="423.54248"
         style="font-size:38.5572px;line-height:1.25;stroke-width:1"
         sodipodi:role="line"
         id="tspan463">Ion pli?</tspan></text>
    <text
       id="text4178-0-7-3"
       y="273.96155"
       x="1011.0895"
       style="font-style:normal;font-variant:normal;font-weight:normal;font-stretch:normal;font-size:14.0366px;line-height:0%;font-family:Lavi;-inkscape-font-specification:Lavi;text-align:center;letter-spacing:0px;word-spacing:0px;text-anchor:middle;fill:#000000;fill-opacity:1;stroke:none;stroke-width:1"
       xml:space="preserve"
       transform="scale(1.0254518,0.97517992)"><tspan
         y="273.96155"
         x="1011.0895"
         style="font-weight:bold;font-size:47.5802px;line-height:1.25;stroke-width:1"
         sodipodi:role="line"
         id="tspan13656-7-6">Jes.</tspan></text>
    <text
       id="text4178-0-3"
       y="368.85971"
       x="1161.1416"
       style="font-style:normal;font-variant:normal;font-weight:normal;font-stretch:normal;line-height:0%;font-family:Lavi;-inkscape-font-specification:Lavi;text-align:center;letter-spacing:0px;word-spacing:0px;text-anchor:middle;fill:#000000;fill-opacity:1;stroke:none"
       xml:space="preserve"><tspan
         y="368.85971"
         x="1161.1416"
         style="font-size:40.6767px;line-height:1.25"
         sodipodi:role="line"
         id="tspan13828">Ke via nomo estu en</tspan><tspan
         y="419.7056"
         x="1161.1416"
         style="font-size:40.6767px;line-height:1.25"
         sodipodi:role="line"
         id="tspan553">&quot;serĉata&quot; afiŝo, <tspan
   style="font-weight:bold"
   id="tspan559">normalas</tspan></tspan><tspan
         y="470.55145"
         x="1161.1416"
         style="font-size:40.6767px;line-height:1.25"
         sodipodi:role="line"
         id="tspan557">por Ĥaosaha sorĉistino.</tspan></text>
    <text
       id="text4178-0-3-7"
       y="560.37183"
       x="1194.0856"
       style="font-style:normal;font-variant:normal;font-weight:normal;font-stretch:normal;line-height:0%;font-family:Lavi;-inkscape-font-specification:Lavi;text-align:center;letter-spacing:0px;word-spacing:0px;text-anchor:middle;fill:#000000;fill-opacity:1;stroke:none"
       xml:space="preserve"><tspan
         y="560.37183"
         x="1194.0856"
         style="font-size:40.6767px;line-height:1.25"
         sodipodi:role="line"
         id="tspan13908">Tio estas eĉ signo</tspan><tspan
         y="611.21771"
         x="1194.0856"
         style="font-size:40.6767px;line-height:1.25"
         sodipodi:role="line"
         id="tspan563">de <tspan
   style="font-weight:bold"
   id="tspan565">bona reputacio.</tspan></tspan></text>
    <text
       id="text4178-0-3-7-4"
       y="709.26703"
       x="1263.552"
       style="font-style:normal;font-variant:normal;font-weight:normal;font-stretch:normal;line-height:0%;font-family:Lavi;-inkscape-font-specification:Lavi;text-align:center;letter-spacing:0px;word-spacing:0px;text-anchor:middle;fill:#000000;fill-opacity:1;stroke:none"
       xml:space="preserve"><tspan
         y="709.26703"
         x="1263.552"
         style="font-size:40.6767px;line-height:1.25"
         sodipodi:role="line"
         id="tspan13969">Ignoru la mokadon</tspan><tspan
         y="760.11292"
         x="1263.552"
         style="font-size:40.6767px;line-height:1.25"
         sodipodi:role="line"
         id="tspan663">kaj kio estos dirita, kaj</tspan><tspan
         y="810.9588"
         x="1263.552"
         style="font-size:40.6767px;line-height:1.25"
         sodipodi:role="line"
         id="tspan660">kreu vian <tspan
   style="font-weight:bold"
   id="tspan666">propran karieron</tspan>,</tspan><tspan
         y="861.80463"
         x="1263.552"
         style="font-size:40.6767px;line-height:1.25"
         sodipodi:role="line"
         id="tspan662">se neniu donas al vi unu.</tspan></text>
    <text
       id="text4178-0-3-7-4-4-9"
       y="1500.6082"
       x="1291.115"
       style="font-style:normal;font-variant:normal;font-weight:normal;font-stretch:normal;font-size:13.0616px;line-height:0%;font-family:Lavi;-inkscape-font-specification:Lavi;text-align:center;letter-spacing:0px;word-spacing:0px;text-anchor:middle;fill:#000000;fill-opacity:1;stroke:none;stroke-width:1"
       xml:space="preserve"><tspan
         y="1500.6082"
         x="1291.115"
         style="font-weight:normal;font-size:44.2754px;line-height:1.25;stroke-width:1"
         sodipodi:role="line"
         id="tspan14405">Kaj precipe:</tspan><tspan
         y="1555.9524"
         x="1291.115"
         style="font-weight:bold;font-size:44.2754px;line-height:1.25;stroke-width:1"
         sodipodi:role="line"
         id="tspan978"> vi ne estas</tspan><tspan
         y="1611.2966"
         x="1291.115"
         style="font-weight:bold;font-size:44.2754px;line-height:1.25;stroke-width:1"
         sodipodi:role="line"
         id="tspan982">kuracisto.</tspan></text>
    <text
       id="text4178-0-3-7-4-6"
       y="1717.0682"
       x="1407.6429"
       style="font-style:normal;font-variant:normal;font-weight:normal;font-stretch:normal;line-height:0%;font-family:Lavi;-inkscape-font-specification:Lavi;text-align:center;letter-spacing:0px;word-spacing:0px;text-anchor:middle;fill:#000000;fill-opacity:1;stroke:none;stroke-width:1.4;stroke-dasharray:none"
       xml:space="preserve"><tspan
         y="1717.0682"
         x="1407.6429"
         style="font-size:40.6767px;line-height:1.25;stroke-width:1.4;stroke-dasharray:none"
         sodipodi:role="line"
         id="tspan1088">Ili rimarkos, pli aŭ malpli frue,</tspan><tspan
         y="1767.9141"
         x="1407.6429"
         style="font-size:40.6767px;line-height:1.25;stroke-width:1.4;stroke-dasharray:none"
         sodipodi:role="line"
         id="tspan509">kiam vi elĉerpos tiun grandegan</tspan><tspan
         y="1818.76"
         x="1407.6429"
         style="font-size:40.6767px;line-height:1.25;stroke-width:1.4;stroke-dasharray:none"
         sodipodi:role="line"
         id="tspan522">kvanton de <tspan
   style="font-style:italic;stroke:#000000;stroke-opacity:1"
   id="tspan1102">Feniksaj Larmoj</tspan>, kiujn</tspan><tspan
         y="1869.6058"
         x="1407.6429"
         style="font-size:40.6767px;line-height:1.25;stroke-width:1.4;stroke-dasharray:none"
         sodipodi:role="line"
         id="tspan532">vi portas kun vi, ŝajnigante,</tspan><tspan
         y="1920.4518"
         x="1407.6429"
         style="font-size:40.6767px;line-height:1.25;stroke-width:1.4;stroke-dasharray:none"
         sodipodi:role="line"
         id="tspan536">ke vi havas novajn povojn.</tspan></text>
    <text
       id="text4178-0-3-7-4-4-9-8"
       y="2304.5208"
       x="299.76089"
       style="font-style:normal;font-variant:normal;font-weight:normal;font-stretch:normal;font-size:19.6833px;line-height:0%;font-family:Lavi;-inkscape-font-specification:Lavi;text-align:center;letter-spacing:0px;word-spacing:0px;text-anchor:middle;fill:#000000;fill-opacity:1;stroke:none;stroke-width:1"
       xml:space="preserve"><tspan
         y="2304.5208"
         x="299.76089"
         style="font-weight:bold;font-size:66.7212px;line-height:1.25;stroke-width:1"
         sodipodi:role="line"
         id="tspan14981">Kio... ?</tspan></text>
    <text
       id="text4178-0-3-7-4-4-9-8-2"
       y="2390.5906"
       x="304.07828"
       style="font-style:normal;font-variant:normal;font-weight:normal;font-stretch:normal;font-size:17.9224px;line-height:0%;font-family:Lavi;-inkscape-font-specification:Lavi;text-align:center;letter-spacing:0px;word-spacing:0px;text-anchor:middle;fill:#000000;fill-opacity:1;stroke:none;stroke-width:1"
       xml:space="preserve"><tspan
         y="2390.5906"
         x="304.07828"
         style="font-weight:bold;font-size:60.7521px;line-height:1.25;stroke-width:1"
         sodipodi:role="line"
         id="tspan1834">Kiel vi...</tspan></text>
    <text
       id="text4178-0-3-7-4-6-2"
       y="2380.6519"
       x="721.09253"
       style="font-style:normal;font-variant:normal;font-weight:normal;font-stretch:normal;font-size:13.0698px;line-height:0%;font-family:Lavi;-inkscape-font-specification:Lavi;text-align:center;letter-spacing:0px;word-spacing:0px;text-anchor:middle;fill:#000000;fill-opacity:1;stroke:none;stroke-width:0.999999"
       xml:space="preserve"
       transform="scale(0.99716257,1.0028455)"><tspan
         y="2380.6519"
         x="721.09253"
         style="font-size:44.303px;line-height:1.25;stroke-width:0.999999"
         sodipodi:role="line"
         id="tspan14909-4">...divenis.</tspan></text>
    <text
       id="text4178-0-3-7-4-6-2-9"
       y="3394.865"
       x="2115.7561"
       style="font-style:normal;font-variant:normal;font-weight:normal;font-stretch:normal;font-size:15.5528px;line-height:0%;font-family:Lavi;-inkscape-font-specification:Lavi;text-align:center;letter-spacing:0px;word-spacing:0px;text-anchor:middle;fill:#000000;fill-opacity:1;stroke:none;stroke-width:1"
       xml:space="preserve"
       transform="scale(1.0311049,0.96983341)"><tspan
         y="3394.865"
         x="2115.7561"
         style="font-size:52.7197px;line-height:1.25;stroke-width:1"
         sodipodi:role="line"
         id="tspan14909-4-0">Fi!</tspan></text>
  </g>
</svg>
