<?xml version="1.0" encoding="UTF-8" standalone="no"?>
<!-- Created with Inkscape (http://www.inkscape.org/) -->

<svg
   id="svg2"
   version="1.1"
   inkscape:version="1.2.2 (b0a8486541, 2022-12-01)"
   width="2481"
   height="3503"
   sodipodi:docname="E38P01.svg"
   xmlns:inkscape="http://www.inkscape.org/namespaces/inkscape"
   xmlns:sodipodi="http://sodipodi.sourceforge.net/DTD/sodipodi-0.dtd"
   xmlns:xlink="http://www.w3.org/1999/xlink"
   xmlns="http://www.w3.org/2000/svg"
   xmlns:svg="http://www.w3.org/2000/svg"
   xmlns:rdf="http://www.w3.org/1999/02/22-rdf-syntax-ns#"
   xmlns:cc="http://creativecommons.org/ns#"
   xmlns:dc="http://purl.org/dc/elements/1.1/">
  <metadata
     id="metadata8">
    <rdf:RDF>
      <cc:Work
         rdf:about="">
        <dc:format>image/svg+xml</dc:format>
        <dc:type
           rdf:resource="http://purl.org/dc/dcmitype/StillImage" />
        <dc:title />
      </cc:Work>
    </rdf:RDF>
  </metadata>
  <defs
     id="defs6" />
  <sodipodi:namedview
     pagecolor="#ffffff"
     bordercolor="#666666"
     borderopacity="1"
     objecttolerance="10"
     gridtolerance="10"
     guidetolerance="10"
     inkscape:pageopacity="0"
     inkscape:pageshadow="2"
     inkscape:window-width="1920"
     inkscape:window-height="1003"
     id="namedview4"
     showgrid="false"
     inkscape:zoom="0.27025839"
     inkscape:cx="1716.8755"
     inkscape:cy="2625.2654"
     inkscape:window-x="0"
     inkscape:window-y="0"
     inkscape:window-maximized="1"
     inkscape:current-layer="layer1"
     inkscape:showpageshadow="0"
     inkscape:pagecheckerboard="0"
     inkscape:deskcolor="#d1d1d1"
     showguides="false" />
  <g
     inkscape:groupmode="layer"
     id="layer2"
     inkscape:label="artwork"
     sodipodi:insensitive="true">
    <image
       xlink:href="../gfx_Pepper-and-Carrot_by-David-Revoy_E38P01.png"
       y="0"
       x="0"
       id="image10"
       height="3503"
       width="2481" />
  </g>
  <g
     inkscape:groupmode="layer"
     id="layer3"
     inkscape:label="speechbubbles">
    <path
       style="display:inline;fill:#ffffff;fill-rule:evenodd;stroke:none;stroke-width:1.00848px;stroke-linecap:butt;stroke-linejoin:miter;stroke-opacity:1"
       d="m 1910.5132,2823.7857 c 10.5956,-12.8494 17.4757,-27.8094 8.4376,-35.4155 l -2.1378,-4.8919 -28.8932,-57.5913 c 32.3995,13.0979 67.1155,29.9281 46.3635,-42.602 30.423,36.1281 55.2994,54.2583 58.734,2.8147 12.4555,22.851 24.4959,58.9265 38.4236,34.8767 6.2773,11.7728 12.1782,7.0951 17.6848,-14.8154 8.2226,26.8604 20.8033,10.2614 34.6157,-18.6212 13.0929,29.3239 26.974,53.6416 51.0894,12.9665 -2.0569,30.1977 11.7831,28.6932 32.8084,12.8595 -2.4272,13.1355 1.5985,17.445 26.9373,6.6788 -6.0565,12.7517 -17.2832,13.9903 9.9494,16.3815 -2.3637,12.4157 -19.2588,22.5757 14.2709,40.5624 -33.5138,-4.6132 -8.5057,17.4098 -7.0851,28.697 -21.8264,-6.5408 -31.5118,-3.4934 -8.0883,25.7006 -11.1255,-0.3509 -42.6126,-32.2377 -26.3709,9.7978 -18.607,-23.4746 -35.7092,5.2194 -25.9495,6.2019 l -39.7499,8.8413 -63.6261,-7.3731 -44.904,0.4398 -37.3293,5.5096 c 4.8987,-18.4296 -7.6623,-11.9095 -17.6147,-9.117 -3.3726,-5.389 3.4331,-18.4753 -18.0887,-10.1391 0.2891,-13.3273 -10.3169,-11.5415 -19.4771,-11.7616 z"
       id="path1058"
       sodipodi:nodetypes="ccccccccccccccccccccccccc" />
    <path
       style="display:inline;fill:#ffffff;fill-rule:evenodd;stroke:none;stroke-width:1.18461px;stroke-linecap:butt;stroke-linejoin:miter;stroke-opacity:1"
       d="m 1846.8524,2894.2043 c 47.271,1.0892 41.0079,21.2249 23.9847,45.1891 13.0958,-1.6119 43.7243,-23.8106 25.5629,11.2801 39.6554,-12.7486 15.2247,13.0459 12.0024,26.0161 15.9852,-2.7302 25.7707,9.0178 6.329,52.7136 19.632,-10.2832 49.6323,-48.8904 47.3964,0.5675 15.8935,-6.139 36.7754,-29.7924 39.4257,10.5641 21.0092,-19.923 49.3951,-36.9203 49.9208,25.5846 10.9379,-53.506 51.5519,-70.7635 57.3921,6.0545 7.8602,-69.7569 43.739,-47.641 67.1128,3.3868 -6.8236,-40.421 3.5351,-65.4976 80.0014,-31.5404 -0.5548,-35.5863 15.4014,-51.5057 79.1677,-10.473 -13.5527,-23.6848 -46.319,-61.3934 29.9574,-19.5132 -40.1155,-50.4203 -15.1412,-68.9553 18.2614,-102.3562 -40.6731,23.2922 -28.9599,-10.8455 -13.6356,-37.423 -50.1724,11.6768 -60.4241,-10.8603 -22.0549,-44.0038 -58.0927,13.8297 -56.6653,-5.3245 -45.3111,-21.8463 -84.175,32.6442 -49.0683,-19.0231 -41.2957,-39.1637 -60.9762,90.4864 -43.0485,34.6112 -36.3175,-0.4943 -34.617,53.9362 -50.0182,44.727 -43.4128,-8.3158 l -68.6533,36.3461 -166.4736,27.9861 c -24.9792,28.0548 -32.1865,23.527 -84.4041,30.1764 69.2098,15.7648 28.4568,33.8011 -14.9561,39.2647 z"
       id="path961"
       sodipodi:nodetypes="cccccccccccccccccccccccc" />
    <path
       style="display:inline;fill:#ffffff;fill-rule:evenodd;stroke:none;stroke-width:0.954738px;stroke-linecap:butt;stroke-linejoin:miter;stroke-opacity:1"
       d="m 2000.6694,2716.7252 c -31.651,13.0747 -66.0394,18.8224 -102.4949,19.037 l 17.6113,45.3908 c -18.364,3.6732 -29.918,0.9666 -70.6388,2.2181 l 6.282,21.8742 -102.3938,-5.104 121.1041,21.825 -4.8924,-18.0382 86.3709,-1.8936 -21.7145,-39.3473 c 30.9126,-19.0725 69.7849,-11.308 104.7266,-16.7953 z"
       id="path957"
       sodipodi:nodetypes="cccccccccccc" />
    <path
       style="color:#000000;display:inline;overflow:visible;visibility:visible;fill:#ffffff;fill-opacity:1;fill-rule:nonzero;stroke:none;stroke-width:0.999995px;marker:none;enable-background:accumulate"
       d="m 154.18291,2746.3221 c 12.36192,-16.9283 38.3645,-31.1634 72.46639,-36.9339 34.10182,-5.7713 97.1903,-4.2327 108.27341,-2.3084 11.08308,1.9235 72.04008,8.8486 85.25453,18.467 13.2146,9.6175 31.11795,21.5442 34.95442,33.8558 3.83653,12.3116 0.42629,41.9355 -11.93563,48.4757 -12.36191,6.5403 -68.62992,20.7754 -101.45306,21.5451 -32.823,0.7689 -109.12586,-5.3865 -130.86583,-9.6184 -21.73989,-4.2318 -44.75869,-9.6183 -51.57895,-23.0836 -6.82041,-13.4654 -19.60863,-31.1634 -5.11528,-50.3993 z"
       id="path3533-6"
       inkscape:connector-curvature="0" />
    <path
       style="color:#000000;display:inline;overflow:visible;visibility:visible;fill:#ffffff;fill-opacity:1;fill-rule:nonzero;stroke:none;stroke-width:1px;marker:none;enable-background:accumulate"
       d="m 449.68921,2694.176 c -5.4692,18.044 -36.31667,19.557 -47.67251,15.89 22.89062,20.186 22.09264,32.728 -8.98652,34.675 52.12022,36.381 9.5283,30.876 1.12737,40.101 40.92404,12.538 22.61417,28.141 15.32823,43.674 47.03817,0.534 31.64473,25.433 33.62731,45.263 3.98771,-9.305 22.93203,-37.635 24.07187,-6.092 31.11301,-30.093 68.58777,-49.532 71.56343,3.132 12.53592,-26.494 25.03422,-37.691 24.07196,-6.092 31.06008,-41.099 58.97184,-26.305 87.04913,-14.689 7.37431,-12.405 8.23362,-31.462 32.09131,-26.996 -3.34509,-12.295 4.71021,-20.747 22.90194,-25.766 -24.17387,-7.427 -28.62902,-15.088 16.25642,-23.332 -34.15525,-0.798 -66.00523,-2.432 -25.93368,-30.547 -12.57158,-0.681 -42.39883,22.78 -28.49222,-45.878 -21.61743,21.98 -44.68133,34.111 -73.60556,-11.931 -13.68835,23.002 -37.43051,34.384 -47.75962,5.653 -3.71242,12.248 -19.10628,16.855 -32.17455,17.413 -5.05353,-4.865 -10.26568,-11.473 -15.70469,-20.131 -8.88976,18.179 -22.18782,30.457 -47.75962,5.653 z"
       id="path3549-3-7-3"
       inkscape:connector-curvature="0"
       sodipodi:nodetypes="cccccccccccccccccccc" />
    <path
       style="fill:#ffffff;stroke:none;stroke-width:0.999987"
       d="m 630.35038,2847.8624 c -6.18297,-41.564 12.47702,-88.7068 25.89185,-103.5788 13.41484,-14.8722 37.42815,-24.0661 59.73171,-32.6 18.4762,-7.0706 100.69495,-6.8273 159.07275,-5.8452 48.89807,0.8231 101.29359,27.5396 113.15512,70.201 11.86149,42.6599 8.34071,118.828 -6.15421,143.6879 -14.4948,24.8609 -28.74593,51.8242 -113.62133,61.6411 -84.87544,9.8156 -190.05517,-5.7495 -215.08573,-55.786 -14.11076,-28.2083 -22.99016,-77.72 -22.99016,-77.72 z"
       id="path3286-6"
       inkscape:connector-curvature="0"
       sodipodi:nodetypes="csssssssc" />
    <path
       style="display:inline;fill:#ffffff;fill-rule:evenodd;stroke:none;stroke-width:1px;stroke-linecap:butt;stroke-linejoin:miter;stroke-opacity:1"
       d="m 770.17916,2905.8157 c -37.0534,20.4212 33.28706,75.895 22.46288,93.9658 -7.4722,12.4745 -47.82201,-4.0185 -75.22579,52.2357 35.72049,-40.0521 72.16531,-14.9218 89.72928,-30.2585 33.3584,-29.127 -11.25452,-70.4044 -14.74009,-81.3044 -4.66176,-14.5778 -22.22628,-34.6386 -22.22628,-34.6386 z"
       id="path4186-80"
       inkscape:connector-curvature="0"
       sodipodi:nodetypes="cscssc" />
    <path
       style="fill:#ffffff;stroke:none;stroke-width:0.926795"
       d="m 1731.4725,1809.3183 c -5.1716,-27.4131 10.4354,-58.5055 21.6559,-68.3143 11.2199,-9.8086 31.3048,-15.8724 49.9595,-21.5008 15.4531,-4.6634 84.2209,-4.5028 133.048,-3.8553 40.8981,0.5429 84.7216,18.1634 94.6426,46.3003 9.921,28.1359 6.9762,78.3717 -5.1472,94.7678 -12.1236,16.3968 -24.0431,34.1802 -95.0327,40.6548 -70.9895,6.4737 -158.9618,-3.792 -179.8972,-36.793 -11.8023,-18.6046 -19.2289,-51.2595 -19.2289,-51.2595 z"
       id="path3286-6-3"
       inkscape:connector-curvature="0"
       sodipodi:nodetypes="csssssssc" />
    <path
       style="fill:#ffffff;stroke:none;stroke-width:0.8986"
       d="m 1750.6815,1692.3594 c -2.8485,-14.4312 6.4139,-30.5858 12.9996,-35.6193 6.5856,-5.0335 18.3068,-8.0145 29.1936,-10.7814 9.0185,-2.2924 49.0285,-1.524 77.4337,-0.6985 23.7925,0.6917 49.1872,10.3707 54.7949,25.2288 5.6079,14.8577 3.6006,41.1799 -3.5491,49.6599 -7.1496,8.4806 -14.1888,17.6903 -55.5304,20.3804 -41.3415,2.6895 -92.4662,-3.5708 -104.4542,-21.0902 -6.7581,-9.8764 -10.8881,-27.0797 -10.8881,-27.0797 z"
       id="path3286-6-3-2"
       inkscape:connector-curvature="0"
       sodipodi:nodetypes="csssssssc" />
    <path
       style="color:#000000;display:inline;overflow:visible;visibility:visible;fill:#ffffff;fill-opacity:1;fill-rule:nonzero;stroke:none;stroke-width:1.176px;marker:none;enable-background:accumulate"
       d="m 1770.1266,2335.4852 c -2.1987,-14.4836 31.8236,-78.8761 165.958,-69.2201 134.1344,9.6559 153.2123,44.1745 154.5492,76.1883 -2.3177,32.9908 -29.2104,57.061 -49.0007,61.8893 -19.7903,4.8276 -49.5374,11.5288 -104.4491,12.5521 -63.4387,0.043 -100.836,-1.9822 -141.0064,-28.279 -38.3177,-23.3248 -23.852,-49.2684 -26.051,-53.1306 z"
       id="path3365-7"
       inkscape:connector-curvature="0"
       sodipodi:nodetypes="cscsccc" />
    <path
       style="fill:#ffffff;stroke:none;stroke-width:1.02124"
       d="m 1871.9103,2038.6335 c -38.2464,0.3008 -76.4913,10.8384 -107.203,30.4854 -18.1722,12.239 -32.4828,29.6912 -36.0391,49.5546 -2.8713,14.5821 -2.9293,29.4172 -4.2183,44.1312 -1.4734,27.0319 1.5696,54.6377 12.8003,80.0861 12.6282,26.1384 41.2257,46.3112 73.8767,51.0654 26.4214,4.6474 53.5474,4.0721 80.2657,6.5735 42.416,2.8829 85.1719,4.375 127.5769,0.5432 33.0133,-2.1665 66.6358,-3.9086 98.1408,-13.3629 22.9481,-7.4002 44.541,-20.0603 57.1217,-38.4749 12.3303,-17.9988 15.7949,-39.2679 16.0988,-59.8283 0.9325,-26.6561 -2.6687,-54.079 -16.0969,-78.416 -13.3321,-21.498 -36.8702,-37.1813 -62.5585,-46.8142 -39.9123,-15.4903 -83.3912,-24.6545 -127.2917,-25.0643 -34.3261,-0.8966 -68.6713,-0.1149 -103.0046,-0.4793 -3.1562,-0.011 -6.3125,-0.011 -9.4688,5e-4 z"
       id="path3280-8-0-3"
       inkscape:connector-curvature="0"
       sodipodi:nodetypes="csssc" />
    <path
       style="color:#000000;display:inline;overflow:visible;visibility:visible;fill:#ffffff;fill-opacity:1;fill-rule:nonzero;stroke:none;stroke-width:1px;marker:none;enable-background:accumulate"
       d="m 2043.5678,2501.161 c -35.0529,-23.7474 -46.172,-34.2743 -37.5356,-84.9721 8.6364,-50.6978 -9.5224,-52.9142 -9.5224,-52.9142 l -22.7877,26.3611 c 0,0 -11.1894,109.1725 69.8457,111.5252 z"
       id="path3072-6"
       inkscape:connector-curvature="0" />
    <path
       style="color:#000000;display:inline;overflow:visible;visibility:visible;fill:#ffffff;fill-opacity:1;fill-rule:nonzero;stroke:none;stroke-width:1px;marker:none;enable-background:accumulate"
       d="m 2005.9605,1984.9453 c -38.4707,-17.6819 -51.1646,-26.2444 -50.9531,-77.6721 0.2114,-51.4277 -18.0652,-50.6383 -18.0652,-50.6383 l -18.1596,29.7391 c 0,0 6.8528,109.5303 87.1779,98.5713 z"
       id="path3072-6-3"
       inkscape:connector-curvature="0" />
  </g>
  <g
     inkscape:groupmode="layer"
     id="layer1"
     inkscape:label="txt">
    <text
       id="text4178-3"
       y="1703.0369"
       x="1796.0411"
       style="font-style:normal;font-variant:normal;font-weight:normal;font-stretch:normal;line-height:0%;font-family:Lavi;-inkscape-font-specification:Lavi;text-align:start;letter-spacing:0px;word-spacing:0px;text-anchor:start;fill:#000000;fill-opacity:1;stroke:none"
       xml:space="preserve"><tspan
         y="1703.0369"
         x="1796.0411"
         style="font-size:40.6767px;line-height:1.25;text-align:start;text-anchor:start"
         sodipodi:role="line"
         id="tspan646">Fine...</tspan></text>
    <text
       id="text4178-3-36"
       y="1792.8582"
       x="1879.2559"
       style="font-style:normal;font-variant:normal;font-weight:normal;font-stretch:normal;line-height:0%;font-family:Lavi;-inkscape-font-specification:Lavi;text-align:start;letter-spacing:0px;word-spacing:0px;text-anchor:start;fill:#000000;fill-opacity:1;stroke:none"
       xml:space="preserve"><tspan
         y="1792.8582"
         x="1879.2559"
         style="font-size:40.6767px;line-height:1.25;text-align:center;text-anchor:middle"
         sodipodi:role="line"
         id="tspan448">Ni sukcesis</tspan><tspan
         y="1843.704"
         x="1879.2559"
         style="font-size:40.6767px;line-height:1.25;text-align:center;text-anchor:middle"
         sodipodi:role="line"
         id="tspan436">detrui ĉi tiun!</tspan></text>
    <text
       id="text4178-3-3"
       y="2111.8545"
       x="1955.0306"
       style="font-style:normal;font-variant:normal;font-weight:normal;font-stretch:normal;line-height:0%;font-family:Lavi;-inkscape-font-specification:Lavi;text-align:start;letter-spacing:0px;word-spacing:0px;text-anchor:start;fill:#000000;fill-opacity:1;stroke:none"
       xml:space="preserve"><tspan
         y="2111.8545"
         x="1955.0306"
         style="font-size:40.6767px;line-height:1.25;text-align:center;text-anchor:middle"
         sodipodi:role="line"
         id="tspan509">Jes, malfacilis.</tspan><tspan
         y="2162.7004"
         x="1955.0306"
         style="font-size:40.6767px;line-height:1.25;text-align:center;text-anchor:middle"
         sodipodi:role="line"
         id="tspan513"> Nun ni komprenas, kial </tspan><tspan
         y="2213.5461"
         x="1955.0306"
         style="font-size:40.6767px;line-height:1.25;text-align:center;text-anchor:middle"
         sodipodi:role="line"
         id="tspan440">tiom multaj aventuristoj</tspan><tspan
         y="2264.3921"
         x="1955.0306"
         style="font-size:40.6767px;line-height:1.25;text-align:center;text-anchor:middle"
         sodipodi:role="line"
         id="tspan527">estis blokitaj tie.</tspan></text>
    <text
       id="text4178-3-3-8"
       y="2340.6941"
       x="1823.4083"
       style="font-style:normal;font-variant:normal;font-weight:normal;font-stretch:normal;line-height:0%;font-family:Lavi;-inkscape-font-specification:Lavi;text-align:start;letter-spacing:0px;word-spacing:0px;text-anchor:start;fill:#000000;fill-opacity:1;stroke:none"
       xml:space="preserve"><tspan
         y="2340.6941"
         x="1823.4083"
         style="font-size:40.6767px;line-height:1.25;text-align:start;text-anchor:start"
         sodipodi:role="line"
         id="tspan875-2">Kiel fartas</tspan><tspan
         y="2391.54"
         x="1823.4083"
         style="font-size:40.6767px;line-height:1.25;text-align:start;text-anchor:start"
         sodipodi:role="line"
         id="tspan449"> Brasko?</tspan></text>
    <text
       id="text4178-3-3-8-3"
       y="2788.842"
       x="209.46754"
       style="font-style:normal;font-variant:normal;font-weight:normal;font-stretch:normal;font-size:16.0044px;line-height:0%;font-family:Lavi;-inkscape-font-specification:Lavi;text-align:start;letter-spacing:0px;word-spacing:0px;text-anchor:start;fill:#000000;fill-opacity:1;stroke:none;stroke-width:1"
       xml:space="preserve"><tspan
         y="2788.842"
         x="209.46754"
         style="font-size:54.2508px;line-height:1.25;text-align:start;text-anchor:start;stroke-width:1"
         sodipodi:role="line"
         id="tspan875-2-7">Brasko?   Brasko<tspan
   style="font-weight:bold;stroke-width:1"
   id="tspan1258">! </tspan></tspan></text>
    <text
       id="text4178-3-3-8-5"
       y="2786.1531"
       x="819.88513"
       style="font-style:normal;font-variant:normal;font-weight:normal;font-stretch:normal;font-size:12.743px;line-height:0%;font-family:Lavi;-inkscape-font-specification:Lavi;text-align:start;letter-spacing:0px;word-spacing:0px;text-anchor:start;fill:#000000;fill-opacity:1;stroke:none;stroke-width:1"
       xml:space="preserve"><tspan
         y="2786.1531"
         x="819.88513"
         style="font-size:43.1951px;line-height:1.25;text-align:center;text-anchor:middle;stroke-width:1"
         sodipodi:role="line"
         id="tspan454">Damne! Mi ne</tspan><tspan
         y="2840.147"
         x="819.88513"
         style="font-size:43.1951px;line-height:1.25;text-align:center;text-anchor:middle;stroke-width:1"
         sodipodi:role="line"
         id="tspan451">rimarkis, ke vi</tspan><tspan
         y="2894.1409"
         x="819.88513"
         style="font-size:43.1951px;line-height:1.25;text-align:center;text-anchor:middle;stroke-width:1"
         sodipodi:role="line"
         id="tspan453">estis tiel ege</tspan><tspan
         y="2948.1348"
         x="819.88513"
         style="font-size:43.1951px;line-height:1.25;text-align:center;text-anchor:middle;stroke-width:1"
         sodipodi:role="line"
         id="tspan549">vundita!</tspan></text>
    <text
       id="text4178-3-3-8-3-2"
       y="2802.1003"
       x="1923.5975"
       style="font-style:normal;font-variant:normal;font-weight:normal;font-stretch:normal;font-size:17.5168px;line-height:0%;font-family:Lavi;-inkscape-font-specification:Lavi;text-align:start;letter-spacing:0px;word-spacing:0px;text-anchor:start;fill:#000000;fill-opacity:1;stroke:none;stroke-width:1"
       xml:space="preserve"><tspan
         y="2802.1003"
         x="1923.5975"
         style="font-size:59.3774px;line-height:1.25;text-align:start;text-anchor:start;stroke-width:1"
         sodipodi:role="line"
         id="tspan875-2-7-2">Kuracisto!</tspan></text>
    <text
       id="text4178-3-3-8-3-2-9"
       y="2893.6733"
       x="2125.4182"
       style="font-style:normal;font-variant:normal;font-weight:normal;font-stretch:normal;font-size:15.6623px;line-height:0%;font-family:Lavi;-inkscape-font-specification:Lavi;text-align:start;letter-spacing:0px;word-spacing:0px;text-anchor:start;fill:#000000;fill-opacity:1;stroke:none;stroke-width:1"
       xml:space="preserve"><tspan
         y="2893.6733"
         x="2125.4182"
         style="font-size:53.0911px;line-height:1.25;text-align:center;text-anchor:middle;stroke-width:1"
         sodipodi:role="line"
         id="tspan463">Ni bezonas vian</tspan><tspan
         y="2960.0371"
         x="2125.4182"
         style="font-size:53.0911px;line-height:1.25;text-align:center;text-anchor:middle;stroke-width:1"
         sodipodi:role="line"
         id="tspan747">helpon, <tspan
   style="font-weight:bold"
   id="tspan749">RAPIDE!</tspan></tspan></text>
  </g>
</svg>
