<?xml version="1.0" encoding="UTF-8" standalone="no"?>
<!-- Created with Inkscape (http://www.inkscape.org/) -->

<svg
   xmlns:dc="http://purl.org/dc/elements/1.1/"
   xmlns:cc="http://creativecommons.org/ns#"
   xmlns:rdf="http://www.w3.org/1999/02/22-rdf-syntax-ns#"
   xmlns:svg="http://www.w3.org/2000/svg"
   xmlns="http://www.w3.org/2000/svg"
   xmlns:xlink="http://www.w3.org/1999/xlink"
   xmlns:sodipodi="http://sodipodi.sourceforge.net/DTD/sodipodi-0.dtd"
   xmlns:inkscape="http://www.inkscape.org/namespaces/inkscape"
   id="svg2"
   version="1.1"
   inkscape:version="0.92.4 (5da689c313, 2019-01-14)"
   width="2481"
   height="663"
   sodipodi:docname="E31P00.svg">
  <metadata
     id="metadata8">
    <rdf:RDF>
      <cc:Work
         rdf:about="">
        <dc:format>image/svg+xml</dc:format>
        <dc:type
           rdf:resource="http://purl.org/dc/dcmitype/StillImage" />
        <dc:title />
      </cc:Work>
    </rdf:RDF>
  </metadata>
  <defs
     id="defs6" />
  <sodipodi:namedview
     pagecolor="#ffffff"
     bordercolor="#666666"
     borderopacity="1"
     objecttolerance="10"
     gridtolerance="10"
     guidetolerance="10"
     inkscape:pageopacity="0"
     inkscape:pageshadow="2"
     inkscape:window-width="1920"
     inkscape:window-height="1022"
     id="namedview4"
     showgrid="false"
     inkscape:zoom="0.46082619"
     inkscape:cx="813.40592"
     inkscape:cy="338.89752"
     inkscape:window-x="0"
     inkscape:window-y="0"
     inkscape:window-maximized="1"
     inkscape:current-layer="layer1" />
  <g
     inkscape:groupmode="layer"
     id="layer2"
     inkscape:label="artwork"
     sodipodi:insensitive="true">
    <image
       sodipodi:absref="/home/peppercarrot/webcomics/"
       xlink:href="../gfx_Pepper-and-Carrot_by-David-Revoy_E31P00.png"
       width="2481"
       height="663"
       id="image10"
       x="0"
       y="0" />
  </g>
  <g
     inkscape:groupmode="layer"
     id="layer1"
     inkscape:label="txt"
     style="display:inline;opacity:1">
    <text
       xml:space="preserve"
       style="font-style:normal;font-variant:normal;font-weight:normal;font-stretch:normal;font-size:72.5px;line-height:1.25;font-family:Lavi;-inkscape-font-specification:'Lavi, Normal';font-variant-ligatures:normal;font-variant-caps:normal;font-variant-numeric:normal;font-feature-settings:normal;text-align:center;letter-spacing:0px;word-spacing:0px;writing-mode:lr-tb;text-anchor:middle;display:inline;fill:#340000;fill-opacity:1;stroke:none"
       x="1240.1814"
       y="589.40344"
       id="episode-title"><tspan
         sodipodi:role="line"
         id="tspan4180"
         x="1240.1814"
         y="589.40344">Episode 31: Kampen</tspan></text>
    <path
       style="display:inline;opacity:1;fill:#3c0000;fill-opacity:1;stroke-width:1.06920087;enable-background:new"
       d="m 744.66129,498.70915 c -5.40516,-5.4052 -5.77879,-6.11181 -5.77879,-10.92817 0,-6.45698 2.06993,-9.49219 7.46395,-10.94466 2.39235,-0.6442 4.77098,-2.14289 5.53315,-3.48627 0.95899,-1.69026 1.44211,-10.79368 1.70914,-32.20413 l 0.37233,-29.84783 -6.2102,-1.35804 c -8.55759,-1.87135 -15.24823,-4.93046 -15.24823,-6.97181 0,-0.92847 -0.71782,-1.96356 -1.59497,-2.30017 -0.87724,-0.33663 -1.59496,-1.30028 -1.59496,-2.14145 0,-1.19982 0.85924,-1.35798 3.98741,-0.73399 5.80057,1.15704 8.0336,0.87378 14.61445,-1.85384 l 5.90369,-2.44694 -0.38546,-39.40242 c -0.21193,-21.67133 -0.75412,-40.94569 -1.20483,-42.83192 -0.97062,-4.06201 -3.76057,-4.89343 -16.79844,-5.0059 -10.24983,-0.0884 -10.71545,-1.54604 -2.66106,-8.33045 6.3362,-5.33721 8.13185,-6.36548 21.79029,-12.47812 6.84986,-3.06556 10.55533,-4.17783 12.22807,-3.6705 3.42622,1.03918 7.13656,4.70983 8.81845,8.72414 l 1.44788,3.45575 h 12.22737 c 18.72288,0 31.85782,4.60901 48.17484,16.9043 13.0516,9.83461 17.32791,17.58805 17.32791,31.41706 0,9.13392 -2.03711,16.59429 -7.2748,26.6421 -5.01373,9.61807 -20.07977,25.00393 -30.53834,31.18658 -7.6178,4.50326 -31.6634,14.00412 -35.44287,14.00412 -5.50669,0 -5.42892,-0.34536 -5.42892,24.10815 0,13.6161 0.44145,23.64227 1.09483,24.86305 1.27365,2.37981 6.39438,5.25765 9.35528,5.25765 1.12706,0 2.62337,0.69181 3.32508,1.53734 0.91523,1.10274 1.97486,1.27157 3.74854,0.59724 1.45295,-0.55241 5.40187,-0.52529 9.57545,0.0657 5.8685,0.83107 7.74242,0.70231 10.78407,-0.74105 2.68025,-1.27188 5.28731,-1.58119 9.5863,-1.13749 3.24771,0.33519 7.12045,0.14727 8.60612,-0.41758 3.31146,-1.25901 3.98423,-0.72577 2.52472,2.00122 -1.17489,2.19536 -6.49821,3.87867 -6.49821,2.05485 0,-0.58373 -2.37196,1.15731 -5.271,3.86906 -2.89904,2.71171 -5.975,4.93039 -6.83553,4.93039 -0.86054,0 -2.29976,0.73514 -3.19829,1.63363 -2.093,2.09314 -7.60885,4.39153 -13.94813,5.81222 -2.7448,0.61513 -6.50984,2.27717 -8.36656,3.69339 -3.96603,3.02506 -12.07173,6.07918 -22.4575,8.46181 -4.09382,0.93915 -7.60268,2.1765 -7.7976,2.74966 -0.19492,0.57318 -2.49896,1.04214 -5.12014,1.04214 -4.3518,0 -5.26732,-0.50177 -10.54449,-5.77886 z M 790.8009,387.00874 c 17.45044,-8.36287 34.63107,-23.89077 41.24861,-37.28062 3.43776,-6.95589 3.81,-8.5001 3.3591,-13.9372 -0.4696,-5.66226 -0.87148,-6.4445 -5.43311,-10.57443 -6.09822,-5.52103 -12.58349,-7.35727 -25.69944,-7.27643 -10.30929,0.0635 -22.06209,2.60575 -25.20786,5.45263 -1.7515,1.58506 -1.90654,4.28877 -1.90654,33.24725 0,32.3998 0.20785,34.07382 4.23007,34.07382 0.92298,0 5.15713,-1.66728 9.40917,-3.70502 z m 365.431,83.04944 c -15.217,-4.97185 -22.0016,-9.95863 -27.3389,-20.0944 -1.8197,-3.45597 -2.3721,-6.32543 -2.399,-12.46435 -0.049,-11.25246 4.0358,-19.65449 15.0675,-30.99055 l 8.1858,-8.41175 -3.4163,-6.92764 c -2.648,-5.37009 -3.1741,-7.37976 -2.34,-8.93835 1.6299,-3.04538 1.3051,-4.27711 -1.1278,-4.27711 h -2.2037 l 2.2037,-2.8017 c 2.8605,-3.63645 2.8374,-6.8015 -0.055,-7.55794 -2.0475,-0.53545 -2.204,-1.12382 -1.6715,-6.2835 1.6694,-16.17349 16.3035,-31.90753 31.5766,-33.94992 5.6079,-0.74989 13.8584,1.95937 21.617,7.09846 7.02,4.64978 12.7847,14.39799 12.7811,21.61269 -0.01,9.93056 -3.0692,17.20034 -11.5636,27.43409 -3.202,3.85742 -5.8215,7.7376 -5.8215,8.62262 0,0.88504 -1.9845,3.30779 -4.41,5.38398 l -4.4101,3.77485 7.3341,8.14224 c 4.0338,4.47826 8.6848,9.75497 10.3356,11.72605 1.651,1.97105 3.3984,3.58375 3.8835,3.58375 0.9433,0 3.2165,-5.74824 3.2165,-8.13351 0,-0.97881 -1.4394,-1.44048 -4.5191,-1.44945 -4.0065,-0.0117 -4.7978,-0.44343 -6.9773,-3.80698 -3.5231,-5.43743 -2.4748,-9.28726 3.1408,-11.53416 10.906,-4.36373 24.8732,-7.12415 38.1283,-7.53551 7.3104,-0.22686 16.1624,-0.72482 19.6713,-1.10656 l 6.3798,-0.6941 -7.4431,7.85731 c -4.0938,4.32154 -8.3612,8.3218 -9.483,8.8895 -1.1217,0.56766 -2.5571,1.98911 -3.1899,3.15877 -0.6326,1.16964 -1.2693,2.32534 -1.4147,2.56825 -0.1454,0.24292 -3.4947,0.97076 -7.443,1.61743 l -7.1788,1.17581 -0.7154,7.21331 c -0.3933,3.96733 -1.6576,9.11815 -2.8094,11.44629 l -2.0944,4.23295 6.5313,4.3709 c 10.7285,7.18 10.4805,6.83176 8.0679,11.3331 -1.1378,2.1227 -2.0685,4.44813 -2.0685,5.16767 0,0.71951 -1.4194,2.7602 -3.1541,4.5348 -3.6618,3.74595 -7.4286,4.15134 -11.5681,1.245 -1.5523,-1.08988 -5.0335,-2.94962 -7.7359,-4.13274 -2.7024,-1.18313 -5.2576,-2.70781 -5.6781,-3.3882 -0.5366,-0.86814 -1.7666,-0.47415 -4.1246,1.32107 -5.0257,3.82612 -10.911,6.57571 -20.3731,9.51802 -13.0237,4.04987 -15.0498,4.1754 -23.3928,1.44951 z m 25.6261,-27.24178 c 2.2807,-1.37298 4.3222,-2.62874 4.5368,-2.79059 0.2147,-0.16186 -5.0326,-5.56748 -11.6607,-12.01252 l -12.0511,-11.7183 -2.4945,2.34341 c -1.3718,1.28888 -3.4606,3.90667 -4.6415,5.81732 -1.1807,1.91065 -2.7515,3.47391 -3.4903,3.47391 -2.1666,0 -5.1858,4.00513 -4.4549,5.90954 0.3663,0.95456 1.5612,1.96967 2.6554,2.25579 1.0943,0.28615 2.6107,1.68083 3.3698,3.09924 0.7591,1.41847 2.852,3.52286 4.6508,4.67644 4.7435,3.04206 17.7414,2.46092 23.5802,-1.05424 z m -7.6399,-64.42377 c 13.1882,-11.25285 15.3916,-17.25223 8.8624,-24.13069 -4.087,-4.30551 -9.9648,-5.83993 -14.3234,-3.73913 -4.282,2.0639 -8.949,9.39034 -9.5869,15.05 -0.8284,7.34863 2.9236,19.8244 5.9621,19.8244 0.482,0 4.5707,-3.15208 9.0858,-7.00458 z m 195.2075,62.69244 c -9.4959,-1.87956 -19.5731,-5.3926 -25.5841,-8.91889 -17.0568,-10.00617 -28.7457,-21.72898 -36.0315,-36.13587 -4.6949,-9.28387 -6.4324,-14.93926 -9.9884,-32.51353 -2.4534,-12.1239 -2.5197,-13.37293 -1.1843,-22.32953 3.4109,-22.87794 11.3886,-51.78657 18.4796,-66.96537 8.848,-18.93971 27.7984,-46.22283 42.0806,-60.58418 11.2485,-11.31069 19.1959,-17.24681 31.0806,-23.21472 l 9.8144,-4.92829 11.4519,0.006 c 10.817,0.005 12.058,0.24135 22.3868,4.25324 14.7078,5.71266 14.7377,5.7086 15.6463,-2.12002 0.4468,-3.85086 1.588,-7.44695 2.8876,-9.09902 2.004,-2.54754 2.5527,-2.68236 8.1379,-1.9999 6.9805,0.85293 17.2683,5.64456 22.2045,10.34173 2.9334,2.79148 3.4487,4.02028 3.4094,8.13061 -0.087,9.01794 -1.605,13.8355 -5.676,18.00454 -4.4428,4.5499 -5.0197,7.56057 -1.4549,7.59581 1.3158,0.013 3.5392,0.90542 4.941,1.98315 l 2.5485,1.95953 -1.7548,19.03187 c -3.1128,33.76016 -13.8612,80.14295 -18.5716,80.14295 -1.2826,0 -2.3155,-5.29195 -2.3155,-11.86348 0,-2.86978 -0.6716,-6.82486 -1.4921,-8.78903 -0.8383,-2.00595 -1.8334,-9.79741 -2.2706,-17.77632 -0.7095,-12.94672 -1.1963,-15.42746 -5.497,-28.0045 -9.0952,-26.59818 -19.0771,-42.03836 -27.1616,-42.01403 -8.5295,0.0258 -23,9.54113 -37.6566,24.76198 -8.4346,8.75934 -11.2845,11.1033 -12.9655,10.6637 -1.4201,-0.37138 -3.0815,0.36327 -4.8729,2.15481 -2.9178,2.91775 -3.3396,4.98378 -1.6588,8.12436 1.4289,2.66995 0.3267,5.12777 -2.4785,5.52739 -1.7393,0.24775 -2.335,1.10833 -2.4352,3.51792 -0.073,1.75446 -4.0873,11.5635 -8.9208,21.79788 -11.0481,23.39248 -19.7103,49.09066 -20.7883,61.67206 -0.6128,7.15109 -1.3109,9.7435 -3.344,12.41661 -2.4233,3.18596 -2.4772,3.55744 -0.9457,6.51905 0.8932,1.72729 3.0013,4.29934 4.6843,5.71563 1.6832,1.41629 4.4074,4.94233 6.0538,7.83565 4.1682,7.3255 11.7933,15.04206 18.0113,18.22743 4.99,2.55632 5.9156,2.66572 18.608,2.19996 12.2317,-0.44883 14.3868,-0.85322 25.5848,-4.80079 6.7255,-2.37088 14.0072,-5.07504 16.1814,-6.00923 2.1743,-0.93417 5.2617,-1.69851 6.8608,-1.69851 1.7157,0 4.2363,-1.23023 6.1483,-3.00092 1.7823,-1.65052 6.6539,-4.30265 10.826,-5.89367 4.1718,-1.59099 8.477,-3.87823 9.5671,-5.08277 1.0901,-1.20449 3.2566,-2.84921 4.8147,-3.65483 3.3188,-1.71624 3.0894,-4.22861 -0.7664,-8.38905 -2.3451,-2.53012 -3.1166,-2.68816 -13.1269,-2.68816 -8.9157,0 -11.8039,-0.44938 -17.8613,-2.77899 -17.8068,-6.84847 -21.173,-7.79974 -27.6944,-7.82665 -3.6551,-0.015 -6.6292,-0.38634 -6.6088,-0.82497 0.02,-0.43861 4.5792,-3.83818 10.1312,-7.55463 5.8935,-3.94506 12.5945,-9.58711 16.1017,-13.55722 3.3039,-3.74002 6.5876,-6.80006 7.297,-6.80006 0.7093,0 5.759,2.93475 11.2216,6.52166 l 9.9319,6.52162 9.0583,-0.69536 c 4.982,-0.38246 12.105,-1.35563 15.8287,-2.16263 6.3911,-1.38502 7.1771,-1.32893 14.0285,1.00146 3.9922,1.35778 8.2367,2.21285 9.4323,1.90019 3.1933,-0.83507 3.7449,1.92666 1.6465,8.24422 -1.4783,4.45119 -2.4794,5.7387 -5.415,6.96531 -4.0907,1.70921 -4.3127,2.90978 -1.8305,9.89884 l 1.7709,4.98642 -5.9489,10.59924 c -8.1942,14.59961 -21.2493,27.03067 -28.388,27.03067 -1.6009,0 -2.9687,1.58596 -5.08,5.89084 -2.6846,5.4738 -3.7402,6.41431 -14.9104,13.28413 -8.3109,5.11139 -15.5383,8.57437 -23.4161,11.21997 -10.4324,3.50333 -12.6081,3.85739 -25.7498,4.18981 -7.8952,0.19969 -15.551,0.12631 -17.013,-0.16309 z M 486.49213,422.1967 c -8.03668,-3.01735 -14.09572,-11.26826 -15.21502,-20.71911 -0.50709,-4.28145 -0.21511,-5.48436 1.93936,-7.98902 2.06456,-2.40022 3.77558,-3.09477 9.19914,-3.73428 9.40092,-1.10843 10.22993,-2.23329 10.67865,-14.48933 0.35702,-9.75194 0.43976,-10.04182 2.70481,-9.47333 1.56543,0.39291 3.00824,-0.15582 4.37189,-1.66267 2.42387,-2.67832 1.46757,-4.859 -3.286,-7.49297 l -3.09565,-1.71532 -0.28085,-32.39898 -0.28094,-32.39898 3.60563,0.42093 c 2.85399,0.3332 3.97219,-0.0987 5.36438,-2.07254 1.64718,-2.33531 1.63693,-2.59467 -0.16111,-4.08846 -1.05595,-0.87722 -3.5373,-3.85815 -5.51415,-6.62427 l -3.59439,-5.02931 0.89892,-17.30025 c 0.49436,-9.51513 0.92736,-21.68862 0.96237,-27.05219 0.0577,-8.82648 -0.17424,-10.0048 -2.44108,-12.41589 -1.37747,-1.46518 -5.20537,-3.73141 -8.50648,-5.03613 -3.30111,-1.3047 -7.0399,-3.30084 -8.30848,-4.43587 -3.64918,-3.26498 -6.81504,-11.85793 -7.01404,-19.03799 -0.16618,-5.99529 0.0567,-6.65704 3.18088,-9.44854 7.26754,-6.4936 40.85638,-14.34312 66.60962,-15.5663 14.22227,-0.6755 32.36418,0.69972 45.86111,3.47644 9.89509,2.03574 27.21177,10.70892 34.69163,17.37561 9.72195,8.66502 21.96175,27.94711 28.11168,44.2859 12.14712,32.27206 -2.63391,64.34656 -41.65744,90.39526 -14.20492,9.48196 -47.44777,24.02319 -64.25562,28.10696 -12.34402,2.99919 -14.76541,4.09358 -15.49576,7.00343 -1.00434,4.00182 0.0129,28.91224 1.23058,30.12912 0.60893,0.60859 3.37749,1.53067 6.15232,2.0491 2.77493,0.5184 5.903,1.71882 6.9515,2.66762 1.32058,1.19517 3.90258,1.72511 8.40534,1.72511 3.57454,0 6.73136,0.37557 7.01509,0.83463 0.64502,1.04371 32.77514,0.88592 34.48259,-0.16935 0.68808,-0.42523 2.92837,-0.31 4.97852,0.25606 2.13855,0.59051 3.97528,0.62833 4.30873,0.0887 0.5062,-0.81899 6.68258,-0.25727 7.82764,0.71188 1.1378,0.96295 -2.67906,3.62182 -6.10657,4.25387 -2.13428,0.39361 -5.51237,1.5833 -7.50682,2.64378 -1.99445,1.0605 -3.99497,1.70031 -4.44558,1.42181 -0.4506,-0.2785 -2.01016,0.59735 -3.4658,1.94628 -1.51938,1.40815 -6.41864,3.48676 -11.50407,4.8808 -4.87162,1.33551 -10.42893,3.11056 -12.34939,3.94458 -1.92057,0.83402 -4.96232,1.51641 -6.75956,1.51641 -1.79715,0 -6.20697,1.38212 -9.79947,3.07137 -13.60961,6.39943 -48.96924,10.71923 -58.48811,7.14535 z m 71.62748,-115.45199 c 2.63162,-0.72517 7.81899,-2.69363 11.52734,-4.37432 6.08201,-2.75645 7.01962,-2.91433 9.56989,-1.61166 5.24296,2.67818 9.61385,-1.10198 8.12649,-7.0282 -0.92896,-3.70127 2.9967,-7.13297 6.00832,-5.25222 3.13304,1.95664 5.56059,-0.30049 4.73934,-4.40674 -0.53135,-2.65668 0.21412,-4.0029 5.33197,-9.62934 7.19763,-7.91285 14.7667,-20.43588 17.04518,-28.20126 2.34262,-7.98427 1.58024,-18.19991 -1.92444,-25.78463 -8.38993,-18.15754 -25.86841,-25.35781 -53.03542,-21.84796 -12.21524,1.57817 -15.8952,1.1599 -15.8952,-1.80666 0,-0.75784 -1.24759,-2.04558 -2.77244,-2.86167 -2.55585,-1.36787 -2.93654,-1.28117 -4.87241,1.10954 -1.32148,1.63195 -1.94135,3.67366 -1.67224,5.50764 0.34678,2.36248 -0.11636,3.13974 -2.44585,4.10462 -4.60151,1.90605 -8.61866,6.86542 -9.60848,11.86223 -1.15381,5.82494 -2.60715,87.70927 -1.62609,91.61807 0.40237,1.60344 1.715,3.27909 2.91684,3.72367 2.04189,0.75536 16.95896,-1.91685 28.5872,-5.12111 z m 107.92596,113.00002 c -15.6152,-2.07108 -21.41746,-7.18093 -28.15564,-24.79585 -4.52235,-11.8225 -4.68465,-12.66417 -5.11437,-26.52296 -0.82692,-26.67093 4.477,-44.75783 18.721,-63.84036 9.3874,-12.57627 15.08991,-17.66853 25.24029,-22.539 15.48651,-7.43094 20.67069,-6.84301 33.58446,3.80883 7.63799,6.30016 12.67031,14.50237 14.6225,23.83323 1.48925,7.11818 1.52694,31.34866 0.0567,36.64195 -1.44709,5.21082 -4.08806,6.80266 -13.76635,8.29779 -11.28996,1.74409 -53.24873,12.69249 -55.8357,14.56937 -2.58966,1.87882 -3.23896,7.05321 -1.49661,11.92716 2.69467,7.53778 3.34845,8.81678 6.06609,11.86682 6.38334,7.16423 15.25769,6.83718 31.34497,-1.15514 16.50587,-8.20032 21.85902,-11.20588 24.68238,-13.85833 1.56065,-1.46611 3.25915,-2.15767 4.30963,-1.75459 2.06227,0.79139 1.47513,4.73662 -1.88347,12.65577 -1.6614,3.91715 -2.57882,4.94217 -4.01546,4.48621 -2.31149,-0.73363 -7.70919,5.30134 -7.00897,7.83645 0.26423,0.95687 0.79131,2.82069 1.17121,4.14188 0.62474,2.17246 -0.25678,2.85939 -9.21953,7.18466 -13.10431,6.32378 -23.32838,8.53912 -33.30332,7.21611 z m 7.97482,-77.98953 c 18.8658,-4.21618 27.28307,-7.05062 29.24172,-9.84704 1.20155,-1.71551 1.58184,-5.29612 1.54335,-14.53364 -0.0616,-14.79405 -1.69282,-19.50636 -6.92971,-20.01879 -7.84455,-0.76759 -27.98259,17.90369 -36.863,34.17789 -2.76797,5.07275 -5.35056,10.48944 -5.73901,12.0371 -0.64553,2.57202 -0.4871,2.75283 1.84289,2.10322 1.40193,-0.39089 9.0087,-2.15433 16.90376,-3.91874 z m 267.95441,75.87426 c -3.13991,-1.20171 -5.3432,-3.92607 -6.42531,-7.94497 -0.60495,-2.24641 -1.69402,-4.08439 -2.42019,-4.08439 -0.72638,0 -5.37324,1.70988 -10.3264,3.79977 -37.34692,15.75742 -63.4559,6.95641 -61.37582,-20.68917 1.00931,-13.41459 9.08299,-26.75728 20.97452,-34.66277 10.38726,-6.9054 27.8011,-14.92655 38.01164,-17.50881 4.80856,-1.21609 10.01313,-2.69405 11.56573,-3.28435 l 2.82286,-1.07324 -0.71752,-8.74726 c -0.84224,-10.26626 -3.11773,-19.08041 -5.41899,-20.99028 -0.89892,-0.74606 -2.93732,-1.32314 -4.5298,-1.28237 -1.59238,0.0408 -5.20119,0.12689 -8.01958,0.19141 -6.49781,0.1487 -17.9262,5.59318 -28.24862,13.45764 -4.13251,3.1485 -7.95871,5.72455 -8.5027,5.72455 -0.54399,0 -2.76479,2.47178 -4.93526,5.49286 -3.38625,4.71347 -4.09184,5.23264 -4.97256,3.65886 -1.17459,-2.09886 2.53178,-12.35431 7.82257,-21.64488 6.29811,-11.05954 23.27248,-22.56701 36.45198,-24.71204 14.1527,-2.30341 28.84044,4.79144 35.14054,16.97457 3.88031,7.50341 6.84121,32.02724 6.90406,57.18069 0.0219,8.72925 0.68809,10.21823 3.21181,7.17738 0.72797,-0.87726 2.04398,-1.59497 2.9243,-1.59497 2.40985,0 0.91384,7.70646 -2.94459,15.16771 -2.86274,5.53622 -4.16911,11.41505 -2.53635,11.41505 0.34847,0 1.90346,-0.89446 3.45576,-1.98767 1.5523,-1.09321 5.69336,-3.27884 9.20232,-4.85697 3.50887,-1.57811 7.64993,-3.55461 9.20213,-4.3922 1.5523,-0.83758 3.10739,-1.52289 3.45585,-1.52289 1.62262,0 0.27836,3.57503 -3.46977,9.22879 -4.4953,6.78075 -5.67199,9.72316 -5.99301,14.98601 -0.28631,4.69445 -3.58076,7.90725 -12.62297,12.3104 -7.56023,3.68144 -14.65851,5.37248 -17.68663,4.21354 z M 904.53787,393.3081 c 13.69116,-2.77119 27.26348,-10.10958 30.58807,-16.53861 3.61179,-6.98448 0.35314,-16.89174 -5.55603,-16.89174 -1.7864,0 -2.86612,-0.70945 -3.23677,-2.12664 -0.66949,-2.56036 -2.15983,-2.70497 -4.65014,-0.45125 -1.01816,0.92144 -2.4913,1.78889 -3.27366,1.92766 -6.0131,1.06659 -13.6493,4.23672 -15.82634,6.57018 -1.43495,1.53811 -5.3619,4.73367 -8.72646,7.10127 -7.74022,5.44653 -12.88015,12.81919 -12.01236,17.23026 0.33952,1.72541 1.20811,3.5124 1.93031,3.97113 2.14154,1.36027 11.98422,0.98468 20.76338,-0.79226 z m 609.37163,23.05924 c -2.7011,-0.951 -7.0077,-3.46627 -9.5698,-5.58951 -3.7842,-3.13602 -5.0078,-5.07271 -6.5193,-10.32123 -2.2561,-7.83356 -2.3681,-13.91355 -0.3453,-18.75472 0.8334,-1.99488 2.0633,-7.3625 2.7328,-11.9281 0.6694,-4.56558 1.8728,-12.36825 2.6744,-17.33924 1.4097,-8.74426 1.9512,-14.88108 3.3561,-38.04601 0.3649,-6.01238 1.0621,-11.17827 1.55,-11.47976 0.4879,-0.30151 1.877,-0.0183 3.0871,0.62927 1.8533,0.99183 2.7855,0.66347 5.9135,-2.08309 3.2671,-2.86858 4.2515,-3.18527 8.1892,-2.63458 2.4617,0.34428 5.0739,0.81027 5.8048,1.03557 2.2527,0.69426 1.5111,9.15508 -1.7775,20.27519 -1.7088,5.77804 -3.4334,14.5727 -3.8327,19.54368 -0.3991,4.97099 -1.8553,14.54078 -3.2359,21.26621 -2.9446,14.34399 -4.1857,25.35783 -3.2694,29.00924 1.8454,7.35278 22.9602,5.68041 40.2864,-3.19091 5.1132,-2.61811 10.4223,-6.09773 11.7979,-7.73251 2.5505,-3.03101 4.1318,-10.2856 5.6231,-25.79482 0.3793,-3.94753 1.1025,-7.17734 1.6066,-7.17734 1.3617,0 1.1103,-6.13442 -0.2867,-6.99784 -1.5041,-0.92957 -0.5869,-29.95512 1.1264,-35.64425 l 1.1536,-3.83127 11.3091,-0.73116 c 10.7309,-0.69375 11.4373,-0.61072 13.8162,1.62416 3.0528,2.8679 3.1964,6.13811 0.4245,9.66212 -1.702,2.16379 -2.1953,4.95952 -2.6979,15.29558 -0.3383,6.95631 -1.0378,15.51877 -1.5545,19.02769 -0.5168,3.50892 -1.2679,11.64325 -1.669,18.07631 -0.453,7.2657 -1.4917,13.71037 -2.742,17.01298 -2.4391,6.443 -2.5127,7.97482 -0.3835,7.97482 1.8688,0 11.3609,-4.62765 15.5469,-7.57954 1.5524,-1.09464 4.0646,-1.99025 5.5824,-1.99025 3.8344,0 3.6356,3.23395 -0.6045,9.84166 -1.8503,2.88365 -3.7298,7.555 -4.1766,10.3808 -0.4466,2.8258 -1.6155,6.36404 -2.5977,7.86279 -3.539,5.40132 -18.7982,12.28418 -27.2889,12.30906 -3.2174,0.01 -4.4268,-0.63559 -6.6457,-3.54465 -1.4917,-1.95585 -2.7124,-4.28972 -2.7124,-5.18634 0,-3.84948 -2.6685,-4.11158 -10.2139,-1.0032 -14.6927,6.05275 -23.9919,8.47965 -34.445,8.98953 -7.6178,0.37161 -11.3091,0.0676 -15.0128,-1.23634 z m -527.0928,-3.26263 c -2.38926,-2.46196 -4.66058,-5.51655 -5.04754,-6.78795 -0.38695,-1.2714 -1.30039,-3.02938 -2.02985,-3.90659 -2.25799,-2.71528 -2.82694,-7.13955 -1.13561,-8.83085 1.20512,-1.20529 3.61358,-1.42333 11.04253,-0.99975 l 9.50131,0.54173 0.40555,-22.43346 c 0.28751,-15.90514 0.78741,-22.81543 1.71801,-23.74598 0.9297,-0.92984 1.3125,-6.18705 1.3125,-18.03121 0,-16.10293 -0.095,-16.83063 -2.5556,-19.75594 -1.77322,-2.10722 -2.39368,-3.88471 -2.02651,-5.80514 0.69902,-3.65705 -1.24077,-4.6901 -4.63318,-2.46732 -2.09012,1.36949 -3.27973,1.53524 -5.00408,0.69738 -1.24411,-0.60454 -4.05643,-1.64808 -6.24948,-2.31901 -4.69131,-1.43522 -4.97942,-2.96293 -1.25942,-6.68278 3.13801,-3.13796 18.92192,-9.17154 25.98137,-9.93167 9.8676,-1.06252 15.945,5.37328 15.9481,16.88865 8e-4,3.36273 0.3952,6.11404 0.8761,6.11404 0.481,0 3.6183,-3.10591 6.9718,-6.90201 7.5028,-8.49304 13.8321,-12.40382 20.2311,-12.50054 6.6266,-0.10017 11.1829,1.94246 10.4641,4.69117 -0.4845,1.85271 -0.1169,2.09667 2.7124,1.79991 4.6778,-0.49069 8.0199,3.10884 13.5977,14.64489 5.2456,10.84939 5.3384,11.35035 3.0988,16.71052 -0.8773,2.09951 -1.595,5.74663 -1.595,8.10468 0,3.16321 -0.4321,4.28739 -1.6478,4.28739 -2.3572,0 -8.0009,3.01012 -11.1417,5.94249 -2.4721,2.30805 -3.0277,2.40857 -6.9115,1.25039 -2.3229,-0.69266 -4.4627,-1.5178 -4.755,-1.83369 -0.2925,-0.31585 -1.4888,-1.09974 -2.6584,-1.74195 -3.146,-1.72743 -4.8818,-5.7025 -3.5647,-8.16347 0.9907,-1.85114 1.2327,-1.72188 2.8552,1.52451 1.8784,3.75855 4.0103,4.68807 8.2889,3.61422 2.8669,-0.71952 6.7754,-8.20646 6.7754,-12.97862 0,-3.71097 -1.9931,-7.03225 -3.8032,-6.33765 -0.981,0.37648 -1.5134,-0.12839 -1.5134,-1.43532 0,-3.37858 -4.9967,-6.42547 -10.5107,-6.40914 -2.6991,0.009 -6.0071,0.30912 -7.3515,0.66921 -2.6387,0.70677 -6.2023,6.87689 -10.3308,17.88653 -3.0591,8.15816 -7.9656,37.2213 -8.0747,47.82972 -0.1002,9.74269 1.4115,12.63036 8.1796,15.62416 3.24,1.43321 4.6952,2.72063 4.6952,4.15378 0,2.4934 2.3928,2.7237 4.309,0.41471 1.2511,-1.5073 1.4662,-1.5073 2.3097,0 1.1593,2.07152 4.4078,2.15575 6.0664,0.15733 1.4975,-1.80447 7.3483,-0.51604 9.2301,2.03263 0.6492,0.87937 2.2043,1.59884 3.4558,1.59884 2.6949,0 2.9854,2.34012 0.5421,4.36785 -2.2505,1.86776 -12.8406,5.16616 -16.6514,5.18629 -1.6315,0.009 -4.981,1.06044 -7.4432,2.33738 -3.4514,1.78999 -7.2772,2.49763 -16.7048,3.08973 -6.7255,0.42243 -16.5925,1.11637 -21.9267,1.54212 l -9.69896,0.77407 z m 713.6947,2.30583 c -3.5812,-2.90624 -8.9027,-10.97123 -8.9027,-13.49263 0,-3.32715 5.1716,-7.72852 10.1016,-8.59735 8.3955,-1.47955 7.9748,0.79494 7.9748,-43.1251 0,-24.02279 -0.4437,-41.19413 -1.1496,-44.4848 -1.2916,-6.02327 -4.1167,-8.894 -10.6909,-10.86366 -4.1863,-1.25429 -5.1655,-2.97656 -2.78,-4.89056 1.3266,-1.06455 19.7366,-4.51048 24.0973,-4.51048 3.4539,0 10.756,7.33979 11.6498,11.70992 1.1347,5.54762 3.3755,5.03361 8.678,-1.99055 3.6221,-4.798 6.3199,-7.07351 11.3387,-9.56322 6.4321,-3.19089 6.7051,-3.23163 11.7048,-1.74686 6.4977,1.92961 13.1898,6.82733 15.7017,11.49139 1.853,3.44106 1.8703,4.34263 0.3418,17.86204 -1.5999,14.14956 -1.6429,14.29093 -6.9216,22.74455 -2.9214,4.67858 -5.9778,8.50648 -6.792,8.50648 -1.129,0 -1.6157,-2.52684 -2.0481,-10.63311 -0.6558,-12.29213 -2.2507,-16.17411 -8.0526,-19.59729 -6.357,-3.75069 -7.9209,-2.8488 -11.779,6.79248 -5.4937,13.72924 -11.8572,54.25529 -9.5139,60.59028 2.7526,7.44175 2.299,7.25711 14.5799,5.93578 6.0938,-0.65566 12.8849,-1.58348 15.0914,-2.06187 2.4339,-0.52759 4.2629,-0.46393 4.6496,0.16191 0.3507,0.56741 -2.7308,4.45142 -6.8482,8.63113 -4.1168,4.17971 -8.1879,9.32085 -9.0464,11.42478 -2.7199,6.6658 -6.4292,8.01943 -25.7295,9.39004 -9.3571,0.66452 -18.4484,1.42062 -20.2029,1.68029 -2.027,0.3 -4.0144,-0.19702 -5.452,-1.36359 z m 261.1782,0.82236 c -14.5929,-1.25017 -23.5099,-10.17392 -26.9921,-27.01319 -1.3362,-6.46048 -1.7172,-14.7482 -1.7172,-37.34359 0,-15.97219 -0.2905,-29.79722 -0.6455,-30.72228 -0.5117,-1.33389 -2.354,-1.68194 -8.9027,-1.68194 h -8.2573 l -4.4754,-4.85525 c -2.7252,-2.95652 -4.2364,-5.47785 -3.8646,-6.44723 0.3361,-0.87557 -0.1,-2.96679 -0.969,-4.64718 -0.8688,-1.68036 -1.3325,-3.69957 -1.0304,-4.48715 0.8184,-2.13248 15.2269,-9.07752 20.5485,-9.90442 8.6343,-1.34171 8.7514,-1.71024 8.6175,-27.08194 -0.071,-13.4729 -0.585,-23.49728 -1.3018,-25.39663 -1.3313,-3.52642 0.2185,-6.52842 3.3349,-6.46081 2.7156,0.0589 14.6897,7.75956 17.3757,11.1744 2.2162,2.81719 2.481,4.5337 3.0668,19.86661 0.5387,14.0989 0.9481,17.12214 2.5599,18.90337 2.46,2.71823 4.1127,2.65767 10.6584,-0.3905 3.4576,-1.61005 8.5193,-2.76679 14.3224,-3.27299 4.936,-0.4306 10.1858,-1.39707 11.6655,-2.14771 1.4798,-0.75062 5.7024,-1.64964 9.3834,-1.99777 5.5739,-0.52719 6.8031,-0.34465 7.3545,1.09192 0.4552,1.18633 -0.6342,2.75233 -3.4894,5.01534 -2.2831,1.80971 -9.6769,8.12217 -16.4307,14.02767 -9.0772,7.93756 -13.8693,11.33224 -18.3779,13.01908 -3.3542,1.25498 -8.4092,3.45274 -11.2335,4.88385 l -5.1349,2.60205 -0.6989,31.16456 c -0.7889,35.17471 -0.2106,42.22143 3.7929,46.22499 2.5377,2.53749 2.8532,2.59763 5.7504,1.09527 1.686,-0.87432 9.4213,-7.61837 17.1897,-14.98673 14.9399,-14.1706 19.1365,-16.52154 17.745,-9.94127 -1.7031,8.05547 -4.7011,14.60246 -8.0617,17.60507 -3.1216,2.78925 -3.3913,3.44593 -2.3521,5.72709 1.8999,4.16952 -2.659,12.3878 -10.5113,18.94907 -8.8601,7.40336 -10.7138,8.13116 -18.9191,7.42824 z m -137.9433,-1.62618 c -5.4734,-1.72333 -14.4482,-8.03804 -19.6011,-13.79151 -4.8314,-5.39425 -10.8985,-17.46614 -12.4514,-24.77431 -1.6204,-7.62675 -1.4481,-26.60738 0.3302,-36.36609 1.4176,-7.77744 6.2683,-22.19428 9.7022,-28.83477 4.1374,-8.00044 15.2842,-17.35648 28.6446,-24.04249 15.5126,-7.76296 41.257,-3.44579 50.6533,8.49419 1.5425,1.95994 4.2315,6.40793 5.9756,9.88443 9.8754,19.68391 12.169,38.51428 7.3099,60.01812 -1.8129,8.02294 -3.3703,12.59374 -4.5287,13.2914 -0.9712,0.5848 -2.8872,2.02028 -4.2574,3.18993 -2.3849,2.0354 -2.4205,2.27019 -0.8294,5.47528 1.5918,3.2062 1.5403,3.54197 -1.2062,7.89294 -4.4409,7.03459 -11.9349,14.51337 -18.0475,18.01064 -5.5148,3.15533 -5.6722,3.17796 -21.3761,3.07359 -9.9264,-0.0659 -17.4957,-0.63272 -20.318,-1.52135 z m 30.7665,-22.97344 c 9.7839,-2.16795 17.0181,-13.88799 18.4713,-29.92453 0.3962,-4.37046 0.3478,-16.73827 -0.1074,-27.48402 l -0.8275,-19.53773 -8.8693,-6.64568 c -9.8714,-7.39664 -11.8368,-7.84532 -21.7171,-4.95792 -9.5002,2.77633 -19.1083,13.98189 -21.7566,25.37371 -0.8039,3.45855 -3.0146,7.95631 -5.6921,11.58076 -4.9405,6.68764 -5.2141,8.0999 -2.3583,12.1739 1.1107,1.58457 2.2833,5.38469 2.6059,8.44469 0.7393,7.01341 9.6109,25.44519 13.629,28.31537 6.3797,4.55733 14.4329,5.36243 26.6221,2.66145 z m -222.4412,19.29234 c -2.3178,-2.5107 -4.5208,-5.5734 -4.8953,-6.80601 -0.3747,-1.23262 -1.278,-2.95885 -2.0075,-3.83606 -2.3668,-2.8463 -2.8242,-7.14243 -0.9585,-9.00799 1.3061,-1.30603 2.8209,-1.55333 6.3102,-1.03008 l 4.5915,0.68854 1.2601,-4.62921 c 0.693,-2.54607 1.1792,-8.55393 1.0803,-13.35081 -0.1267,-6.16411 0.3133,-9.67473 1.5012,-11.97189 1.3029,-2.51927 1.4145,-3.74782 0.4966,-5.46289 -1.6195,-3.02586 -1.4739,-9.16421 0.508,-21.41535 0.9212,-5.6957 1.6749,-12.33807 1.6749,-14.76084 0,-2.65593 0.9107,-5.87843 2.2935,-8.1158 2.0079,-3.24865 2.1351,-4.14815 1.0235,-7.22274 -1.4542,-4.02145 -0.1386,-17.86809 2.5349,-26.68059 0.8625,-2.84313 1.5734,-7.72419 1.5797,-10.84681 0.01,-3.12265 1.4016,-11.7355 3.1001,-19.13964 1.6987,-7.40416 3.1249,-15.85457 3.1696,-18.77867 0.045,-2.92411 0.4544,-10.18046 0.9102,-16.12524 l 0.8293,-10.8087 -2.8658,1.69279 c -2.0699,1.22275 -3.254,1.37942 -4.2646,0.56419 -0.7693,-0.62072 -2.9208,-1.45384 -4.7811,-1.85138 -10.1908,-2.1778 -4.6996,-8.79956 11.8474,-14.28654 8.9646,-2.97256 11.4639,-3.39704 16.4697,-2.79712 7.5986,0.91068 17.3787,3.6832 18.3708,5.2079 1.1484,1.76459 -0.1489,5.0062 -3.5748,8.93422 -1.6757,1.92101 -3.0467,4.20886 -3.0467,5.0841 0,0.87523 -0.8372,1.90555 -1.8606,2.28955 -4.336,1.62694 -5.943,7.59581 -2.9387,10.91536 1.732,1.9138 1.7629,1.64629 -3.1967,27.6622 -1.3936,7.31027 -3.0611,18.07633 -3.7053,23.92453 -2.6697,24.23233 -5.5571,45.50375 -8.0159,59.05157 -1.7904,9.86374 -2.6122,18.24804 -2.6122,26.64538 0,9.12738 -0.3981,12.77936 -1.5611,14.31688 -2.2202,2.93529 -2.2002,15.68422 0.029,17.533 0.911,0.75609 2.3059,2.92939 3.0997,4.82953 1.8952,4.53544 5.2594,6.37539 8.7493,4.78521 3.4593,-1.57616 4.5708,-0.69931 4.5708,3.60598 0,2.97082 -0.9157,4.37754 -5.4092,8.30822 -5.8925,5.1546 -6.718,5.3652 -26.555,6.77326 l -9.5354,0.67684 z m -563.8287,-6.13137 c -2.1696,-0.48198 -2.2314,-0.7681 -0.76,-3.5173 1.0456,-1.95377 5.2222,-2.82256 6.6595,-1.38527 0.8955,0.89549 -0.9704,4.27598 -2.68,4.85543 -0.7473,0.25328 -2.196,0.27449 -3.2195,0.0471 z"
       id="path8305"
       inkscape:connector-curvature="0" />
  </g>
</svg>
