<?xml version="1.0" encoding="UTF-8" standalone="no"?>
<!-- Created with Inkscape (http://www.inkscape.org/) -->

<svg
   xmlns:dc="http://purl.org/dc/elements/1.1/"
   xmlns:cc="http://creativecommons.org/ns#"
   xmlns:rdf="http://www.w3.org/1999/02/22-rdf-syntax-ns#"
   xmlns:svg="http://www.w3.org/2000/svg"
   xmlns="http://www.w3.org/2000/svg"
   xmlns:xlink="http://www.w3.org/1999/xlink"
   xmlns:sodipodi="http://sodipodi.sourceforge.net/DTD/sodipodi-0.dtd"
   xmlns:inkscape="http://www.inkscape.org/namespaces/inkscape"
   id="svg2"
   version="1.1"
   inkscape:version="0.92.2 2405546, 2018-03-11"
   width="2481"
   height="3503"
   sodipodi:docname="E28P05.svg">
  <metadata
     id="metadata8">
    <rdf:RDF>
      <cc:Work
         rdf:about="">
        <dc:format>image/svg+xml</dc:format>
        <dc:type
           rdf:resource="http://purl.org/dc/dcmitype/StillImage" />
        <dc:title />
      </cc:Work>
    </rdf:RDF>
  </metadata>
  <defs
     id="defs6" />
  <sodipodi:namedview
     pagecolor="#ffffff"
     bordercolor="#666666"
     borderopacity="1"
     objecttolerance="10"
     gridtolerance="10"
     guidetolerance="10"
     inkscape:pageopacity="0"
     inkscape:pageshadow="2"
     inkscape:window-width="1366"
     inkscape:window-height="715"
     id="namedview4"
     showgrid="false"
     inkscape:zoom="0.45"
     inkscape:cx="1268.8059"
     inkscape:cy="964.27742"
     inkscape:window-x="-8"
     inkscape:window-y="-8"
     inkscape:window-maximized="1"
     inkscape:current-layer="layer3" />
  <g
     inkscape:groupmode="layer"
     id="layer2"
     inkscape:label="artwork"
     sodipodi:insensitive="true">
    <image
       sodipodi:absref="/home/midgard/git/peppercarrot/comics/new-ep28_The-Festivities/lang/cn/../gfx_Pepper-and-Carrot_by-David-Revoy_E28P05.png"
       xlink:href="../gfx_Pepper-and-Carrot_by-David-Revoy_E28P05.png"
       width="2481"
       height="3503"
       id="image10"
       x="0"
       y="0" />
  </g>
  <g
     inkscape:groupmode="layer"
     id="layer3"
     inkscape:label="speechbubbles">
    <path
       style="fill:#ffffff;fill-rule:evenodd;stroke:none;stroke-width:0.86391866px;stroke-linecap:butt;stroke-linejoin:miter;stroke-opacity:1"
       d="m 157.52442,182.34465 c 24.20553,-16.43541 60.20542,-24.82082 95.32605,-30.15844 32.86157,-5.08519 67.10176,-5.2066 100.81265,-4.10266 42.74906,1.45619 86.04868,3.24907 127.27554,10.45241 12.60467,2.10627 24.47312,5.9513 32.3106,12.22819 33.18909,21.25476 57.22843,48.93045 56.41726,78.22722 -3.33899,43.05413 -5.00934,86.16256 -9.7572,129.17625 -1.44125,14.16368 -7.06886,29.10023 -24.78355,39.5111 -20.34309,12.51194 -47.31577,20.95581 -76.05847,24.70445 -45.73102,6.3339 -93.01103,8.56928 -139.93635,8.08671 -18.34055,-1.16061 -36.67219,-2.7086 -54.95913,-4.25092 -39.18493,-3.93979 -81.26783,-9.99793 -109.36924,-27.67927 -22.312,-14.09758 -34.66728,-33.12056 -36.96184,-52.12581 0.17359,-39.9672 4.76462,-79.87707 7.79528,-119.79369 1.08057,-10.77504 0.23352,-21.78596 6.80423,-32.08261 5.9832,-11.27394 13.75107,-22.37042 25.08417,-32.19293 z"
       id="path1006"
       inkscape:connector-curvature="0" />
    <path
       style="fill:#ffffff;fill-rule:evenodd;stroke:none;stroke-width:1px;stroke-linecap:butt;stroke-linejoin:miter;stroke-opacity:1"
       d="M 333.27358,346.17986 C 395.90659,299.25879 684.65819,123.37673 1012.4941,266.75583 759.55842,143.42811 491.69794,181.66189 330.00219,300.24071 Z"
       id="path1008"
       inkscape:connector-curvature="0"
       sodipodi:nodetypes="cccc" />
    <path
       style="fill:#ffffff;fill-rule:evenodd;stroke:none;stroke-width:1px;stroke-linecap:butt;stroke-linejoin:miter;stroke-opacity:1"
       d="m 1819.6761,521.16397 c 116.7092,-13.15033 182.4608,-4.93138 226.8431,52.60129 44.3824,57.53267 34.5196,90.40848 23.0131,80.54574 -11.5065,-9.86274 -23.0131,-151.22873 -249.8562,-133.14703 z"
       id="path1011"
       inkscape:connector-curvature="0" />
    <path
       style="fill:#ffffff;fill-rule:evenodd;stroke:none;stroke-width:1px;stroke-linecap:butt;stroke-linejoin:miter;stroke-opacity:1"
       d="m 2102.0706,570.17377 c 99.365,0.94377 151.8598,7.55021 172.4827,16.98798 20.6229,9.43777 48.745,34.91975 39.3711,50.02017 -9.3742,15.10043 -44.9955,39.63863 -148.1102,37.75108 -103.1146,-1.88756 -178.107,-11.32533 -202.4796,-30.20086 -24.3725,-18.87554 9.3741,-58.51416 48.7451,-65.12061 39.3711,-6.60643 44.9955,-8.49399 89.9909,-9.43776 z"
       id="path1013"
       inkscape:connector-curvature="0" />
    <path
       style="fill:#ffffff;fill-rule:evenodd;stroke:none;stroke-width:1px;stroke-linecap:butt;stroke-linejoin:miter;stroke-opacity:1"
       d="m 1918.9871,684.75925 c 76.0805,-26.41487 168.4761,-24.65388 193.2023,-22.89288 24.726,1.76099 86.7269,4.44541 133.0259,6.16346 21.4085,0.79442 99.8984,17.66337 105.5281,46.66627 3.4099,17.56651 0,35.21982 -53.2562,42.26379 -53.2563,7.04396 -131.5828,7.04396 -198.1533,6.16347 -66.5703,-0.8805 -142.3067,0 -182.2488,-15.84893 -39.9422,-15.84892 -51.3543,-37.8613 1.902,-62.51518 z"
       id="path1015"
       inkscape:connector-curvature="0"
       sodipodi:nodetypes="cssssssc" />
    <path
       style="fill:#ffffff;fill-rule:evenodd;stroke:none;stroke-width:1px;stroke-linecap:butt;stroke-linejoin:miter;stroke-opacity:1"
       d="m 304.26574,1071.6194 c 77.65393,1.4294 139.28402,1.4294 156.54045,15.7232 17.25643,14.2939 50.53668,47.1697 51.76928,78.6161 1.23261,31.4464 -1.2326,77.1867 -24.65203,98.6274 -23.41945,21.4408 -65.32791,38.5934 -107.23638,45.7403 -41.90847,7.1469 -125.72541,7.1469 -154.07524,0 -28.34985,-7.1469 -77.65394,-31.4464 -83.81695,-55.7459 -6.163,-24.2996 -8.62821,-84.3336 -1.23259,-108.6332 7.3956,-24.2995 43.14107,-54.3165 78.88652,-62.8928 35.74545,-8.5763 83.81694,-11.4351 83.81694,-11.4351 z"
       id="path1017"
       inkscape:connector-curvature="0" />
    <path
       style="fill:#ffffff;fill-rule:evenodd;stroke:none;stroke-width:1px;stroke-linecap:butt;stroke-linejoin:miter;stroke-opacity:1"
       d="m 464.5495,1496.1462 c 57.17532,-75.7573 57.17532,-148.6559 4.28815,-244.4245 -52.88717,-95.7687 -80.04545,-97.1981 -80.04545,-97.1981 l -4.28815,52.8872 c 0,0 168.6672,128.6445 80.04545,288.7354 z"
       id="path1019"
       inkscape:connector-curvature="0" />
    <path
       style="fill:#ffffff;fill-rule:evenodd;stroke:none;stroke-width:1.00006592px;stroke-linecap:butt;stroke-linejoin:miter;stroke-opacity:1"
       d="m 1959.8426,1169.3777 c -2.7281,-47.5003 68.2226,-87.3848 161.4194,-87.7256 93.1967,-0.3407 174.2374,19.525 173.7258,68.5842 -0.5115,49.0593 -16.444,90.4645 -136.2797,90.7029 -119.8358,0.2385 -193.8355,-12.9654 -198.8655,-71.5615 z"
       id="path1021"
       inkscape:connector-curvature="0" />
    <path
       style="fill:#ffffff;fill-rule:evenodd;stroke:none;stroke-width:1px;stroke-linecap:butt;stroke-linejoin:miter;stroke-opacity:1"
       d="m 2223.4008,1198.5758 c 9.6724,22.1135 -3.7615,81.471 -16.6581,91.9459 -8.9785,11.3235 4.9225,16.0942 9.6724,15.1304 4.2989,-2.9097 37.6151,-18.04 42.9887,-9.3111 5.3736,8.7291 -48.8996,51.2105 -42.9887,57.0298 5.911,5.8194 27.9427,-8.1471 30.6294,-3.4916 2.6868,4.6554 -4.2988,17.4581 -16.6581,25.6052 20.957,-6.9833 30.0921,-18.6219 25.7932,-26.769 -4.2988,-8.1471 -12.3592,-6.9833 -17.7328,-5.8194 10.2098,-8.7291 49.9875,-38.2659 39.7777,-53.9782 -10.2098,-15.7122 -36.0426,-12.0787 -41.9536,-9.169 14.5087,-12.8026 28.0737,-53.8649 21.6254,-85.8713 -6.4483,-32.0065 -34.4955,4.6983 -34.4955,4.6983 z"
       id="path1023"
       inkscape:connector-curvature="0"
       sodipodi:nodetypes="ccccsccccccsc" />
    <path
       style="fill:#ffffff;fill-rule:evenodd;stroke:none;stroke-width:1.03204989px;stroke-linecap:butt;stroke-linejoin:miter;stroke-opacity:1"
       d="m 766.50706,2344.762 c 15.59204,-40.2573 83.04207,-55.2416 135.01554,-52.849 51.97349,2.3928 129.4717,23.5682 121.387,56.2586 -8.0848,32.6904 -69.8755,50.2768 -113.41773,51.6227 -43.54222,1.3458 -142.06084,-3.9181 -142.98481,-55.0323 z"
       id="path1025"
       inkscape:connector-curvature="0" />
    <path
       style="fill:#ffffff;fill-rule:evenodd;stroke:none;stroke-width:1px;stroke-linecap:butt;stroke-linejoin:miter;stroke-opacity:1"
       d="m 891.05439,2384.5928 c 8.97846,20.1058 2.08504,29.2013 -7.53169,42.2988 -9.61674,13.0974 -3.91478,26.6928 6.89341,31.8628 10.80819,5.1701 22.50997,25.1418 21.87169,42.5477 -2.42546,-50.8389 -20.08451,-46.2816 -21.10575,-59.2259 -1.02125,-12.9442 20.21215,-24.3759 22.42485,-32.7054 2.2127,-8.3295 0.51063,-29.1055 -5.14877,-40.9009 -5.65941,-11.7954 -17.40374,16.1229 -17.40374,16.1229 z"
       id="path1027"
       inkscape:connector-curvature="0"
       sodipodi:nodetypes="cccccssc" />
  </g>
  <g
     inkscape:groupmode="layer"
     id="layer1"
     inkscape:label="txt">
    <text
       xml:space="preserve"
       style="font-style:normal;font-variant:normal;font-weight:normal;font-stretch:normal;line-height:0%;font-family:'小赖字体 SC';-inkscape-font-specification:'小赖字体 SC';text-align:center;letter-spacing:0px;word-spacing:0px;text-anchor:middle;fill:#000000;fill-opacity:1;stroke:none"
       x="344.73349"
       y="233.57831"
       id="text4246"><tspan
         sodipodi:role="line"
         style="font-style:normal;font-variant:normal;font-weight:normal;font-stretch:normal;font-size:45px;line-height:1.20000005;font-family:'小赖字体 SC';-inkscape-font-specification:'小赖字体 SC'"
         x="344.73349"
         y="233.57831"
         id="tspan878">我所有的朋友</tspan><tspan
         sodipodi:role="line"
         style="font-style:normal;font-variant:normal;font-weight:normal;font-stretch:normal;font-size:45px;line-height:1.20000005;font-family:'小赖字体 SC';-inkscape-font-specification:'小赖字体 SC'"
         x="344.73349"
         y="287.57831"
         id="tspan3378">都是成功人士。</tspan><tspan
         sodipodi:role="line"
         style="font-style:normal;font-variant:normal;font-weight:normal;font-stretch:normal;font-size:45px;line-height:1.20000005;font-family:'小赖字体 SC';-inkscape-font-specification:'小赖字体 SC'"
         x="344.73349"
         y="341.57831"
         id="tspan3380">有时我会想哪怕有</tspan><tspan
         sodipodi:role="line"
         style="font-style:normal;font-variant:normal;font-weight:normal;font-stretch:normal;font-size:45px;line-height:1.20000005;font-family:'小赖字体 SC';-inkscape-font-specification:'小赖字体 SC'"
         x="344.73349"
         y="395.57831"
         id="tspan3384">她们的一半也好。</tspan></text>
    <text
       xml:space="preserve"
       style="font-style:normal;font-variant:normal;font-weight:normal;font-stretch:normal;line-height:0%;font-family:'小赖字体 SC';-inkscape-font-specification:'小赖字体 SC';text-align:center;letter-spacing:0px;word-spacing:0px;text-anchor:middle;fill:#000000;fill-opacity:1;stroke:none"
       x="2154.4424"
       y="635.56793"
       id="text4246-3"><tspan
         sodipodi:role="line"
         style="font-style:normal;font-variant:normal;font-weight:normal;font-stretch:normal;font-size:45px;line-height:1.20000005;font-family:'小赖字体 SC';-inkscape-font-specification:'小赖字体 SC'"
         x="2154.4424"
         y="635.56793"
         id="tspan892">香菜叶是女王。</tspan></text>
    <text
       xml:space="preserve"
       style="font-style:normal;font-variant:normal;font-weight:normal;font-stretch:normal;line-height:0%;font-family:'小赖字体 SC';-inkscape-font-specification:'小赖字体 SC';text-align:center;letter-spacing:0px;word-spacing:0px;text-anchor:middle;fill:#000000;fill-opacity:1;stroke:none"
       x="2131.1526"
       y="731.00433"
       id="text4246-3-9"><tspan
         sodipodi:role="line"
         style="font-style:normal;font-variant:normal;font-weight:normal;font-stretch:normal;font-size:45px;line-height:1.20000005;font-family:'小赖字体 SC';-inkscape-font-specification:'小赖字体 SC'"
         x="2131.1526"
         y="731.00433"
         id="tspan901">藏红花有名又有利。</tspan></text>
    <text
       xml:space="preserve"
       style="font-style:normal;font-variant:normal;font-weight:normal;font-stretch:normal;line-height:0%;font-family:'小赖字体 SC';-inkscape-font-specification:'小赖字体 SC';text-align:center;letter-spacing:0px;word-spacing:0px;text-anchor:middle;fill:#000000;fill-opacity:1;stroke:none"
       x="327.58185"
       y="1151.152"
       id="text4246-3-9-7"><tspan
         sodipodi:role="line"
         style="font-style:normal;font-variant:normal;font-weight:normal;font-stretch:normal;font-size:45px;line-height:1.20000005;font-family:'小赖字体 SC';-inkscape-font-specification:'小赖字体 SC'"
         x="327.58185"
         y="1151.152"
         id="tspan910">就连七味粉和</tspan><tspan
         sodipodi:role="line"
         style="font-style:normal;font-variant:normal;font-weight:normal;font-stretch:normal;font-size:45px;line-height:1.20000005;font-family:'小赖字体 SC';-inkscape-font-specification:'小赖字体 SC'"
         x="327.58185"
         y="1205.152"
         id="tspan3394">她的学校</tspan><tspan
         sodipodi:role="line"
         style="font-style:normal;font-variant:normal;font-weight:normal;font-stretch:normal;font-size:45px;line-height:1.20000005;font-family:'小赖字体 SC';-inkscape-font-specification:'小赖字体 SC'"
         x="327.58185"
         y="1259.152"
         id="tspan3396">也是完美无瑕。</tspan></text>
    <text
       xml:space="preserve"
       style="font-style:normal;font-variant:normal;font-weight:normal;font-stretch:normal;line-height:0%;font-family:'小赖字体 SC';-inkscape-font-specification:'小赖字体 SC';text-align:center;letter-spacing:0px;word-spacing:0px;text-anchor:middle;fill:#000000;fill-opacity:1;stroke:none"
       x="2134.5269"
       y="1151.4224"
       id="text4246-3-9-7-3"><tspan
         sodipodi:role="line"
         style="font-style:normal;font-variant:normal;font-weight:normal;font-stretch:normal;font-size:45px;line-height:1.20000005;font-family:'小赖字体 SC';-inkscape-font-specification:'小赖字体 SC'"
         x="2134.5269"
         y="1151.4224"
         id="tspan914">可是我呢？</tspan><tspan
         sodipodi:role="line"
         style="font-style:normal;font-variant:normal;font-weight:normal;font-stretch:normal;font-size:45px;line-height:1.20000005;font-family:'小赖字体 SC';-inkscape-font-specification:'小赖字体 SC'"
         x="2134.5269"
         y="1205.4224"
         id="tspan3400">我有什么？</tspan></text>
    <text
       xml:space="preserve"
       style="font-style:normal;font-variant:normal;font-weight:normal;font-stretch:normal;line-height:0%;font-family:'小赖字体 SC';-inkscape-font-specification:'小赖字体 SC';text-align:center;letter-spacing:0px;word-spacing:0px;text-anchor:middle;fill:#000000;fill-opacity:1;stroke:none"
       x="910.00488"
       y="2360.6299"
       id="text4246-3-9-7-3-2"><tspan
         sodipodi:role="line"
         style="font-style:normal;font-variant:normal;font-weight:normal;font-stretch:normal;font-size:45px;line-height:1.20000005;font-family:'小赖字体 SC';-inkscape-font-specification:'小赖字体 SC'"
         x="910.00488"
         y="2360.6299"
         id="tspan981-1">仅此而已。</tspan></text>
  </g>
</svg>
