<?xml version="1.0" encoding="UTF-8" standalone="no"?>
<svg
   xmlns:dc="http://purl.org/dc/elements/1.1/"
   xmlns:cc="http://creativecommons.org/ns#"
   xmlns:rdf="http://www.w3.org/1999/02/22-rdf-syntax-ns#"
   xmlns:svg="http://www.w3.org/2000/svg"
   xmlns="http://www.w3.org/2000/svg"
   xmlns:xlink="http://www.w3.org/1999/xlink"
   xmlns:sodipodi="http://sodipodi.sourceforge.net/DTD/sodipodi-0.dtd"
   xmlns:inkscape="http://www.inkscape.org/namespaces/inkscape"
   sodipodi:docname="E29P08.svg"
   height="3503"
   width="2481"
   inkscape:version="1.0 (4035a4fb49, 2020-05-01)"
   version="1.1"
   id="svg2">
  <metadata
     id="metadata8">
    <rdf:RDF>
      <cc:Work
         rdf:about="">
        <dc:format>image/svg+xml</dc:format>
        <dc:type
           rdf:resource="http://purl.org/dc/dcmitype/StillImage" />
        <dc:title />
      </cc:Work>
    </rdf:RDF>
  </metadata>
  <defs
     id="defs6">
    <filter
       x="-0.15000001"
       width="1.3"
       y="-0.15000001"
       height="1.3"
       inkscape:menu-tooltip="Something like a water noise"
       inkscape:menu="Distort"
       inkscape:label="Lapping"
       id="filter3018-3-2-2-7-8"
       style="color-interpolation-filters:sRGB">
      <feTurbulence
         result="result1"
         baseFrequency="0.1"
         type="fractalNoise"
         seed="0"
         numOctaves="5"
         id="feTurbulence3020-6-9-0-4-8" />
      <feGaussianBlur
         result="result2"
         stdDeviation="2"
         id="feGaussianBlur3022-7-1-2-4-4" />
      <feDisplacementMap
         in="SourceGraphic"
         xChannelSelector="R"
         yChannelSelector="B"
         scale="55.299999999999997"
         in2="result2"
         id="feDisplacementMap3024-5-2-3-3-3" />
    </filter>
    <filter
       inkscape:label="Drop Shadow"
       id="filter4375-4-1-1-1-9-5-8"
       style="color-interpolation-filters:sRGB">
      <feFlood
         result="flood"
         flood-color="rgb(108,125,133)"
         flood-opacity="1"
         id="feFlood4377-7-9-0-8-1-7-3" />
      <feComposite
         result="composite1"
         operator="in"
         in="flood"
         in2="SourceGraphic"
         id="feComposite4379-3-8-8-2-77-4-1" />
      <feMorphology
         result="result3"
         radius="6.2000000000000002"
         operator="dilate"
         id="feMorphology4393-1-0-49-8-9-3-0" />
      <feComposite
         result="fbSourceGraphic"
         operator="over"
         in="SourceGraphic"
         in2="result3"
         id="feComposite4385-9-5-7-0-8-8-7" />
      <feColorMatrix
         id="feColorMatrix4544"
         values="0 0 0 -1 0 0 0 0 -1 0 0 0 0 -1 0 0 0 0 1 0"
         in="fbSourceGraphic"
         result="fbSourceGraphicAlpha" />
      <feTurbulence
         result="turbulence"
         baseFrequency="0.129 0.0050000000000000001"
         seed="37"
         numOctaves="3"
         type="fractalNoise"
         id="feTurbulence4546" />
      <feDisplacementMap
         result="fbSourceGraphic"
         xChannelSelector="R"
         yChannelSelector="G"
         scale="6.6"
         in="fbSourceGraphic"
         in2="turbulence"
         id="feDisplacementMap4548" />
      <feColorMatrix
         id="feColorMatrix4670"
         values="0 0 0 -1 0 0 0 0 -1 0 0 0 0 -1 0 0 0 0 1 0"
         in="fbSourceGraphic"
         result="fbSourceGraphicAlpha" />
      <feFlood
         in="fbSourceGraphic"
         result="flood"
         flood-color="rgb(17,52,65)"
         flood-opacity="1"
         id="feFlood4672" />
      <feComposite
         result="composite1"
         operator="in"
         in="flood"
         in2="fbSourceGraphic"
         id="feComposite4674" />
      <feGaussianBlur
         result="blur"
         stdDeviation="0"
         in="composite1"
         id="feGaussianBlur4676" />
      <feOffset
         result="offset"
         dy="6"
         dx="6"
         id="feOffset4678" />
      <feComposite
         result="composite2"
         operator="over"
         in="fbSourceGraphic"
         in2="offset"
         id="feComposite4680" />
    </filter>
  </defs>
  <sodipodi:namedview
     inkscape:document-rotation="0"
     inkscape:snap-global="false"
     inkscape:current-layer="layer1"
     inkscape:window-maximized="0"
     inkscape:window-y="41"
     inkscape:window-x="11"
     inkscape:cy="2781.1254"
     inkscape:cx="1426.0703"
     inkscape:zoom="0.33817999"
     showgrid="false"
     id="namedview4"
     inkscape:window-height="1012"
     inkscape:window-width="993"
     inkscape:pageshadow="2"
     inkscape:pageopacity="0"
     guidetolerance="10"
     gridtolerance="10"
     objecttolerance="10"
     borderopacity="1"
     bordercolor="#666666"
     pagecolor="#ffffff" />
  <g
     sodipodi:insensitive="true"
     inkscape:label="artwork"
     id="layer2"
     inkscape:groupmode="layer">
    <image
       sodipodi:absref="C:\Users\stero\Documents\Kernewek\Pepper and Carrot\webcomics\ep29_Destroyer-of-Worlds\lang\gfx_Pepper-and-Carrot_by-David-Revoy_E29P08.png"
       xlink:href="../gfx_Pepper-and-Carrot_by-David-Revoy_E29P08.png"
       y="0"
       x="0"
       id="image10"
       height="3503"
       width="2481" />
  </g>
  <g
     inkscape:label="speechbubbles"
     id="layer3"
     inkscape:groupmode="layer">
    <path
       sodipodi:nodetypes="cscsssssscssssccscccc"
       inkscape:connector-curvature="0"
       id="path5058"
       d="m 1741.9308,2432.7908 c -4.8178,19.668 -0.7688,33.3874 2.4416,37.3592 3.2104,3.9717 10.8983,14.3119 13.7655,19.7718 2.3453,4.527 7.2978,10.3012 2.8751,12.116 -4.4228,1.8149 -34.8116,2.5003 -39.1041,15.4478 -4.2926,12.9476 1.2261,18.1 11.372,24.4541 10.1458,6.3542 23.2871,14.8228 21.1091,24.7749 -2.1781,9.9521 -13.1171,14.2585 -19.1504,14.6671 -6.0333,0.4087 -42.6524,-2.0129 -51.9597,1.3807 -9.3072,3.3936 -58.5684,13.2614 -54.7449,26.2831 11.9469,-13.1095 41.9984,-13.9815 50.8227,-15.2923 8.8245,-1.3108 24.7392,-5.003 34.6806,-1.6655 9.9416,3.3375 30.3591,2.6969 38.2813,-1.4051 7.9224,-4.102 22.577,-9.4024 22.9084,-20.299 0.3315,-10.8966 1.9829,-23.0056 -14.1751,-31.2699 -10.1458,-6.3541 -9.9405,-8.4674 -8.9855,-11.4734 0.9551,-3.0061 6.7542,-4.5088 18.3379,-3.2435 11.5838,1.2654 21.8199,-5.163 22.8068,-11.6474 0.9868,-6.4843 -4.6686,-27.4261 -5.0774,-33.4595 -0.4086,-6.0333 -15.9072,-37.41 -15.9072,-37.41 z"
       style="color:#000000;display:inline;overflow:visible;visibility:visible;fill:#0f0f0f;fill-opacity:1;fill-rule:nonzero;stroke:none;stroke-width:1px;marker:none;enable-background:accumulate" />
    <path
       sodipodi:nodetypes="zssssz"
       inkscape:connector-curvature="0"
       id="path4040-4"
       d="m 173.01808,1218.6028 c 42.95529,-24.7317 607.22559,-36.2712 684.85808,17.1916 49.26263,33.9255 41.58677,175.2139 -21.31427,199.7978 -74.02798,28.9328 -510.97621,22.9474 -615.03412,6.8203 -99.00058,-15.3432 -91.05816,-82.7428 -96.05105,-133.796 -2.03787,-20.8368 4.58569,-65.2821 47.54136,-90.0137 z"
       style="color:#000000;display:inline;overflow:visible;visibility:visible;fill:#ffffff;fill-opacity:1;fill-rule:nonzero;stroke:none;stroke-width:0.96873879px;marker:none;enable-background:accumulate" />
    <path
       sodipodi:nodetypes="cccc"
       inkscape:connector-curvature="0"
       id="path3984"
       d="m 311.87959,1615.1816 c -40.60124,-32.4674 -74.36032,-115.1853 -33.91931,-172.8839 3.17292,-61.055 -34.82399,-40.9983 -34.82399,-40.9983 -17.62319,2.576 -45.4318,163.5125 68.7433,213.8822 z"
       style="color:#000000;display:inline;overflow:visible;visibility:visible;fill:#ffffff;fill-opacity:1;fill-rule:nonzero;stroke:none;stroke-width:0.99999994px;marker:none;enable-background:accumulate" />
    <path
       sodipodi:nodetypes="cssssscsc"
       inkscape:connector-curvature="0"
       id="path4546-6-0"
       d="m 1295.4098,1270.3643 c 2.1009,-26.5504 6.8374,-47.6134 32.8964,-59.2929 26.0589,-11.6795 73.44,-13.9754 133.5519,-9.381 32.1992,2.461 77.9511,6.0447 103.6113,17.139 25.6602,11.0942 31.2285,29.6988 28.5247,68.5908 -2.7038,38.8919 -12.1598,59.6096 -41.8414,69.2521 -29.6816,9.6426 -79.5889,8.2101 -90.4527,9.1912 -28.4059,-3.0891 -83.1782,1.2921 -117.9979,-6.8838 -34.8197,-8.1759 -49.6866,-28.9089 -48.2923,-88.6154 z"
       style="color:#000000;display:inline;overflow:visible;visibility:visible;fill:#ffffff;fill-opacity:1;fill-rule:nonzero;stroke:none;stroke-width:0.99999994px;marker:none;enable-background:accumulate" />
    <path
       sodipodi:nodetypes="cccsc"
       inkscape:connector-curvature="0"
       id="path3072"
       d="m 1431.7617,1468.491 c 59.9751,-44.8956 60.0722,-122.3075 31.5594,-145.6457 -9.4981,-43.7555 40.3171,-10.9043 40.3171,-10.9043 0,0 13.3413,2.4791 15.0637,12.6745 5.1327,30.38 8.6371,103.3566 -86.9402,143.8755 z"
       style="color:#000000;display:inline;overflow:visible;visibility:visible;fill:#ffffff;fill-opacity:1;fill-rule:nonzero;stroke:none;stroke-width:1px;marker:none;enable-background:accumulate" />
    <path
       sodipodi:nodetypes="cssssssscc"
       inkscape:connector-curvature="0"
       id="path4546-6-2"
       d="m 1727.9578,1302.4938 c 4.0324,-36.4943 4.6112,-71.7272 57.9453,-93.1484 53.3336,-21.4213 147.2936,-27.3519 265.3134,-22.0311 63.2179,2.85 142.8557,6.6912 193.2671,21.5041 50.4112,14.8129 71.5955,40.5972 66.4223,94.0492 -5.1732,53.4519 -33.0897,76.8054 -91.3233,90.5349 -58.2338,13.7297 -146.7849,17.836 -168.1078,19.3616 -21.3227,1.5258 -87.4571,0.2112 -153.0718,-5.962 -65.6149,-6.1732 -110.495,-10.4892 -129.7402,-28.3984 -30.1695,-22.6803 -42.5394,-49.3472 -40.705,-75.9099 z"
       style="color:#000000;display:inline;overflow:visible;visibility:visible;fill:#ffffff;fill-opacity:1;fill-rule:nonzero;stroke:none;stroke-width:1.08589px;marker:none;enable-background:accumulate" />
    <path
       sodipodi:nodetypes="cscssc"
       inkscape:connector-curvature="0"
       id="path4186"
       d="m 1862.7031,1340.7927 c 37.0537,46.6722 -66.2999,66.1608 -59.716,93.6787 4.5451,18.9962 58.4627,25.3981 71.4513,107.1142 -28.5867,-68.3515 -80.8708,-62.3973 -96.4536,-91.0083 -29.5953,-54.3394 38.0899,-73.6875 46.0667,-84.002 10.6687,-13.7955 38.6516,-25.7826 38.6516,-25.7826 z"
       style="fill:#ffffff;fill-rule:evenodd;stroke:none;stroke-width:1px;stroke-linecap:butt;stroke-linejoin:miter;stroke-opacity:1" />
    <path
       transform="matrix(-0.02464833,-0.97640344,1.0670645,-0.01858366,1464.8343,2836.9044)"
       sodipodi:nodetypes="cssssssssc"
       inkscape:connector-curvature="0"
       id="path3986-3-7-0-1"
       d="m 358.47331,252.02591 c 0.0466,-13.96188 7.39186,-41.05615 31.52516,-45.9295 24.82592,-5.01323 22.83162,-7.42647 50.82871,1.2048 18.17701,5.60381 27.31738,23.75479 27.84434,32.90879 0.26348,4.577 1.82858,62.61405 1.08046,81.43083 -0.74813,18.81679 -10.39305,52.60598 -22.33297,55.32455 -18.0305,4.10531 -7.61044,7.48563 -26.2623,6.88865 -18.65186,-0.59699 -37.41469,-2.83341 -48.54882,-7.63934 -7.64142,-3.29834 -16.92567,-32.34767 -16.38912,-47.99723 0.53656,-15.64955 2.79353,-70.6371 2.25454,-76.19155 z"
       style="color:#000000;display:inline;overflow:visible;visibility:visible;opacity:1;fill:#0f0f0f;fill-opacity:1;fill-rule:nonzero;stroke:none;stroke-width:1.0516063px;marker:none;filter:url(#filter3018-3-2-2-7-8);enable-background:accumulate" />
  </g>
  <g
     inkscape:label="txt"
     id="layer1"
     inkscape:groupmode="layer">
    <text
       id="text4246"
       y="1287.7837"
       x="506.33963"
       style="font-style:normal;font-variant:normal;font-weight:normal;font-stretch:normal;line-height:0%;font-family:Lavi;-inkscape-font-specification:Lavi;text-align:center;letter-spacing:0px;word-spacing:0px;text-anchor:middle;fill:#000000;fill-opacity:1;stroke:none"
       xml:space="preserve"><tspan
         id="tspan883"
         y="1287.7837"
         x="506.33963"
         style="font-size:45px;line-height:1.2"
         sodipodi:role="line">Yn tevri? Hi a sewenas dalleth</tspan><tspan
         id="tspan67"
         y="1341.7837"
         x="506.33963"
         style="font-size:45px;line-height:1.2"
         sodipodi:role="line">dasoberyans kadon mar gowrek,</tspan><tspan
         id="tspan69"
         y="1395.7837"
         x="506.33963"
         style="font-size:45px;line-height:1.2"
         sodipodi:role="line">heb y verkya?</tspan></text>
    <text
       id="text4246-3"
       y="1272.4259"
       x="1445.2512"
       style="font-style:normal;font-variant:normal;font-weight:normal;font-stretch:normal;line-height:0%;font-family:Lavi;-inkscape-font-specification:Lavi;text-align:center;letter-spacing:0px;word-spacing:0px;text-anchor:middle;fill:#000000;fill-opacity:1;stroke:none"
       xml:space="preserve"><tspan
         id="tspan890"
         y="1272.4259"
         x="1445.2512"
         style="font-size:45px;line-height:1.2"
         sodipodi:role="line">Dout vyth</tspan><tspan
         id="tspan73"
         y="1326.4259"
         x="1445.2512"
         style="font-size:45px;line-height:1.2"
         sodipodi:role="line">yn y gever.</tspan></text>
    <text
       id="text4246-6"
       y="1256.8154"
       x="2023.72"
       style="font-style:normal;font-variant:normal;font-weight:normal;font-stretch:normal;line-height:0%;font-family:Lavi;-inkscape-font-specification:Lavi;text-align:center;letter-spacing:0px;word-spacing:0px;text-anchor:middle;fill:#000000;fill-opacity:1;stroke:none"
       xml:space="preserve"><tspan
         id="tspan80"
         y="1256.8154"
         x="2023.72"
         style="font-size:45px;line-height:1.2"
         sodipodi:role="line">Benenes, dell grysav</tspan><tspan
         id="tspan88"
         y="1310.8154"
         x="2023.72"
         style="font-size:45px;line-height:1.2"
         sodipodi:role="line">parys yw agan Pepper</tspan><tspan
         id="tspan82"
         y="1364.8154"
         x="2023.72"
         style="font-size:45px;line-height:1.2"
         sodipodi:role="line">nyni wortiwedh!</tspan></text>
    <text
       transform="matrix(0.73325907,-0.42022078,0.28304438,1.2015656,0,0)"
       id="text1522"
       y="3015.6167"
       x="1402.5764"
       style="color:#000000;font-style:normal;font-variant:normal;font-weight:normal;font-stretch:normal;font-size:13.8059px;line-height:0.01%;font-family:Arial;-inkscape-font-specification:Arial;letter-spacing:0px;word-spacing:0px;display:inline;overflow:visible;visibility:visible;fill:#000000;fill-opacity:1;fill-rule:nonzero;stroke:#ffffff;stroke-width:12.782;stroke-miterlimit:4;stroke-dasharray:none;stroke-opacity:0.853503;marker:none;paint-order:stroke markers fill;enable-background:accumulate"
       xml:space="preserve"><tspan
         style="fill:#000000;fill-opacity:1;stroke:#ffffff;stroke-width:12.782;stroke-miterlimit:4;stroke-dasharray:none;stroke-opacity:0.853503;paint-order:stroke markers fill"
         id="tspan1520"
         y="3015.6167"
         x="1402.5764"
         sodipodi:role="line"><tspan
           id="tspan1518"
           style="color:#000000;font-style:normal;font-variant:normal;font-weight:normal;font-stretch:normal;font-size:73.6315px;line-height:1.25;font-family:Lavi;-inkscape-font-specification:Lavi;text-align:center;text-anchor:middle;display:inline;overflow:visible;visibility:visible;fill:#000000;fill-opacity:1;fill-rule:nonzero;stroke:#ffffff;stroke-width:12.782;stroke-miterlimit:4;stroke-dasharray:none;stroke-opacity:0.853503;marker:none;paint-order:stroke markers fill;enable-background:accumulate"
           y="3015.6167"
           x="1402.5764">Fwyp!</tspan></tspan></text>
    <flowRoot
       transform="matrix(1.5214741,0,0,1.6400559,1119.1272,1928.0913)"
       style="font-style:normal;font-variant:normal;font-weight:normal;font-stretch:normal;font-size:48.9559px;line-height:0.01%;font-family:Lavi;-inkscape-font-specification:Lavi;text-align:center;letter-spacing:0px;word-spacing:0px;text-anchor:middle;opacity:1;fill:#000000;fill-opacity:1;stroke:none;stroke-width:0.723008"
       id="flowRoot2987-4-9-3-6-6-2-8-6-5-4"
       xml:space="preserve"><flowRegion
         style="font-size:48.9559px;stroke-width:0.723008"
         id="flowRegion2989-5-4-5-0-1-8-4-1-2-9"><rect
           style="font-style:normal;font-variant:normal;font-weight:normal;font-stretch:normal;font-size:48.95590973px;font-family:Lavi;-inkscape-font-specification:Lavi;text-align:center;text-anchor:middle;stroke-width:0.72300833"
           y="265.53046"
           x="120.55251"
           height="407.77811"
           width="615.85046"
           id="rect2991-7-9-6-6-8-9-5-5-5-2" /></flowRegion><flowPara
         id="flowPara883"
         style="font-style:normal;font-variant:normal;font-weight:normal;font-stretch:normal;font-size:48.9559px;line-height:1.25;font-family:'Drukaatie burti';-inkscape-font-specification:'Drukaatie burti';text-align:center;text-anchor:middle;fill:#ffffff;fill-opacity:1;stroke-width:0.723008">...</flowPara></flowRoot>
    <text
       transform="matrix(0.71047992,-0.09260253,-0.44793099,1.0912306,1024.5003,622.48095)"
       id="text4580-6-0"
       y="1584.5073"
       x="787.65729"
       style="font-style:normal;font-variant:normal;font-weight:normal;font-stretch:normal;line-height:0%;font-family:Lavi;-inkscape-font-specification:Lavi;letter-spacing:0px;word-spacing:0px;opacity:0.857;fill:#ffffff;fill-opacity:1;stroke:#98b9ca;stroke-width:0.954507;stroke-miterlimit:4;stroke-dasharray:none;stroke-opacity:1;filter:url(#filter4375-4-1-1-1-9-5-8)"
       xml:space="preserve"><tspan
         style="font-size:70px;line-height:1.25;fill:#ffffff;fill-opacity:1;stroke:#98b9ca;stroke-width:0.954507;stroke-opacity:1"
         y="1584.5073"
         x="787.65729"
         id="tspan4582-1-1"
         sodipodi:role="line"><tspan
           id="tspan4315-8"
           style="font-size:93.1495px;fill:#ffffff;fill-opacity:1;stroke:#98b9ca;stroke-width:0.954507;stroke-opacity:1">Fshh<tspan
   id="tspan1131"
   style="font-size:72.148px;stroke-width:0.954507">hh</tspan><tspan
   id="tspan1133"
   style="font-size:82.6488px;stroke-width:0.954507">!</tspan></tspan><tspan
           id="tspan4313-2"
           style="font-size:114.732px;fill:#ffffff;fill-opacity:1;stroke:#98b9ca;stroke-width:0.954507;stroke-opacity:1">!</tspan></tspan></text>
    <text
       transform="matrix(0.96049651,0,-0.32716292,1.0411282,0,0)"
       id="text4213"
       y="3318.4402"
       x="2414.4771"
       style="font-style:normal;font-variant:normal;font-weight:normal;font-stretch:normal;font-size:43.8573px;line-height:0%;font-family:Lavi;-inkscape-font-specification:'Lavi, Normal';font-variant-ligatures:normal;font-variant-caps:normal;font-variant-numeric:normal;font-feature-settings:normal;text-align:center;letter-spacing:0px;word-spacing:0px;writing-mode:lr-tb;text-anchor:middle;display:inline;fill:#241c1c;fill-opacity:1;stroke:#000000;stroke-width:0.822;stroke-miterlimit:4;stroke-dasharray:none;stroke-opacity:1"
       xml:space="preserve"><tspan
         style="font-style:normal;font-variant:normal;font-weight:normal;font-stretch:normal;font-size:43.8573px;line-height:1.25;font-family:Lavi;-inkscape-font-specification:'Lavi, Normal';font-variant-ligatures:normal;font-variant-caps:normal;font-variant-numeric:normal;font-feature-settings:normal;text-align:center;writing-mode:lr-tb;text-anchor:middle;stroke-width:0.822"
         y="3318.4402"
         x="2414.4771"
         id="tspan3562"
         sodipodi:role="line">- GORFEN AN TRI HWEDHEL: KURUNYANS MYGHTERNES CORIANDER -</tspan></text>
  </g>
</svg>
