<?xml version="1.0" encoding="UTF-8" standalone="no"?>
<svg
   xmlns:dc="http://purl.org/dc/elements/1.1/"
   xmlns:cc="http://creativecommons.org/ns#"
   xmlns:rdf="http://www.w3.org/1999/02/22-rdf-syntax-ns#"
   xmlns:svg="http://www.w3.org/2000/svg"
   xmlns="http://www.w3.org/2000/svg"
   xmlns:xlink="http://www.w3.org/1999/xlink"
   xmlns:sodipodi="http://sodipodi.sourceforge.net/DTD/sodipodi-0.dtd"
   xmlns:inkscape="http://www.inkscape.org/namespaces/inkscape"
   sodipodi:docname="E29P06.svg"
   height="3503"
   width="2481"
   inkscape:version="1.0 (4035a4fb49, 2020-05-01)"
   version="1.1"
   id="svg2">
  <metadata
     id="metadata8">
    <rdf:RDF>
      <cc:Work
         rdf:about="">
        <dc:format>image/svg+xml</dc:format>
        <dc:type
           rdf:resource="http://purl.org/dc/dcmitype/StillImage" />
        <dc:title />
      </cc:Work>
    </rdf:RDF>
  </metadata>
  <defs
     id="defs6">
    <filter
       inkscape:label="deevad outline effect"
       id="filter4375-4-1-1-1-9"
       style="color-interpolation-filters:sRGB">
      <feFlood
         result="flood"
         flood-color="rgb(0,0,0)"
         flood-opacity="1"
         id="feFlood4377-7-9-0-8-1" />
      <feComposite
         result="composite1"
         operator="in"
         in="flood"
         in2="SourceGraphic"
         id="feComposite4379-3-8-8-2-77" />
      <feMorphology
         result="result3"
         radius="3.5"
         operator="dilate"
         id="feMorphology4393-1-0-49-8-9" />
      <feComposite
         result="composite2"
         operator="over"
         in="SourceGraphic"
         in2="result3"
         id="feComposite4385-9-5-7-0-8" />
    </filter>
    <filter
       inkscape:label="Fireworks-label-bump"
       height="1.0558571"
       y="-0.027928527"
       width="1.0178171"
       x="-0.0089085409"
       id="filter5236"
       style="color-interpolation-filters:sRGB;"
       inkscape:collect="always">
      <feGaussianBlur
         result="fbSourceGraphic"
         id="feGaussianBlur5238"
         stdDeviation="0.49168068"
         inkscape:collect="always" />
      <feColorMatrix
         id="feColorMatrix411"
         values="0 0 0 -1 0 0 0 0 -1 0 0 0 0 -1 0 0 0 0 1 0"
         in="fbSourceGraphic"
         result="fbSourceGraphicAlpha" />
      <feFlood
         in="fbSourceGraphic"
         result="flood"
         flood-color="rgb(212,166,34)"
         flood-opacity="1"
         id="feFlood413" />
      <feComposite
         result="composite1"
         operator="in"
         in="flood"
         id="feComposite415"
         in2="fbSourceGraphic" />
      <feGaussianBlur
         result="blur"
         stdDeviation="0"
         in="composite1"
         id="feGaussianBlur417" />
      <feOffset
         result="offset"
         dy="-1.8"
         dx="0"
         id="feOffset419" />
      <feComposite
         result="composite2"
         operator="over"
         in="fbSourceGraphic"
         id="feComposite421"
         in2="offset" />
    </filter>
    <filter
       inkscape:label="Drop Shadow"
       id="filter4375-4-1-1-1-9-5-8-8-3"
       style="color-interpolation-filters:sRGB">
      <feFlood
         result="flood"
         flood-color="rgb(190,113,27)"
         flood-opacity="1"
         id="feFlood4377-7-9-0-8-1-7-3-1-6" />
      <feComposite
         baseFrequency="0.053999999999999999 0.053999999999999999"
         result="composite1"
         operator="in"
         in="flood"
         in2="SourceGraphic"
         id="feComposite4379-3-8-8-2-77-4-1-0-7" />
      <feMorphology
         result="result3"
         radius="6.2000000000000002"
         operator="dilate"
         id="feMorphology4393-1-0-49-8-9-3-0-1-5" />
      <feComposite
         result="fbSourceGraphic"
         operator="over"
         in="SourceGraphic"
         in2="result3"
         id="feComposite4385-9-5-7-0-8-8-7-5-3" />
      <feColorMatrix
         id="feColorMatrix4544-9-5"
         values="0 0 0 -1 0 0 0 0 -1 0 0 0 0 -1 0 0 0 0 1 0"
         in="fbSourceGraphic"
         result="fbSourceGraphicAlpha" />
      <feTurbulence
         result="turbulence"
         baseFrequency="0.053999999999999999 0.054054054054054057"
         seed="174"
         numOctaves="5"
         type="fractalNoise"
         id="feTurbulence4546-3-6" />
      <feDisplacementMap
         result="fbSourceGraphic"
         xChannelSelector="R"
         yChannelSelector="G"
         scale="6.6"
         in="fbSourceGraphic"
         in2="turbulence"
         id="feDisplacementMap4548-8-2" />
      <feColorMatrix
         id="feColorMatrix4670-7-9"
         values="0 0 0 -1 0 0 0 0 -1 0 0 0 0 -1 0 0 0 0 1 0"
         in="fbSourceGraphic"
         result="fbSourceGraphicAlpha" />
      <feFlood
         in="fbSourceGraphic"
         result="flood"
         flood-color="rgb(141,82,22)"
         flood-opacity="1"
         id="feFlood4672-4-1" />
      <feComposite
         result="composite1"
         operator="in"
         in="flood"
         in2="fbSourceGraphic"
         id="feComposite4674-8-2" />
      <feGaussianBlur
         result="blur"
         stdDeviation="0"
         in="composite1"
         id="feGaussianBlur4676-3-7" />
      <feOffset
         result="offset"
         dy="6"
         dx="6"
         id="feOffset4678-6-0" />
      <feComposite
         result="composite2"
         operator="over"
         in="fbSourceGraphic"
         in2="offset"
         id="feComposite4680-4-9" />
    </filter>
    <filter
       inkscape:label="Drop Shadow"
       id="filter4375-4-1-1-1-9-5-8-8-3-3"
       style="color-interpolation-filters:sRGB">
      <feFlood
         result="flood"
         flood-color="rgb(190,113,27)"
         flood-opacity="1"
         id="feFlood4377-7-9-0-8-1-7-3-1-6-5" />
      <feComposite
         baseFrequency="0.053999999999999999 0.053999999999999999"
         result="composite1"
         operator="in"
         in="flood"
         in2="SourceGraphic"
         id="feComposite4379-3-8-8-2-77-4-1-0-7-6" />
      <feMorphology
         result="result3"
         radius="6.2000000000000002"
         operator="dilate"
         id="feMorphology4393-1-0-49-8-9-3-0-1-5-2" />
      <feComposite
         result="fbSourceGraphic"
         operator="over"
         in="SourceGraphic"
         in2="result3"
         id="feComposite4385-9-5-7-0-8-8-7-5-3-9" />
      <feColorMatrix
         id="feColorMatrix4544-9-5-1"
         values="0 0 0 -1 0 0 0 0 -1 0 0 0 0 -1 0 0 0 0 1 0"
         in="fbSourceGraphic"
         result="fbSourceGraphicAlpha" />
      <feTurbulence
         result="turbulence"
         baseFrequency="0.053999999999999999 0.054054054054054057"
         seed="174"
         numOctaves="5"
         type="fractalNoise"
         id="feTurbulence4546-3-6-2" />
      <feDisplacementMap
         result="fbSourceGraphic"
         xChannelSelector="R"
         yChannelSelector="G"
         scale="6.6"
         in="fbSourceGraphic"
         in2="turbulence"
         id="feDisplacementMap4548-8-2-7" />
      <feColorMatrix
         id="feColorMatrix4670-7-9-0"
         values="0 0 0 -1 0 0 0 0 -1 0 0 0 0 -1 0 0 0 0 1 0"
         in="fbSourceGraphic"
         result="fbSourceGraphicAlpha" />
      <feFlood
         in="fbSourceGraphic"
         result="flood"
         flood-color="rgb(141,82,22)"
         flood-opacity="1"
         id="feFlood4672-4-1-9" />
      <feComposite
         result="composite1"
         operator="in"
         in="flood"
         in2="fbSourceGraphic"
         id="feComposite4674-8-2-3" />
      <feGaussianBlur
         result="blur"
         stdDeviation="0"
         in="composite1"
         id="feGaussianBlur4676-3-7-6" />
      <feOffset
         result="offset"
         dy="6"
         dx="6"
         id="feOffset4678-6-0-0" />
      <feComposite
         result="composite2"
         operator="over"
         in="fbSourceGraphic"
         in2="offset"
         id="feComposite4680-4-9-6" />
    </filter>
    <filter
       inkscape:label="Drop Shadow"
       id="filter4375-4-1-1-1-9-5-8-8"
       style="color-interpolation-filters:sRGB">
      <feFlood
         radius="5.0999999999999996"
         result="flood"
         flood-color="rgb(135,43,23)"
         flood-opacity="1"
         id="feFlood4377-7-9-0-8-1-7-3-1" />
      <feComposite
         baseFrequency="0.053999999999999999 0.053999999999999999"
         result="composite1"
         operator="in"
         in="flood"
         in2="SourceGraphic"
         id="feComposite4379-3-8-8-2-77-4-1-0" />
      <feMorphology
         result="result3"
         radius="5.1272503082614058"
         operator="dilate"
         id="feMorphology4393-1-0-49-8-9-3-0-1" />
      <feComposite
         numOctaves="4"
         result="fbSourceGraphic"
         operator="over"
         in="SourceGraphic"
         in2="result3"
         id="feComposite4385-9-5-7-0-8-8-7-5" />
      <feColorMatrix
         id="feColorMatrix4544-9"
         values="0 0 0 -1 0 0 0 0 -1 0 0 0 0 -1 0 0 0 0 1 0"
         in="fbSourceGraphic"
         result="fbSourceGraphicAlpha" />
      <feTurbulence
         result="turbulence"
         baseFrequency="0.062 0.054054054054054057"
         seed="172"
         numOctaves="4.4123222748815163"
         type="fractalNoise"
         id="feTurbulence4546-3" />
      <feDisplacementMap
         result="fbSourceGraphic"
         xChannelSelector="R"
         yChannelSelector="G"
         scale="10.781990521327014"
         in="fbSourceGraphic"
         in2="turbulence"
         id="feDisplacementMap4548-8" />
      <feColorMatrix
         scale="10.800000000000001"
         id="feColorMatrix4670-7"
         values="0 0 0 -1 0 0 0 0 -1 0 0 0 0 -1 0 0 0 0 1 0"
         in="fbSourceGraphic"
         result="fbSourceGraphicAlpha" />
      <feFlood
         dx="-2.3999999999999999"
         in="fbSourceGraphic"
         result="flood"
         flood-color="rgb(45,8,0)"
         flood-opacity="1"
         id="feFlood4672-4" />
      <feComposite
         result="composite1"
         operator="in"
         in="flood"
         in2="fbSourceGraphic"
         id="feComposite4674-8" />
      <feGaussianBlur
         result="blur"
         stdDeviation="0"
         in="composite1"
         id="feGaussianBlur4676-3" />
      <feOffset
         result="offset"
         dy="3.1000000000000001"
         dx="-2.3696682464454994"
         id="feOffset4678-6" />
      <feComposite
         result="composite2"
         operator="over"
         in="fbSourceGraphic"
         in2="offset"
         id="feComposite4680-4" />
    </filter>
    <filter
       inkscape:label="Drop Shadow"
       id="filter4375-4-1-1-1-9-5-8"
       style="color-interpolation-filters:sRGB">
      <feFlood
         result="flood"
         flood-color="rgb(108,125,133)"
         flood-opacity="1"
         id="feFlood4377-7-9-0-8-1-7-3" />
      <feComposite
         result="composite1"
         operator="in"
         in="flood"
         in2="SourceGraphic"
         id="feComposite4379-3-8-8-2-77-4-1" />
      <feMorphology
         result="result3"
         radius="6.2000000000000002"
         operator="dilate"
         id="feMorphology4393-1-0-49-8-9-3-0" />
      <feComposite
         result="fbSourceGraphic"
         operator="over"
         in="SourceGraphic"
         in2="result3"
         id="feComposite4385-9-5-7-0-8-8-7" />
      <feColorMatrix
         id="feColorMatrix4544"
         values="0 0 0 -1 0 0 0 0 -1 0 0 0 0 -1 0 0 0 0 1 0"
         in="fbSourceGraphic"
         result="fbSourceGraphicAlpha" />
      <feTurbulence
         result="turbulence"
         baseFrequency="0.129 0.0050000000000000001"
         seed="37"
         numOctaves="3"
         type="fractalNoise"
         id="feTurbulence4546" />
      <feDisplacementMap
         result="fbSourceGraphic"
         xChannelSelector="R"
         yChannelSelector="G"
         scale="6.6"
         in="fbSourceGraphic"
         in2="turbulence"
         id="feDisplacementMap4548" />
      <feColorMatrix
         id="feColorMatrix4670"
         values="0 0 0 -1 0 0 0 0 -1 0 0 0 0 -1 0 0 0 0 1 0"
         in="fbSourceGraphic"
         result="fbSourceGraphicAlpha" />
      <feFlood
         in="fbSourceGraphic"
         result="flood"
         flood-color="rgb(17,52,65)"
         flood-opacity="1"
         id="feFlood4672" />
      <feComposite
         result="composite1"
         operator="in"
         in="flood"
         in2="fbSourceGraphic"
         id="feComposite4674" />
      <feGaussianBlur
         result="blur"
         stdDeviation="0"
         in="composite1"
         id="feGaussianBlur4676" />
      <feOffset
         result="offset"
         dy="6"
         dx="6"
         id="feOffset4678" />
      <feComposite
         result="composite2"
         operator="over"
         in="fbSourceGraphic"
         in2="offset"
         id="feComposite4680" />
    </filter>
    <filter
       x="-0.15000001"
       width="1.3"
       y="-0.15000001"
       height="1.3"
       inkscape:menu-tooltip="Something like a water noise"
       inkscape:menu="Distort"
       inkscape:label="Lapping"
       id="filter3018-3-2-2-2-0-0"
       style="color-interpolation-filters:sRGB">
      <feTurbulence
         result="result1"
         baseFrequency="0.1"
         type="fractalNoise"
         seed="0"
         numOctaves="5"
         id="feTurbulence3020-6-9-0-9-9-6" />
      <feGaussianBlur
         result="result2"
         stdDeviation="2"
         id="feGaussianBlur3022-7-1-2-3-3-2" />
      <feDisplacementMap
         in="SourceGraphic"
         xChannelSelector="R"
         yChannelSelector="B"
         scale="50"
         in2="result2"
         id="feDisplacementMap3024-5-2-3-1-6-6" />
    </filter>
    <filter
       x="-0.15000001"
       width="1.3"
       y="-0.15000001"
       height="1.3"
       inkscape:menu-tooltip="Something like a water noise"
       inkscape:menu="Distort"
       inkscape:label="Lapping"
       id="filter3018-3-2-2-7"
       style="color-interpolation-filters:sRGB">
      <feTurbulence
         result="result1"
         baseFrequency="0.1"
         type="fractalNoise"
         seed="0"
         numOctaves="5"
         id="feTurbulence3020-6-9-0-4" />
      <feGaussianBlur
         result="result2"
         stdDeviation="2"
         id="feGaussianBlur3022-7-1-2-4" />
      <feDisplacementMap
         in="SourceGraphic"
         xChannelSelector="R"
         yChannelSelector="B"
         scale="50"
         in2="result2"
         id="feDisplacementMap3024-5-2-3-3" />
    </filter>
    <filter
       x="-0.15000001"
       width="1.3"
       y="-0.15000001"
       height="1.3"
       inkscape:menu-tooltip="Something like a water noise"
       inkscape:menu="Distort"
       inkscape:label="Lapping"
       id="filter3018-3-2-2-7-3"
       style="color-interpolation-filters:sRGB">
      <feTurbulence
         result="result1"
         baseFrequency="0.1"
         type="fractalNoise"
         seed="0"
         numOctaves="5"
         id="feTurbulence3020-6-9-0-4-7" />
      <feGaussianBlur
         result="result2"
         stdDeviation="2"
         id="feGaussianBlur3022-7-1-2-4-5" />
      <feDisplacementMap
         in="SourceGraphic"
         xChannelSelector="R"
         yChannelSelector="B"
         scale="50"
         in2="result2"
         id="feDisplacementMap3024-5-2-3-3-9" />
    </filter>
    <filter
       x="-0.15000001"
       width="1.3"
       y="-0.15000001"
       height="1.3"
       inkscape:menu-tooltip="Something like a water noise"
       inkscape:menu="Distort"
       inkscape:label="Lapping"
       id="filter3018-3-2-2-2-0-0-2"
       style="color-interpolation-filters:sRGB">
      <feTurbulence
         result="result1"
         baseFrequency="0.1"
         type="fractalNoise"
         seed="0"
         numOctaves="5"
         id="feTurbulence3020-6-9-0-9-9-6-2" />
      <feGaussianBlur
         result="result2"
         stdDeviation="2"
         id="feGaussianBlur3022-7-1-2-3-3-2-8" />
      <feDisplacementMap
         in="SourceGraphic"
         xChannelSelector="R"
         yChannelSelector="B"
         scale="50"
         in2="result2"
         id="feDisplacementMap3024-5-2-3-1-6-6-9" />
    </filter>
    <filter
       x="-0.15000001"
       width="1.3"
       y="-0.15000001"
       height="1.3"
       inkscape:menu-tooltip="Something like a water noise"
       inkscape:menu="Distort"
       inkscape:label="Lapping"
       id="filter3018-3-2-2-2-0-0-7"
       style="color-interpolation-filters:sRGB">
      <feTurbulence
         result="result1"
         baseFrequency="0.1"
         type="fractalNoise"
         seed="0"
         numOctaves="5"
         id="feTurbulence3020-6-9-0-9-9-6-3" />
      <feGaussianBlur
         result="result2"
         stdDeviation="2"
         id="feGaussianBlur3022-7-1-2-3-3-2-6" />
      <feDisplacementMap
         in="SourceGraphic"
         xChannelSelector="R"
         yChannelSelector="B"
         scale="50"
         in2="result2"
         id="feDisplacementMap3024-5-2-3-1-6-6-1" />
    </filter>
    <filter
       x="-0.15000001"
       width="1.3"
       y="-0.15000001"
       height="1.3"
       inkscape:menu-tooltip="Something like a water noise"
       inkscape:menu="Distort"
       inkscape:label="Lapping"
       id="filter3018-3-2-2-2-0-0-7-3"
       style="color-interpolation-filters:sRGB">
      <feTurbulence
         result="result1"
         baseFrequency="0.1"
         type="fractalNoise"
         seed="0"
         numOctaves="5"
         id="feTurbulence3020-6-9-0-9-9-6-3-6" />
      <feGaussianBlur
         result="result2"
         stdDeviation="2"
         id="feGaussianBlur3022-7-1-2-3-3-2-6-7" />
      <feDisplacementMap
         in="SourceGraphic"
         xChannelSelector="R"
         yChannelSelector="B"
         scale="50"
         in2="result2"
         id="feDisplacementMap3024-5-2-3-1-6-6-1-5" />
    </filter>
  </defs>
  <sodipodi:namedview
     inkscape:document-rotation="0"
     inkscape:current-layer="layer1"
     inkscape:window-maximized="0"
     inkscape:window-y="84"
     inkscape:window-x="2090"
     inkscape:cy="2647.9736"
     inkscape:cx="1228.7634"
     inkscape:zoom="0.40916991"
     showgrid="false"
     id="namedview4"
     inkscape:window-height="1013"
     inkscape:window-width="1114"
     inkscape:pageshadow="2"
     inkscape:pageopacity="0"
     guidetolerance="10"
     gridtolerance="10"
     objecttolerance="10"
     borderopacity="1"
     bordercolor="#666666"
     pagecolor="#ffffff" />
  <g
     sodipodi:insensitive="true"
     inkscape:label="artwork"
     id="layer2"
     inkscape:groupmode="layer">
    <image
       sodipodi:absref="C:\Users\stero\Documents\Kernewek\Pepper and Carrot\webcomics\ep29_Destroyer-of-Worlds\lang\gfx_Pepper-and-Carrot_by-David-Revoy_E29P06.png"
       xlink:href="../gfx_Pepper-and-Carrot_by-David-Revoy_E29P06.png"
       width="2481"
       height="3503"
       id="image10"
       x="0"
       y="0" />
  </g>
  <g
     sodipodi:insensitive="true"
     inkscape:label="notes"
     id="layer4"
     inkscape:groupmode="layer">
    <path
       sodipodi:nodetypes="cccccccccccc"
       inkscape:connector-curvature="0"
       id="path337"
       d="m -597.49683,151.30024 -1.18601,486.31242 h 423.63672 l 1.18601,-354.19182 h 13.92383 v 21.7559 l 43.13866,-37.5527 -43.13866,-37.5508 v 23.1269 h -13.92383 v -101.8999 z"
       style="color:#000000;clip-rule:nonzero;display:inline;overflow:visible;visibility:visible;opacity:0.5;isolation:auto;mix-blend-mode:normal;color-interpolation:sRGB;color-interpolation-filters:linearRGB;solid-color:#000000;solid-opacity:1;fill:#ffe680;fill-opacity:1;fill-rule:nonzero;stroke:#565656;stroke-width:1.20000005;stroke-linecap:butt;stroke-linejoin:miter;stroke-miterlimit:4;stroke-dasharray:none;stroke-dashoffset:0;stroke-opacity:1;marker:none;color-rendering:auto;image-rendering:auto;shape-rendering:auto;text-rendering:auto;enable-background:accumulate" />
    <flowRoot
       transform="matrix(1.3923338,0,0,1.391772,-193.97202,-1254.175)"
       style="font-style:normal;font-variant:normal;font-weight:normal;font-stretch:normal;line-height:0.01%;font-family:Lavi;-inkscape-font-specification:'Lavi, Normal';text-align:center;letter-spacing:0px;word-spacing:0px;writing-mode:lr-tb;text-anchor:middle;display:inline;opacity:0.5;fill:#000000;fill-opacity:1;stroke:none;stroke-width:0.718364px;stroke-linecap:butt;stroke-linejoin:miter;stroke-opacity:1"
       id="flowRoot353"
       xml:space="preserve"><flowRegion
         style="stroke-width:0.718364px"
         id="flowRegion341"><rect
           style="stroke-width:0.71836352px"
           y="1061.6674"
           x="-275.14545"
           height="311.33582"
           width="271.92325"
           id="rect339" /></flowRegion><flowPara
         id="flowPara577"
         style="font-size:25.3242px;line-height:1.25;stroke-width:0.718364px">We have a patch for the artwork in case your text is too short or is not easily split in two words.</flowPara><flowPara
         id="flowPara581"
         style="font-size:25.3242px;line-height:1.25;stroke-width:0.718364px">Ask David or Midgard for more information.</flowPara><flowPara
         id="flowPara585"
         style="font-size:25.3242px;line-height:1.25;stroke-width:0.718364px">Look at the Korean version for an example.</flowPara></flowRoot>
    <flowRoot
       transform="matrix(1.3923338,0,0,1.391772,-209.31167,-1300.8461)"
       style="font-style:normal;font-variant:normal;font-weight:normal;font-stretch:normal;line-height:0.01%;font-family:Lavi;-inkscape-font-specification:'Lavi, Normal';text-align:center;letter-spacing:0px;word-spacing:0px;writing-mode:lr-tb;text-anchor:middle;display:inline;opacity:0.5;fill:#000000;fill-opacity:1;stroke:none;stroke-width:0.718364px;stroke-linecap:butt;stroke-linejoin:miter;stroke-opacity:1"
       id="flowRoot361"
       xml:space="preserve"><flowRegion
         style="stroke-width:0.718364px"
         id="flowRegion357"><rect
           style="stroke-width:0.71836352px"
           y="1061.6674"
           x="-275.14545"
           height="323.61441"
           width="294.12939"
           id="rect355" /></flowRegion><flowPara
         id="flowPara359"
         style="font-style:normal;font-variant:normal;font-weight:bold;font-stretch:normal;font-size:18.6667px;line-height:1.25;font-family:Lavi;-inkscape-font-specification:'Lavi Bold';stroke-width:0.718364px">NOTE FOR TRANSLATORS</flowPara></flowRoot>
  </g>
  <g
     style="display:inline"
     inkscape:label="speechbubbles"
     id="layer3"
     inkscape:groupmode="layer">
    <path
       sodipodi:nodetypes="cccccccccccsc"
       inkscape:connector-curvature="0"
       id="path5050-7"
       d="m 490.02329,1586.1359 c 15.26837,22.189 6.34797,39.8471 37.08883,52.6446 6.03697,1.9489 55.93486,-11.0226 61.84821,-4.5203 5.91316,6.5024 1.39834,30.1005 6.30397,32.9371 4.90553,2.836 35.37366,-4.7283 39.65164,0.8285 4.27807,5.557 10.24957,43.9544 14.44186,45.8647 4.19268,1.91 26.79005,12.4062 41.9726,30.9485 -44.90002,-18.2522 -56.29804,-13.0227 -62.2114,-19.5252 -5.9134,-6.5024 -6.51303,-32.0301 -13.97575,-35.831 -7.46282,-3.8012 -36.79978,2.8758 -42.5039,-4.5335 -5.70417,-7.4093 -4.49745,-24.6981 -4.49745,-24.6981 -8.84099,6.1942 -58.45479,32.495 -94.89442,1.6618 -36.43945,-30.833 16.77581,-75.7771 16.77581,-75.7771 z"
       style="color:#000000;display:inline;overflow:visible;visibility:visible;opacity:1;fill:#0f0f0f;fill-opacity:1;fill-rule:nonzero;stroke:none;stroke-width:1px;marker:none;enable-background:accumulate" />
    <path
       transform="matrix(1.0376604,0,0,0.94190613,-68.95559,1285.5585)"
       sodipodi:nodetypes="csssssc"
       inkscape:connector-curvature="0"
       id="path3986-3-7-0"
       d="m 221.57753,313.26006 c 0,-34.10345 15.56174,-63.18396 77.22883,-74.79854 63.43711,-11.94796 201.5137,-12.30562 273.17588,9.11318 46.52639,13.90606 59.85292,26.90855 61.27853,49.2749 1.42551,22.36634 -4.16263,118.88473 -65.17701,131.87948 -92.13792,19.62339 -236.3427,18.83134 -293.36465,-4.91403 -39.13448,-16.29658 -50.29045,-83.40689 -53.14158,-110.55499 z"
       style="color:#000000;display:inline;overflow:visible;visibility:visible;opacity:1;fill:#0f0f0f;fill-opacity:1;fill-rule:nonzero;stroke:none;stroke-width:1.03416967px;marker:none;filter:url(#filter3018-3-2-2-7-3);enable-background:accumulate" />
    <path
       inkscape:connector-curvature="0"
       id="path3060-5-7-4-8"
       d="m 393.89937,1622.0425 c 2.8076,36.5266 -11.3531,47.358 -7.5295,55.3048 3.8237,7.9469 15.8815,11.5559 18.3467,1.8286 2.4651,-9.7273 -8.7342,-30.033 -4.1662,-54.2007"
       style="display:inline;opacity:1;fill:#0f0f0f;fill-opacity:1;stroke:none" />
    <path
       inkscape:connector-curvature="0"
       id="path5066"
       d="m 1754.5379,1713.1659 c -50.2439,22.6943 -105.4338,53.6701 -117.499,61.8858 19.7391,5.9092 35.7263,13.6053 48.3459,19.4483 -24.3655,13.8263 -143.1436,73.3581 -179.3183,78.4862 90.1488,-10.0908 185.0305,-50.5866 222.2712,-75.4838 -14.7509,-9.7665 -25.473,-14.2907 -33.0617,-19.5662 17.6719,-13.1081 88.3374,-46.0221 88.3374,-46.0221 z"
       style="color:#000000;display:inline;overflow:visible;visibility:visible;fill:#0f0f0f;fill-opacity:1;fill-rule:nonzero;stroke:none;stroke-width:0.99999994px;marker:none;enable-background:accumulate" />
    <path
       transform="matrix(1.7700275,-0.12825112,0.07309446,1.1566532,1126.6023,1240.7873)"
       sodipodi:nodetypes="ccsccssssssssccsssssssc"
       inkscape:connector-curvature="0"
       id="path3986-3-7-9-1"
       d="m 530.69736,278.70746 c 9.36219,4.74935 17.10811,38.80583 17.10811,38.80583 0,0 87.05622,-38.47488 90.6576,-31.16169 3.60137,7.31318 -28.43982,73.57674 -25.46473,80.77746 67.15103,45.2379 -3.25866,15.84139 -1.88545,78.74196 1.04105,16.39749 25.04418,1.67029 20.28187,8.80435 -9.52464,14.26814 -48.67154,12.32861 -63.98825,16.42621 -23.1298,6.18781 10.11111,29.48579 -15.79539,29.50041 -15.18394,0.008 -47.38183,-37.4381 -67.63527,-31.81946 -20.25345,5.61865 -57.73853,22.40555 -73.30191,22.11413 -31.12676,-0.58283 2.28445,-17.99719 -23.53733,-22.22156 -25.82177,-4.22435 -81.21285,28.99749 -95.52734,20.96082 -9.82411,-5.51561 20.72377,-32.22522 14.50806,-43.76438 -6.21572,-11.53915 -23.42792,-2.20964 -58.9506,-16.61752 31.09758,-35.56557 49.42065,-36.39842 26.75549,-80.75546 0.0119,-18.97747 24.93227,10.01403 28.19362,-1.25175 3.26136,-11.26578 10.27468,-15.23794 -19.17797,-47.72292 -7.07369,-7.80197 73.15934,23.44963 84.27293,21.87475 11.11359,-1.57488 -1.3251,-41.29004 15.68324,-40.88571 8.50416,0.20218 22.74667,40.65025 32.93017,40.98894 10.18348,0.3387 17.55226,-44.00603 29.55216,-43.76965 11.9999,0.23637 25.48255,38.84364 39.43595,38.73884 13.95339,-0.10486 29.84106,-37.07875 45.88504,-37.7636 z"
       style="color:#000000;display:inline;overflow:visible;visibility:visible;opacity:1;fill:#0f0f0f;fill-opacity:1;fill-rule:nonzero;stroke:none;stroke-width:0.71291798px;marker:none;filter:url(#filter3018-3-2-2-2-0-0-2);enable-background:accumulate" />
    <path
       sodipodi:nodetypes="cccccccccc"
       inkscape:connector-curvature="0"
       id="path1019"
       d="m 523.91315,2613.4319 c 8.39349,-44.7292 19.17188,-68.0053 26.62554,-121.8754 0.45053,-21.5106 -20.6949,-4.0891 -32.17325,0.2075 -0.65981,-15.1245 -1.23466,-39.6999 -3.18751,-54.6711 -12.66239,-5.6207 -21.75296,1.1988 -23.91668,9.6284 3.41544,13.5272 3.10121,30.3389 6.29894,53.5596 3.64236,12.3597 2.29841,13.3203 16.09879,12.5908 9.28978,-7.2644 22.56548,-15.9401 16.9081,3.4038 -1.57538,35.3239 -4.56364,67.0497 -6.65393,97.1568 z"
       style="display:inline;fill:#0f0f0f;fill-opacity:1;fill-rule:evenodd;stroke:#000000;stroke-width:1px;stroke-linecap:butt;stroke-linejoin:miter;stroke-opacity:1" />
    <path
       transform="matrix(0.00268324,0.90660386,-0.86670873,0.00231264,878.52637,1902.6917)"
       sodipodi:nodetypes="ccsccssssssssccsssssssc"
       inkscape:connector-curvature="0"
       id="path3986-3-7-9-1-2"
       d="m 565.21491,338.39349 c 7.26852,3.68882 23.75119,23.75342 23.75119,23.75342 0,0 22.26875,-19.71047 24.50764,-14.02343 2.23888,5.68705 3.74357,40.59817 5.59266,46.19803 4.20371,55.65748 -5.87148,18.72445 -5.04162,67.65286 0.64153,12.75477 -0.44383,22.28805 2.64387,27.75949 36.80808,65.22432 -20.33491,9.60589 -29.87089,12.80069 -14.40031,4.82448 -11.34652,12.70961 -27.47281,12.73344 -9.45171,0.0135 -11.85062,-18.87761 -24.46021,-14.49724 -12.60961,4.38038 -26.92688,29.57548 -36.61467,29.35627 -19.37556,-0.43839 -7.59394,-26.11962 -23.66582,-29.39325 -16.07187,-3.27361 -21.42978,21.29367 -30.33708,15.049 -6.11314,-4.28575 -11.78018,-36.60856 -20.0868,-32.74845 -56.57869,26.29225 3.49416,-26.44097 1.32429,-37.42705 7.52093,-50.92761 -9.60988,6.73528 -9.82951,-44.91787 0.0149,-14.76219 -13.27531,-15.24936 -11.24072,-24.01435 2.0346,-8.76499 18.03154,-13.97656 22.93818,-18.2314 4.90663,-4.25483 9.93331,-7.26817 18.56442,-8.49991 8.63113,-1.23174 -1.92914,-30.7619 11.27889,-30.45759 6.60401,0.15217 20.86357,32.80848 28.77165,33.06582 7.90806,0.25736 10.57407,-20.16567 19.89276,-19.98899 9.31868,0.17666 15.80333,21.36128 26.63918,21.27139 10.83586,-0.0899 20.25583,-14.89851 32.7154,-15.44088 z"
       style="color:#000000;display:inline;overflow:visible;visibility:visible;opacity:1;fill:#0f0f0f;fill-opacity:1;fill-rule:nonzero;stroke:none;stroke-width:1.15338993px;marker:none;filter:url(#filter3018-3-2-2-2-0-0-7-3);enable-background:accumulate" />
  </g>
  <g
     inkscape:label="txt"
     id="layer1"
     inkscape:groupmode="layer">
    <text
       transform="matrix(1.1524625,-0.01109236,-0.06376066,1.4044507,-765.00102,-4156.2122)"
       x="1318.7137"
       y="3129.8394"
       xml:space="preserve"
       style="font-style:normal;font-variant:normal;font-weight:normal;font-stretch:normal;line-height:0%;font-family:Lavi;-inkscape-font-specification:Lavi;text-align:center;letter-spacing:0px;word-spacing:0px;text-anchor:middle;opacity:0.757;fill:#361e1b;fill-opacity:1;stroke:#000000;stroke-width:0.9554;stroke-opacity:1;filter:url(#filter5236)"
       id="text4178-6-5-9-0-7"><tspan
         id="tspan4293-1-6-3-5"
         sodipodi:role="line"
         style="font-style:normal;font-variant:normal;font-weight:normal;font-stretch:normal;font-size:40.6767px;line-height:1.25;font-family:Fondamento;-inkscape-font-specification:Fondamento;fill:#361e1b;fill-opacity:1;stroke:#000000;stroke-width:0.9554;stroke-opacity:1"
         x="1318.7137"
         y="3129.8394">GWITHVA</tspan></text>
    <text
       transform="matrix(1.1524625,-0.01109236,-0.06376066,1.4044507,-765.29844,-4019.5899)"
       x="1318.7137"
       y="3129.8394"
       xml:space="preserve"
       style="font-style:normal;font-variant:normal;font-weight:normal;font-stretch:normal;line-height:0%;font-family:Lavi;-inkscape-font-specification:Lavi;text-align:center;letter-spacing:0px;word-spacing:0px;text-anchor:middle;opacity:0.757;fill:#361e1b;fill-opacity:1;stroke:#000000;stroke-width:1.17929;stroke-miterlimit:4;stroke-dasharray:none;stroke-opacity:1;filter:url(#filter5236)"
       id="text4178-6-5-9-0-7-7"><tspan
         id="tspan4293-1-6-3-5-5"
         sodipodi:role="line"
         style="font-style:normal;font-variant:normal;font-weight:normal;font-stretch:normal;font-size:40.6767px;line-height:1.25;font-family:Fondamento;-inkscape-font-specification:Fondamento;fill:#361e1b;fill-opacity:1;stroke:#000000;stroke-width:1.17929;stroke-miterlimit:4;stroke-dasharray:none;stroke-opacity:1"
         x="1318.7137"
         y="3129.8394">DANWEYTH</tspan></text>
    <text
       transform="matrix(0.75533655,-0.41838401,-0.12119702,1.1949739,-12.169397,-566.98589)"
       id="text4580-6-0-0-3"
       y="1584.5073"
       x="787.65729"
       style="font-style:normal;font-variant:normal;font-weight:normal;font-stretch:normal;line-height:0%;font-family:Lavi;-inkscape-font-specification:Lavi;letter-spacing:0px;word-spacing:0px;fill:#fff4bf;fill-opacity:1;stroke:#98b9ca;stroke-width:0.739454;stroke-miterlimit:4;stroke-dasharray:none;stroke-opacity:1;filter:url(#filter4375-4-1-1-1-9-5-8-8-3)"
       xml:space="preserve"><tspan
         style="font-size:70px;line-height:1.25;fill:#fff4bf;fill-opacity:1;stroke:#98b9ca;stroke-width:0.739454;stroke-opacity:1"
         y="1584.5073"
         x="787.65729"
         id="tspan4582-1-1-0-6"
         sodipodi:role="line"><tspan
           id="tspan4315-8-9-0"
           style="font-size:93.1495px;fill:#fff4bf;fill-opacity:1;stroke:#98b9ca;stroke-width:0.739454;stroke-opacity:1">Shr<tspan
   id="tspan4176-6"
   style="font-size:120.16px;fill:#fff4bf;fill-opacity:1;stroke-width:0.739454">rOuf</tspan>!</tspan><tspan
           id="tspan4313-2-0-2"
           style="font-size:114.732px;fill:#fff4bf;fill-opacity:1;stroke:#98b9ca;stroke-width:0.739454;stroke-opacity:1">!</tspan></tspan></text>
    <text
       transform="matrix(0.68954894,-0.33307498,-0.11064111,0.95131722,947.09845,-754.34851)"
       id="text4580-6-0-0-3-2"
       y="1584.5073"
       x="787.65729"
       style="font-style:normal;font-variant:normal;font-weight:normal;font-stretch:normal;line-height:0%;font-family:Lavi;-inkscape-font-specification:Lavi;letter-spacing:0px;word-spacing:0px;fill:#fff4bf;fill-opacity:1;stroke:#98b9ca;stroke-width:0.867392;stroke-miterlimit:4;stroke-dasharray:none;stroke-opacity:1;filter:url(#filter4375-4-1-1-1-9-5-8-8-3-3)"
       xml:space="preserve"><tspan
         style="font-size:70px;line-height:1.25;fill:#fff4bf;fill-opacity:1;stroke:#98b9ca;stroke-width:0.867392;stroke-opacity:1"
         y="1584.5073"
         x="787.65729"
         id="tspan4582-1-1-0-6-6"
         sodipodi:role="line"><tspan
           id="tspan4315-8-9-0-1"
           style="font-size:93.1495px;fill:#fff4bf;fill-opacity:1;stroke:#98b9ca;stroke-width:0.867392;stroke-opacity:1">Shr<tspan
   id="tspan4176-6-8"
   style="font-size:120.16px;fill:#fff4bf;fill-opacity:1;stroke-width:0.867392">r</tspan>!</tspan><tspan
           id="tspan4313-2-0-2-7"
           style="font-size:114.732px;fill:#fff4bf;fill-opacity:1;stroke:#98b9ca;stroke-width:0.867392;stroke-opacity:1">!</tspan></tspan></text>
    <text
       transform="matrix(1.7205467,-1.0481351,0.33812333,2.9936474,46.98679,-2819.4357)"
       id="text4580-6-0-0"
       y="1584.5073"
       x="787.65729"
       style="font-style:normal;font-variant:normal;font-weight:normal;font-stretch:normal;line-height:0%;font-family:Lavi;-inkscape-font-specification:Lavi;letter-spacing:0px;word-spacing:0px;fill:#ffeed6;fill-opacity:1;stroke:#ffe260;stroke-width:0.290886;stroke-miterlimit:4;stroke-dasharray:none;stroke-opacity:1;filter:url(#filter4375-4-1-1-1-9-5-8-8)"
       xml:space="preserve"><tspan
         style="font-style:normal;font-variant:normal;font-weight:bold;font-stretch:normal;font-size:70px;line-height:1.25;font-family:Lavi;-inkscape-font-specification:'Lavi Bold';fill:#ffeed6;fill-opacity:1;stroke:#ffe260;stroke-width:0.290886;stroke-opacity:1"
         y="1584.5073"
         x="787.65729"
         id="tspan4582-1-1-0"
         sodipodi:role="line">BOUM!</tspan></text>
    <text
       transform="matrix(1.0463903,0.12234453,-1.0325977,1.4200598,2552.2348,100.47155)"
       id="text4580-6-0"
       y="1584.5073"
       x="787.65729"
       style="font-style:normal;font-variant:normal;font-weight:normal;font-stretch:normal;line-height:0%;font-family:Lavi;-inkscape-font-specification:Lavi;letter-spacing:0px;word-spacing:0px;fill:#ffffff;fill-opacity:1;stroke:#98b9ca;stroke-width:0.643953;stroke-miterlimit:4;stroke-dasharray:none;stroke-opacity:1;filter:url(#filter4375-4-1-1-1-9-5-8)"
       xml:space="preserve"><tspan
         style="font-size:70px;line-height:1.25;fill:#ffffff;fill-opacity:1;stroke:#98b9ca;stroke-width:0.643953;stroke-opacity:1"
         y="1584.5073"
         x="787.65729"
         id="tspan4582-1-1"
         sodipodi:role="line"><tspan
           id="tspan4315-8"
           style="font-size:93.1495px;fill:#ffffff;fill-opacity:1;stroke:#98b9ca;stroke-width:0.643953;stroke-opacity:1">Fyzzz!</tspan><tspan
           id="tspan4313-2"
           style="font-size:114.732px;fill:#ffffff;fill-opacity:1;stroke:#98b9ca;stroke-width:0.643953;stroke-opacity:1">!</tspan></tspan></text>
    <flowRoot
       transform="matrix(1.5269683,-0.12692099,-0.43569281,1.9485357,1427.3361,1120.5083)"
       style="font-style:normal;font-variant:normal;font-weight:normal;font-stretch:normal;line-height:0.01%;font-family:Lavi;-inkscape-font-specification:Lavi;text-align:center;letter-spacing:0px;word-spacing:0px;text-anchor:middle;display:inline;opacity:1;fill:#000000;fill-opacity:1;stroke:none;stroke-width:0.668359"
       id="flowRoot2987-4-9-3-6-6-2-8-3"
       xml:space="preserve"><flowRegion
         style="stroke-width:0.668359"
         id="flowRegion2989-5-4-5-0-1-8-4-6"><rect
           style="font-style:normal;font-variant:normal;font-weight:normal;font-stretch:normal;font-family:Lavi;-inkscape-font-specification:Lavi;text-align:center;text-anchor:middle;stroke-width:0.66835856"
           y="265.53046"
           x="120.55251"
           height="407.77811"
           width="615.85046"
           id="rect2991-7-9-6-6-8-9-5-7" /></flowRegion><flowPara
         id="flowPara897"
         style="font-style:normal;font-variant:normal;font-weight:800;font-stretch:normal;font-size:48px;line-height:1.25;font-family:'Drukaatie burti';-inkscape-font-specification:'Drukaatie burti Ultra-Bold';text-align:center;text-anchor:middle;fill:#ffffff;fill-opacity:1;stroke-width:0.668359">YN-RAG!!!</flowPara></flowRoot>
    <circle
       r="8.5762987"
       cy="1477.5642"
       cx="2112.6282"
       id="path1263"
       style="color:#000000;clip-rule:nonzero;display:inline;overflow:visible;visibility:visible;opacity:1;isolation:auto;mix-blend-mode:normal;color-interpolation:sRGB;color-interpolation-filters:linearRGB;solid-color:#000000;solid-opacity:1;vector-effect:none;fill:#000000;fill-opacity:0.98870057;fill-rule:nonzero;stroke:none;stroke-width:1.5;stroke-linecap:butt;stroke-linejoin:miter;stroke-miterlimit:4;stroke-dasharray:none;stroke-dashoffset:0;stroke-opacity:1;marker:none;paint-order:stroke fill markers;color-rendering:auto;image-rendering:auto;shape-rendering:auto;text-rendering:auto;enable-background:accumulate" />
    <ellipse
       ry="6.4322238"
       rx="7.8616071"
       cy="1589.7708"
       cx="2306.3096"
       id="path1265"
       style="color:#000000;clip-rule:nonzero;display:inline;overflow:visible;visibility:visible;opacity:1;isolation:auto;mix-blend-mode:normal;color-interpolation:sRGB;color-interpolation-filters:linearRGB;solid-color:#000000;solid-opacity:1;vector-effect:none;fill:#000000;fill-opacity:0.98870072;fill-rule:nonzero;stroke:none;stroke-width:1.5;stroke-linecap:butt;stroke-linejoin:miter;stroke-miterlimit:4;stroke-dasharray:none;stroke-dashoffset:0;stroke-opacity:1;marker:none;paint-order:stroke fill markers;color-rendering:auto;image-rendering:auto;shape-rendering:auto;text-rendering:auto;enable-background:accumulate" />
    <ellipse
       ry="7.8616071"
       rx="7.1469154"
       cy="1754.1498"
       cx="2159.7979"
       id="path1267"
       style="color:#000000;clip-rule:nonzero;display:inline;overflow:visible;visibility:visible;opacity:1;isolation:auto;mix-blend-mode:normal;color-interpolation:sRGB;color-interpolation-filters:linearRGB;solid-color:#000000;solid-opacity:1;vector-effect:none;fill:#000000;fill-opacity:0.98870072;fill-rule:nonzero;stroke:none;stroke-width:1.5;stroke-linecap:butt;stroke-linejoin:miter;stroke-miterlimit:4;stroke-dasharray:none;stroke-dashoffset:0;stroke-opacity:1;marker:none;paint-order:stroke fill markers;color-rendering:auto;image-rendering:auto;shape-rendering:auto;text-rendering:auto;enable-background:accumulate" />
    <circle
       r="6.4322238"
       cy="1752.7205"
       cx="1854.6245"
       id="path1269"
       style="color:#000000;clip-rule:nonzero;display:inline;overflow:visible;visibility:visible;opacity:1;isolation:auto;mix-blend-mode:normal;color-interpolation:sRGB;color-interpolation-filters:linearRGB;solid-color:#000000;solid-opacity:1;vector-effect:none;fill:#000000;fill-opacity:0.98870072;fill-rule:nonzero;stroke:none;stroke-width:1.5;stroke-linecap:butt;stroke-linejoin:miter;stroke-miterlimit:4;stroke-dasharray:none;stroke-dashoffset:0;stroke-opacity:1;marker:none;paint-order:stroke fill markers;color-rendering:auto;image-rendering:auto;shape-rendering:auto;text-rendering:auto;enable-background:accumulate" />
    <ellipse
       ry="10.005682"
       rx="10.720373"
       cy="1720.5593"
       cx="1641.6465"
       id="path1271"
       style="color:#000000;clip-rule:nonzero;display:inline;overflow:visible;visibility:visible;opacity:1;isolation:auto;mix-blend-mode:normal;color-interpolation:sRGB;color-interpolation-filters:linearRGB;solid-color:#000000;solid-opacity:1;vector-effect:none;fill:#000000;fill-opacity:0.98870072;fill-rule:nonzero;stroke:none;stroke-width:1.5;stroke-linecap:butt;stroke-linejoin:miter;stroke-miterlimit:4;stroke-dasharray:none;stroke-dashoffset:0;stroke-opacity:1;marker:none;paint-order:stroke fill markers;color-rendering:auto;image-rendering:auto;shape-rendering:auto;text-rendering:auto;enable-background:accumulate" />
    <ellipse
       ry="6.2228155"
       rx="6.9375067"
       cy="1721.27"
       cx="1620.688"
       id="path1271-9"
       style="color:#000000;clip-rule:nonzero;display:inline;overflow:visible;visibility:visible;opacity:1;isolation:auto;mix-blend-mode:normal;color-interpolation:sRGB;color-interpolation-filters:linearRGB;solid-color:#000000;solid-opacity:1;vector-effect:none;fill:#000000;fill-opacity:0.98870084;fill-rule:nonzero;stroke:none;stroke-width:1.5;stroke-linecap:butt;stroke-linejoin:miter;stroke-miterlimit:4;stroke-dasharray:none;stroke-dashoffset:0;stroke-opacity:1;marker:none;paint-order:stroke fill markers;color-rendering:auto;image-rendering:auto;shape-rendering:auto;text-rendering:auto;enable-background:accumulate" />
    <ellipse
       ry="5.3338418"
       rx="5.8742514"
       cy="1489.4343"
       cx="2098.4099"
       id="path1263-2"
       style="color:#000000;clip-rule:nonzero;display:inline;overflow:visible;visibility:visible;opacity:1;isolation:auto;mix-blend-mode:normal;color-interpolation:sRGB;color-interpolation-filters:linearRGB;solid-color:#000000;solid-opacity:1;vector-effect:none;fill:#000000;fill-opacity:0.98870084;fill-rule:nonzero;stroke:none;stroke-width:1.5;stroke-linecap:butt;stroke-linejoin:miter;stroke-miterlimit:4;stroke-dasharray:none;stroke-dashoffset:0;stroke-opacity:1;marker:none;paint-order:stroke fill markers;color-rendering:auto;image-rendering:auto;shape-rendering:auto;text-rendering:auto;enable-background:accumulate" />
    <ellipse
       ry="3.7301764"
       rx="4.6191502"
       cy="1585.2075"
       cx="2323.9109"
       id="path1265-0"
       style="color:#000000;clip-rule:nonzero;display:inline;overflow:visible;visibility:visible;opacity:1;isolation:auto;mix-blend-mode:normal;color-interpolation:sRGB;color-interpolation-filters:linearRGB;solid-color:#000000;solid-opacity:1;vector-effect:none;fill:#000000;fill-opacity:0.98870084;fill-rule:nonzero;stroke:none;stroke-width:1.5;stroke-linecap:butt;stroke-linejoin:miter;stroke-miterlimit:4;stroke-dasharray:none;stroke-dashoffset:0;stroke-opacity:1;marker:none;paint-order:stroke fill markers;color-rendering:auto;image-rendering:auto;shape-rendering:auto;text-rendering:auto;enable-background:accumulate" />
    <ellipse
       ry="3.7301764"
       rx="4.6191502"
       cy="1736.2473"
       cx="2018.8811"
       id="path1265-0-2"
       style="color:#000000;clip-rule:nonzero;display:inline;overflow:visible;visibility:visible;opacity:1;isolation:auto;mix-blend-mode:normal;color-interpolation:sRGB;color-interpolation-filters:linearRGB;solid-color:#000000;solid-opacity:1;vector-effect:none;fill:#000000;fill-opacity:0.98870084;fill-rule:nonzero;stroke:none;stroke-width:1.5;stroke-linecap:butt;stroke-linejoin:miter;stroke-miterlimit:4;stroke-dasharray:none;stroke-dashoffset:0;stroke-opacity:1;marker:none;paint-order:stroke fill markers;color-rendering:auto;image-rendering:auto;shape-rendering:auto;text-rendering:auto;enable-background:accumulate" />
    <flowRoot
       transform="matrix(1.1000385,0,0,1.1857741,-98.287925,1221.1219)"
       style="font-style:normal;font-variant:normal;font-weight:normal;font-stretch:normal;line-height:0.01%;font-family:Lavi;-inkscape-font-specification:Lavi;text-align:center;letter-spacing:0px;word-spacing:0px;text-anchor:middle;opacity:1;fill:#000000;fill-opacity:1;stroke:none"
       id="flowRoot2987-4-9-3-6-6-2-8-6-5"
       xml:space="preserve"><flowRegion
         id="flowRegion2989-5-4-5-0-1-8-4-1-2"><rect
           style="font-style:normal;font-variant:normal;font-weight:normal;font-stretch:normal;font-family:Lavi;-inkscape-font-specification:Lavi;text-align:center;text-anchor:middle"
           y="265.53046"
           x="120.55251"
           height="407.77811"
           width="615.85046"
           id="rect2991-7-9-6-6-8-9-5-5-5" /></flowRegion><flowPara
         id="flowPara1513"
         style="font-style:normal;font-variant:normal;font-weight:normal;font-stretch:normal;font-size:48px;line-height:1.25;font-family:'Drukaatie burti';-inkscape-font-specification:'Drukaatie burti';text-align:center;text-anchor:middle;fill:#ffffff;fill-opacity:1">Mwaha<flowSpan
   id="flowSpan949"
   style="font-size:42.0278px">HA</flowSpan>HA!</flowPara><flowPara
         id="flowPara1426"
         style="font-style:normal;font-variant:normal;font-weight:normal;font-stretch:normal;font-size:48px;line-height:1.25;font-family:'Drukaatie burti';-inkscape-font-specification:'Drukaatie burti';text-align:center;text-anchor:middle;fill:#ffffff;fill-opacity:1">Wortiwedh!</flowPara></flowRoot>
    <flowRoot
       transform="matrix(1.5426388,0,-0.42077579,1.7468085,-25.556772,1867.6591)"
       style="font-style:normal;font-variant:normal;font-weight:normal;font-stretch:normal;line-height:0.01%;font-family:Lavi;-inkscape-font-specification:Lavi;text-align:center;letter-spacing:0px;word-spacing:0px;text-anchor:middle;display:inline;opacity:1;fill:#000000;fill-opacity:1;stroke:none;stroke-width:0.695745"
       id="flowRoot2987-4-9-3-6-6-2-8-3-9"
       xml:space="preserve"><flowRegion
         style="stroke-width:0.695745"
         id="flowRegion2989-5-4-5-0-1-8-4-6-3"><rect
           style="font-style:normal;font-variant:normal;font-weight:normal;font-stretch:normal;font-family:Lavi;-inkscape-font-specification:Lavi;text-align:center;text-anchor:middle;stroke-width:0.69574511"
           y="265.53046"
           x="120.55251"
           height="407.77811"
           width="615.85046"
           id="rect2991-7-9-6-6-8-9-5-7-1" /></flowRegion><flowPara
         id="flowPara897-9"
         style="font-style:normal;font-variant:normal;font-weight:800;font-stretch:normal;font-size:48px;line-height:1.25;font-family:'Drukaatie burti';-inkscape-font-specification:'Drukaatie burti Ultra-Bold';text-align:center;text-anchor:middle;fill:#ffffff;fill-opacity:1;stroke-width:0.695745">!?</flowPara></flowRoot>
  </g>
</svg>
