<?xml version="1.0" encoding="UTF-8" standalone="no"?>
<!-- Created with Inkscape (http://www.inkscape.org/) -->

<svg
   id="svg2"
   version="1.1"
   inkscape:version="1.2.1 (9c6d41e410, 2022-07-14)"
   width="2481"
   height="3503"
   sodipodi:docname="E32P07.svg"
   xmlns:inkscape="http://www.inkscape.org/namespaces/inkscape"
   xmlns:sodipodi="http://sodipodi.sourceforge.net/DTD/sodipodi-0.dtd"
   xmlns:xlink="http://www.w3.org/1999/xlink"
   xmlns="http://www.w3.org/2000/svg"
   xmlns:svg="http://www.w3.org/2000/svg"
   xmlns:rdf="http://www.w3.org/1999/02/22-rdf-syntax-ns#"
   xmlns:cc="http://creativecommons.org/ns#"
   xmlns:dc="http://purl.org/dc/elements/1.1/">
  <metadata
     id="metadata8">
    <rdf:RDF>
      <cc:Work
         rdf:about="">
        <dc:format>image/svg+xml</dc:format>
        <dc:type
           rdf:resource="http://purl.org/dc/dcmitype/StillImage" />
        <dc:title />
      </cc:Work>
    </rdf:RDF>
  </metadata>
  <defs
     id="defs6" />
  <sodipodi:namedview
     pagecolor="#ffffff"
     bordercolor="#666666"
     borderopacity="1"
     objecttolerance="10"
     gridtolerance="10"
     guidetolerance="10"
     inkscape:pageopacity="0"
     inkscape:pageshadow="2"
     inkscape:window-width="1261"
     inkscape:window-height="1388"
     id="namedview4"
     showgrid="false"
     inkscape:zoom="0.46000002"
     inkscape:cx="1257.6086"
     inkscape:cy="2198.9129"
     inkscape:window-x="1283"
     inkscape:window-y="36"
     inkscape:window-maximized="1"
     inkscape:current-layer="layer1"
     inkscape:showpageshadow="2"
     inkscape:pagecheckerboard="0"
     inkscape:deskcolor="#d1d1d1" />
  <g
     inkscape:groupmode="layer"
     id="layer2"
     inkscape:label="artwork"
     sodipodi:insensitive="true">
    <image
       xlink:href="../gfx_Pepper-and-Carrot_by-David-Revoy_E32P07.png"
       y="0"
       x="0"
       id="image10"
       height="3503"
       width="2481" />
  </g>
  <g
     inkscape:groupmode="layer"
     id="layer3"
     inkscape:label="speechbubbles" />
  <g
     inkscape:groupmode="layer"
     id="layer1"
     inkscape:label="txt">
    <path
       style="color:#000000;display:inline;overflow:visible;visibility:visible;opacity:1;fill:#ffffff;fill-opacity:1;fill-rule:nonzero;stroke:none;stroke-width:1px;marker:none;enable-background:accumulate"
       d="m 1056.8386,2202.0169 c -10.399,3.1097 -19.0647,10.6359 -24.862,19.6711 -4.6138,7.2893 -17.2509,15.4965 -15.9508,24.1556 0.9045,6.2645 3.4885,12.2114 7.0602,17.4088 4.9823,4.1786 10.7717,7.2309 16.4747,10.2898 13.956,7.1808 39.0329,12.0634 54.1262,16.1118 11.6919,3.244 23.3837,6.488 35.0756,9.732 5.0949,3.3041 6.8782,10.3837 4.7324,15.9258 -2.5523,8.028 -5.7927,15.981 -6.4238,24.4649 0.469,8.3691 7.2362,15.6672 15.3278,17.4183 23.1263,6.8834 46.95,10.9935 70.7295,14.8666 16.8553,2.5917 33.8211,4.4192 50.6435,7.2326 8.6937,1.344 17.4528,2.335 26.2503,2.6075 -14.7027,-2.9835 -29.0454,-7.4415 -43.6031,-11.0191 -17.5491,-3.9894 -35.2233,-7.6141 -52.357,-13.1989 -12.1385,-3.8263 -24.3458,-7.4273 -36.5828,-10.9238 -2.1361,-0.6181 -4.2722,-1.2362 -6.4082,-1.8543 -3.8086,-2.8565 -4.791,-8.4047 -3.0215,-12.6797 3.1112,-10.0301 7.2356,-19.7537 9.5683,-30.0176 0.1907,-7.1989 -5.0046,-13.8258 -11.6328,-16.2568 -8.1859,-3.2713 -16.7215,-5.5386 -25.1516,-8.0754 -10.6728,-3.1009 -17.6074,-6.3044 -28.2511,-9.5031 -1.634,-0.5123 -3.3158,-0.9349 -4.8985,-1.5745 -6.4463,-4.0275 -11.4798,-10.04 -14.9988,-16.7269 -0.6308,-10.1283 2.4237,-19.9428 4.0156,-29.8414 0.7111,-3.8042 0.5769,-8.0798 -1.8053,-11.3085 -2.8415,-4.4602 -11.7784,-7.3612 -17.0919,-7.1782 -0.3216,0.091 -0.6432,0.1823 -0.9649,0.2734 z m 241.4961,179.3652 c 1.4323,-0.5267 2.8646,-1.0533 4.2969,-1.58 -1.4323,0.5267 -2.8646,1.0533 -4.2969,1.58 z"
       id="path4496-04"
       inkscape:connector-curvature="0"
       sodipodi:nodetypes="ccccccccccccccccccccccccccccccc" />
    <path
       style="display:inline;fill:#ffffff;stroke:none;stroke-width:0.897311"
       d="m 737.60374,1885.2283 c -38.32973,0.5418 -77.13788,3.2491 -114.14299,17.491 -18.06644,6.9229 -35.71951,19.1909 -47.34915,39.222 -8.54232,14.9154 -10.75089,34.3338 -10.32261,52.5827 0.34579,15.7413 1.47678,32.2802 7.91862,45.9759 4.88782,10.6988 12.60406,18.5706 20.64094,24.8537 14.95961,11.2607 32.01293,16.0339 48.67337,20.7892 41.84325,11.1723 84.71496,12.45 127.26379,12.6712 43.27982,-0.028 86.63656,-1.2476 129.70934,-7.2025 22.29364,-3.5293 44.93791,-10.2575 64.12656,-26.311 14.50754,-12.4108 25.51048,-32.9638 27.27098,-55.9831 1.3487,-16.0945 -0.19143,-32.6064 -4.22112,-47.8818 -5.45237,-19.9623 -16.34046,-37.5511 -30.7811,-47.1938 -17.0341,-12.0625 -36.48445,-15.756 -55.42519,-18.7729 -25.59099,-3.6948 -51.34503,-4.6226 -77.01748,-6.8953 -28.75533,-2.0092 -57.54397,-3.4507 -86.34396,-3.3453 z"
       id="path3280-8-1"
       inkscape:connector-curvature="0"
       sodipodi:nodetypes="csssc" />
    <path
       style="color:#000000;display:inline;overflow:visible;visibility:visible;fill:#ffffff;fill-opacity:1;fill-rule:nonzero;stroke:none;stroke-width:0.922084px;marker:none;enable-background:accumulate"
       d="m 984.5608,2057.0039 c -37.86098,1.3903 -76.17624,4.3148 -112.5722,16.9998 -15.95402,5.7131 -32.14687,13.7624 -43.12271,28.5575 -13.48066,17.8661 -19.61197,41.3007 -21.44749,64.3154 -1.3414,16.9169 -0.63347,34.6602 5.96714,50.2291 5.47899,13.7905 15.02685,25.0114 25.937,33.5619 16.55019,12.9469 35.91762,20.2443 55.16355,26.2826 42.92578,12.9566 87.82201,14.2978 131.96811,11.7811 23.7425,-1.3529 48.0132,-4.9354 69.5261,-17.0435 16.0797,-8.8326 30.7505,-22.3548 38.8448,-40.6506 9.4794,-20.8834 11.6542,-44.8731 11.0766,-68.0151 -0.4289,-17.1264 -4.4992,-34.5332 -13.7492,-48.3632 -8.2356,-12.6289 -20.2411,-21.255 -32.3854,-28.4313 -14.8773,-8.462 -30.7676,-14.4284 -46.7703,-19.5282 -22.2784,-6.7243 -45.3754,-9.9796 -68.436,-9.6955 z"
       id="path4546-1"
       inkscape:connector-curvature="0"
       sodipodi:nodetypes="cssssc" />
    <text
       xml:space="preserve"
       style="font-style:normal;font-variant:normal;font-weight:normal;font-stretch:normal;line-height:0%;font-family:Lavi;-inkscape-font-specification:Lavi;text-align:center;letter-spacing:0px;word-spacing:0px;text-anchor:middle;display:inline;fill:#000000;fill-opacity:1;stroke:none"
       x="780.26721"
       y="1948.8016"
       id="text4246-7-6-1-7-6-3-5-6"><tspan
         sodipodi:role="line"
         style="font-size:45px;line-height:1.25"
         x="780.26721"
         y="1948.8016"
         id="tspan831">Laten we toch</tspan><tspan
         sodipodi:role="line"
         style="font-size:45px;line-height:1.25"
         x="780.26721"
         y="2005.0516"
         id="tspan286">dat meisje maar</tspan><tspan
         sodipodi:role="line"
         style="font-size:45px;line-height:1.25"
         x="780.26721"
         y="2061.3018"
         id="tspan284">terugroepen.</tspan></text>
    <text
       xml:space="preserve"
       style="font-style:normal;font-variant:normal;font-weight:normal;font-stretch:normal;line-height:0%;font-family:Lavi;-inkscape-font-specification:Lavi;text-align:center;letter-spacing:0px;word-spacing:0px;text-anchor:middle;display:inline;fill:#000000;fill-opacity:1;stroke:none"
       x="977.6701"
       y="2134.6045"
       id="text4246-7-6-1-7-6-3-5-6-4"><tspan
         sodipodi:role="line"
         style="font-size:45px;line-height:1.25"
         x="977.6701"
         y="2134.6045"
         id="tspan840">Deze</tspan><tspan
         sodipodi:role="line"
         style="font-size:45px;line-height:1.25"
         x="977.6701"
         y="2190.8545"
         id="tspan297">kost vast véél</tspan><tspan
         sodipodi:role="line"
         style="font-size:45px;line-height:1.25"
         x="977.6701"
         y="2247.1045"
         id="tspan289">te veel.</tspan></text>
    <text
       xml:space="preserve"
       style="font-style:normal;font-variant:normal;font-weight:normal;font-stretch:normal;font-size:43.8573px;line-height:0%;font-family:Lavi;-inkscape-font-specification:'Lavi, Normal';font-variant-ligatures:normal;font-variant-caps:normal;font-variant-numeric:normal;font-feature-settings:normal;text-align:center;letter-spacing:0px;word-spacing:0px;writing-mode:lr-tb;text-anchor:middle;display:inline;fill:#241c1c;fill-opacity:1;stroke:#000000;stroke-width:0.822;stroke-miterlimit:4;stroke-dasharray:none;stroke-opacity:1"
       x="3388.5708"
       y="3317.343"
       id="text4213"
       transform="matrix(0.96049651,0,-0.32716292,1.0411282,0,0)"><tspan
         sodipodi:role="line"
         x="3388.5708"
         y="3317.343"
         style="font-style:normal;font-variant:normal;font-weight:normal;font-stretch:normal;font-size:43.8573px;line-height:1.25;font-family:Lavi;-inkscape-font-specification:'Lavi, Normal';font-variant-ligatures:normal;font-variant-caps:normal;font-variant-numeric:normal;font-feature-settings:normal;text-align:center;writing-mode:lr-tb;text-anchor:middle;stroke-width:0.822"
         id="tspan858">Wordt vervolgd...</tspan></text>
  </g>
</svg>
