<?xml version="1.0" encoding="UTF-8" standalone="no"?>
<!-- Created with Inkscape (http://www.inkscape.org/) -->

<svg
   id="svg2"
   version="1.1"
   inkscape:version="1.2.1 (9c6d41e410, 2022-07-14)"
   width="2481"
   height="3503"
   sodipodi:docname="E17P02.svg"
   xmlns:inkscape="http://www.inkscape.org/namespaces/inkscape"
   xmlns:sodipodi="http://sodipodi.sourceforge.net/DTD/sodipodi-0.dtd"
   xmlns:xlink="http://www.w3.org/1999/xlink"
   xmlns="http://www.w3.org/2000/svg"
   xmlns:svg="http://www.w3.org/2000/svg"
   xmlns:rdf="http://www.w3.org/1999/02/22-rdf-syntax-ns#"
   xmlns:cc="http://creativecommons.org/ns#"
   xmlns:dc="http://purl.org/dc/elements/1.1/">
  <sodipodi:namedview
     pagecolor="#ffffff"
     bordercolor="#666666"
     inkscape:pageopacity="0"
     inkscape:pageshadow="2"
     inkscape:window-width="1813"
     inkscape:window-height="947"
     id="namedview70"
     showgrid="false"
     inkscape:zoom="0.65053825"
     inkscape:cx="1472.6267"
     inkscape:cy="2818.4353"
     inkscape:current-layer="layer1"
     inkscape:window-x="0"
     inkscape:window-y="92"
     inkscape:window-maximized="0"
     borderopacity="1"
     inkscape:showpageshadow="0"
     inkscape:pagecheckerboard="0"
     inkscape:deskcolor="#d1d1d1" />
  <metadata
     id="metadata8">
    <rdf:RDF>
      <cc:Work
         rdf:about="">
        <dc:format>image/svg+xml</dc:format>
        <dc:type
           rdf:resource="http://purl.org/dc/dcmitype/StillImage" />
        <dc:title />
      </cc:Work>
    </rdf:RDF>
  </metadata>
  <defs
     id="defs6">
    <filter
       style="color-interpolation-filters:sRGB;"
       id="filter4375-4-1-1-1-9-5"
       inkscape:label="Drop Shadow"
       x="-0.00081513583"
       y="-0.0054734909"
       width="1.0114872"
       height="1.0771344">
      <feFlood
         id="feFlood4377-7-9-0-8-1-7"
         flood-opacity="1"
         flood-color="rgb(108,125,133)"
         result="flood" />
      <feComposite
         id="feComposite4379-3-8-8-2-77-4"
         in2="SourceGraphic"
         in="flood"
         operator="in"
         result="composite1" />
      <feMorphology
         id="feMorphology4393-1-0-49-8-9-3"
         operator="dilate"
         radius="6.2000000000000002"
         result="result3" />
      <feComposite
         id="feComposite4385-9-5-7-0-8-8"
         in2="result3"
         in="SourceGraphic"
         operator="over"
         result="fbSourceGraphic" />
      <feColorMatrix
         result="fbSourceGraphicAlpha"
         in="fbSourceGraphic"
         values="0 0 0 -1 0 0 0 0 -1 0 0 0 0 -1 0 0 0 0 1 0"
         id="feColorMatrix4544" />
      <feTurbulence
         id="feTurbulence4546"
         type="fractalNoise"
         numOctaves="3"
         seed="37"
         baseFrequency="0.129 0.0050000000000000001"
         result="turbulence"
         in="fbSourceGraphic" />
      <feDisplacementMap
         id="feDisplacementMap4548"
         in2="turbulence"
         in="fbSourceGraphic"
         scale="6.6"
         yChannelSelector="G"
         xChannelSelector="R"
         result="fbSourceGraphic" />
      <feColorMatrix
         result="fbSourceGraphicAlpha"
         in="fbSourceGraphic"
         values="0 0 0 -1 0 0 0 0 -1 0 0 0 0 -1 0 0 0 0 1 0"
         id="feColorMatrix4670" />
      <feFlood
         id="feFlood4672"
         flood-opacity="1"
         flood-color="rgb(17,52,65)"
         result="flood"
         in="fbSourceGraphic" />
      <feComposite
         id="feComposite4674"
         in2="fbSourceGraphic"
         in="flood"
         operator="in"
         result="composite1" />
      <feGaussianBlur
         id="feGaussianBlur4676"
         in="composite1"
         stdDeviation="0"
         result="blur" />
      <feOffset
         id="feOffset4678"
         dx="6"
         dy="6"
         result="offset" />
      <feComposite
         id="feComposite4680"
         in2="offset"
         in="fbSourceGraphic"
         operator="over"
         result="composite2" />
    </filter>
    <filter
       inkscape:collect="always"
       style="color-interpolation-filters:sRGB"
       id="filter1607"
       x="-0.14912815"
       width="1.2982563"
       y="-0.10594953"
       height="1.2118991">
      <feGaussianBlur
         inkscape:collect="always"
         stdDeviation="1.644092"
         id="feGaussianBlur1609" />
    </filter>
    <filter
       inkscape:collect="always"
       style="color-interpolation-filters:sRGB"
       id="filter1551"
       x="-0.16569795"
       width="1.3313959"
       y="-0.11772171"
       height="1.2354434">
      <feGaussianBlur
         inkscape:collect="always"
         stdDeviation="1.8267689"
         id="feGaussianBlur1553" />
    </filter>
    <filter
       inkscape:collect="always"
       style="color-interpolation-filters:sRGB"
       id="filter1003"
       x="-0.075896452"
       width="1.1517929"
       y="-0.091457028"
       height="1.1829141">
      <feGaussianBlur
         inkscape:collect="always"
         stdDeviation="0.83150736"
         id="feGaussianBlur1005" />
    </filter>
    <filter
       inkscape:collect="always"
       style="color-interpolation-filters:sRGB"
       id="filter1213"
       x="-0.14499305"
       width="1.2899861"
       y="-0.10301171"
       height="1.2060234">
      <feGaussianBlur
         inkscape:collect="always"
         stdDeviation="1.5985037"
         id="feGaussianBlur1215" />
    </filter>
  </defs>
  <sodipodi:namedview
     pagecolor="#ffffff"
     bordercolor="#666666"
     borderopacity="1"
     objecttolerance="10"
     gridtolerance="10"
     guidetolerance="10"
     inkscape:pageopacity="0"
     inkscape:pageshadow="2"
     inkscape:window-width="1920"
     inkscape:window-height="1025"
     id="namedview4"
     showgrid="false"
     inkscape:zoom="0.24456143"
     inkscape:cx="418.96963"
     inkscape:cy="925.67436"
     inkscape:window-x="0"
     inkscape:window-y="26"
     inkscape:window-maximized="1"
     inkscape:current-layer="layer3" />
  <g
     inkscape:groupmode="layer"
     id="layer2"
     inkscape:label="artwork"
     sodipodi:insensitive="true">
    <image
       xlink:href="../gfx_Pepper-and-Carrot_by-David-Revoy_E17P02.png"
       width="2481"
       height="3503"
       id="image10"
       x="0"
       y="0" />
  </g>
  <g
     inkscape:groupmode="layer"
     id="layer3"
     inkscape:label="speechbubbles">
    <path
       style="color:#000000;display:inline;overflow:visible;visibility:visible;fill:#ffffff;fill-opacity:1;fill-rule:nonzero;stroke:none;stroke-width:1.03824878px;marker:none;enable-background:accumulate"
       d="m 121.7834,1064.4965 c -9.48723,-132.27935 175.31018,-96.50761 266.58464,-94.82617 139.91827,2.55862 202.74115,-1.63493 193.10254,122.88477 -8.32606,29.2896 -13.01495,63.8092 -42.98923,74.1467 -29.97443,10.3377 -226.15091,24.121 -261.12095,17.2293 -34.97004,-6.8916 -91.5883,-8.6147 -121.56242,-29.2897 -30.38791,-20.9604 -32.34943,-47.9331 -34.01458,-90.1449 z"
       id="path3373"
       inkscape:connector-curvature="0"
       sodipodi:nodetypes="cccsssc" />
    <path
       style="color:#000000;display:inline;overflow:visible;visibility:visible;fill:#ffffff;fill-opacity:1;fill-rule:nonzero;stroke:none;stroke-width:1.04184449px;marker:none;enable-background:accumulate"
       d="m 136.9667,1266.366 c 5.1914,-77.5814 84.90815,-135.3156 295.15604,-123.429 112.62008,6.367 240.43361,9.8512 234.13357,123.4858 -6.30015,113.6345 -108.92741,119.6831 -227.78141,116.2116 -37.96477,-1.1089 -233.08274,3.1189 -268.29264,-35.0564 -22.04059,-23.8969 -33.40492,-57.2027 -33.21556,-81.212 z"
       id="path4546-6"
       inkscape:connector-curvature="0"
       sodipodi:nodetypes="cssssc" />
    <path
       style="color:#000000;display:inline;overflow:visible;visibility:visible;fill:#ffffff;fill-opacity:1;fill-rule:nonzero;stroke:none;stroke-width:1px;marker:none;enable-background:accumulate"
       d="m 587.23586,1174.1904 c 51.27116,-41.1633 149.8778,-85.2003 264.98554,-18.484 117.45563,-13.9265 159.1674,-5.368 226.1925,56.8954 -72.139,-47.9191 -116.24059,-67.2081 -241.86362,-37.1297 -45.09623,-48.2708 -163.72454,-46.4191 -206.10579,10.6331 -42.38126,57.0523 -17.46921,58.1114 -17.46921,58.1114 l -39.32225,-53.5754 z"
       id="path5074"
       inkscape:connector-curvature="0"
       sodipodi:nodetypes="ccccsccc" />
    <path
       style="color:#000000;display:inline;overflow:visible;visibility:visible;fill:#ffffff;fill-opacity:1;fill-rule:nonzero;stroke:none;stroke-width:1.03386414px;marker:none;enable-background:accumulate"
       d="m 1827.2973,1676.9823 c -10.2197,-73.8374 -26.7995,-245.9029 182.7061,-229.751 209.5055,16.1518 294.9582,17.6038 289.6552,107.4891 -1.6563,28.0746 28.4288,171.6321 -118.8853,223.8349 -158.5973,56.2012 -311.8262,4.7256 -353.476,-101.573 z"
       id="path3525"
       inkscape:connector-curvature="0"
       sodipodi:nodetypes="csssc" />
    <path
       style="color:#000000;display:inline;overflow:visible;visibility:visible;fill:#ffffff;fill-opacity:1;fill-rule:nonzero;stroke:none;stroke-width:1px;marker:none;enable-background:accumulate"
       d="m 1598.781,1488.4356 c 107.0984,73.703 229.4839,140.1632 303.5843,70.4763 79.5488,-74.8108 107.3574,-10.2915 107.3574,-10.2915 l -114.9117,66.5528 c -85.3574,-3.2446 -142.9698,20.7038 -296.03,-126.7376 z"
       id="path3072-1"
       inkscape:connector-curvature="0"
       sodipodi:nodetypes="csccc" />
    <path
       style="fill:#ffffff;fill-rule:evenodd;stroke:none;stroke-width:0.945957px;stroke-linecap:butt;stroke-linejoin:miter;stroke-opacity:1"
       d="m 2030.9983,3020.8784 c -31.2668,-8.4856 -34.1476,-18.4162 -7.4299,-29.8539 -29.5012,-0.3394 -24.8177,-7.2232 -12.1609,-15.6337 -45.4981,-32.0307 -41.8282,-61.0558 -37.0017,-90.0103 -35.2547,22.1327 -42.2875,-0.5205 -55.5008,-13.3657 -1.2556,32.9489 -10.0572,14.366 -20.9644,-18.5957 0.6376,41.9656 -4.6191,46.7023 -15.2509,17.4901 -2.3359,27.2743 -10.6943,39.7193 -25.975,35.1186 -19.8369,30.0856 -36.8066,0.5291 -54.7033,-9.7501 -0.1174,27.9079 -11.4847,31.751 -26.4386,27.922 -3.9026,12.8244 -5.1987,30.3238 -27.1155,10.8434 0.7836,22.808 -10.9631,9.6263 -18.8591,7.5043 11.2148,10.0745 -2.9503,17.5159 -46.3088,21.9287 17.5904,2.1616 18.1292,11.0213 -1.457,27.787 26.8239,4.9884 29.4224,18.5045 19.2942,36.5004 32.446,14.2636 8.9398,42.5375 -0.6048,67.3157 26.1703,-17.5388 48.8141,-23.2847 60.6123,7.237 37.7263,-36.2822 34.1842,-20.9572 32.5237,-7.985 20.3698,-37.0221 24.3166,-10.3114 33.154,-2.579 65.3445,-56.3775 70.5499,-17.9756 89.824,-1.7467 -2.9469,-44.8094 15.8521,-32.3173 34.7411,-19.5885 -8.1184,-36.3554 3.3724,-28.266 14.4531,-21.1055 -2.0888,-16.0696 5.9916,-23.1188 27.7836,-18.0055 -16.6869,-9.0954 -8.4884,-13.6778 37.3847,-11.4276 z"
       id="path4289"
       inkscape:connector-curvature="0"
       sodipodi:nodetypes="cccccccccccccccccccccccc" />
    <path
       style="display:inline;fill:#ffffff;fill-rule:evenodd;stroke:none;stroke-width:1.11794662px;stroke-linecap:butt;stroke-linejoin:miter;stroke-opacity:1"
       d="m 1017.3078,2957.4373 c 48.4694,29.1744 76.0781,17.3104 75.2461,-50.5046 23.1245,73.2824 39.1717,89.6722 48.6889,53.5655 30.6151,31.0352 49.7369,22.3296 64.9183,0 5.6584,28.7174 17.7931,17.1289 28.2951,15.7025 3.4588,6.4971 -8.4211,22.6388 39.5739,1.1324 3.109,8.5996 7.297,16.0053 35.41,-3.0609 7.2832,34.9048 30.6512,-1.9345 54.5904,-41.322 -14.9149,48.4236 -8.7302,55.2631 10.3281,36.7306 -8.7134,19.9412 -13.9247,35.378 19.1802,1.5305 -11.3335,36.8074 18.4,11.543 66.3939,-41.3219 -24.0074,39.0774 -87.6692,104.9393 -45.738,99.4787 -5.8476,11.5201 -26.7054,21.5573 35.41,39.7915 -11.5961,7.8173 -46.9987,-3.6061 -17.4666,29.4926 3.9567,3.869 -9.2894,6.2317 15.9912,16.4206 -14.9233,-0.6931 -24.0755,1.7832 -10.328,16.8349 -27.2407,-0.8139 -17.0484,15.0132 2.9509,35.2001 -39.4484,-25.894 -41.6193,-16.483 -42.7872,-6.1217 -49.4403,-35.3024 -52.3426,-24.1877 -59.0165,-16.8349 -24.0984,0.2754 -48.1969,-4.1702 -72.2956,35.2002 -6.311,-24.4874 -18.9639,-43.3362 -72.2952,-26.0175 23.4165,-31.1522 -9.8964,-11.305 -35.41,1.5304 13.9717,-38.9168 -21.4865,-13.3758 -66.3938,24.4871 25.1479,-42.975 -3.4141,-27.4515 -45.7379,3.0609 15.9913,-42.2187 -10.052,-62.6362 -72.29534,-64.2786 29.79154,-15.2288 47.16444,-34.3938 16.22966,-68.8699 34.87228,10.1516 45.27418,0.7222 20.65578,-36.7306 38.0363,30.7409 20.7426,-13.8473 5.9017,-55.0959 z"
       id="path4508"
       inkscape:connector-curvature="0"
       sodipodi:nodetypes="cccccccccccccccccccccccccccc" />
    <path
       style="color:#000000;display:inline;overflow:visible;visibility:visible;fill:#ffffff;fill-opacity:1;fill-rule:nonzero;stroke:none;stroke-width:1.02255225px;marker:none;enable-background:accumulate"
       d="m 1053.5212,3021.1956 c 2.1708,-35.7819 11.901,-35.4753 45.4033,-3.1104 -8.8406,-63.8119 36.1394,-66.829 78.0601,-73.3016 -4.8078,-17.9297 -23.3689,-38.5217 6.7207,-49.6967 -16.1619,-10.6866 -16.2141,-24.9038 -1.8924,-42.271 -33.4585,8.2755 -46.0436,3.1808 -6.4707,-35.3242 -37.3497,21.875 -73.117,41.3488 -59.0308,-14.8218 -14.1433,7.6453 -22.0339,52.1158 -77.4276,-29.229 -0.6271,37.456 -56.20995,68.272 -83.50624,19.9208 13.81883,40.2873 -31.47863,86.5196 -52.7191,54.1736 12.618,22.5855 2.1892,44.6725 -13.71127,48.3722 45.14449,5.9759 36.08798,19.666 4.83815,42.3776 92.98366,3.5451 41.81244,26.108 42.26813,41.3815 56.60519,-14.0473 52.9673,14.4911 61.07141,35.6473 53.90612,-64.5316 37.52912,-53.0051 56.39632,5.8817 z"
       id="path3549-3"
       inkscape:connector-curvature="0"
       sodipodi:nodetypes="ccccccccccccccc" />
    <path
       style="color:#000000;display:inline;overflow:visible;visibility:visible;fill:#ffffff;fill-opacity:1;fill-rule:nonzero;stroke:none;stroke-width:1px;marker:none;enable-background:accumulate"
       d="m 1269.3957,2763.3018 c -26.1522,36.9012 -46.8971,78.302 -79.3319,109.9753 l 39.1635,-9.8688 c -5.4563,17.5055 -20.6662,29.6804 -32.5642,43.6655 l 25.2547,-1.9964 c -13.3891,41.1505 -40.934,70.0174 -61.6368,104.8213 l 43.7044,-7.0626 c 16.7451,-37.7274 27.0981,-77.8041 51.033,-112.8889 l -24.8923,-0.6188 c 6.5411,-13.3013 13.6301,-26.3553 23.1666,-38.3053 l -31.2879,2.0537 z"
       id="path4032"
       inkscape:connector-curvature="0"
       sodipodi:nodetypes="cccccccccccc" />
    <ellipse
       style="color:#000000;clip-rule:nonzero;display:inline;overflow:visible;visibility:visible;opacity:1;isolation:auto;mix-blend-mode:normal;color-interpolation:sRGB;color-interpolation-filters:linearRGB;solid-color:#000000;solid-opacity:1;vector-effect:none;fill:#ccc0b2;fill-opacity:1;fill-rule:nonzero;stroke:none;stroke-width:0.81906337;stroke-linecap:butt;stroke-linejoin:miter;stroke-miterlimit:4;stroke-dasharray:none;stroke-dashoffset:0;stroke-opacity:1;marker:none;paint-order:markers stroke fill;filter:url(#filter1213);color-rendering:auto;image-rendering:auto;shape-rendering:auto;text-rendering:auto;enable-background:accumulate"
       id="path1007"
       cx="-1314.3951"
       cy="2284.5508"
       rx="13.22963"
       ry="18.621227"
       transform="matrix(0.72758993,-0.68601232,0.6318505,0.77509028,-4.0245567e-7,-3.4202376e-6)" />
    <text
       xml:space="preserve"
       style="font-style:normal;font-variant:normal;font-weight:normal;font-stretch:normal;line-height:0%;font-family:Lavi;-inkscape-font-specification:Lavi;text-align:center;letter-spacing:0px;word-spacing:0px;text-anchor:middle;display:inline;opacity:0.6;fill:#230800;fill-opacity:1;stroke:#0a0a0a;stroke-width:1.12461;stroke-opacity:1;filter:url(#filter1003)"
       x="-447.29675"
       y="2872.5061"
       id="text4246-85"
       transform="matrix(0.48659421,0.56934496,-0.54012331,0.48694312,2248.6279,1535.5146)"><tspan
         sodipodi:role="line"
         style="font-style:normal;font-variant:normal;font-weight:normal;font-stretch:normal;font-size:40.1424px;line-height:127%;font-family:Fondamento;-inkscape-font-specification:Fondamento;fill:#230800;fill-opacity:1;stroke:#0a0a0a;stroke-width:1.28985;stroke-opacity:1"
         x="-447.29675"
         y="2872.5061"
         id="tspan4172">N</tspan></text>
    <ellipse
       style="color:#000000;clip-rule:nonzero;display:inline;overflow:visible;visibility:visible;opacity:0.52600002;isolation:auto;mix-blend-mode:normal;color-interpolation:sRGB;color-interpolation-filters:linearRGB;solid-color:#000000;solid-opacity:1;vector-effect:none;fill:#d1c9bb;fill-opacity:1;fill-rule:nonzero;stroke:none;stroke-width:1.3879416;stroke-linecap:butt;stroke-linejoin:miter;stroke-miterlimit:4;stroke-dasharray:none;stroke-dashoffset:0;stroke-opacity:1;marker:none;paint-order:markers stroke fill;filter:url(#filter1551);color-rendering:auto;image-rendering:auto;shape-rendering:auto;text-rendering:auto;enable-background:accumulate"
       id="path1007-7"
       cx="-1314.3951"
       cy="2284.5508"
       rx="13.22963"
       ry="18.621227"
       transform="matrix(0.35584042,-0.48849033,0.3090174,0.55192026,261.42762,774.6165)" />
    <ellipse
       style="color:#000000;clip-rule:nonzero;display:inline;overflow:visible;visibility:visible;opacity:0.64299999;isolation:auto;mix-blend-mode:normal;color-interpolation:sRGB;color-interpolation-filters:linearRGB;solid-color:#000000;solid-opacity:1;vector-effect:none;fill:#e4e0d9;fill-opacity:1;fill-rule:nonzero;stroke:none;stroke-width:1.3879416;stroke-linecap:butt;stroke-linejoin:miter;stroke-miterlimit:4;stroke-dasharray:none;stroke-dashoffset:0;stroke-opacity:1;marker:none;paint-order:markers stroke fill;filter:url(#filter1607);color-rendering:auto;image-rendering:auto;shape-rendering:auto;text-rendering:auto;enable-background:accumulate"
       id="path1007-7-5"
       cx="-1314.3951"
       cy="2284.5508"
       rx="13.22963"
       ry="18.621227"
       transform="matrix(0.35584042,-0.48849033,0.3090174,0.55192026,236.07502,765.93)" />
  </g>
  <g
     inkscape:groupmode="layer"
     id="layer1"
     inkscape:label="txt">
    <text
       xml:space="preserve"
       style="font-style:normal;font-variant:normal;font-weight:normal;font-stretch:normal;line-height:0%;font-family:Lavi;-inkscape-font-specification:Lavi;text-align:center;letter-spacing:0px;word-spacing:0px;text-anchor:middle;fill:#000000;fill-opacity:1;stroke:none"
       x="354.81091"
       y="1030.4097"
       id="text4246"><tspan
         sodipodi:role="line"
         style="font-size:45px;line-height:1.25"
         x="354.81091"
         y="1030.4097"
         id="tspan3351">Og så går turen</tspan><tspan
         sodipodi:role="line"
         style="font-size:45px;line-height:1.25"
         x="354.81091"
         y="1086.6597"
         id="tspan874">til landet med</tspan><tspan
         sodipodi:role="line"
         style="font-size:45px;line-height:1.25"
         x="354.81091"
         y="1142.9097"
         id="tspan878">månenedgangane.</tspan></text>
    <text
       xml:space="preserve"
       style="font-style:normal;font-variant:normal;font-weight:normal;font-stretch:normal;line-height:0%;font-family:Lavi;-inkscape-font-specification:Lavi;text-align:center;letter-spacing:0px;word-spacing:0px;text-anchor:middle;fill:#000000;fill-opacity:1;stroke:none"
       x="401.24677"
       y="1225.9585"
       id="text4246-6"><tspan
         sodipodi:role="line"
         style="font-size:45px;line-height:1.25"
         x="401.24677"
         y="1225.9585"
         id="tspan3368">Me kan høyra med</tspan><tspan
         sodipodi:role="line"
         style="font-size:45px;line-height:1.25"
         x="401.24677"
         y="1282.2085"
         id="tspan885">Shichimi om korleis me</tspan><tspan
         sodipodi:role="line"
         style="font-size:45px;line-height:1.25"
         x="401.24677"
         y="1338.4585"
         id="tspan887">kan verta ah-hekser.</tspan></text>
    <text
       xml:space="preserve"
       style="font-style:normal;font-variant:normal;font-weight:normal;font-stretch:normal;line-height:0%;font-family:Lavi;-inkscape-font-specification:Lavi;text-align:center;letter-spacing:0px;word-spacing:0px;text-anchor:middle;fill:#000000;fill-opacity:1;stroke:none"
       x="2060.5127"
       y="1531.0598"
       id="text4246-6-9"><tspan
         sodipodi:role="line"
         style="font-size:45px;line-height:1.25"
         x="2060.5127"
         y="1531.0598"
         id="tspan3388">Hent fram kart og</tspan><tspan
         sodipodi:role="line"
         style="font-size:45px;line-height:1.25"
         x="2060.5127"
         y="1587.3098"
         id="tspan902">kompass, Gulrot.</tspan><tspan
         sodipodi:role="line"
         style="font-size:45px;line-height:1.25"
         x="2060.5127"
         y="1643.5598"
         id="tspan904">Eg ser ingenting</tspan><tspan
         sodipodi:role="line"
         style="font-size:45px;line-height:1.25"
         x="2060.5127"
         y="1699.8098"
         id="tspan906">med alle desse</tspan><tspan
         sodipodi:role="line"
         style="font-size:45px;line-height:1.25"
         x="2060.5127"
         y="1756.0598"
         id="tspan908">skyene her!</tspan></text>
    <text
       xml:space="preserve"
       style="font-style:normal;font-variant:normal;font-weight:normal;font-stretch:normal;line-height:0%;font-family:Lavi;-inkscape-font-specification:Lavi;text-align:center;letter-spacing:0px;word-spacing:0px;text-anchor:middle;fill:#000000;fill-opacity:1;stroke:none"
       x="1949.7035"
       y="1557.4618"
       id="text4246-6-9-6"><tspan
         sodipodi:role="line"
         style="font-size:45px;line-height:1.25"
         x="1956.7347"
         y="1557.4618"
         id="tspan4297"> </tspan></text>
    <text
       xml:space="preserve"
       style="font-style:normal;font-variant:normal;font-weight:normal;font-stretch:normal;line-height:0%;font-family:Lavi;-inkscape-font-specification:Lavi;text-align:center;letter-spacing:0px;word-spacing:0px;text-anchor:middle;fill:#000000;fill-opacity:1;stroke:#000000;stroke-width:2.4;stroke-miterlimit:4;stroke-dasharray:none;stroke-opacity:1"
       x="1292.6776"
       y="2710.3433"
       id="text4246-6-9-0"
       transform="matrix(0.92763131,0,-0.05816983,1.0780145,0,0)"><tspan
         sodipodi:role="line"
         style="font-size:59.707px;line-height:1.25;stroke:#000000;stroke-width:2.4;stroke-miterlimit:4;stroke-dasharray:none;stroke-opacity:1"
         x="1292.6776"
         y="2710.3433"
         id="tspan4305-5">SØREN!</tspan></text>
    <text
       xml:space="preserve"
       style="font-style:normal;font-variant:normal;font-weight:normal;font-stretch:normal;line-height:0%;font-family:Lavi;-inkscape-font-specification:Lavi;text-align:center;letter-spacing:0px;word-spacing:0px;text-anchor:middle;fill:#000000;fill-opacity:1;stroke:none"
       x="1217.2826"
       y="3052.4436"
       id="text4246-6-9-8"><tspan
         sodipodi:role="line"
         style="font-size:45px;line-height:1.25"
         x="1217.2826"
         y="3052.4436"
         id="tspan4395">Turbulens!</tspan></text>
    <text
       xml:space="preserve"
       style="font-style:normal;font-variant:normal;font-weight:normal;font-stretch:normal;line-height:0%;font-family:Lavi;-inkscape-font-specification:Lavi;text-align:center;letter-spacing:0px;word-spacing:0px;text-anchor:middle;fill:#000000;fill-opacity:1;stroke:#000000;stroke-width:2.4;stroke-miterlimit:4;stroke-dasharray:none;stroke-opacity:1"
       x="2060.1653"
       y="2962.7725"
       id="text4246-6-9-8-8"
       transform="matrix(0.95440174,0,-0.25660426,1.0477768,0,0)"><tspan
         sodipodi:role="line"
         style="font-size:42.9481px;line-height:1.25;stroke:#000000;stroke-width:2.4;stroke-miterlimit:4;stroke-dasharray:none;stroke-opacity:1"
         x="2060.1653"
         y="2962.7725"
         id="tspan4395-0">HALD DEG FAST!</tspan></text>
    <text
       xml:space="preserve"
       style="font-style:normal;font-variant:normal;font-weight:normal;font-stretch:normal;font-size:13.0309px;line-height:0%;font-family:Lavi;-inkscape-font-specification:Lavi;text-align:center;letter-spacing:0px;word-spacing:0px;text-anchor:middle;fill:#000000;fill-opacity:1;stroke:none;stroke-width:2.707;stroke-dasharray:none"
       x="1587.9286"
       y="3434.3093"
       id="text4246-6-9-0-4"
       transform="matrix(0.94271747,-0.31790971,0.10336258,1.0259066,0,0)"><tspan
         sodipodi:role="line"
         style="font-style:normal;font-variant:normal;font-weight:bold;font-stretch:normal;font-size:64.8363px;line-height:1.25;font-family:Lavi;-inkscape-font-specification:'Lavi Bold';stroke:none;stroke-width:2.707;stroke-miterlimit:4;stroke-dasharray:none;stroke-opacity:1"
         x="1587.9286"
         y="3434.3093"
         id="tspan4305-5-1">Å nei!!!</tspan></text>
    <path
       style="color:#000000;display:inline;overflow:visible;visibility:visible;fill:#ffffff;fill-opacity:1;fill-rule:nonzero;stroke:none;stroke-width:1px;marker:none;enable-background:accumulate"
       d="m 1981.554,2965.8845 c -2.8344,-2.7596 17.6625,-50.4745 17.6625,-50.4745 0,0 0.362,-14.576 1.0191,-17.668 7.9691,-5.303 20.5629,-9.8345 20.5629,-9.8345 l -1.9493,-38.8861 -7.2418,31.926 -20.2953,2.7706 -1.7964,23.9372 -36.789,19.3605 z"
       id="path4448"
       inkscape:connector-curvature="0"
       sodipodi:nodetypes="cccccccccc" />
    <text
       xml:space="preserve"
       style="font-style:normal;font-variant:normal;font-weight:normal;font-stretch:normal;line-height:0%;font-family:Lavi;-inkscape-font-specification:Lavi;letter-spacing:0px;word-spacing:0px;fill:#ffffff;fill-opacity:1;stroke:#98b9ca;stroke-width:0.992362;stroke-miterlimit:4;stroke-dasharray:none;stroke-opacity:1;filter:url(#filter4375-4-1-1-1-9-5)"
       x="787.65729"
       y="1584.5073"
       id="text4580-6"
       transform="matrix(1.0541866,-0.30592674,-0.45361635,1.4058514,1555.6885,244.62886)"><tspan
         sodipodi:role="line"
         id="tspan4582-1"
         x="787.65729"
         y="1584.5073"
         style="font-size:70px;line-height:1.25;fill:#ffffff;fill-opacity:1;stroke:#98b9ca;stroke-opacity:1"><tspan
           style="font-size:93.1495px;fill:#ffffff;fill-opacity:1;stroke:#98b9ca;stroke-opacity:1"
           id="tspan4315">BrrOoooOoo!</tspan><tspan
           style="font-size:114.732px;fill:#ffffff;fill-opacity:1;stroke:#98b9ca;stroke-opacity:1"
           id="tspan4313">!</tspan></tspan></text>
  </g>
</svg>
