<?xml version="1.0" encoding="UTF-8" standalone="no"?>
<!-- Created with Inkscape (http://www.inkscape.org/) -->

<svg
   xmlns:dc="http://purl.org/dc/elements/1.1/"
   xmlns:cc="http://creativecommons.org/ns#"
   xmlns:rdf="http://www.w3.org/1999/02/22-rdf-syntax-ns#"
   xmlns:svg="http://www.w3.org/2000/svg"
   xmlns="http://www.w3.org/2000/svg"
   xmlns:xlink="http://www.w3.org/1999/xlink"
   xmlns:sodipodi="http://sodipodi.sourceforge.net/DTD/sodipodi-0.dtd"
   xmlns:inkscape="http://www.inkscape.org/namespaces/inkscape"
   id="svg2"
   version="1.1"
   inkscape:version="0.92.4 (5da689c313, 2019-01-14)"
   width="2481"
   height="3503"
   sodipodi:docname="E03P05.svg">
  <metadata
     id="metadata8">
    <rdf:RDF>
      <cc:Work
         rdf:about="">
        <dc:format>image/svg+xml</dc:format>
        <dc:type
           rdf:resource="http://purl.org/dc/dcmitype/StillImage" />
        <dc:title />
      </cc:Work>
    </rdf:RDF>
  </metadata>
  <defs
     id="defs6" />
  <sodipodi:namedview
     pagecolor="#ffffff"
     bordercolor="#666666"
     borderopacity="1"
     objecttolerance="10"
     gridtolerance="10"
     guidetolerance="10"
     inkscape:pageopacity="0"
     inkscape:pageshadow="2"
     inkscape:window-width="1920"
     inkscape:window-height="1019"
     id="namedview4"
     showgrid="false"
     inkscape:zoom="0.66831372"
     inkscape:cx="1437.604"
     inkscape:cy="2770.5643"
     inkscape:window-x="2560"
     inkscape:window-y="34"
     inkscape:window-maximized="1"
     inkscape:current-layer="layer3" />
  <g
     inkscape:groupmode="layer"
     id="layer2"
     inkscape:label="artwork"
     sodipodi:insensitive="true"
     style="display:inline">
    <image
       sodipodi:absref="/home/deevad/peppercarrot/webcomics/ep03_The-secret-ingredients/lang/go/../gfx_Pepper-and-Carrot_by-David-Revoy_E03P05.png"
       xlink:href="../gfx_Pepper-and-Carrot_by-David-Revoy_E03P05.png"
       width="2481"
       height="3503"
       id="image10"
       x="0"
       y="0" />
  </g>
  <g
     inkscape:groupmode="layer"
     id="layer3"
     inkscape:label="speechbubbles">
    <path
       style="fill:#ffffff;stroke:none"
       d="M 1834.9844 642.3418 C 1790.4063 644.18147 1745.5547 647.46339 1702.1535 658.38476 C 1669.9564 667.36162 1639.0504 682.63931 1614.4189 705.49171 C 1598.1983 722.66354 1590.6244 746.75047 1591.1629 770.1119 C 1591.58 790.4225 1598.618 809.74447 1604.8401 828.83971 C 1612.6074 852.17379 1626.0734 874.13249 1645.6777 889.33008 C 1663.8943 904.37288 1683.0463 918.96373 1705.1501 927.8045 C 1725.5838 935.60875 1747.1879 939.57482 1768.5895 943.6996 C 1836.625 955.76696 1906.6177 955.1764 1974.7865 944.44491 C 2013.6223 938.43029 2052.0101 929.68644 2089.8292 919.0438 C 2113.054 912.19042 2136.1327 904.13421 2157.2713 892.16944 C 2179.0261 879.54346 2198.3761 861.87326 2210.3447 839.53207 C 2223.4459 815.81998 2229.9197 788.01172 2226.3405 761.00075 C 2221.4438 734.50492 2202.6167 711.51394 2178.4606 699.99256 C 2159.1161 689.57217 2140.5443 677.59601 2120.2987 668.93554 C 2100.5793 661.67109 2079.5405 659.47858 2058.9207 656.17121 C 1994.1475 647.19589 1928.6672 646.17957 1863.4745 642.43316 C 1853.9816 642.01088 1844.4769 641.79457 1834.9844 642.3418 z "
       id="path3061"
       inkscape:connector-curvature="0"
       sodipodi:nodetypes="cssssssssc" />
    <path
       style="fill:#ffffff;stroke:none"
       d="m 1585.3047,973.8132 c 55.1757,24.47096 131.0944,11.89808 156.4446,-58.40596 15.3597,-42.5973 19.8163,-69.87856 19.8163,-69.87856 l 30.2459,34.4178 -14.6015,49.01929 c 0,0 -66.7497,114.72603 -191.9053,44.84743 z"
       id="path3063"
       inkscape:connector-curvature="0"
       sodipodi:nodetypes="cscccc" />
    <path
       style="fill:#ffffff;stroke:none"
       d="m 1078.4244,1879.791 c 3.1289,-70.647 43.8045,-122.6512 264.9128,-121.67 221.1082,0.9812 270.1275,17.6618 281.6001,87.3277 11.4726,69.6659 -26.0741,93.215 -77.1793,118.7265 -51.1052,25.5115 -170.003,59.8538 -268.0416,42.192 -98.0386,-17.6618 -207.5498,-58.8726 -201.292,-126.5762 z"
       id="path3065"
       inkscape:connector-curvature="0" />
    <path
       style="fill:#ffffff;stroke:none;stroke-width:1px;stroke-linecap:butt;stroke-linejoin:miter;stroke-opacity:1"
       d="m 1178.5489,2195.1236 c -49.0193,-99.0815 -43.8045,-127.2416 51.1052,-205.4638 94.9097,-78.2223 31.2889,-88.6519 31.2889,-88.6519 0,0 -235.7098,154.3586 -82.3941,294.1157 z"
       id="path3067"
       inkscape:connector-curvature="0" />
  </g>
  <g
     inkscape:groupmode="layer"
     id="layer1"
     inkscape:label="txt">
    <flowRoot
       xml:space="preserve"
       id="flowRoot2987"
       style="font-style:normal;font-variant:normal;font-weight:normal;font-stretch:normal;line-height:0.01%;font-family:Lavi;-inkscape-font-specification:Lavi;letter-spacing:0px;word-spacing:0px;fill:#000000;fill-opacity:1;stroke:none"
       transform="translate(1487.2986,457.6741)"><flowRegion
         id="flowRegion2989"><rect
           id="rect2991"
           width="595.16437"
           height="279.48315"
           x="120.55251"
           y="265.53046"
           style="font-style:normal;font-variant:normal;font-weight:normal;font-stretch:normal;font-family:Lavi;-inkscape-font-specification:Lavi" /></flowRegion><flowPara
         style="font-size:48px;line-height:1.25;text-align:center;text-anchor:middle"
         id="flowPara3983">Me faoraet dez degoutalhs de brime de hurets, </flowPara><flowPara
         style="font-size:48px;line-height:1.25;text-align:center;text-anchor:middle"
         id="flowPara3985">pour comencer…</flowPara></flowRoot>    <flowRoot
       xml:space="preserve"
       id="flowRoot2987-3"
       style="font-style:normal;font-variant:normal;font-weight:normal;font-stretch:normal;line-height:0.01%;font-family:Lavi;-inkscape-font-specification:Lavi;letter-spacing:0px;word-spacing:0px;fill:#000000;fill-opacity:1;stroke:none"
       transform="translate(979.6641,1559.3361)"><flowRegion
         id="flowRegion2989-7"><rect
           id="rect2991-1"
           width="490.67957"
           height="315.00369"
           x="120.55251"
           y="265.53046"
           style="font-style:normal;font-variant:normal;font-weight:normal;font-stretch:normal;font-family:Lavi;-inkscape-font-specification:Lavi" /></flowRegion><flowPara
         style="font-size:48px;line-height:1.25;text-align:center;text-anchor:middle"
         id="flowPara3059">... e qheuqe baes de la foreyt faeyney</flowPara></flowRoot>  </g>
</svg>
