<?xml version="1.0" encoding="UTF-8" standalone="no"?>
<svg
   xmlns:dc="http://purl.org/dc/elements/1.1/"
   xmlns:cc="http://creativecommons.org/ns#"
   xmlns:rdf="http://www.w3.org/1999/02/22-rdf-syntax-ns#"
   xmlns:svg="http://www.w3.org/2000/svg"
   xmlns="http://www.w3.org/2000/svg"
   xmlns:xlink="http://www.w3.org/1999/xlink"
   xmlns:sodipodi="http://sodipodi.sourceforge.net/DTD/sodipodi-0.dtd"
   xmlns:inkscape="http://www.inkscape.org/namespaces/inkscape"
   id="svg2"
   version="1.1"
   inkscape:version="1.0.2 (e86c870879, 2021-01-15)"
   width="2481"
   height="3503"
   sodipodi:docname="E34P01.svg">
  <metadata
     id="metadata8">
    <rdf:RDF>
      <cc:Work
         rdf:about="">
        <dc:format>image/svg+xml</dc:format>
        <dc:type
           rdf:resource="http://purl.org/dc/dcmitype/StillImage" />
        <dc:title />
      </cc:Work>
    </rdf:RDF>
  </metadata>
  <defs
     id="defs6">
    <filter
       inkscape:collect="always"
       style="color-interpolation-filters:sRGB"
       id="filter7961"
       x="-0.0038362744"
       width="1.0076725"
       y="-0.012583922"
       height="1.0251678"
       inkscape:label="blur-layer-whisper">
      <feGaussianBlur
         inkscape:collect="always"
         stdDeviation="2.6222679"
         id="feGaussianBlur7963" />
    </filter>
    <filter
       style="color-interpolation-filters:sRGB;"
       inkscape:label="narrator-drop-shadow"
       id="filter8274"
       width="1.3"
       height="1.5">
      <feFlood
         flood-opacity="0.603922"
         flood-color="rgb(0,21,64)"
         result="flood"
         id="feFlood8264" />
      <feComposite
         in="flood"
         in2="SourceGraphic"
         operator="in"
         result="composite1"
         id="feComposite8266" />
      <feGaussianBlur
         in="composite1"
         stdDeviation="2.0230825044646368"
         result="blur"
         id="feGaussianBlur8268" />
      <feOffset
         dx="-7.4077921838061513"
         dy="4.8380533854166714"
         result="offset"
         id="feOffset8270" />
      <feComposite
         in="SourceGraphic"
         in2="offset"
         operator="over"
         result="fbSourceGraphic"
         id="feComposite8272" />
      <feColorMatrix
         result="fbSourceGraphicAlpha"
         in="fbSourceGraphic"
         values="0 0 0 -1 0 0 0 0 -1 0 0 0 0 -1 0 0 0 0 1 0"
         id="feColorMatrix8420" />
      <feFlood
         id="feFlood8422"
         flood-opacity="0.061934527228860295"
         flood-color="rgb(0,12,37)"
         result="flood"
         in="fbSourceGraphic" />
      <feComposite
         in2="fbSourceGraphic"
         id="feComposite8424"
         in="flood"
         operator="in"
         result="composite1" />
      <feGaussianBlur
         id="feGaussianBlur8426"
         in="composite1"
         stdDeviation="1"
         result="blur" />
      <feOffset
         id="feOffset8428"
         dx="-3.3194756113327486"
         dy="-2.8318869588504754"
         result="offset" />
      <feComposite
         in2="offset"
         id="feComposite8430"
         in="fbSourceGraphic"
         operator="over"
         result="composite2" />
    </filter>
  </defs>
  <sodipodi:namedview
     pagecolor="#ffffff"
     bordercolor="#666666"
     borderopacity="1"
     objecttolerance="10"
     gridtolerance="10"
     guidetolerance="10"
     inkscape:pageopacity="0"
     inkscape:pageshadow="2"
     inkscape:window-width="1920"
     inkscape:window-height="1043"
     id="namedview4"
     showgrid="false"
     inkscape:zoom="0.30952006"
     inkscape:cx="838.92066"
     inkscape:cy="2286.017"
     inkscape:window-x="0"
     inkscape:window-y="0"
     inkscape:window-maximized="1"
     inkscape:current-layer="layer4"
     inkscape:document-rotation="0"
     borderlayer="true"
     inkscape:snap-global="false" />
  <g
     inkscape:groupmode="layer"
     id="layer2"
     inkscape:label="artwork"
     sodipodi:insensitive="true">
    <image
       sodipodi:absref="/home/martin/peppercarrot/webcomics/new-ep34_The-Knighting-of-Shichimi/lang/gfx_Pepper-and-Carrot_by-David-Revoy_E34P01.png"
       xlink:href="../gfx_Pepper-and-Carrot_by-David-Revoy_E34P01.png"
       y="0"
       x="0"
       id="image10"
       height="3503.7233"
       width="2481" />
  </g>
  <g
     inkscape:groupmode="layer"
     id="layer3"
     inkscape:label="speechbubbles-whisper"
     style="display:inline;opacity:0.65;filter:url(#filter7961)">
    <path
       id="path1299"
       style="fill:#e0ffff;fill-rule:evenodd;stroke:none;stroke-width:1.254px;stroke-linecap:butt;stroke-linejoin:miter;stroke-opacity:1"
       d="m 1493.8738,2593.9831 c -39.2719,2.5162 -78.8828,4.2884 -117.4283,13.7911 -31.845,9.4174 -62.5408,24.2883 -88.9374,45.4706 -21.2254,18.6953 -35.874,46.2146 -37.3054,75.1448 -1.2631,32.5142 16.6242,64.1698 43.6129,79.6764 19.9691,12.1023 41.829,20.3148 63.4018,28.8193 31.3959,11.2866 64.8685,15.5286 98.1536,15.592 40.6006,0.5577 81.1943,-2.4683 121.7525,-4.8903 32.2428,-2.1395 64.8525,-4.9366 95.9605,-15.123 18.5959,-6.3365 36.0037,-17.1139 49.5181,-32.0521 10.8815,-11.4412 21.1498,-24.5457 25.2288,-40.3218 4.3467,-17.4793 1.8359,-35.8231 -3.008,-52.7156 -6.2462,-20.9843 -18.6778,-39.475 -34.2161,-54.0521 -17.1123,-16.186 -36.4368,-30.1537 -58.0332,-39.1518 -10.9433,-4.6851 -22.4784,-7.7518 -34.1719,-9.7804 -29.6254,-5.6806 -59.7716,-8.0375 -89.8568,-10.0475 -11.5414,-0.5431 -23.1079,-0.6169 -34.6711,-0.3596 z" />
    <path
       style="fill:#e0ffff;fill-rule:evenodd;stroke:none;stroke-width:1.61522px;stroke-linecap:butt;stroke-linejoin:miter;stroke-opacity:1"
       d="m 1282.0329,2519.2939 c -26.7324,0.5715 -53.9131,3.124 -78.3235,10.569 -28.8576,9.335 -48.8641,29.5951 -48.7946,50.6444 0.6492,10.9745 8.7446,21.3476 20.1139,29.2934 8.1683,5.6779 18.4227,9.8604 29.1172,13.2307 21.5322,7.0126 45.6623,10.2679 69.6634,10.4477 38.2428,1.3792 76.927,-0.345 114.1463,-6.3959 17.5159,-2.9712 34.9549,-7.7122 47.9351,-16.162 13.2869,-8.3459 23.0256,-19.6239 24.1749,-31.7683 0.3526,-10.8875 -6.9082,-21.2253 -16.3626,-29.9724 -12.0479,-11.6163 -30.4591,-20.6918 -51.6349,-23.8402 -25.7626,-4.5851 -52.6407,-5.1076 -79.1666,-5.8492 -10.2865,-0.1945 -20.5784,-0.2195 -30.8686,-0.1972 z"
       id="path1285"
       inkscape:connector-curvature="0" />
    <path
       style="font-variation-settings:normal;vector-effect:none;fill:#e0ffff;fill-opacity:1;stroke:none;stroke-width:1.42934px;stroke-linecap:butt;stroke-linejoin:miter;stroke-miterlimit:4;stroke-dasharray:none;stroke-dashoffset:0;stroke-opacity:1;stop-color:#000000"
       d="m 247.23264,2520.0786 c -28.38432,1.5306 -56.8822,13.0869 -78.9986,35.7003 -18.63166,18.4108 -34.2286,42.6864 -41.45298,71.1985 -11.99049,51.2864 2.65545,110.6673 36.08198,144.2817 18.12316,18.5535 40.5932,29.0041 63.17043,35.7649 38.16304,11.0072 78.09262,12.2588 116.69462,4.0824 23.38738,-5.8177 46.32127,-18.0477 63.70922,-38.7829 18.85509,-22.5085 31.17186,-54.0008 32.0321,-86.6994 0.60108,-18.3164 -1.15573,-36.6548 -4.02795,-54.5947 -4.90025,-28.0084 -16.81391,-54.43 -34.75204,-72.6568 -11.96137,-12.3187 -26.3247,-20.6772 -41.32397,-25.41 -25.60296,-8.8488 -52.26838,-11.39 -78.71986,-12.5585 -10.80183,-0.3563 -21.60826,-0.3318 -32.41295,-0.3255 z"
       id="path3280-8-90"
       inkscape:connector-curvature="0"
       sodipodi:nodetypes="csssc" />
    <path
       style="fill:#e0ffff;fill-opacity:1;fill-rule:evenodd;stroke:none;stroke-width:1.28082px;stroke-linecap:butt;stroke-linejoin:miter;stroke-opacity:1"
       d="m 405.61348,2631.9631 c 42.85265,-5.0607 58.06957,-2.3086 68.49973,0.7202 10.42915,3.0295 34.5561,33.0962 43.85358,53.3011 -34.06156,-36.1486 -48.52756,-39.3772 -65.05064,-34.4498 -16.52311,4.9273 -63.29994,23.4366 -63.29994,23.4366 l 11.09296,-45.4041 z"
       id="path1291"
       inkscape:connector-curvature="0"
       sodipodi:nodetypes="csccccc" />
    <path
       style="fill:#e0ffff;fill-rule:evenodd;stroke:none;stroke-width:0.964753px;stroke-linecap:butt;stroke-linejoin:miter;stroke-opacity:1"
       d="m 1434.2038,2989.2388 c 48.3667,-37.0134 81.9085,-79.2404 77.928,-171.8638 l 30.8393,-3.1198 c -4.7727,67.6875 -17.9327,144.5385 -108.7673,174.9836 z"
       id="path1291-6"
       inkscape:connector-curvature="0"
       sodipodi:nodetypes="cccc" />
  </g>
  <g
     inkscape:groupmode="layer"
     id="layer4"
     inkscape:label="speechbubbles"
     style="display:inline">
    <path
       id="path4040-4-1"
       style="color:#000000;display:inline;overflow:visible;visibility:visible;fill:#ffffff;fill-opacity:1;fill-rule:nonzero;stroke:none;stroke-width:0.874474px;marker:none;enable-background:accumulate"
       d="m 408.78284,1883.1559 c -55.12872,0.572 -110.63884,0.3559 -165.13124,10.2996 -32.24091,6.4965 -63.04374,23.3483 -84.74481,49.4291 -9.89021,12.0157 -16.86547,26.6472 -19.76735,42.2419 -5.11611,24.9363 -3.0074,50.9635 2.79633,75.5535 6.1539,24.8082 18.23475,48.6238 37.16316,65.276 17.1116,15.4198 38.55198,24.8739 60.63447,29.0997 21.94763,4.5949 44.22443,7.2616 66.50828,9.2759 62.21554,5.1338 124.65684,2.1687 186.96331,1.2497 36.32757,-1.004 73.12733,-4.6449 107.55298,-17.5703 19.15229,-6.8128 38.47792,-15.2546 53.41072,-29.9635 13.39742,-14.4558 19.85487,-34.0966 24.36131,-53.2713 5.40947,-24.3263 7.11792,-49.7394 3.64403,-74.5053 -4.10922,-24.2516 -16.95505,-46.6381 -35.29178,-62.0201 -15.55292,-13.4463 -34.48708,-21.8125 -53.81945,-27.2608 -55.01958,-17.1058 -112.96229,-17.7951 -169.88041,-17.8666 -4.79992,-0.016 -9.59969,0.01 -14.39955,0.033 z" />
    <path
       style="color:#000000;display:inline;overflow:visible;visibility:visible;fill:#ffffff;fill-opacity:1;fill-rule:nonzero;stroke:none;stroke-width:1.80075px;marker:none;enable-background:accumulate"
       d="m 539.19946,1927.3519 c 7.55014,-44.8382 62.74837,-99.1824 137.61984,-61.3131 -80.77928,-16.5552 -107.19343,39.0539 -106.74645,81.3775 0.39562,37.4602 -16.36437,17.1598 -16.36437,17.1598 z"
       id="path4440-1"
       inkscape:connector-curvature="0"
       sodipodi:nodetypes="ccscc" />
    <path
       style="color:#000000;display:inline;overflow:visible;visibility:visible;fill:#ffffff;fill-opacity:1;fill-rule:nonzero;stroke:none;stroke-width:0.700598px;marker:none;enable-background:accumulate"
       d="m 1779.798,2838.742 c -18.715,2.5941 -37.5529,6.1471 -55.2335,15.0673 -9.3088,5.0192 -16.8625,15.2749 -21.4017,27.5302 -3.5449,9.6259 -5.2774,20.8902 -3.73,31.7544 2.3606,17.7548 11.4958,33.6763 23.5164,40.7039 11.4571,7.3046 23.9989,9.9763 36.3479,11.8771 28.4602,4.1258 57.0211,2.1775 85.5267,3.6831 12.5249,0.5793 25.3124,-1.5255 36.7032,-8.7592 9.6072,-5.9879 18.225,-15.7271 23.1941,-28.7969 3.6027,-9.1181 4.982,-20.0225 3.5034,-30.4029 -1.1872,-9.349 -4.4931,-18.1027 -9.0962,-25.1567 -7.0339,-11.1973 -16.6939,-18.6282 -26.7548,-22.9969 -13.5929,-6.3166 -27.7029,-9.99 -41.8292,-12.6239 -16.8584,-2.8848 -33.8649,-3.1672 -50.7463,-1.8795 z"
       id="path4040-2"
       inkscape:connector-curvature="0"
       sodipodi:nodetypes="zssssz" />
    <path
       style="color:#000000;display:inline;overflow:visible;visibility:visible;fill:#ffffff;fill-opacity:1;fill-rule:nonzero;stroke:none;stroke-width:0.811733px;marker:none;enable-background:accumulate"
       d="m 2020.2723,2999.0346 c 42.5246,54.5422 86.7334,47.5024 118.7066,15.8691 -23.32,34.399 -69.359,69.3478 -144.2603,0.1036 -14.3413,-13.258 25.5537,-15.9727 25.5537,-15.9727 z"
       id="path5010-4"
       inkscape:connector-curvature="0"
       sodipodi:nodetypes="ccsc" />
    <path
       style="color:#000000;display:inline;overflow:visible;visibility:visible;fill:#ffffff;fill-opacity:1;fill-rule:nonzero;stroke:none;stroke-width:0.948382px;marker:none;enable-background:accumulate"
       d="m 1876.2603,2933.0122 c -43.215,0.6587 -87.7277,4.3895 -123.948,14.737 -22.3728,6.652 -34.8049,17.3743 -44.0774,27.8467 -10.9795,12.0976 -15.821,25.9135 -4.7853,38.3179 11.4132,12.829 37.3492,22.4191 65.6484,28.7551 61.7615,13.9106 135.1094,17.0913 203.6793,12.1674 22.2194,-1.5793 44.6358,-3.9689 63.7184,-9.1744 25.0042,-6.5027 44.5348,-16.5339 54.5306,-28.1089 15.8544,-17.5011 11.8744,-38.4551 -14.714,-53.7969 -21.5761,-12.6152 -55.5518,-20.635 -90.9381,-24.5617 -35.3602,-4.3234 -72.2824,-6.3664 -109.1139,-6.1822 z"
       id="path4040-2-5"
       inkscape:connector-curvature="0"
       sodipodi:nodetypes="zssssz" />
    <rect
       style="color:#000000;overflow:visible;fill:#eeffdb;fill-opacity:0.89322;stroke:#807e00;stroke-width:8.05223;stroke-opacity:1;paint-order:stroke fill markers;filter:url(#filter8274);stop-color:#000000"
       id="rect8238"
       width="417.40149"
       height="86.261734"
       x="128.97966"
       y="127.99652"
       transform="matrix(1.3789257,0,0,1.0792008,-38.901017,-4.2844648)" />
  </g>
  <g
     inkscape:groupmode="layer"
     id="layer1"
     inkscape:label="txt">
    <text
       xml:space="preserve"
       style="font-style:normal;font-variant:normal;font-weight:normal;font-stretch:normal;font-size:45px;line-height:1.25;font-family:Lavi;-inkscape-font-specification:Lavi;text-align:center;letter-spacing:0px;word-spacing:0px;text-anchor:middle;fill:#000000;fill-opacity:1;stroke:none"
       x="427.37161"
       y="199.69008"
       id="text4246-3-2-2-35"><tspan
         style="font-size:45px"
         sodipodi:role="line"
         x="427.37161"
         y="199.69008"
         id="tspan905-2">Noch in der selben Nacht...</tspan></text>
    <text
       xml:space="preserve"
       style="font-style:normal;font-variant:normal;font-weight:normal;font-stretch:normal;font-size:45px;line-height:1.25;font-family:Lavi;-inkscape-font-specification:Lavi;text-align:center;letter-spacing:0px;word-spacing:0px;text-anchor:middle;fill:#000000;fill-opacity:1;stroke:none"
       x="401.54623"
       y="1957.7998"
       id="text4246-3-2-2"><tspan
         style="font-size:45px"
         sodipodi:role="line"
         x="401.54623"
         y="1957.7998"
         id="tspan915">...somit nehmen wir</tspan><tspan
         style="font-size:45px"
         sodipodi:role="line"
         x="401.54623"
         y="2014.0498"
         id="tspan905">dich auf, Shichimi,</tspan><tspan
         style="font-size:45px"
         sodipodi:role="line"
         x="401.54623"
         y="2070.2998"
         id="tspan83">als unsere jüngste</tspan><tspan
         style="font-size:45px"
         sodipodi:role="line"
         x="401.54623"
         y="2126.5498"
         id="tspan85">Ritterin von Ah.</tspan></text>
    <text
       xml:space="preserve"
       style="font-style:normal;font-variant:normal;font-weight:normal;font-stretch:normal;font-size:45px;line-height:1.25;font-family:Lavi;-inkscape-font-specification:Lavi;text-align:center;letter-spacing:0px;word-spacing:0px;text-anchor:middle;fill:#000000;fill-opacity:1;stroke:none"
       x="281.69833"
       y="2592.4832"
       id="text4246-3-2-2-3"><tspan
         style="font-size:45px;fill:#000000;fill-opacity:1"
         sodipodi:role="line"
         x="281.69833"
         y="2592.4832"
         id="tspan1165">Immer</tspan><tspan
         style="font-size:45px;fill:#000000;fill-opacity:1"
         sodipodi:role="line"
         x="281.69833"
         y="2648.7332"
         id="tspan92">noch keine</tspan><tspan
         style="font-size:45px;fill:#000000;fill-opacity:1"
         sodipodi:role="line"
         x="281.69833"
         y="2704.9832"
         id="tspan94">Spur von</tspan><tspan
         style="font-size:45px;fill:#000000;fill-opacity:1"
         sodipodi:role="line"
         x="281.69833"
         y="2761.2332"
         id="tspan96">Pepper?</tspan></text>
    <text
       xml:space="preserve"
       style="font-style:normal;font-variant:normal;font-weight:normal;font-stretch:normal;font-size:45px;line-height:1.25;font-family:Lavi;-inkscape-font-specification:Lavi;text-align:center;letter-spacing:0px;word-spacing:0px;text-anchor:middle;white-space:pre;inline-size:253.323;fill:#000000;fill-opacity:1;stroke:none"
       x="1320.327"
       y="2594.489"
       id="text4246-3-2-2-3-5"
       transform="translate(-10.795882,-6.9036151)"><tspan
         x="1320.327"
         y="2594.489"><tspan
           style="font-size:45px;fill:#000000;fill-opacity:1">Noch nicht.</tspan></tspan></text>
    <text
       xml:space="preserve"
       style="font-style:normal;font-variant:normal;font-weight:normal;font-stretch:normal;font-size:45px;line-height:1.25;font-family:Lavi;-inkscape-font-specification:Lavi;text-align:center;letter-spacing:0px;word-spacing:0px;text-anchor:middle;fill:#000000;fill-opacity:1;stroke:none"
       x="1500.6705"
       y="2678.0779"
       id="text4246-3-2-2-3-5-1"><tspan
         style="font-size:45px;fill:#000000;fill-opacity:1"
         sodipodi:role="line"
         x="1500.6705"
         y="2678.0779"
         id="tspan7590">Wenn sie sich</tspan><tspan
         style="font-size:45px;fill:#000000;fill-opacity:1"
         sodipodi:role="line"
         x="1500.6705"
         y="2734.3279"
         id="tspan103">nicht beeilt, verpasst</tspan><tspan
         style="font-size:45px;fill:#000000;fill-opacity:1"
         sodipodi:role="line"
         x="1500.6705"
         y="2790.5779"
         id="tspan105">sie Shichimis Rede.</tspan></text>
    <text
       xml:space="preserve"
       style="font-style:normal;font-variant:normal;font-weight:normal;font-stretch:normal;font-size:45px;line-height:1.25;font-family:Lavi;-inkscape-font-specification:Lavi;text-align:center;letter-spacing:0px;word-spacing:0px;text-anchor:middle;fill:#000000;fill-opacity:1;stroke:none"
       x="1803.6787"
       y="2918.1755"
       id="text4246-3-2-2-3-5-1-7"><tspan
         style="font-size:45px"
         sodipodi:role="line"
         x="1803.6787"
         y="2918.1755"
         id="tspan7676">Danke.</tspan></text>
    <text
       xml:space="preserve"
       style="font-style:normal;font-variant:normal;font-weight:normal;font-stretch:normal;font-size:45px;line-height:1.25;font-family:Lavi;-inkscape-font-specification:Lavi;text-align:center;letter-spacing:0px;word-spacing:0px;text-anchor:middle;fill:#000000;fill-opacity:1;stroke:none"
       x="1909.9255"
       y="3010.7527"
       id="text4246-3-2-2-3-5-1-7-3"><tspan
         style="font-size:45px"
         sodipodi:role="line"
         x="1909.9255"
         y="3010.7527"
         id="tspan109">Ich würde gern...</tspan></text>
  </g>
</svg>
