<?xml version="1.0" encoding="UTF-8" standalone="no"?>
<svg
   xmlns:dc="http://purl.org/dc/elements/1.1/"
   xmlns:cc="http://creativecommons.org/ns#"
   xmlns:rdf="http://www.w3.org/1999/02/22-rdf-syntax-ns#"
   xmlns:svg="http://www.w3.org/2000/svg"
   xmlns="http://www.w3.org/2000/svg"
   xmlns:xlink="http://www.w3.org/1999/xlink"
   xmlns:sodipodi="http://sodipodi.sourceforge.net/DTD/sodipodi-0.dtd"
   xmlns:inkscape="http://www.inkscape.org/namespaces/inkscape"
   id="svg2"
   version="1.1"
   inkscape:version="1.0.1 (3bc2e813f5, 2020-09-07)"
   width="2481"
   height="3503"
   sodipodi:docname="E35P01.svg">
  <metadata
     id="metadata8">
    <rdf:RDF>
      <cc:Work
         rdf:about="">
        <dc:format>image/svg+xml</dc:format>
        <dc:type
           rdf:resource="http://purl.org/dc/dcmitype/StillImage" />
        <dc:title />
      </cc:Work>
    </rdf:RDF>
  </metadata>
  <defs
     id="defs6" />
  <sodipodi:namedview
     pagecolor="#ffffff"
     bordercolor="#666666"
     borderopacity="1"
     objecttolerance="10"
     gridtolerance="10"
     guidetolerance="10"
     inkscape:pageopacity="0"
     inkscape:pageshadow="2"
     inkscape:window-width="1366"
     inkscape:window-height="715"
     id="namedview4"
     showgrid="false"
     inkscape:zoom="0.42773946"
     inkscape:cx="1316.2606"
     inkscape:cy="2890.9363"
     inkscape:window-x="-8"
     inkscape:window-y="-8"
     inkscape:window-maximized="1"
     inkscape:current-layer="layer1"
     inkscape:document-rotation="0"
     inkscape:pagecheckerboard="0" />
  <g
     inkscape:groupmode="layer"
     id="layer2"
     inkscape:label="artwork"
     sodipodi:insensitive="true">
    <image
       sodipodi:absref="D:\Projects\lang\gfx_Pepper-and-Carrot_by-David-Revoy_E35P01.png"
       xlink:href="../gfx_Pepper-and-Carrot_by-David-Revoy_E35P01.png"
       y="0"
       x="0"
       id="image10"
       height="3503"
       width="2481" />
  </g>
  <g
     inkscape:groupmode="layer"
     id="layer3"
     inkscape:label="speechbubbles">
    <path
       style="color:#000000;display:inline;overflow:visible;visibility:visible;fill:#ffffff;fill-opacity:1;fill-rule:nonzero;stroke:none;stroke-width:0.739665px;marker:none;enable-background:accumulate"
       d="m 917.97664,2690.8716 c -67.98881,0.5082 -168.91136,-8.9399 -192.12396,-42.1866 -23.2125,-33.2467 -25.40068,-88.0062 11.58365,-110.9286 36.98422,-22.9224 103.87474,-34.8201 162.97318,-33.7844 59.09835,1.0364 138.17489,17.56 160.01199,48.7678 21.8371,31.2071 13.2901,102.7842 -60.2704,123.3102 -73.56073,20.526 -82.17446,14.8216 -82.17446,14.8216 z"
       id="path3970-3"
       inkscape:connector-curvature="0"
       sodipodi:nodetypes="cccscsc" />
    <path
       style="color:#000000;display:inline;overflow:visible;visibility:visible;fill:#ffffff;fill-opacity:1;fill-rule:nonzero;stroke:none;stroke-width:0.835334px;marker:none;enable-background:accumulate"
       d="m 996.05942,2831.7636 c -79.43436,0.5547 -197.34667,-9.7593 -224.46698,-46.0527 -27.12019,-36.2934 -29.67674,-96.0711 13.53369,-121.0941 43.2103,-25.0232 121.36148,-38.0111 190.40877,-36.8806 69.0473,1.1314 161.436,19.1693 186.9492,53.237 25.5133,34.067 15.5274,112.2034 -70.4168,134.6105 -85.9442,22.407 -96.00788,16.1799 -96.00788,16.1799 z"
       id="path3970-3-3"
       inkscape:connector-curvature="0"
       sodipodi:nodetypes="cccscsc" />
    <path
       style="fill:#ffffff;fill-rule:evenodd;stroke:none;stroke-width:1.06225px;stroke-linecap:butt;stroke-linejoin:miter;stroke-opacity:1"
       d="m 1138.6124,2791.6336 c 16.785,-19.6056 38.6627,-36.0206 49.0019,-34.6196 10.3392,1.401 38.8276,20.2647 44.0486,-5.9091 5.221,-26.1736 -0.464,-38.1966 10.459,-36.0914 10.9231,2.1053 27.5797,11.864 30.0863,25.9568 -8.4109,-33.022 -32.6982,-39.4387 -40.8556,-33.0423 -8.1574,6.3964 -12.4748,9.1065 -15.8247,34.4602 -6.2288,19.6797 -15.2021,-31.4488 -75.7503,-2.4836 -29.6051,28.4958 -1.1652,51.729 -1.1652,51.729 z"
       id="path1085"
       inkscape:connector-curvature="0"
       sodipodi:nodetypes="cscscsccc" />
    <path
       style="color:#000000;display:inline;overflow:visible;visibility:visible;fill:#ffffff;fill-opacity:1;fill-rule:nonzero;stroke:none;stroke-width:1.05555px;marker:none;enable-background:accumulate"
       d="m 1633.2031,2579.3745 c -4.4274,-85.7111 -19.0988,-94.4775 148.1194,-99.0941 90.3624,-2.4948 244.6841,3.4642 234.1375,129.0748 -10.5468,125.6094 -156.8828,115.265 -187.2045,116.7429 -30.322,1.478 -206.5272,-11.9281 -191.8579,-56.1019 9.1827,-27.6519 -2.4566,-64.0224 -3.1945,-90.6217 z"
       id="path4546-1"
       inkscape:connector-curvature="0"
       sodipodi:nodetypes="cssssc" />
    <path
       style="fill:#ffffff;stroke:none;stroke-width:1.75731"
       d="m 1900.6372,3306.7841 c -3.1967,-104.602 34.4697,-183.4639 220.3963,-175.6736 185.9266,7.7904 280.2595,-2.5287 282.9398,141.4399 0.9573,51.4187 11.7025,112.4549 -16.9742,134.7929 -47.2458,36.8027 -154.4796,15.8228 -241.624,22.6773 -144.3643,11.3552 -235.3045,-27.0051 -244.7379,-123.2365 z"
       id="path3280-81"
       inkscape:connector-curvature="0"
       sodipodi:nodetypes="cssssc" />
    <path
       style="color:#000000;display:inline;overflow:visible;visibility:visible;fill:#ffffff;fill-opacity:1;fill-rule:nonzero;stroke:none;stroke-width:1.06477px;marker:none;enable-background:accumulate"
       d="m 1845.2728,2690.1037 c -17.7418,51.5577 -0.5352,96.2189 44.4232,120.3111 -75.8904,-27.089 -92.8027,-105.8188 -83.4584,-127.2019 9.1494,-20.9367 39.0352,6.8908 39.0352,6.8908 z"
       id="path5010-4"
       inkscape:connector-curvature="0"
       sodipodi:nodetypes="ccsc" />
    <path
       style="color:#000000;display:inline;overflow:visible;visibility:visible;fill:#ffffff;fill-opacity:1;fill-rule:nonzero;stroke:none;stroke-width:1px;marker:none;enable-background:accumulate"
       d="m 2181.6979,3039.5111 c 15.5881,37.565 19.0292,51.8083 -13.2212,86.5196 -32.2502,34.7102 -19.1075,46.3288 -19.1075,46.3288 l 31.133,-8.0771 c 0,0 63.6316,-78.7837 1.1957,-124.7713 z"
       id="path3072-56"
       inkscape:connector-curvature="0" />
  </g>
  <g
     inkscape:groupmode="layer"
     id="layer1"
     inkscape:label="txt">
    <text
       xml:space="preserve"
       style="font-style:normal;font-variant:normal;font-weight:normal;font-stretch:normal;font-size:45px;line-height:1.25;font-family:Lavi;-inkscape-font-specification:Lavi;text-align:center;letter-spacing:0px;word-spacing:0px;text-anchor:middle;fill:#000000;fill-opacity:1;stroke:none"
       x="889.83203"
       y="2588.8479"
       id="text4246-3-2-2"><tspan
         style="font-size:45px"
         sodipodi:role="line"
         x="889.83203"
         y="2588.8479"
         id="tspan34">Oh, kau sudah</tspan><tspan
         style="font-size:45px"
         sodipodi:role="line"
         x="889.83203"
         y="2645.0979"
         id="tspan42">bangun!</tspan></text>
    <text
       xml:space="preserve"
       style="font-style:normal;font-variant:normal;font-weight:normal;font-stretch:normal;font-size:45px;line-height:1.25;font-family:Lavi;-inkscape-font-specification:Lavi;text-align:center;letter-spacing:0px;word-spacing:0px;text-anchor:middle;fill:#000000;fill-opacity:1;stroke:none"
       x="966.16327"
       y="2721.8423"
       id="text4246-3-2-2-3"><tspan
         style="font-size:45px"
         sodipodi:role="line"
         x="966.16327"
         y="2721.8423"
         id="tspan46">Kau tidak apa-</tspan><tspan
         style="font-size:45px"
         sodipodi:role="line"
         x="966.16327"
         y="2778.0923"
         id="tspan54">apa? Dingin kah?</tspan><tspan
         style="font-size:45px"
         sodipodi:role="line"
         x="966.16327"
         y="2834.3423"
         id="tspan48" /></text>
    <text
       xml:space="preserve"
       style="font-style:normal;font-variant:normal;font-weight:normal;font-stretch:normal;font-size:45px;line-height:1.25;font-family:Lavi;-inkscape-font-specification:Lavi;text-align:center;letter-spacing:0px;word-spacing:0px;text-anchor:middle;fill:#000000;fill-opacity:1;stroke:none"
       x="1827.9978"
       y="2572.1472"
       id="text4246-3-2-2-3-3"><tspan
         style="font-size:45px"
         sodipodi:role="line"
         x="1827.9978"
         y="2572.1472"
         id="tspan870">Maaf, Rea-ku</tspan><tspan
         style="font-size:45px"
         sodipodi:role="line"
         x="1827.9978"
         y="2628.3972"
         id="tspan63">akan segera</tspan><tspan
         style="font-size:45px"
         sodipodi:role="line"
         x="1827.9978"
         y="2684.6472"
         id="tspan65">habis,</tspan></text>
    <text
       xml:space="preserve"
       style="font-style:normal;font-variant:normal;font-weight:normal;font-stretch:normal;font-size:45px;line-height:1.25;font-family:Lavi;-inkscape-font-specification:Lavi;text-align:center;letter-spacing:0px;word-spacing:0px;text-anchor:middle;fill:#000000;fill-opacity:1;stroke:none"
       x="2151.9226"
       y="3224.6389"
       id="text4246-3-2-2-3-3-9"><tspan
         style="font-size:45px"
         sodipodi:role="line"
         x="2151.9226"
         y="3224.6389"
         id="tspan905">dan auraku terlalu</tspan><tspan
         style="font-size:45px"
         sodipodi:role="line"
         x="2151.9226"
         y="3280.8889"
         id="tspan76">tipis untuk menjaga</tspan><tspan
         style="font-size:45px"
         sodipodi:role="line"
         x="2151.9226"
         y="3337.1389"
         id="tspan78">kita dari dingin ini.</tspan></text>
  </g>
</svg>
