<?xml version="1.0" encoding="UTF-8" standalone="no"?>
<svg
   xmlns:dc="http://purl.org/dc/elements/1.1/"
   xmlns:cc="http://creativecommons.org/ns#"
   xmlns:rdf="http://www.w3.org/1999/02/22-rdf-syntax-ns#"
   xmlns:svg="http://www.w3.org/2000/svg"
   xmlns="http://www.w3.org/2000/svg"
   xmlns:xlink="http://www.w3.org/1999/xlink"
   xmlns:sodipodi="http://sodipodi.sourceforge.net/DTD/sodipodi-0.dtd"
   xmlns:inkscape="http://www.inkscape.org/namespaces/inkscape"
   sodipodi:docname="E22P10.svg"
   height="3503"
   width="2481"
   inkscape:version="1.0 (4035a4fb49, 2020-05-01)"
   version="1.1"
   id="svg2">
  <sodipodi:namedview
     inkscape:window-maximized="0"
     inkscape:window-y="3"
     inkscape:window-x="5"
     inkscape:document-rotation="0"
     inkscape:current-layer="layer3"
     inkscape:cy="1968.0016"
     inkscape:cx="1217.2754"
     inkscape:zoom="0.40355339"
     showgrid="false"
     id="namedview70"
     inkscape:window-height="955"
     inkscape:window-width="1180"
     inkscape:pageshadow="2"
     inkscape:pageopacity="0"
     bordercolor="#666666"
     pagecolor="#ffffff" />
  <metadata
     id="metadata8">
    <rdf:RDF>
      <cc:Work
         rdf:about="">
        <dc:format>image/svg+xml</dc:format>
        <dc:type
           rdf:resource="http://purl.org/dc/dcmitype/StillImage" />
        <dc:title />
      </cc:Work>
    </rdf:RDF>
  </metadata>
  <defs
     id="defs6">
    <filter
       inkscape:label="deevad outline effect"
       id="filter4375-4-1-1-1-9-6-9-2-1"
       style="color-interpolation-filters:sRGB">
      <feFlood
         result="flood"
         flood-color="rgb(0,0,0)"
         flood-opacity="1"
         id="feFlood4377-7-9-0-8-1-0-2-2-06" />
      <feComposite
         result="composite1"
         operator="in"
         in="flood"
         in2="SourceGraphic"
         id="feComposite4379-3-8-8-2-77-6-0-8-3" />
      <feMorphology
         result="result3"
         radius="6.0999999999999996"
         operator="dilate"
         id="feMorphology4393-1-0-49-8-9-2-2-9-2" />
      <feComposite
         result="composite2"
         operator="over"
         in="SourceGraphic"
         in2="result3"
         id="feComposite4385-9-5-7-0-8-6-3-7-0" />
    </filter>
    <linearGradient
       gradientTransform="translate(-35.085353,-0.44828889)"
       gradientUnits="userSpaceOnUse"
       y2="414.89822"
       x2="1292.6337"
       y1="356.86307"
       x1="1294.5955"
       id="linearGradient4203-2"
       xlink:href="#linearGradient4197"
       inkscape:collect="always" />
    <linearGradient
       id="linearGradient4197"
       inkscape:collect="always">
      <stop
         id="stop4199"
         offset="0"
         style="stop-color:#ffd005;stop-opacity:1" />
      <stop
         id="stop4201"
         offset="1"
         style="stop-color:#fff798;stop-opacity:1" />
    </linearGradient>
    <filter
       inkscape:label="Score-style"
       id="filter4375-4-1-1-1-9-5-8-8-8-7"
       style="color-interpolation-filters:sRGB">
      <feFlood
         result="flood"
         flood-color="rgb(210,55,0)"
         flood-opacity="1"
         id="feFlood4377-7-9-0-8-1-7-3-1-45-4" />
      <feComposite
         baseFrequency="0.053999999999999999 0.053999999999999999"
         result="composite1"
         operator="in"
         in="flood"
         in2="SourceGraphic"
         id="feComposite4379-3-8-8-2-77-4-1-0-0-4" />
      <feMorphology
         result="result3"
         radius="3.7999999999999998"
         operator="dilate"
         id="feMorphology4393-1-0-49-8-9-3-0-1-36-3" />
      <feComposite
         result="fbSourceGraphic"
         operator="over"
         in="SourceGraphic"
         in2="result3"
         id="feComposite4385-9-5-7-0-8-8-7-5-1-0" />
      <feColorMatrix
         id="feColorMatrix4544-9-0-7"
         values="0 0 0 -1 0 0 0 0 -1 0 0 0 0 -1 0 0 0 0 1 0"
         in="fbSourceGraphic"
         result="fbSourceGraphicAlpha" />
      <feTurbulence
         result="turbulence"
         baseFrequency="0 0"
         seed="174"
         numOctaves="5"
         type="fractalNoise"
         id="feTurbulence4546-3-63-8" />
      <feDisplacementMap
         result="fbSourceGraphic"
         xChannelSelector="R"
         yChannelSelector="G"
         scale="0"
         in="fbSourceGraphic"
         in2="turbulence"
         id="feDisplacementMap4548-8-2-6" />
      <feColorMatrix
         id="feColorMatrix4670-7-0-8"
         values="0 0 0 -1 0 0 0 0 -1 0 0 0 0 -1 0 0 0 0 1 0"
         in="fbSourceGraphic"
         result="fbSourceGraphicAlpha" />
      <feFlood
         stdDeviation="2.7999999999999998"
         in="fbSourceGraphic"
         result="flood"
         flood-color="rgb(255,255,255)"
         flood-opacity="1"
         id="feFlood4672-4-6-8" />
      <feComposite
         result="composite1"
         operator="in"
         in="flood"
         in2="fbSourceGraphic"
         id="feComposite4674-8-1-4" />
      <feGaussianBlur
         result="blur"
         stdDeviation="0.01"
         in="composite1"
         id="feGaussianBlur4676-3-5-3" />
      <feOffset
         stdDeviation="4.7000000000000002"
         result="offset"
         dy="0"
         dx="0"
         id="feOffset4678-6-5-1" />
      <feComposite
         result="composite2"
         operator="over"
         in="fbSourceGraphic"
         in2="offset"
         id="feComposite4680-4-47-4" />
    </filter>
    <linearGradient
       gradientTransform="translate(-578.67382,-1353.798)"
       gradientUnits="userSpaceOnUse"
       y2="414.89822"
       x2="1292.6337"
       y1="356.86307"
       x1="1294.5955"
       id="linearGradient4993"
       xlink:href="#linearGradient4197"
       inkscape:collect="always" />
    <linearGradient
       gradientTransform="translate(-35.085353,-0.44828889)"
       gradientUnits="userSpaceOnUse"
       y2="414.89822"
       x2="1292.6337"
       y1="356.86307"
       x1="1294.5955"
       id="linearGradient4203-2-7"
       xlink:href="#linearGradient4197"
       inkscape:collect="always" />
    <filter
       inkscape:label="Score-style"
       id="filter4375-4-1-1-1-9-5-8-8-8-7-3"
       style="color-interpolation-filters:sRGB">
      <feFlood
         result="flood"
         flood-color="rgb(210,55,0)"
         flood-opacity="1"
         id="feFlood4377-7-9-0-8-1-7-3-1-45-4-6" />
      <feComposite
         baseFrequency="0.053999999999999999 0.053999999999999999"
         result="composite1"
         operator="in"
         in="flood"
         in2="SourceGraphic"
         id="feComposite4379-3-8-8-2-77-4-1-0-0-4-0" />
      <feMorphology
         result="result3"
         radius="3.7999999999999998"
         operator="dilate"
         id="feMorphology4393-1-0-49-8-9-3-0-1-36-3-6" />
      <feComposite
         result="fbSourceGraphic"
         operator="over"
         in="SourceGraphic"
         in2="result3"
         id="feComposite4385-9-5-7-0-8-8-7-5-1-0-2" />
      <feColorMatrix
         id="feColorMatrix4544-9-0-7-6"
         values="0 0 0 -1 0 0 0 0 -1 0 0 0 0 -1 0 0 0 0 1 0"
         in="fbSourceGraphic"
         result="fbSourceGraphicAlpha" />
      <feTurbulence
         result="turbulence"
         baseFrequency="0 0"
         seed="174"
         numOctaves="5"
         type="fractalNoise"
         id="feTurbulence4546-3-63-8-1" />
      <feDisplacementMap
         result="fbSourceGraphic"
         xChannelSelector="R"
         yChannelSelector="G"
         scale="0"
         in="fbSourceGraphic"
         in2="turbulence"
         id="feDisplacementMap4548-8-2-6-8" />
      <feColorMatrix
         id="feColorMatrix4670-7-0-8-7"
         values="0 0 0 -1 0 0 0 0 -1 0 0 0 0 -1 0 0 0 0 1 0"
         in="fbSourceGraphic"
         result="fbSourceGraphicAlpha" />
      <feFlood
         stdDeviation="2.7999999999999998"
         in="fbSourceGraphic"
         result="flood"
         flood-color="rgb(255,255,255)"
         flood-opacity="1"
         id="feFlood4672-4-6-8-9" />
      <feComposite
         result="composite1"
         operator="in"
         in="flood"
         in2="fbSourceGraphic"
         id="feComposite4674-8-1-4-2" />
      <feGaussianBlur
         result="blur"
         stdDeviation="0.01"
         in="composite1"
         id="feGaussianBlur4676-3-5-3-0" />
      <feOffset
         stdDeviation="4.7000000000000002"
         result="offset"
         dy="0"
         dx="0"
         id="feOffset4678-6-5-1-2" />
      <feComposite
         result="composite2"
         operator="over"
         in="fbSourceGraphic"
         in2="offset"
         id="feComposite4680-4-47-4-3" />
    </filter>
    <linearGradient
       gradientTransform="translate(-578.67382,-1353.798)"
       gradientUnits="userSpaceOnUse"
       y2="414.89822"
       x2="1292.6337"
       y1="356.86307"
       x1="1294.5955"
       id="linearGradient4362"
       xlink:href="#linearGradient4197"
       inkscape:collect="always" />
    <linearGradient
       gradientTransform="translate(-578.67382,-1353.798)"
       gradientUnits="userSpaceOnUse"
       y2="414.89822"
       x2="1292.6337"
       y1="356.86307"
       x1="1294.5955"
       id="linearGradient5001"
       xlink:href="#linearGradient4197"
       inkscape:collect="always" />
    <linearGradient
       gradientTransform="translate(-35.085353,-0.44828889)"
       gradientUnits="userSpaceOnUse"
       y2="414.89822"
       x2="1292.6337"
       y1="356.86307"
       x1="1294.5955"
       id="linearGradient4203-2-7-2"
       xlink:href="#linearGradient4197"
       inkscape:collect="always" />
    <filter
       inkscape:label="Score-style"
       id="filter4375-4-1-1-1-9-5-8-8-8-7-3-9"
       style="color-interpolation-filters:sRGB">
      <feFlood
         result="flood"
         flood-color="rgb(210,55,0)"
         flood-opacity="1"
         id="feFlood4377-7-9-0-8-1-7-3-1-45-4-6-7" />
      <feComposite
         baseFrequency="0.053999999999999999 0.053999999999999999"
         result="composite1"
         operator="in"
         in="flood"
         in2="SourceGraphic"
         id="feComposite4379-3-8-8-2-77-4-1-0-0-4-0-3" />
      <feMorphology
         result="result3"
         radius="3.7999999999999998"
         operator="dilate"
         id="feMorphology4393-1-0-49-8-9-3-0-1-36-3-6-6" />
      <feComposite
         result="fbSourceGraphic"
         operator="over"
         in="SourceGraphic"
         in2="result3"
         id="feComposite4385-9-5-7-0-8-8-7-5-1-0-2-1" />
      <feColorMatrix
         id="feColorMatrix4544-9-0-7-6-2"
         values="0 0 0 -1 0 0 0 0 -1 0 0 0 0 -1 0 0 0 0 1 0"
         in="fbSourceGraphic"
         result="fbSourceGraphicAlpha" />
      <feTurbulence
         result="turbulence"
         baseFrequency="0 0"
         seed="174"
         numOctaves="5"
         type="fractalNoise"
         id="feTurbulence4546-3-63-8-1-9" />
      <feDisplacementMap
         result="fbSourceGraphic"
         xChannelSelector="R"
         yChannelSelector="G"
         scale="0"
         in="fbSourceGraphic"
         in2="turbulence"
         id="feDisplacementMap4548-8-2-6-8-3" />
      <feColorMatrix
         id="feColorMatrix4670-7-0-8-7-1"
         values="0 0 0 -1 0 0 0 0 -1 0 0 0 0 -1 0 0 0 0 1 0"
         in="fbSourceGraphic"
         result="fbSourceGraphicAlpha" />
      <feFlood
         stdDeviation="2.7999999999999998"
         in="fbSourceGraphic"
         result="flood"
         flood-color="rgb(255,255,255)"
         flood-opacity="1"
         id="feFlood4672-4-6-8-9-9" />
      <feComposite
         result="composite1"
         operator="in"
         in="flood"
         in2="fbSourceGraphic"
         id="feComposite4674-8-1-4-2-4" />
      <feGaussianBlur
         result="blur"
         stdDeviation="0.01"
         in="composite1"
         id="feGaussianBlur4676-3-5-3-0-7" />
      <feOffset
         stdDeviation="4.7000000000000002"
         result="offset"
         dy="0"
         dx="0"
         id="feOffset4678-6-5-1-2-8" />
      <feComposite
         result="composite2"
         operator="over"
         in="fbSourceGraphic"
         in2="offset"
         id="feComposite4680-4-47-4-3-4" />
    </filter>
    <linearGradient
       gradientTransform="translate(-35.085353,-0.44828889)"
       gradientUnits="userSpaceOnUse"
       y2="414.89822"
       x2="1292.6337"
       y1="356.86307"
       x1="1294.5955"
       id="linearGradient4394"
       xlink:href="#linearGradient4197"
       inkscape:collect="always" />
    <linearGradient
       gradientTransform="translate(-35.085353,-0.44828889)"
       gradientUnits="userSpaceOnUse"
       y2="414.89822"
       x2="1292.6337"
       y1="356.86307"
       x1="1294.5955"
       id="linearGradient4402"
       xlink:href="#linearGradient4197"
       inkscape:collect="always" />
    <filter
       inkscape:label="deevad outline effect"
       id="filter4375-4-1-1-1-9-6-9-2-1-6"
       style="color-interpolation-filters:sRGB">
      <feFlood
         result="flood"
         flood-color="rgb(0,0,0)"
         flood-opacity="1"
         id="feFlood4377-7-9-0-8-1-0-2-2-06-3" />
      <feComposite
         result="composite1"
         operator="in"
         in="flood"
         in2="SourceGraphic"
         id="feComposite4379-3-8-8-2-77-6-0-8-3-2" />
      <feMorphology
         result="result3"
         radius="4"
         operator="dilate"
         id="feMorphology4393-1-0-49-8-9-2-2-9-2-0" />
      <feComposite
         result="composite2"
         operator="over"
         in="SourceGraphic"
         in2="result3"
         id="feComposite4385-9-5-7-0-8-6-3-7-0-6" />
    </filter>
    <filter
       inkscape:label="deevad outline effect"
       id="filter4375-4-1-1-1-9-6-9-2-1-4-6-6"
       style="color-interpolation-filters:sRGB">
      <feFlood
         result="flood"
         flood-color="rgb(0,0,0)"
         flood-opacity="1"
         id="feFlood4377-7-9-0-8-1-0-2-2-06-7-1-1" />
      <feComposite
         result="composite1"
         operator="in"
         in="flood"
         in2="SourceGraphic"
         id="feComposite4379-3-8-8-2-77-6-0-8-3-8-0-5" />
      <feMorphology
         result="result3"
         radius="6.0999999999999996"
         operator="dilate"
         id="feMorphology4393-1-0-49-8-9-2-2-9-2-4-6-5" />
      <feComposite
         result="composite2"
         operator="over"
         in="SourceGraphic"
         in2="result3"
         id="feComposite4385-9-5-7-0-8-6-3-7-0-5-3-4" />
    </filter>
    <filter
       inkscape:label="deevad outline effect"
       id="filter4375-4-1-1-1-9-6-9-2-1-4-6"
       style="color-interpolation-filters:sRGB">
      <feFlood
         result="flood"
         flood-color="rgb(0,0,0)"
         flood-opacity="1"
         id="feFlood4377-7-9-0-8-1-0-2-2-06-7-1" />
      <feComposite
         result="composite1"
         operator="in"
         in="flood"
         in2="SourceGraphic"
         id="feComposite4379-3-8-8-2-77-6-0-8-3-8-0" />
      <feMorphology
         result="result3"
         radius="5.9000000000000004"
         operator="dilate"
         id="feMorphology4393-1-0-49-8-9-2-2-9-2-4-6" />
      <feComposite
         result="composite2"
         operator="over"
         in="SourceGraphic"
         in2="result3"
         id="feComposite4385-9-5-7-0-8-6-3-7-0-5-3" />
    </filter>
    <filter
       inkscape:label="deevad outline effect"
       id="filter4375-4-1-1-1-9-6-9-2-1-4"
       style="color-interpolation-filters:sRGB">
      <feFlood
         result="flood"
         flood-color="rgb(0,0,0)"
         flood-opacity="1"
         id="feFlood4377-7-9-0-8-1-0-2-2-06-7" />
      <feComposite
         result="composite1"
         operator="in"
         in="flood"
         in2="SourceGraphic"
         id="feComposite4379-3-8-8-2-77-6-0-8-3-8" />
      <feMorphology
         result="result3"
         radius="5.2999999999999998"
         operator="dilate"
         id="feMorphology4393-1-0-49-8-9-2-2-9-2-4" />
      <feComposite
         result="composite2"
         operator="over"
         in="SourceGraphic"
         in2="result3"
         id="feComposite4385-9-5-7-0-8-6-3-7-0-5" />
    </filter>
    <filter
       inkscape:label="Score-style"
       id="filter4375-4-1-1-1-9-5-8-8-8-7-3-7"
       style="color-interpolation-filters:sRGB">
      <feFlood
         result="flood"
         flood-color="rgb(210,55,0)"
         flood-opacity="1"
         id="feFlood4377-7-9-0-8-1-7-3-1-45-4-6-5" />
      <feComposite
         baseFrequency="0.053999999999999999 0.053999999999999999"
         result="composite1"
         operator="in"
         in="flood"
         in2="SourceGraphic"
         id="feComposite4379-3-8-8-2-77-4-1-0-0-4-0-35" />
      <feMorphology
         result="result3"
         radius="3.7999999999999998"
         operator="dilate"
         id="feMorphology4393-1-0-49-8-9-3-0-1-36-3-6-62" />
      <feComposite
         result="fbSourceGraphic"
         operator="over"
         in="SourceGraphic"
         in2="result3"
         id="feComposite4385-9-5-7-0-8-8-7-5-1-0-2-9" />
      <feColorMatrix
         id="feColorMatrix4544-9-0-7-6-1"
         values="0 0 0 -1 0 0 0 0 -1 0 0 0 0 -1 0 0 0 0 1 0"
         in="fbSourceGraphic"
         result="fbSourceGraphicAlpha" />
      <feTurbulence
         result="turbulence"
         baseFrequency="0 0"
         seed="174"
         numOctaves="5"
         type="fractalNoise"
         id="feTurbulence4546-3-63-8-1-2" />
      <feDisplacementMap
         result="fbSourceGraphic"
         xChannelSelector="R"
         yChannelSelector="G"
         scale="0"
         in="fbSourceGraphic"
         in2="turbulence"
         id="feDisplacementMap4548-8-2-6-8-7" />
      <feColorMatrix
         id="feColorMatrix4670-7-0-8-7-0"
         values="0 0 0 -1 0 0 0 0 -1 0 0 0 0 -1 0 0 0 0 1 0"
         in="fbSourceGraphic"
         result="fbSourceGraphicAlpha" />
      <feFlood
         stdDeviation="2.7999999999999998"
         in="fbSourceGraphic"
         result="flood"
         flood-color="rgb(255,255,255)"
         flood-opacity="1"
         id="feFlood4672-4-6-8-9-93" />
      <feComposite
         result="composite1"
         operator="in"
         in="flood"
         in2="fbSourceGraphic"
         id="feComposite4674-8-1-4-2-6" />
      <feGaussianBlur
         result="blur"
         stdDeviation="0.01"
         in="composite1"
         id="feGaussianBlur4676-3-5-3-0-0" />
      <feOffset
         stdDeviation="4.7000000000000002"
         result="offset"
         dy="0"
         dx="0"
         id="feOffset4678-6-5-1-2-6" />
      <feComposite
         result="composite2"
         operator="over"
         in="fbSourceGraphic"
         in2="offset"
         id="feComposite4680-4-47-4-3-2" />
    </filter>
    <linearGradient
       gradientTransform="translate(-35.085353,-0.44828889)"
       gradientUnits="userSpaceOnUse"
       y2="414.89822"
       x2="1292.6337"
       y1="356.86307"
       x1="1294.5955"
       id="linearGradient4300"
       xlink:href="#linearGradient4197"
       inkscape:collect="always" />
    <linearGradient
       gradientTransform="translate(-35.085353,-0.44828889)"
       gradientUnits="userSpaceOnUse"
       y2="414.89822"
       x2="1292.6337"
       y1="356.86307"
       x1="1294.5955"
       id="linearGradient4308"
       xlink:href="#linearGradient4197"
       inkscape:collect="always" />
    <linearGradient
       y2="414.89822"
       x2="1292.6337"
       y1="356.86307"
       x1="1294.5955"
       gradientTransform="translate(-35.085353,-0.44828889)"
       gradientUnits="userSpaceOnUse"
       id="linearGradient4371"
       xlink:href="#linearGradient4197"
       inkscape:collect="always" />
    <filter
       inkscape:label="Score-style"
       id="filter4375-4-1-1-1-9-5-8-8-8-7-3-9-2"
       style="color-interpolation-filters:sRGB">
      <feFlood
         result="flood"
         flood-color="rgb(210,55,0)"
         flood-opacity="1"
         id="feFlood4377-7-9-0-8-1-7-3-1-45-4-6-7-0" />
      <feComposite
         baseFrequency="0.053999999999999999 0.053999999999999999"
         result="composite1"
         operator="in"
         in="flood"
         in2="SourceGraphic"
         id="feComposite4379-3-8-8-2-77-4-1-0-0-4-0-3-2" />
      <feMorphology
         result="result3"
         radius="3.7999999999999998"
         operator="dilate"
         id="feMorphology4393-1-0-49-8-9-3-0-1-36-3-6-6-3" />
      <feComposite
         result="fbSourceGraphic"
         operator="over"
         in="SourceGraphic"
         in2="result3"
         id="feComposite4385-9-5-7-0-8-8-7-5-1-0-2-1-7" />
      <feColorMatrix
         id="feColorMatrix4544-9-0-7-6-2-5"
         values="0 0 0 -1 0 0 0 0 -1 0 0 0 0 -1 0 0 0 0 1 0"
         in="fbSourceGraphic"
         result="fbSourceGraphicAlpha" />
      <feTurbulence
         result="turbulence"
         baseFrequency="0 0"
         seed="174"
         numOctaves="5"
         type="fractalNoise"
         id="feTurbulence4546-3-63-8-1-9-9" />
      <feDisplacementMap
         result="fbSourceGraphic"
         xChannelSelector="R"
         yChannelSelector="G"
         scale="0"
         in="fbSourceGraphic"
         in2="turbulence"
         id="feDisplacementMap4548-8-2-6-8-3-2" />
      <feColorMatrix
         id="feColorMatrix4670-7-0-8-7-1-2"
         values="0 0 0 -1 0 0 0 0 -1 0 0 0 0 -1 0 0 0 0 1 0"
         in="fbSourceGraphic"
         result="fbSourceGraphicAlpha" />
      <feFlood
         stdDeviation="2.7999999999999998"
         in="fbSourceGraphic"
         result="flood"
         flood-color="rgb(255,255,255)"
         flood-opacity="1"
         id="feFlood4672-4-6-8-9-9-8" />
      <feComposite
         result="composite1"
         operator="in"
         in="flood"
         in2="fbSourceGraphic"
         id="feComposite4674-8-1-4-2-4-9" />
      <feGaussianBlur
         result="blur"
         stdDeviation="0.01"
         in="composite1"
         id="feGaussianBlur4676-3-5-3-0-7-7" />
      <feOffset
         stdDeviation="4.7000000000000002"
         result="offset"
         dy="0"
         dx="0"
         id="feOffset4678-6-5-1-2-8-3" />
      <feComposite
         result="composite2"
         operator="over"
         in="fbSourceGraphic"
         in2="offset"
         id="feComposite4680-4-47-4-3-4-6" />
    </filter>
    <linearGradient
       gradientTransform="translate(-35.085353,-0.44828889)"
       gradientUnits="userSpaceOnUse"
       y2="414.89822"
       x2="1292.6337"
       y1="356.86307"
       x1="1294.5955"
       id="linearGradient4399"
       xlink:href="#linearGradient4197"
       inkscape:collect="always" />
    <linearGradient
       gradientTransform="translate(-35.085353,-0.44828889)"
       gradientUnits="userSpaceOnUse"
       y2="414.89822"
       x2="1292.6337"
       y1="356.86307"
       x1="1294.5955"
       id="linearGradient4407"
       xlink:href="#linearGradient4197"
       inkscape:collect="always" />
    <linearGradient
       gradientTransform="translate(-35.085353,-0.44828889)"
       gradientUnits="userSpaceOnUse"
       y2="414.89822"
       x2="1292.6337"
       y1="356.86307"
       x1="1294.5955"
       id="linearGradient4415"
       xlink:href="#linearGradient4197"
       inkscape:collect="always" />
    <linearGradient
       y2="414.89822"
       x2="1292.6337"
       y1="356.86307"
       x1="1294.5955"
       gradientTransform="translate(-35.085353,-0.44828889)"
       gradientUnits="userSpaceOnUse"
       id="linearGradient4486"
       xlink:href="#linearGradient4197"
       inkscape:collect="always" />
    <filter
       inkscape:label="Score-style"
       id="filter4375-4-1-1-1-9-5-8-8-8-7-4"
       style="color-interpolation-filters:sRGB">
      <feFlood
         result="flood"
         flood-color="rgb(210,55,0)"
         flood-opacity="1"
         id="feFlood4377-7-9-0-8-1-7-3-1-45-4-7" />
      <feComposite
         baseFrequency="0.053999999999999999 0.053999999999999999"
         result="composite1"
         operator="in"
         in="flood"
         in2="SourceGraphic"
         id="feComposite4379-3-8-8-2-77-4-1-0-0-4-8" />
      <feMorphology
         result="result3"
         radius="3.7999999999999998"
         operator="dilate"
         id="feMorphology4393-1-0-49-8-9-3-0-1-36-3-4" />
      <feComposite
         result="fbSourceGraphic"
         operator="over"
         in="SourceGraphic"
         in2="result3"
         id="feComposite4385-9-5-7-0-8-8-7-5-1-0-5" />
      <feColorMatrix
         id="feColorMatrix4544-9-0-7-0"
         values="0 0 0 -1 0 0 0 0 -1 0 0 0 0 -1 0 0 0 0 1 0"
         in="fbSourceGraphic"
         result="fbSourceGraphicAlpha" />
      <feTurbulence
         result="turbulence"
         baseFrequency="0 0"
         seed="174"
         numOctaves="5"
         type="fractalNoise"
         id="feTurbulence4546-3-63-8-3" />
      <feDisplacementMap
         result="fbSourceGraphic"
         xChannelSelector="R"
         yChannelSelector="G"
         scale="0"
         in="fbSourceGraphic"
         in2="turbulence"
         id="feDisplacementMap4548-8-2-6-6" />
      <feColorMatrix
         id="feColorMatrix4670-7-0-8-1"
         values="0 0 0 -1 0 0 0 0 -1 0 0 0 0 -1 0 0 0 0 1 0"
         in="fbSourceGraphic"
         result="fbSourceGraphicAlpha" />
      <feFlood
         stdDeviation="2.7999999999999998"
         in="fbSourceGraphic"
         result="flood"
         flood-color="rgb(255,255,255)"
         flood-opacity="1"
         id="feFlood4672-4-6-8-0" />
      <feComposite
         result="composite1"
         operator="in"
         in="flood"
         in2="fbSourceGraphic"
         id="feComposite4674-8-1-4-6" />
      <feGaussianBlur
         result="blur"
         stdDeviation="0.01"
         in="composite1"
         id="feGaussianBlur4676-3-5-3-3" />
      <feOffset
         stdDeviation="4.7000000000000002"
         result="offset"
         dy="0"
         dx="0"
         id="feOffset4678-6-5-1-20" />
      <feComposite
         result="composite2"
         operator="over"
         in="fbSourceGraphic"
         in2="offset"
         id="feComposite4680-4-47-4-6" />
    </filter>
    <linearGradient
       gradientTransform="translate(-35.085353,-0.44828889)"
       gradientUnits="userSpaceOnUse"
       y2="414.89822"
       x2="1292.6337"
       y1="356.86307"
       x1="1294.5955"
       id="linearGradient4514"
       xlink:href="#linearGradient4197"
       inkscape:collect="always" />
    <linearGradient
       gradientTransform="translate(-35.085353,-0.44828889)"
       gradientUnits="userSpaceOnUse"
       y2="414.89822"
       x2="1292.6337"
       y1="356.86307"
       x1="1294.5955"
       id="linearGradient4522"
       xlink:href="#linearGradient4197"
       inkscape:collect="always" />
    <linearGradient
       gradientTransform="translate(-35.085353,-0.44828889)"
       gradientUnits="userSpaceOnUse"
       y2="414.89822"
       x2="1292.6337"
       y1="356.86307"
       x1="1294.5955"
       id="linearGradient4530"
       xlink:href="#linearGradient4197"
       inkscape:collect="always" />
    <linearGradient
       y2="414.89822"
       x2="1292.6337"
       y1="356.86307"
       x1="1294.5955"
       gradientTransform="translate(-35.085353,-0.44828889)"
       gradientUnits="userSpaceOnUse"
       id="linearGradient4601"
       xlink:href="#linearGradient4197"
       inkscape:collect="always" />
  </defs>
  <sodipodi:namedview
     inkscape:current-layer="layer1"
     inkscape:window-maximized="1"
     inkscape:window-y="26"
     inkscape:window-x="0"
     inkscape:cy="651.37614"
     inkscape:cx="1098.6297"
     inkscape:zoom="0.3234325"
     showgrid="false"
     id="namedview4"
     inkscape:window-height="1025"
     inkscape:window-width="1920"
     inkscape:pageshadow="2"
     inkscape:pageopacity="0"
     guidetolerance="10"
     gridtolerance="10"
     objecttolerance="10"
     borderopacity="1"
     bordercolor="#666666"
     pagecolor="#ffffff" />
  <g
     sodipodi:insensitive="true"
     inkscape:label="artwork"
     id="layer2"
     inkscape:groupmode="layer">
    <image
       sodipodi:absref="C:\Users\stero\Documents\Kernewek\Pepper and Carrot\webcomics\ep22_The-Voting-System\lang\gfx_Pepper-and-Carrot_by-David-Revoy_E22P10.png"
       xlink:href="../gfx_Pepper-and-Carrot_by-David-Revoy_E22P10.png"
       width="2481"
       height="3503"
       id="image10"
       x="0"
       y="0" />
  </g>
  <g
     style="display:inline"
     inkscape:label="speechbubbles"
     id="layer3"
     inkscape:groupmode="layer">
    <path
       sodipodi:nodetypes="csssscssssssc"
       inkscape:connector-curvature="0"
       id="path3023"
       d="m 1963.9848,2888.552 c -57.9812,31.6208 -71.6706,0 -78.7175,-14.5532 -7.047,-14.5494 -13.9657,-20.994 -24.0905,-24.1839 -10.1248,-3.1899 -21.0267,-3.4457 -31.3546,-0.6413 -10.3281,2.8045 -15.6272,-5.6538 -22.4057,-14.5007 -6.7786,-8.8469 -53.5572,-46.0858 -53.5572,-46.0858 0,0 8.8824,44.3871 15.9971,56.9385 7.1146,12.5514 9.6507,17.1767 13.8931,21.3983 4.2425,4.2215 16.2521,13.0919 27.5674,12.9367 11.3154,-0.155 24.0524,-4.6401 32.5842,-6.6591 8.5316,-2.019 18.5541,3.2335 26.2978,13.1134 7.7438,9.8798 28.7093,29.6404 46.9399,27.4885 18.2305,-2.1519 46.846,-25.2514 46.846,-25.2514 z"
       style="fill:#ffffff;stroke:none" />
    <path
       sodipodi:nodetypes="cccccc"
       inkscape:connector-curvature="0"
       id="path5162"
       d="m 460.4235,130.47941 c 15.99208,41.69789 27.75802,58.40088 36.3233,66.00751 12.01365,-10.27217 18.46861,-17.40374 22.99697,-21.81874 79.98188,134.43225 95.15312,149.98904 8.14494,-25.16458 -14.48091,8.038 -24.14795,20.02022 -28.28827,22.77687 -13.36284,-5.30877 -21.20658,-24.50611 -39.17694,-41.80106 z"
       style="color:#000000;display:inline;overflow:visible;visibility:visible;fill:#fff6d5;fill-opacity:1;fill-rule:nonzero;stroke:none;stroke-width:1px;marker:none;enable-background:accumulate" />
    <path
       sodipodi:nodetypes="cccccccccc"
       inkscape:connector-curvature="0"
       id="path4448"
       d="m 1674.6257,869.0684 c 2.888,-2.16712 -27.1762,-37.80018 -27.1762,-37.80018 0,0 1.0917,-13.87815 0.7871,-16.91413 -6.842,-6.29198 -18.0315,-12.58607 -18.0315,-12.58607 l 14.6171,-33.82205 -0.6031,24.9377 21.6175,4.99771 2.4373,24.28878 20.9824,27.47534 z"
       style="color:#000000;display:inline;overflow:visible;visibility:visible;fill:#fff6d5;fill-opacity:1;fill-rule:nonzero;stroke:none;stroke-width:1px;marker:none;enable-background:accumulate" />
    <rect
       rx="40.228374"
       ry="40"
       y="150.80353"
       x="557.86713"
       height="199.54527"
       width="437.71866"
       id="rect4632-8-6-1-3-6-7-1-4"
       style="color:#000000;display:inline;overflow:visible;visibility:visible;fill:#fff6d5;fill-opacity:1;fill-rule:nonzero;stroke:none;stroke-width:2.761;marker:none;enable-background:accumulate" />
    <rect
       rx="41.999794"
       ry="40"
       y="848.92627"
       x="1439.1296"
       height="104.0632"
       width="391.70972"
       id="rect4632-8-6-1-3-6-7-1-4-3"
       style="color:#000000;display:inline;overflow:visible;visibility:visible;fill:#fff6d5;fill-opacity:1;fill-rule:nonzero;stroke:none;stroke-width:2.87184;marker:none;enable-background:accumulate" />
    <path
       sodipodi:nodetypes="cssssc"
       inkscape:connector-curvature="0"
       id="path4546-6"
       d="m 1346.0893,2814.2429 c 1.3531,-82.6696 69.2034,-140.9006 254.9701,-119.0829 99.5067,11.6868 212.2824,20.9523 211.4493,142.0957 -0.8331,121.1433 -162.6741,112.578 -195.8984,114.2926 -33.2242,1.7147 -210.3458,-1.0691 -242.9585,-43.3857 -20.4147,-26.4892 -26.7323,-68.2748 -27.5625,-93.9197 z"
       style="color:#000000;display:inline;overflow:visible;visibility:visible;fill:#ffffff;fill-opacity:1;fill-rule:nonzero;stroke:none;stroke-width:1.06327px;marker:none;enable-background:accumulate" />
  </g>
  <g
     style="display:inline"
     inkscape:label="txt"
     id="layer1"
     inkscape:groupmode="layer">
    <text
       id="text4246-2-3-1-3-9-9-9-9"
       y="208.61703"
       x="779.64032"
       style="font-style:normal;font-variant:normal;font-weight:normal;font-stretch:normal;line-height:0%;font-family:Lavi;-inkscape-font-specification:'Lavi, Normal';text-align:center;letter-spacing:0px;word-spacing:0px;writing-mode:lr-tb;text-anchor:middle;display:inline;fill:#000000;fill-opacity:1;stroke:none"
       xml:space="preserve"><tspan
         id="tspan218"
         style="font-size:45px;line-height:1.25"
         y="208.61703"
         x="779.64032"
         sodipodi:role="line">Benenes mas, owgh</tspan><tspan
         id="tspan225"
         style="font-size:45px;line-height:1.25"
         y="264.86703"
         x="779.64032"
         sodipodi:role="line">hwi parys rag unn</tspan><tspan
         id="tspan227"
         style="font-size:45px;line-height:1.25"
         y="321.11703"
         x="779.64032"
         sodipodi:role="line">diwettha chalenj?</tspan></text>
    <text
       id="text4246-2-3-1-3-9-9-9-9-6"
       y="914.50378"
       x="1635.9155"
       style="font-style:normal;font-variant:normal;font-weight:normal;font-stretch:normal;line-height:0%;font-family:Lavi;-inkscape-font-specification:'Lavi, Normal';text-align:center;letter-spacing:0px;word-spacing:0px;writing-mode:lr-tb;text-anchor:middle;display:inline;fill:#000000;fill-opacity:1;stroke:none"
       xml:space="preserve"><tspan
         style="font-size:45px;line-height:1.25"
         y="914.50378"
         x="1635.9155"
         id="tspan3477"
         sodipodi:role="line">Dhywgh hwyhwi!!</tspan></text>
    <text
       transform="matrix(1.061443,-0.23810188,0,1.6667549,-1017.5483,1302.2024)"
       id="text4246-3-8-9-1"
       y="286.89603"
       x="1276.0023"
       style="font-style:normal;font-variant:normal;font-weight:normal;font-stretch:normal;line-height:0%;font-family:Lavi;-inkscape-font-specification:Lavi;text-align:center;letter-spacing:0px;word-spacing:0px;text-anchor:middle;opacity:0.702;fill:url(#linearGradient4601);fill-opacity:1;stroke:#ffffff;stroke-width:3.3832;stroke-linecap:round;stroke-miterlimit:4;stroke-dasharray:none;stroke-opacity:1;filter:url(#filter4375-4-1-1-1-9-5-8-8-8-7-4)"
       xml:space="preserve"><tspan
         id="tspan4252-5-6-2-55"
         y="286.89603"
         x="1304.9219"
         style="font-style:normal;font-variant:normal;font-weight:normal;font-stretch:normal;font-size:91.2551px;line-height:1.25;font-family:Fondamento;-inkscape-font-specification:Fondamento;letter-spacing:17.78px;fill:url(#linearGradient4601);fill-opacity:1;stroke:#ffffff;stroke-width:3.3832;stroke-linecap:round;stroke-miterlimit:4;stroke-dasharray:none;stroke-opacity:1"
         sodipodi:role="line"> </tspan><tspan
         id="tspan5535-8-0-4"
         y="407.63681"
         x="1276.0023"
         style="font-style:normal;font-variant:normal;font-weight:normal;font-stretch:normal;font-size:91.2551px;line-height:1.25;font-family:Combat;-inkscape-font-specification:Combat;letter-spacing:9.02188px;fill:url(#linearGradient4601);fill-opacity:1;stroke:#ffffff;stroke-width:3.3832;stroke-linecap:round;stroke-miterlimit:4;stroke-dasharray:none;stroke-opacity:1"
         sodipodi:role="line">1<tspan
   id="tspan4271-7"
   style="letter-spacing:0px;fill:url(#linearGradient4601)">5</tspan></tspan></text>
    <text
       transform="matrix(1.061443,-0.23810188,0,1.6667549,-835.03557,1259.039)"
       id="text4246-3-8-9"
       y="286.89603"
       x="1276.0023"
       style="font-style:normal;font-variant:normal;font-weight:normal;font-stretch:normal;line-height:0%;font-family:Lavi;-inkscape-font-specification:Lavi;text-align:center;letter-spacing:0px;word-spacing:0px;text-anchor:middle;opacity:0.702;fill:url(#linearGradient4203-2);fill-opacity:1;stroke:#ffffff;stroke-width:3.3832;stroke-linecap:round;stroke-miterlimit:4;stroke-dasharray:none;stroke-opacity:1;filter:url(#filter4375-4-1-1-1-9-5-8-8-8-7)"
       xml:space="preserve"><tspan
         id="tspan4252-5-6-2"
         y="286.89603"
         x="1304.9219"
         style="font-style:normal;font-variant:normal;font-weight:normal;font-stretch:normal;font-size:91.2551px;line-height:1.25;font-family:Fondamento;-inkscape-font-specification:Fondamento;letter-spacing:17.78px;fill:url(#linearGradient4203-2);fill-opacity:1;stroke:#ffffff;stroke-width:3.3832;stroke-linecap:round;stroke-miterlimit:4;stroke-dasharray:none;stroke-opacity:1"
         sodipodi:role="line"> </tspan><tspan
         id="tspan5535-8-0"
         y="407.63681"
         x="1280.5133"
         style="font-style:normal;font-variant:normal;font-weight:normal;font-stretch:normal;font-size:91.2551px;line-height:1.25;font-family:Combat;-inkscape-font-specification:Combat;letter-spacing:9.02188px;fill:url(#linearGradient4203-2);fill-opacity:1;stroke:#ffffff;stroke-width:3.3832;stroke-linecap:round;stroke-miterlimit:4;stroke-dasharray:none;stroke-opacity:1"
         sodipodi:role="line">703</tspan></text>
    <text
       transform="matrix(1.870902,0,0,1.9226395,-1301.8679,700.54816)"
       id="text4246-3-8-9-7-6"
       y="286.89603"
       x="1276.0023"
       style="font-style:normal;font-variant:normal;font-weight:normal;font-stretch:normal;line-height:0%;font-family:Lavi;-inkscape-font-specification:Lavi;text-align:center;letter-spacing:0px;word-spacing:0px;text-anchor:middle;opacity:0.702;fill:url(#linearGradient4371);fill-opacity:1;stroke:#ffffff;stroke-width:2.37267;stroke-linecap:round;stroke-miterlimit:4;stroke-dasharray:none;stroke-opacity:1;filter:url(#filter4375-4-1-1-1-9-5-8-8-8-7-3-7)"
       xml:space="preserve"><tspan
         id="tspan4252-5-6-2-5-1"
         y="286.89603"
         x="1304.9219"
         style="font-style:normal;font-variant:normal;font-weight:normal;font-stretch:normal;font-size:91.2551px;line-height:1.25;font-family:Fondamento;-inkscape-font-specification:Fondamento;letter-spacing:17.78px;fill:url(#linearGradient4371);fill-opacity:1;stroke:#ffffff;stroke-width:2.37267;stroke-linecap:round;stroke-miterlimit:4;stroke-dasharray:none;stroke-opacity:1"
         sodipodi:role="line"> </tspan><tspan
         id="tspan5535-8-0-9-8"
         y="407.63681"
         x="1279.9568"
         style="font-style:normal;font-variant:normal;font-weight:normal;font-stretch:normal;font-size:91.2551px;line-height:1.25;font-family:Combat;-inkscape-font-specification:Combat;letter-spacing:7.90891px;fill:url(#linearGradient4371);fill-opacity:1;stroke:#ffffff;stroke-width:2.37267;stroke-linecap:round;stroke-miterlimit:4;stroke-dasharray:none;stroke-opacity:1"
         sodipodi:role="line">19</tspan></text>
    <text
       transform="matrix(1.870902,0,0,1.9226395,-1007.7413,704.17123)"
       id="text4246-3-8-9-7"
       y="286.89603"
       x="1276.0023"
       style="font-style:normal;font-variant:normal;font-weight:normal;font-stretch:normal;line-height:0%;font-family:Lavi;-inkscape-font-specification:Lavi;text-align:center;letter-spacing:0px;word-spacing:0px;text-anchor:middle;opacity:0.702;fill:url(#linearGradient4203-2-7);fill-opacity:1;stroke:#ffffff;stroke-width:2.37267;stroke-linecap:round;stroke-miterlimit:4;stroke-dasharray:none;stroke-opacity:1;filter:url(#filter4375-4-1-1-1-9-5-8-8-8-7-3)"
       xml:space="preserve"><tspan
         id="tspan4252-5-6-2-5"
         y="286.89603"
         x="1304.9219"
         style="font-style:normal;font-variant:normal;font-weight:normal;font-stretch:normal;font-size:91.2551px;line-height:1.25;font-family:Fondamento;-inkscape-font-specification:Fondamento;letter-spacing:17.78px;fill:url(#linearGradient4203-2-7);fill-opacity:1;stroke:#ffffff;stroke-width:2.37267;stroke-linecap:round;stroke-miterlimit:4;stroke-dasharray:none;stroke-opacity:1"
         sodipodi:role="line"> </tspan><tspan
         id="tspan5535-8-0-9"
         y="407.63681"
         x="1279.9568"
         style="font-style:normal;font-variant:normal;font-weight:normal;font-stretch:normal;font-size:91.2551px;line-height:1.25;font-family:Combat;-inkscape-font-specification:Combat;letter-spacing:7.90891px;fill:url(#linearGradient4203-2-7);fill-opacity:1;stroke:#ffffff;stroke-width:2.37267;stroke-linecap:round;stroke-miterlimit:4;stroke-dasharray:none;stroke-opacity:1"
         sodipodi:role="line">863</tspan></text>
    <text
       transform="matrix(1.1829563,0.12822054,0,1.3606282,292.39819,601.78336)"
       id="text4246-3-8-9-7-5-1"
       y="286.89603"
       x="1276.0023"
       style="font-style:normal;font-variant:normal;font-weight:normal;font-stretch:normal;line-height:0%;font-family:Lavi;-inkscape-font-specification:Lavi;text-align:center;letter-spacing:0px;word-spacing:0px;text-anchor:middle;opacity:0.702;fill:url(#linearGradient4486);fill-opacity:1;stroke:#ffffff;stroke-width:3.54698;stroke-linecap:round;stroke-miterlimit:4;stroke-dasharray:none;stroke-opacity:1;filter:url(#filter4375-4-1-1-1-9-5-8-8-8-7-3-9-2)"
       xml:space="preserve"><tspan
         id="tspan4252-5-6-2-5-0-2"
         y="286.89603"
         x="1304.9219"
         style="font-style:normal;font-variant:normal;font-weight:normal;font-stretch:normal;font-size:91.2551px;line-height:1.25;font-family:Fondamento;-inkscape-font-specification:Fondamento;letter-spacing:17.78px;fill:url(#linearGradient4486);fill-opacity:1;stroke:#ffffff;stroke-width:3.54698;stroke-linecap:round;stroke-miterlimit:4;stroke-dasharray:none;stroke-opacity:1"
         sodipodi:role="line"> </tspan><tspan
         id="tspan5535-8-0-9-3-9"
         y="407.63681"
         x="1276.0023"
         style="font-style:normal;font-variant:normal;font-weight:normal;font-stretch:normal;font-size:91.2551px;line-height:1.25;font-family:Combat;-inkscape-font-specification:Combat;letter-spacing:9.45861px;fill:url(#linearGradient4486);fill-opacity:1;stroke:#ffffff;stroke-width:3.54698;stroke-linecap:round;stroke-miterlimit:4;stroke-dasharray:none;stroke-opacity:1"
         sodipodi:role="line">1<tspan
   id="tspan4275-3"
   style="letter-spacing:0px;fill:url(#linearGradient4486)">3</tspan></tspan></text>
    <text
       transform="matrix(1.1829563,0.12822054,0,1.3606282,487.82183,625.2701)"
       id="text4246-3-8-9-7-5"
       y="286.89603"
       x="1276.0023"
       style="font-style:normal;font-variant:normal;font-weight:normal;font-stretch:normal;line-height:0%;font-family:Lavi;-inkscape-font-specification:Lavi;text-align:center;letter-spacing:0px;word-spacing:0px;text-anchor:middle;opacity:0.702;fill:url(#linearGradient4203-2-7-2);fill-opacity:1;stroke:#ffffff;stroke-width:3.54698;stroke-linecap:round;stroke-miterlimit:4;stroke-dasharray:none;stroke-opacity:1;filter:url(#filter4375-4-1-1-1-9-5-8-8-8-7-3-9)"
       xml:space="preserve"><tspan
         id="tspan4252-5-6-2-5-0"
         y="286.89603"
         x="1304.9219"
         style="font-style:normal;font-variant:normal;font-weight:normal;font-stretch:normal;font-size:91.2551px;line-height:1.25;font-family:Fondamento;-inkscape-font-specification:Fondamento;letter-spacing:17.78px;fill:url(#linearGradient4203-2-7-2);fill-opacity:1;stroke:#ffffff;stroke-width:3.54698;stroke-linecap:round;stroke-miterlimit:4;stroke-dasharray:none;stroke-opacity:1"
         sodipodi:role="line"> </tspan><tspan
         id="tspan5535-8-0-9-3"
         y="407.63681"
         x="1280.7316"
         style="font-style:normal;font-variant:normal;font-weight:normal;font-stretch:normal;font-size:91.2551px;line-height:1.25;font-family:Combat;-inkscape-font-specification:Combat;letter-spacing:9.45861px;fill:url(#linearGradient4203-2-7-2);fill-opacity:1;stroke:#ffffff;stroke-width:3.54698;stroke-linecap:round;stroke-miterlimit:4;stroke-dasharray:none;stroke-opacity:1"
         sodipodi:role="line">614</tspan></text>
    <use
       height="100%"
       width="100%"
       transform="matrix(0.57651169,0,0,0.48721254,85.733353,1242.5488)"
       id="use4543"
       xlink:href="#text4580-1-7-3-6-1"
       y="0"
       x="0" />
    <use
       height="100%"
       width="100%"
       transform="matrix(0.66266226,0,0,0.64866752,-76.566419,878.84471)"
       id="use4547"
       xlink:href="#text4580-1-7-3-6-1"
       y="0"
       x="0" />
    <use
       height="100%"
       width="100%"
       transform="matrix(0.66266226,0,0,0.64866752,-187.79064,870.92132)"
       id="use4549"
       xlink:href="#text4580-1-7-3-6-1"
       y="0"
       x="0" />
    <use
       height="100%"
       width="100%"
       transform="matrix(0.66266226,0,0,0.64866752,499.29979,809.92732)"
       id="use4551"
       xlink:href="#text4580-1-7-3-6-1"
       y="0"
       x="0" />
    <use
       height="100%"
       width="100%"
       transform="matrix(0.59223753,0,0,0.54246586,760.92629,1027.7188)"
       id="use4553"
       xlink:href="#text4580-1-7-3-6-1"
       y="0"
       x="0" />
    <use
       height="100%"
       width="100%"
       transform="translate(712.99997,-252.99999)"
       id="use4555"
       xlink:href="#use4543"
       y="0"
       x="0" />
    <use
       height="100%"
       width="100%"
       transform="translate(-595.12497,54.624997)"
       id="use4557"
       xlink:href="#use4547"
       y="0"
       x="0" />
    <use
       height="100%"
       width="100%"
       transform="matrix(0.5518297,0,0,0.54146686,-316.13482,1167.5047)"
       id="use4559"
       xlink:href="#text4580-1-7-3-6-1"
       y="0"
       x="0" />
    <use
       height="100%"
       width="100%"
       transform="matrix(0.55237743,0,0,0.50564667,-1257.7094,985.99074)"
       id="use4561"
       xlink:href="#text4580-1-7-3-6-1"
       y="0"
       x="0" />
    <use
       height="100%"
       width="100%"
       transform="matrix(1,0,0,1.0001402,-45.999998,-60.630483)"
       id="use4563"
       xlink:href="#use4561"
       y="0"
       x="0" />
    <use
       height="100%"
       width="100%"
       transform="translate(-51.749997,83.374996)"
       id="use4565"
       xlink:href="#use4561"
       y="0"
       x="0" />
    <use
       height="100%"
       width="100%"
       transform="translate(819.37496,281.74999)"
       id="use4567"
       xlink:href="#use4561"
       y="0"
       x="0" />
    <use
       height="100%"
       width="100%"
       transform="translate(1328.2499,-109.25)"
       id="use4569"
       xlink:href="#use4567"
       y="0"
       x="0" />
    <text
       transform="matrix(0.46865198,-0.21469604,-0.08652007,0.56890463,1367.8914,1900.377)"
       id="text4580-1-7-3-6"
       y="1584.5073"
       x="787.65729"
       style="font-style:normal;font-variant:normal;font-weight:normal;font-stretch:normal;line-height:0%;font-family:Lavi;-inkscape-font-specification:Lavi;letter-spacing:0px;word-spacing:0px;display:inline;fill:#ffffff;fill-opacity:1;stroke:#ffffff;stroke-width:2.00788;stroke-miterlimit:4;stroke-dasharray:none;stroke-opacity:1;filter:url(#filter4375-4-1-1-1-9-6-9-2-1)"
       xml:space="preserve"><tspan
         style="font-size:70px;line-height:1.25;fill:#ffffff;fill-opacity:1;stroke:#ffffff;stroke-width:2.00788;stroke-miterlimit:4;stroke-dasharray:none;stroke-opacity:1"
         y="1584.5073"
         x="787.65729"
         id="tspan4582-8-5-6-1"
         sodipodi:role="line">Plonk!</tspan></text>
    <text
       id="text4246-2-3-1-3-9-9-9-9-61"
       y="2773.1548"
       x="1583.9023"
       style="font-style:normal;font-variant:normal;font-weight:normal;font-stretch:normal;line-height:0%;font-family:Lavi;-inkscape-font-specification:Lavi;text-align:center;letter-spacing:0px;word-spacing:0px;text-anchor:middle;display:inline;fill:#000000;fill-opacity:1;stroke:none"
       xml:space="preserve"><tspan
         id="tspan4798"
         y="2773.1548"
         x="1583.9023"
         style="font-size:45px;line-height:1.25"
         sodipodi:role="line">My a nagh puptra </tspan><tspan
         id="tspan234"
         y="2829.4048"
         x="1583.9023"
         style="font-size:45px;line-height:1.25"
         sodipodi:role="line">a leveris a-dro </tspan><tspan
         id="tspan236"
         y="2885.6548"
         x="1583.9023"
         style="font-size:45px;line-height:1.25"
         sodipodi:role="line">dhe'n system ma...</tspan></text>
    <text
       transform="matrix(0.47593178,-0.22158346,-0.08786402,0.58715501,792.61691,2504.0868)"
       id="text4580-1-7-3-6-0-2-7"
       y="1584.5073"
       x="787.65729"
       style="font-style:normal;font-variant:normal;font-weight:normal;font-stretch:normal;line-height:0%;font-family:Lavi;-inkscape-font-specification:Lavi;letter-spacing:0px;word-spacing:0px;display:inline;fill:#ffffff;fill-opacity:1;stroke:#ffffff;stroke-width:1.96125;stroke-miterlimit:4;stroke-dasharray:none;stroke-opacity:1;filter:url(#filter4375-4-1-1-1-9-6-9-2-1-4-6-6)"
       xml:space="preserve"><tspan
         style="font-size:70px;line-height:1.25;fill:#ffffff;fill-opacity:1;stroke:#ffffff;stroke-width:1.96125;stroke-miterlimit:4;stroke-dasharray:none;stroke-opacity:1"
         y="1584.5073"
         x="787.65729"
         id="tspan4582-8-5-6-1-3-0-6"
         sodipodi:role="line">Pok</tspan></text>
    <text
       transform="matrix(0.47631253,-0.23734805,-0.08793431,0.62892825,795.54265,2503.2544)"
       id="text4580-1-7-3-6-0-2"
       y="1584.5073"
       x="787.65729"
       style="font-style:normal;font-variant:normal;font-weight:normal;font-stretch:normal;line-height:0%;font-family:Lavi;-inkscape-font-specification:Lavi;letter-spacing:0px;word-spacing:0px;display:inline;fill:#ffffff;fill-opacity:1;stroke:#ffffff;stroke-width:1.89424;stroke-miterlimit:4;stroke-dasharray:none;stroke-opacity:1;filter:url(#filter4375-4-1-1-1-9-6-9-2-1-4-6)"
       xml:space="preserve"><tspan
         style="font-size:70px;line-height:1.25;fill:#ffffff;fill-opacity:1;stroke:#ffffff;stroke-width:1.89424;stroke-miterlimit:4;stroke-dasharray:none;stroke-opacity:1"
         y="1584.5073"
         x="787.65729"
         id="tspan4582-8-5-6-1-3-0"
         sodipodi:role="line">Pok</tspan></text>
    <text
       transform="matrix(0.53463705,-0.29379615,-0.09870188,0.77850522,770.2485,2370.2905)"
       id="text4580-1-7-3-6-0"
       y="1584.5073"
       x="787.65729"
       style="font-style:normal;font-variant:normal;font-weight:normal;font-stretch:normal;line-height:0%;font-family:Lavi;-inkscape-font-specification:Lavi;letter-spacing:0px;word-spacing:0px;display:inline;fill:#ffffff;fill-opacity:1;stroke:#ffffff;stroke-width:1.60702;stroke-miterlimit:4;stroke-dasharray:none;stroke-opacity:1;filter:url(#filter4375-4-1-1-1-9-6-9-2-1-4)"
       xml:space="preserve"><tspan
         style="font-size:70px;line-height:1.25;fill:#ffffff;fill-opacity:1;stroke:#ffffff;stroke-width:1.60702;stroke-miterlimit:4;stroke-dasharray:none;stroke-opacity:1"
         y="1584.5073"
         x="787.65729"
         id="tspan4582-8-5-6-1-3"
         sodipodi:role="line">Pok</tspan></text>
    <text
       transform="matrix(0.95719015,0,-0.32603671,1.0447245,0,0)"
       id="text4213"
       y="3323.9915"
       x="2414.1099"
       style="font-style:normal;font-variant:normal;font-weight:normal;font-stretch:normal;line-height:0%;font-family:Lavi;-inkscape-font-specification:Lavi;text-align:center;letter-spacing:0px;word-spacing:0px;text-anchor:middle;display:inline;opacity:1;fill:#241c1c;fill-opacity:1;stroke:#000000;stroke-width:4.322;stroke-miterlimit:4;stroke-dasharray:none;stroke-opacity:1"
       xml:space="preserve"><tspan
         style="font-size:72.1808px;line-height:1.25;stroke-width:4.322;stroke-miterlimit:4;stroke-dasharray:none"
         y="3323.9915"
         x="2414.1099"
         id="tspan3562"
         sodipodi:role="line">- FIN -</tspan></text>
  </g>
  <g
     style="display:inline"
     inkscape:label="notes"
     id="layer4"
     inkscape:groupmode="layer">
    <path
       inkscape:connector-curvature="0"
       id="rect4191-6"
       d="m 3002.6554,1569.5363 0,189.035 -203.83,0 0,-90.9804 -10,0 0,15.6308 -30.9825,-26.9824 30.9825,-26.9804 0,16.6171 10,0 0,-76.3397 203.83,0 z"
       style="color:#000000;clip-rule:nonzero;display:inline;overflow:visible;visibility:visible;opacity:0.481;isolation:auto;mix-blend-mode:normal;color-interpolation:sRGB;color-interpolation-filters:linearRGB;solid-color:#000000;solid-opacity:1;fill:#ffe680;fill-opacity:1;fill-rule:nonzero;stroke:#565656;stroke-width:1.20000005;stroke-linecap:butt;stroke-linejoin:miter;stroke-miterlimit:4;stroke-dasharray:none;stroke-dashoffset:0;stroke-opacity:1;marker:none;color-rendering:auto;image-rendering:auto;shape-rendering:auto;text-rendering:auto;enable-background:accumulate" />
    <flowRoot
       transform="translate(3037.2197,561.29272)"
       style="font-style:normal;font-variant:normal;font-weight:normal;font-stretch:normal;line-height:0.01%;font-family:Lavi;-inkscape-font-specification:'Lavi, Normal';text-align:center;letter-spacing:0px;word-spacing:0px;writing-mode:lr-tb;text-anchor:middle;display:inline;opacity:0.481;fill:#000000;fill-opacity:1;stroke:none;stroke-width:1px;stroke-linecap:butt;stroke-linejoin:miter;stroke-opacity:1"
       id="flowRoot4212-7"
       xml:space="preserve"><flowRegion
         id="flowRegion4214-5"><rect
           y="1061.6674"
           x="-275.14545"
           height="247.52747"
           width="291.95547"
           id="rect4216-3" /></flowRegion><flowPara
         style="font-size:25.3242px;line-height:1.25"
         id="flowPara4218-5">Edit this one,</flowPara><flowPara
         style="font-size:25.3242px;line-height:1.25"
         id="flowPara4562">all others</flowPara><flowPara
         style="font-size:25.3242px;line-height:1.25"
         id="flowPara4564">are linked</flowPara></flowRoot>
    <text
       transform="matrix(0.96380061,-0.56217228,-0.1779318,1.4896521,2096.0515,-171.97229)"
       id="text4580-1-7-3-6-1"
       y="1584.5073"
       x="787.65729"
       style="font-style:normal;font-variant:normal;font-weight:normal;font-stretch:normal;line-height:0%;font-family:Lavi;-inkscape-font-specification:Lavi;letter-spacing:0px;word-spacing:0px;display:inline;fill:#ffffff;fill-opacity:1;stroke:#ffffff;stroke-width:0.865258;stroke-miterlimit:4;stroke-dasharray:none;stroke-opacity:1;filter:url(#filter4375-4-1-1-1-9-6-9-2-1-6)"
       xml:space="preserve"><tspan
         style="font-size:70px;line-height:1.25;fill:#ffffff;fill-opacity:1;stroke:#ffffff;stroke-width:0.865258;stroke-miterlimit:4;stroke-dasharray:none;stroke-opacity:1"
         y="1584.5073"
         x="787.65729"
         id="tspan4582-8-5-6-1-5"
         sodipodi:role="line">Tack</tspan></text>
  </g>
</svg>
