<?xml version="1.0" encoding="UTF-8" standalone="no"?>
<!-- Created with Inkscape (http://www.inkscape.org/) -->

<svg
   id="svg2"
   version="1.1"
   inkscape:version="1.1 (c68e22c387, 2021-05-23)"
   width="2481"
   height="3503"
   sodipodi:docname="E36P07.svg"
   xmlns:inkscape="http://www.inkscape.org/namespaces/inkscape"
   xmlns:sodipodi="http://sodipodi.sourceforge.net/DTD/sodipodi-0.dtd"
   xmlns:xlink="http://www.w3.org/1999/xlink"
   xmlns="http://www.w3.org/2000/svg"
   xmlns:svg="http://www.w3.org/2000/svg"
   xmlns:rdf="http://www.w3.org/1999/02/22-rdf-syntax-ns#"
   xmlns:cc="http://creativecommons.org/ns#"
   xmlns:dc="http://purl.org/dc/elements/1.1/">
  <metadata
     id="metadata8">
    <rdf:RDF>
      <cc:Work
         rdf:about="">
        <dc:format>image/svg+xml</dc:format>
        <dc:type
           rdf:resource="http://purl.org/dc/dcmitype/StillImage" />
        <dc:title />
      </cc:Work>
    </rdf:RDF>
  </metadata>
  <defs
     id="defs6" />
  <sodipodi:namedview
     pagecolor="#1e1e1e"
     bordercolor="#111111"
     borderopacity="1"
     objecttolerance="10"
     gridtolerance="10"
     guidetolerance="10"
     inkscape:pageopacity="0"
     inkscape:pageshadow="2"
     inkscape:window-width="1920"
     inkscape:window-height="1057"
     id="namedview4"
     showgrid="false"
     inkscape:zoom="0.52900001"
     inkscape:cx="1291.1153"
     inkscape:cy="3235.3497"
     inkscape:window-x="1358"
     inkscape:window-y="-8"
     inkscape:window-maximized="1"
     inkscape:current-layer="layer1"
     inkscape:pagecheckerboard="0"
     inkscape:snap-global="false" />
  <g
     inkscape:groupmode="layer"
     id="layer2"
     inkscape:label="artwork"
     sodipodi:insensitive="true">
    <image
       xlink:href="../gfx_Pepper-and-Carrot_by-David-Revoy_E36P07.png"
       y="0"
       x="0"
       id="image10"
       height="3503"
       width="2481" />
  </g>
  <g
     inkscape:groupmode="layer"
     id="layer3"
     inkscape:label="speechbubbles"
     style="display:inline">
    <path
       style="color:#000000;display:inline;overflow:visible;visibility:visible;fill:#ffffff;fill-opacity:1;fill-rule:nonzero;stroke:none;stroke-width:0.755494px;marker:none;enable-background:accumulate"
       d="m 1376.4866,2369.9277 c -34.7555,0.6342 -69.5174,5.4468 -102.6938,15.0258 -24.1125,8.688 -41.224,30.7195 -43.5139,54.2435 -2.0899,16.8841 -0.6228,34.1137 3.6917,50.6168 3.6406,13.1635 9.1859,26.1425 18.0212,37.1211 12.8605,12.9121 31.5579,18.5793 49.2428,23.6607 59.7863,16.9245 124.4291,15.5872 184.8386,2.0661 17.9617,-4.2263 36.0514,-8.9592 52.4157,-17.1082 17.9986,-11.3662 27.7132,-31.2418 29.2679,-50.8347 2.8368,-18.0217 5.5178,-37.0875 -1.5913,-54.5955 -8.1273,-18.9097 -26.1349,-32.666 -45.4688,-41.6628 -29.9441,-13.8223 -63.9958,-17.0638 -97.0572,-17.7767 -15.7155,-0.3376 -31.4305,-0.8758 -47.1529,-0.7561 z"
       id="path4546-6-3"
       inkscape:connector-curvature="0"
       sodipodi:nodetypes="cssssssc" />
    <path
       style="color:#000000;display:inline;overflow:visible;visibility:visible;fill:#ffffff;fill-opacity:1;fill-rule:nonzero;stroke:none;stroke-width:0.98265px;marker:none;enable-background:accumulate"
       d="m 1276.0008,3121.2217 c -50.3615,0.8428 -101.3781,7.5278 -147.4747,24.4565 -19.4781,7.1665 -36.9081,19.1088 -45.4273,34.8954 -19.0846,32.0459 -14.6555,72.259 13.0019,100.0073 10.9868,11.2039 28.9282,16.5372 46.3623,18.314 37.4701,5.5 75.3709,9.5796 113.5615,10.6182 51.8647,1.9417 103.845,1.1393 155.7728,0.4391 27.2476,-0.5605 54.6512,-2.6705 81.013,-8.5795 15.5284,-3.0047 32.0154,-6.2514 44.0787,-15.0998 13.7545,-10.7384 19.3936,-26.1308 21.0086,-40.87 3.311,-28.616 -6.1432,-58.5083 -28.9505,-81.0082 -14.6557,-14.0477 -35.5181,-23.2241 -57.3183,-28.7722 -33.0684,-8.7148 -68.1366,-11.3394 -102.8239,-13.2963 -30.873,-1.4888 -61.8619,-1.4711 -92.8041,-1.1045 z"
       id="path3330-0"
       inkscape:connector-curvature="0"
       sodipodi:nodetypes="zsssssz" />
    <path
       style="color:#000000;display:inline;overflow:visible;visibility:visible;fill:#ffffff;fill-opacity:1;fill-rule:nonzero;stroke:none;stroke-width:1px;marker:none;enable-background:accumulate"
       d="m 1415.0769,2516.9442 c 13.078,48.3092 -10.2417,132.5122 -94.8507,157.2445 61.4826,-42.714 67.542,-99.1938 51.107,-143.1634 -14.1878,-37.9586 -18.9368,-56.3084 -18.9368,-56.3084 z"
       id="path4440-3"
       inkscape:connector-curvature="0"
       sodipodi:nodetypes="ccscc" />
    <path
       style="color:#000000;display:inline;overflow:visible;visibility:visible;fill:#ffffff;fill-opacity:1;fill-rule:nonzero;stroke:none;stroke-width:1.05023px;marker:none;enable-background:accumulate"
       d="m 1880.5202,3245.1068 c 2.2085,-31.7629 12.1073,-31.4913 46.1902,-2.7607 -8.9937,-56.6463 36.7658,-59.3247 79.4131,-65.0705 -4.8912,-15.916 -11.6693,-38.2895 36.129,-53.5443 -45.7166,-2.1974 -47.656,-17.2553 -33.086,-32.6716 -34.0385,7.3462 -58.3861,14.6762 -18.1274,-19.5049 -37.997,19.4188 -60.9707,29.4286 -46.6405,-20.4338 -14.3883,6.7868 -58.5903,35.1678 -78.7695,-25.9462 -0.638,33.2488 -57.184,60.6052 -84.9534,17.683 14.0583,35.7635 3.0629,71.3915 -53.6329,48.0907 54.4907,39.0305 2.2272,39.6552 -13.9489,42.9402 45.9271,5.3047 36.7135,17.4578 4.9221,37.6185 94.5952,3.1469 42.5371,23.176 43.0006,36.7345 57.5862,-12.4701 53.8853,12.8638 62.1299,31.6447 54.8403,-57.2852 38.1795,-47.0534 57.3737,5.2204 z"
       id="path3549-3-1"
       inkscape:connector-curvature="0"
       sodipodi:nodetypes="ccccccccccccccc" />
    <path
       style="fill:#ffffff;fill-rule:evenodd;stroke:none;stroke-width:1.21249px;stroke-linecap:butt;stroke-linejoin:miter;stroke-opacity:1"
       d="m 1959.225,3144.1223 c -68.2849,1.6045 -136.3141,8.2166 -204.4931,11.8616 -30.05,3.7429 -59.7014,16.5925 -80.5022,39.0024 -10.5969,13.4954 -15.8029,30.157 -20.9954,46.2588 -9.8329,34.1396 -3.6707,73.0827 18.1712,101.3963 9.6308,12.5623 22.8009,22.4081 37.7998,27.5835 16.2001,5.7224 33.1854,8.7965 50.0575,11.8002 19.2391,3.2719 38.6421,5.467 58.1063,6.8344 44.7214,3.5503 89.6645,5.7978 134.5038,3.1976 29.1748,-1.5617 58.3758,-2.5506 87.5878,-3.0531 14.6023,-0.5227 29.3418,0.091 43.7677,-2.6436 31.8535,-5.5485 62.0211,-22.2096 82.2187,-47.6729 11.6136,-14.4302 19.5433,-32.344 19.7581,-51.0672 0.8017,-20.8143 -3.4981,-41.5121 -9.7877,-61.2524 -9.4496,-26.0948 -28.5522,-49.5251 -54.4155,-60.5823 -21.8455,-9.3973 -45.7424,-11.8033 -68.965,-15.7531 -30.7171,-4.4184 -61.7849,-6.3334 -92.812,-5.9102 z"
       id="path1289"
       inkscape:connector-curvature="0"
       sodipodi:nodetypes="csssssssscc" />
    <path
       style="color:#000000;display:inline;overflow:visible;visibility:visible;fill:#ffffff;fill-opacity:1;fill-rule:nonzero;stroke:none;stroke-width:1.33764px;marker:none;enable-background:accumulate"
       d="m 375.07716,3178.3461 c 8.83564,-16.8708 46.0965,-14.6688 59.2834,-9.7551 -24.97752,-22.3257 -22.44558,-34.4097 15.14808,-32.6011 -58.07331,-41.5305 -7.57872,-31.1155 3.67418,-39.0736 -47.6084,-17.0451 -23.64772,-30.0166 -12.9439,-44.2321 -56.46149,-6.1173 -34.83983,-28.4619 -34.73564,-47.9539 -5.9591,8.5616 -32.27829,33.8146 -29.69257,3.0504 -41.16399,25.5186 -88.63727,39.9342 -85.60893,-11.558 -18.38758,24.2339 -34.81167,33.6196 -29.69268,3.0502 -42.48061,36.2109 -74.16862,18.5242 -106.4539,3.9028 -10.41774,11.1677 -13.84019,29.5699 -41.95127,22.3936 2.47815,12.3374 -8.26234,19.5857 -30.753755,22.2941 28.119715,10.0889 32.513035,18.0577 -22.462256,20.7212 40.946249,4.8398 79.017221,10.2166 27.33524,32.7481 15.022491,2.1572 53.809771,-17.0733 28.487271,47.9398 28.73532,-18.7698 57.97387,-27.8046 86.95973,20.3452 19.33465,-20.7054 49.29438,-28.9325 58.10439,0.195 5.99746,-11.4516 25.07478,-14.0919 40.84968,-13.0793 5.46293,5.3262 10.8979,12.3631 16.3486,21.4176 12.96311,-16.5943 30.48378,-26.9338 58.10433,0.1951 z"
       id="path3549-3-7-5"
       inkscape:connector-curvature="0"
       sodipodi:nodetypes="cccccccccccccccccccc" />
    <path
       style="color:#000000;display:inline;overflow:visible;visibility:visible;fill:#ffffff;fill-opacity:1;fill-rule:nonzero;stroke:none;stroke-width:1.04204px;marker:none;enable-background:accumulate"
       d="m 367.15199,3119.1259 c -57.07353,0.8869 -114.81826,12.1999 -166.39331,39.3464 -32.90774,20.281 -50.27564,63.0309 -47.32658,103.0838 0.94057,24.5664 6.96859,51.6174 25.90465,67.3162 20.7036,17.0439 45.92368,26.2094 70.95105,32.7563 52.06484,12.5958 105.76184,9.9362 158.73028,10.478 47.18316,-0.1388 94.52787,1.4082 141.54607,-3.7365 21.94665,-2.4792 44.74721,-7.8495 62.107,-23.5242 20.7489,-17.5376 34.35852,-44.8883 35.00327,-73.5141 3.53366,-49.5273 -24.04848,-100.9155 -67.50372,-118.8182 -45.96658,-21.6058 -96.62659,-25.4501 -145.89222,-30.7378 -22.32638,-1.9162 -44.72659,-2.9936 -67.12649,-2.6499 z"
       id="path3970-3"
       inkscape:connector-curvature="0"
       sodipodi:nodetypes="cccscsc" />
    <path
       style="color:#000000;display:inline;overflow:visible;visibility:visible;fill:#ffffff;fill-opacity:1;fill-rule:nonzero;stroke:none;stroke-width:1.35295px;marker:none;enable-background:accumulate"
       d="m 655.60209,3020.9694 c 36.37209,56.4559 22.81983,82.4225 15.3529,101.9191 -8.64995,-2.3738 -25.16043,-4.9757 -25.16043,-4.9757 0,0 -35.04306,58.5581 -44.82978,72.5197 -9.78688,13.9616 -38.13341,-23.0686 -38.13341,-23.0686 0,0 68.63867,-58.196 66.88456,-75.5935 13.71733,3.6481 17.96983,3.6232 26.02992,4.8839 8.53279,-9.9614 11.95899,-55.362 -0.14376,-75.6849 z"
       id="path4456-8"
       inkscape:connector-curvature="0"
       sodipodi:nodetypes="cccscccc" />
    <path
       style="color:#000000;display:inline;overflow:visible;visibility:visible;fill:#ffffff;fill-opacity:1;fill-rule:nonzero;stroke:none;stroke-width:0.979134px;marker:none;enable-background:accumulate"
       d="m 1279.5978,3141.166 c 37.0189,-51.8094 10.4316,-107.7029 -22.8129,-123.0094 56.1643,10.3304 79.8618,67.0698 67.3523,120.7861 -6.1858,26.5623 -44.5394,2.2233 -44.5394,2.2233 z"
       id="path5010-4"
       inkscape:connector-curvature="0"
       sodipodi:nodetypes="ccsc"
       inkscape:transform-center-x="-17.477815"
       inkscape:transform-center-y="-10.798976" />
    <path
       style="color:#000000;display:inline;overflow:visible;visibility:visible;fill:#ffffff;fill-opacity:1;fill-rule:nonzero;stroke:none;stroke-width:1.49141px;marker:none;enable-background:accumulate"
       d="m 1912.7642,3104.2315 c -3.1414,-3.557 32.154,-46.7146 32.154,-46.7146 0,0 1.8091,-18.6763 2.2497,-22.5415 7.8248,-6.4155 25.8113,-4.3144 25.8113,-4.3144 l -34.365,-47.8529 16.512,38.7245 -25.6669,-0.2625 -0.1009,31.7053 c -10.1565,5.7069 -22.8946,9.8614 -42.2141,10.0585 z"
       id="path4448"
       inkscape:connector-curvature="0"
       sodipodi:nodetypes="cccccccccc" />
  </g>
  <g
     inkscape:groupmode="layer"
     id="layer1"
     inkscape:label="txt"
     style="display:inline">
    <text
       xml:space="preserve"
       style="font-style:normal;font-variant:normal;font-weight:normal;font-stretch:normal;font-size:14.5146px;line-height:0%;font-family:Lavi;-inkscape-font-specification:Lavi;text-align:center;letter-spacing:0px;word-spacing:0px;text-anchor:middle;fill:#000000;fill-opacity:1;stroke:none;stroke-width:1.20955"
       x="272.33972"
       y="3098.5491"
       id="text4246-3-3"><tspan
         sodipodi:role="line"
         x="272.33972"
         y="3098.5491"
         id="tspan852"
         style="font-style:normal;font-variant:normal;font-weight:bold;font-stretch:normal;font-size:54.4298px;line-height:1.25;font-family:Lavi;-inkscape-font-specification:'Lavi Bold';stroke-width:1.20955">jan pali o!</tspan></text>
    <text
       xml:space="preserve"
       style="font-style:normal;font-variant:normal;font-weight:normal;font-stretch:normal;line-height:0%;font-family:Lavi;-inkscape-font-specification:Lavi;text-align:center;letter-spacing:0px;word-spacing:0px;text-anchor:middle;fill:#000000;fill-opacity:1;stroke:none"
       x="406.04767"
       y="3213.5732"
       id="text4246-3-5-9"><tspan
         sodipodi:role="line"
         style="font-size:45px;line-height:1.25"
         x="406.04767"
         y="3213.5732"
         id="tspan9617">sina sona la tomo ni </tspan><tspan
         sodipodi:role="line"
         style="font-size:45px;line-height:1.25"
         x="406.04767"
         y="3269.8232"
         id="tspan1197">li tomo pi jan nasa </tspan><tspan
         sodipodi:role="line"
         style="font-size:45px;line-height:1.25"
         x="406.04767"
         y="3326.0732"
         id="tspan1199">ike anu seme?</tspan></text>
    <text
       xml:space="preserve"
       style="font-style:normal;font-variant:normal;font-weight:normal;font-stretch:normal;line-height:0%;font-family:Lavi;-inkscape-font-specification:Lavi;text-align:center;letter-spacing:0px;word-spacing:0px;text-anchor:middle;fill:#000000;fill-opacity:1;stroke:none"
       x="1407.2664"
       y="2451.6616"
       id="text4246-3-5-9-3"><tspan
         sodipodi:role="line"
         style="font-size:45px;line-height:1.25"
         x="1407.2664"
         y="2451.6616"
         id="tspan25784">sona li wawa, </tspan><tspan
         sodipodi:role="line"
         style="font-size:45px;line-height:1.25"
         x="1407.2664"
         y="2507.9116"
         id="tspan2695">jan lawa mi o!</tspan></text>
    <text
       xml:space="preserve"
       style="font-style:normal;font-variant:normal;font-weight:normal;font-stretch:normal;line-height:0%;font-family:Lavi;-inkscape-font-specification:Lavi;text-align:center;letter-spacing:0px;word-spacing:0px;text-anchor:middle;fill:#000000;fill-opacity:1;stroke:none"
       x="1315.355"
       y="3202.9702"
       id="text4246-3-5-9-3-3-6"><tspan
         sodipodi:role="line"
         style="font-size:45px;line-height:1.25"
         x="1315.355"
         y="3202.9702"
         id="tspan36535">jan lukin mi mute </tspan><tspan
         sodipodi:role="line"
         style="font-size:45px;line-height:1.25"
         x="1315.355"
         y="3259.2202"
         id="tspan4634">li lukin e ona lon ni.</tspan></text>
    <text
       xml:space="preserve"
       style="font-style:normal;font-variant:normal;font-weight:normal;font-stretch:normal;line-height:0%;font-family:Lavi;-inkscape-font-specification:Lavi;text-align:center;letter-spacing:0px;word-spacing:0px;text-anchor:middle;fill:#000000;fill-opacity:1;stroke:none"
       x="1883.0886"
       y="3134.877"
       id="text4246-3-3-7"><tspan
         sodipodi:role="line"
         style="font-style:normal;font-variant:normal;font-weight:bold;font-stretch:normal;font-size:45px;line-height:1.25;font-family:Lavi;-inkscape-font-specification:'Lavi Bold'"
         x="1883.0886"
         y="3134.877"
         id="tspan67-0">GRrrr...</tspan><tspan
         sodipodi:role="line"
         x="1883.0886"
         y="3153.384"
         id="tspan852-9" /></text>
    <text
       xml:space="preserve"
       style="font-style:normal;font-variant:normal;font-weight:normal;font-stretch:normal;line-height:0%;font-family:Lavi;-inkscape-font-specification:Lavi;text-align:center;letter-spacing:0px;word-spacing:0px;text-anchor:middle;fill:#000000;fill-opacity:1;stroke:none"
       x="1919.5736"
       y="3222.498"
       id="text4246-3-5-9-3-3-6-3"><tspan
         sodipodi:role="line"
         style="font-size:45px;line-height:1.25;fill:#000000"
         x="1919.5736"
         y="3222.498"
         id="tspan5354"><tspan
   style="font-weight:bold"
   id="tspan5350">nasin tenpo mi</tspan> la, </tspan><tspan
         sodipodi:role="line"
         style="font-size:45px;line-height:1.25;fill:#000000"
         x="1919.5736"
         y="3278.748"
         id="tspan5374"><tspan
   style="font-weight:bold"
   id="tspan5367">musi utala mi</tspan> la, <tspan
   style="font-weight:bold"
   id="tspan5372">ike</tspan> </tspan><tspan
         sodipodi:role="line"
         style="font-size:45px;line-height:1.25;fill:#000000"
         x="1919.5736"
         y="3334.998"
         id="tspan1487">li kama tan tomo ni a!</tspan></text>
  </g>
</svg>
