<?xml version="1.0" encoding="UTF-8" standalone="no"?>
<!-- Created with Inkscape (http://www.inkscape.org/) -->

<svg
   xmlns:dc="http://purl.org/dc/elements/1.1/"
   xmlns:cc="http://creativecommons.org/ns#"
   xmlns:rdf="http://www.w3.org/1999/02/22-rdf-syntax-ns#"
   xmlns:svg="http://www.w3.org/2000/svg"
   xmlns="http://www.w3.org/2000/svg"
   xmlns:xlink="http://www.w3.org/1999/xlink"
   xmlns:sodipodi="http://sodipodi.sourceforge.net/DTD/sodipodi-0.dtd"
   xmlns:inkscape="http://www.inkscape.org/namespaces/inkscape"
   id="svg2"
   version="1.1"
   inkscape:version="0.92.2 2405546, 2018-03-11"
   width="2481"
   height="3503"
   sodipodi:docname="E26P01.svg">
  <metadata
     id="metadata8">
    <rdf:RDF>
      <cc:Work
         rdf:about="">
        <dc:format>image/svg+xml</dc:format>
        <dc:type
           rdf:resource="http://purl.org/dc/dcmitype/StillImage" />
        <dc:title />
      </cc:Work>
    </rdf:RDF>
  </metadata>
  <defs
     id="defs6" />
  <sodipodi:namedview
     pagecolor="#ffffff"
     bordercolor="#666666"
     borderopacity="1"
     objecttolerance="10"
     gridtolerance="10"
     guidetolerance="10"
     inkscape:pageopacity="0"
     inkscape:pageshadow="2"
     inkscape:window-width="1920"
     inkscape:window-height="1033"
     id="namedview4"
     showgrid="false"
     inkscape:zoom="0.48912286"
     inkscape:cx="1308.9289"
     inkscape:cy="1438.8787"
     inkscape:window-x="94"
     inkscape:window-y="35"
     inkscape:window-maximized="0"
     inkscape:current-layer="layer3"
     inkscape:snap-global="false" />
  <g
     inkscape:groupmode="layer"
     id="layer2"
     inkscape:label="artwork"
     sodipodi:insensitive="true">
    <image
       sodipodi:absref="/home/midgard/git/peppercarrot/comics/ep26_Books-Are-Great/lang/id/../gfx_Pepper-and-Carrot_by-David-Revoy_E26P01.png"
       xlink:href="../gfx_Pepper-and-Carrot_by-David-Revoy_E26P01.png"
       width="2481"
       height="3503"
       id="image10"
       x="0"
       y="0" />
  </g>
  <g
     inkscape:groupmode="layer"
     id="layer3"
     inkscape:label="speechbubbles"
     style="display:inline;opacity:1">
    <path
       style="fill:#ffffff;fill-opacity:1;stroke:none;stroke-width:1.33979297"
       d="m 261.91033,1886.1776 c -70.25404,0.4163 -103.28886,-10.1327 -119.80262,-19.4702 -27.40102,-15.4936 -32.75993,-108.6848 22.45255,-127.2534 55.50305,-18.6663 163.74161,-14.5153 208.1649,21.3805 44.42312,35.8958 12.74043,83.1585 2.52612,92.8715 -10.21448,9.7129 -37.3362,32.099 -113.34095,32.4716 z"
       id="path3659-8"
       inkscape:connector-curvature="0"
       sodipodi:nodetypes="cssssc" />
    <path
       style="color:#000000;display:inline;overflow:visible;visibility:visible;fill:#ffffff;fill-opacity:1;fill-rule:nonzero;stroke:none;stroke-width:0.77001458px;marker:none;enable-background:accumulate"
       d="m 274.67689,1855.3732 c 11.17842,15.8247 25.32183,43.4204 25.79652,49.4209 -6.73911,-0.5556 -13.09406,0.387 -18.03883,1.0204 1.81058,10.7946 32.21158,51.6223 41.64451,56.3046 -23.83945,-10.0592 -58.27989,-45.5693 -59.88737,-63.8703 6.68489,-2.1454 10.75049,-2.4727 14.26692,-3.6967 -0.36416,-9.3034 -20.80365,-30.8908 -20.80365,-30.8908 z"
       id="path5066"
       inkscape:connector-curvature="0"
       sodipodi:nodetypes="cccccccc" />
    <path
       style="color:#000000;display:inline;overflow:visible;visibility:visible;fill:#ffffff;fill-opacity:1;fill-rule:nonzero;stroke:none;stroke-width:1.2527591px;marker:none;enable-background:accumulate"
       d="m 1711.2981,1986.4836 c -44.0183,-55.9541 -42.47,-173.9591 -29.8932,-199.1384 19.6679,-47.0795 66.7895,-55.4818 126.5289,-55.4818 59.7395,0 483.7717,-28.5884 545.0832,30.1633 61.3113,58.7518 42.0114,168.1678 -11.4396,236.7115 -53.4511,68.5437 -350.2081,54.555 -350.2081,54.555 0,0 -212.4712,4.5317 -280.0712,-66.8096 z"
       id="path3992"
       inkscape:connector-curvature="0"
       sodipodi:nodetypes="ccscccc" />
    <path
       style="color:#000000;display:inline;overflow:visible;visibility:visible;fill:#ffffff;fill-opacity:1;fill-rule:nonzero;stroke:none;stroke-width:1px;marker:none;enable-background:accumulate"
       d="m 1984.9695,2248.8076 c 97.5172,-13.4683 140.8945,-73.5032 173.5649,-113.8088 15.274,-18.8437 -32.2063,-50.3843 -32.2063,-50.3843 l -20.4844,64.3961 c 4.4776,5.3732 -31.2523,71.0033 -120.8742,99.797 z"
       id="path4000"
       inkscape:connector-curvature="0"
       sodipodi:nodetypes="csccc" />
    <path
       style="color:#000000;display:inline;overflow:visible;visibility:visible;fill:#ffffff;fill-opacity:1;fill-rule:nonzero;stroke:none;stroke-width:0.83059144px;marker:none;enable-background:accumulate"
       d="m 1984.9426,2058.5687 c 16.1003,-23.0063 30.1001,-56.0667 148.6789,-40.4877 63.5172,8.3448 135.7326,7.6994 128.2439,88.2216 -7.4887,80.5222 -112.6372,70.1622 -134.1673,71.1095 -21.53,0.9474 -123.0936,0.012 -141.7025,-28.3054 -11.6488,-17.7262 -17.1206,-69.1629 -1.053,-90.538 z"
       id="path4546-6"
       inkscape:connector-curvature="0"
       sodipodi:nodetypes="cssssc" />
    <path
       style="color:#000000;display:inline;overflow:visible;visibility:visible;opacity:1;vector-effect:none;fill:#ffffff;fill-opacity:1;fill-rule:nonzero;stroke:none;stroke-width:1.12378895;stroke-linecap:butt;stroke-linejoin:miter;stroke-miterlimit:4;stroke-dasharray:none;stroke-dashoffset:0;stroke-opacity:1;marker:none;paint-order:stroke fill markers;enable-background:accumulate"
       d="m 886.90144,2711.4207 c -42.35425,-48.6257 -29.63846,-174.1129 -17.53715,-195.9945 -7.09661,-32.6946 19.52386,-59.895 86.22118,-54.7039 57.25523,4.4563 468.71453,-28.3766 527.70793,22.6803 58.9931,51.057 46.3684,179.0116 19.3465,219.6327 -29.9444,45.0144 -351.9225,32.4222 -351.9225,32.4222 -0.2702,0.3383 -202.22626,15.2055 -263.81596,-24.0368 z"
       id="path3992-0"
       inkscape:connector-curvature="0"
       sodipodi:nodetypes="ccscscc" />
    <path
       style="color:#000000;display:inline;overflow:visible;visibility:visible;fill:#ffffff;fill-opacity:1;fill-rule:nonzero;stroke:none;stroke-width:1.1471467px;marker:none;enable-background:accumulate"
       d="m 1107.7917,2663.674 c -41.0805,41.3971 -74.3212,126.4523 -32.6058,262.3106 -64.481,-107.4324 -40.7404,-218.5665 -31.5488,-251.0486 9.1915,-32.4819 64.1546,-11.262 64.1546,-11.262 z"
       id="path4008"
       inkscape:connector-curvature="0" />
    <path
       style="color:#000000;display:inline;overflow:visible;visibility:visible;fill:#ffffff;fill-opacity:1;fill-rule:nonzero;stroke:none;stroke-width:1.1471467px;marker:none;enable-background:accumulate"
       d="m 1891.9827,2656.832 c -40.4116,58.3597 -53.3089,167.7072 24.2468,263.2149 -108.4132,-99.3198 -82.2954,-214.0613 -72.6196,-244.9782 2.0322,-33.6961 48.3728,-18.2367 48.3728,-18.2367 z"
       id="path4008-0"
       inkscape:connector-curvature="0"
       sodipodi:nodetypes="cccc" />
    <path
       style="color:#000000;display:inline;overflow:visible;visibility:visible;opacity:1;fill:#ffffff;fill-opacity:1;fill-rule:nonzero;stroke:none;stroke-width:1.61002719px;marker:none;enable-background:accumulate"
       d="m 1881.1894,2742.1808 c -111.2492,-11.7328 -133.8716,-19.8074 -160.4058,-73.7926 -26.5342,-53.9852 23.1092,-205.24 46.3313,-217.5306 14.7874,-4.6925 257.884,-1.7211 354.0794,10.6877 96.1955,12.4089 127.596,65.5865 138.7458,141.8656 11.3019,77.3192 10.5754,132.3139 -117.6891,137.3477 -125.1642,4.9122 -261.0616,1.4222 -261.0616,1.4222 z"
       id="path3970"
       inkscape:connector-curvature="0"
       sodipodi:nodetypes="csccssc" />
  </g>
  <g
     inkscape:groupmode="layer"
     id="layer1"
     inkscape:label="txt">
    <text
       xml:space="preserve"
       style="font-style:normal;font-variant:normal;font-weight:normal;font-stretch:normal;line-height:0%;font-family:Lavi;-inkscape-font-specification:Lavi;text-align:center;letter-spacing:0px;word-spacing:0px;text-anchor:middle;fill:#000000;fill-opacity:1;stroke:none"
       x="255.58948"
       y="1795.011"
       id="text4246"><tspan
         sodipodi:role="line"
         style="font-size:45px;line-height:1.25"
         x="255.58948"
         y="1795.011"
         id="tspan825">Buku itu</tspan><tspan
         sodipodi:role="line"
         style="font-size:45px;line-height:1.25"
         x="255.58948"
         y="1851.261"
         id="tspan3879">berguna!</tspan></text>
    <text
       xml:space="preserve"
       style="font-style:normal;font-variant:normal;font-weight:normal;font-stretch:normal;line-height:0%;font-family:Lavi;-inkscape-font-specification:Lavi;text-align:center;letter-spacing:0px;word-spacing:0px;text-anchor:middle;fill:#000000;fill-opacity:1;stroke:none"
       x="2118.7324"
       y="2088.3848"
       id="text4246-3-5-9"><tspan
         sodipodi:role="line"
         style="font-size:45px;line-height:1.25"
         x="2118.7324"
         y="2088.3848"
         id="tspan958">Ini sangat</tspan><tspan
         sodipodi:role="line"
         style="font-size:45px;line-height:1.25"
         x="2118.7324"
         y="2144.6348"
         id="tspan3941">berharga!</tspan></text>
    <text
       xml:space="preserve"
       style="font-style:normal;font-variant:normal;font-weight:normal;font-stretch:normal;line-height:0%;font-family:Lavi;-inkscape-font-specification:Lavi;text-align:center;letter-spacing:0px;word-spacing:0px;text-anchor:middle;fill:#000000;fill-opacity:1;stroke:none"
       x="1998.189"
       y="2528.0559"
       id="text4246-3-3-1-2"><tspan
         sodipodi:role="line"
         style="font-size:45px;line-height:1.25"
         x="1998.189"
         y="2528.0559"
         id="tspan1230">Tapi jika kamu</tspan><tspan
         sodipodi:role="line"
         style="font-size:45px;line-height:1.25"
         x="1998.189"
         y="2584.3059"
         id="tspan4029">mendekatinya dengan</tspan><tspan
         sodipodi:role="line"
         style="font-size:45px;line-height:1.25"
         x="1998.189"
         y="2640.5559"
         id="tspan4031">hati-hati dari samping,</tspan><tspan
         sodipodi:role="line"
         style="font-size:45px;line-height:1.25"
         x="1998.189"
         y="2696.8059"
         id="tspan4033">di luar pandangannya...</tspan></text>
    <text
       xml:space="preserve"
       style="font-style:normal;font-weight:normal;font-size:40px;line-height:1.25;font-family:sans-serif;letter-spacing:0px;word-spacing:0px;fill:#000000;fill-opacity:1;stroke:none"
       x="2539.2393"
       y="1742.7061"
       id="text3883"><tspan
         sodipodi:role="line"
         id="tspan3881"
         x="2539.2393"
         y="1779.1992" /></text>
    <text
       xml:space="preserve"
       style="font-style:normal;font-weight:normal;font-size:40px;line-height:1.25;font-family:sans-serif;letter-spacing:0px;word-spacing:0px;fill:#000000;fill-opacity:1;stroke:none"
       x="2614.885"
       y="1849.0188"
       id="text3887"><tspan
         sodipodi:role="line"
         id="tspan3885"
         x="2614.885"
         y="1885.512" /></text>
    <text
       xml:space="preserve"
       style="font-style:normal;font-variant:normal;font-weight:normal;font-stretch:normal;line-height:0%;font-family:Lavi;-inkscape-font-specification:Lavi;text-align:center;letter-spacing:0px;word-spacing:0px;text-anchor:middle;fill:#000000;fill-opacity:1;stroke:none"
       x="2033.3088"
       y="1790.62"
       id="text4246-3-3-0"><tspan
         sodipodi:role="line"
         style="font-weight:normal;font-size:45px;line-height:1.25"
         x="2033.3088"
         y="1790.62"
         id="tspan1107-6">Buku langka ini menyimpan</tspan><tspan
         sodipodi:role="line"
         style="font-weight:normal;font-size:45px;line-height:1.25"
         x="2033.3088"
         y="1846.87"
         id="tspan3931">catatan-catatan seorang</tspan><tspan
         sodipodi:role="line"
         style="font-weight:normal;font-size:45px;line-height:1.25"
         x="2033.3088"
         y="1903.12"
         id="tspan3933">petualang terampil dan</tspan><tspan
         sodipodi:role="line"
         style="font-weight:normal;font-size:45px;line-height:1.25"
         x="2040.3401"
         y="1959.37"
         id="tspan3935">menjelaskan semuanya tentang </tspan><tspan
         sodipodi:role="line"
         style="font-weight:normal;font-size:45px;line-height:1.25"
         x="2033.3088"
         y="2015.62"
         id="tspan3937">ruang bawah tanah ini.</tspan></text>
    <text
       xml:space="preserve"
       style="font-style:normal;font-variant:normal;font-weight:normal;font-stretch:normal;line-height:0%;font-family:Lavi;-inkscape-font-specification:Lavi;text-align:center;letter-spacing:0px;word-spacing:0px;text-anchor:middle;fill:#000000;fill-opacity:1;stroke:none"
       x="1200.504"
       y="2523.9495"
       id="text4246-3-3-1-8"><tspan
         sodipodi:role="line"
         style="font-size:45px;line-height:1.25"
         x="1200.504"
         y="2523.9495"
         id="tspan1244-6">Contohnya: mata jahat di</tspan><tspan
         sodipodi:role="line"
         style="font-size:45px;line-height:1.25"
         x="1200.504"
         y="2580.1995"
         id="tspan3979">pintu depan ini menembakkan</tspan><tspan
         sodipodi:role="line"
         style="font-size:45px;line-height:1.25"
         x="1200.504"
         y="2636.4495"
         id="tspan3981">bola api mematikan untuk</tspan><tspan
         sodipodi:role="line"
         style="font-size:45px;line-height:1.25"
         x="1200.504"
         y="2692.6995"
         id="tspan3983">mengusir tamu tak diundang.</tspan></text>
  </g>
</svg>
