<?xml version="1.0" encoding="UTF-8" standalone="no"?>
<svg
   xmlns:dc="http://purl.org/dc/elements/1.1/"
   xmlns:cc="http://creativecommons.org/ns#"
   xmlns:rdf="http://www.w3.org/1999/02/22-rdf-syntax-ns#"
   xmlns:svg="http://www.w3.org/2000/svg"
   xmlns="http://www.w3.org/2000/svg"
   xmlns:xlink="http://www.w3.org/1999/xlink"
   xmlns:sodipodi="http://sodipodi.sourceforge.net/DTD/sodipodi-0.dtd"
   xmlns:inkscape="http://www.inkscape.org/namespaces/inkscape"
   id="svg2"
   version="1.1"
   inkscape:version="1.0.2-2 (e86c870879, 2021-01-15)"
   width="2481"
   height="3503"
   sodipodi:docname="E19P06.svg">
  <sodipodi:namedview
     pagecolor="#ffffff"
     bordercolor="#666666"
     inkscape:pageopacity="0"
     inkscape:pageshadow="2"
     inkscape:window-width="1350"
     inkscape:window-height="729"
     id="namedview70"
     showgrid="false"
     inkscape:zoom="0.2"
     inkscape:cx="1166.4285"
     inkscape:cy="3214.4809"
     inkscape:current-layer="layer1"
     inkscape:document-rotation="0"
     inkscape:window-x="0"
     inkscape:window-y="0"
     inkscape:window-maximized="0" />
  <metadata
     id="metadata8">
    <rdf:RDF>
      <cc:Work
         rdf:about="">
        <dc:format>image/svg+xml</dc:format>
        <dc:type
           rdf:resource="http://purl.org/dc/dcmitype/StillImage" />
        <dc:title />
      </cc:Work>
    </rdf:RDF>
  </metadata>
  <defs
     id="defs6" />
  <sodipodi:namedview
     pagecolor="#ffffff"
     bordercolor="#666666"
     borderopacity="1"
     objecttolerance="10"
     gridtolerance="10"
     guidetolerance="10"
     inkscape:pageopacity="0"
     inkscape:pageshadow="2"
     inkscape:window-width="1920"
     inkscape:window-height="1025"
     id="namedview4"
     showgrid="false"
     inkscape:zoom="0.42482639"
     inkscape:cx="1380.8946"
     inkscape:cy="2114.6111"
     inkscape:window-x="0"
     inkscape:window-y="26"
     inkscape:window-maximized="1"
     inkscape:current-layer="layer1" />
  <g
     inkscape:groupmode="layer"
     id="layer2"
     inkscape:label="artwork"
     sodipodi:insensitive="true">
    <image
       sodipodi:absref="C:\Users\quentinlipeck\Downloads\webcomics-master-ec7d62e6553c2c63bb1cf2e799ee31f9cb9ce5e2\webcomics-master-ec7d62e6553c2c63bb1cf2e799ee31f9cb9ce5e2\ep19_Pollution\lang\gfx_Pepper-and-Carrot_by-David-Revoy_E19P06.png"
       xlink:href="../gfx_Pepper-and-Carrot_by-David-Revoy_E19P06.png"
       y="0"
       x="0"
       id="image10"
       height="3503"
       width="2481" />
  </g>
  <g
     inkscape:groupmode="layer"
     id="layer3"
     inkscape:label="speechbubbles">
    <path
       style="fill:#ffffff;stroke:none;stroke-width:0.947769"
       d="m 481.27782,826.92375 -20.91977,11.64418 c -46.25534,-4.52772 -174.08164,-10.73467 -239.31966,-7.48692 l -26.58596,7.96804 -14.3811,-14.71008 -6.53867,18.38622 -13.07337,-12.87019 -13.86853,11.76364 -15.68884,-8.58012 5.66618,18.38623 -8.71689,11.03209 -17.43381,-7.96804 9.58938,33.09633 c 10e-6,0 -5.34057,3.61918 -11.44219,3.61918 15.30764,26.65967 17.33499,164.62549 12.23291,211.95959 l -12.24637,8.2917 12.23846,10.4562 4.88075,3.8801 -20.5142,13.1336 15.36438,-0.8735 -11.94172,14.6043 12.6401,8.582 -0.87248,11.0302 -1.74299,6.7439 10.10773,7.3523 -17.42731,16.1885 24.46256,-4.5128 0.72608,0.5842 c 0,0 -16.54338,22.2377 -21.08602,30.5916 13.30441,-5.0714 34.16106,-12.8184 35.90435,-13.4314 0.13984,-0.048 0.48458,-0.021 0.91601,0.039 l -10.94262,17.2103 26.39207,-13.3449 c 1.80177,0.467 3.61718,0.9301 5.39712,1.3575 l -5.05808,15.5443 28.27479,-12.5229 c 9.08248,1.4746 20.3198,4.1686 23.00899,4.5887 3.92244,0.613 24.84253,-6.129 29.63667,-5.516 4.79414,0.6128 48.81223,7.3541 52.73467,7.3541 3.92245,0 27.89271,-2.4511 33.12265,-3.064 5.22992,-0.6128 32.68697,3.064 37.4811,3.064 4.79404,0 13.07556,-6.1292 17.43379,-6.7421 4.35836,-0.6128 16.56119,3.6783 19.61204,4.904 3.05077,1.226 24.842,3.0641 30.07193,3.0641 5.22993,0 42.7511,-6.4201 52.29943,-3.678 6.93673,1.992 70.15596,0.1783 104.11414,-1.9642 l -3.57104,14.5173 22.02571,-16.0901 c 1.81226,-0.2613 2.86501,-0.5145 2.94982,-0.7531 0,0 6.97308,11.6461 9.15215,11.6461 2.17916,0 5.66644,-9.8081 6.97392,-11.0339 1.30749,-1.2259 10.46083,5.5169 12.6401,4.9039 2.17917,-0.6129 3.05072,-12.8703 3.05072,-12.8703 l 2.17823,-6.1298 c 0,0 6.10193,-1.8383 8.71691,-4.2901 2.61495,-2.4516 -0.43653,-12.8709 -3.92321,-17.7741 3.05087,-2.4516 10.46013,-6.7409 11.76763,-9.1923 1.30756,-2.4518 -3.05072,-10.42 -3.05072,-10.42 0,0 2.61563,-4.2896 3.9232,-7.354 1.30749,-3.0648 -8.16063,-13.2919 -8.16063,-13.2919 0,0 8.16008,-9.999 8.59588,-13.6764 0.38519,-3.2505 -1.95584,-6.4965 -5.81457,-7.2076 l 12.1178,-6.4248 -13.70844,-2.1738 c -1.05752,-34.2576 -1.76711,-148.3947 5.86008,-177.4458 l 16.46042,-12.02441 -16.04694,-5.64775 c -1.11733,-1.4125 -2.3318,-2.86516 -3.59676,-4.30859 l 16.04353,-16.5997 -23.50556,-8.27407 v -10.94307 l -8.7169,-6.12813 c 0,0 0.37656,-1.60766 0.74982,-3.92653 l 9.05917,-15.88414 -35.24603,12.98474 0.0752,0.30233 c -10.36608,-1.6022 -18.74945,-5.88885 -18.74945,-5.88885 l 4.7937,-27.58027 -32.25213,13.4841 -2.17824,-11.64418 -13.5106,11.03211 -4.35846,-17.77415 -13.5106,13.48409 -11.33237,-7.00416 -2.54913,2.16658 -10.45989,-7.96805 -10.45988,7.35412 -20.83867,3.8539 -6.10144,-17.16023 z"
       id="path3894"
       inkscape:connector-curvature="0"
       sodipodi:nodetypes="ccccccccccccccccccccccccccccccccccccccscsscssccccscccccccccccccccccccccccccccccccccccccccc" />
    <path
       style="color:#000000;display:inline;overflow:visible;visibility:visible;fill:#ffffff;fill-opacity:1;fill-rule:nonzero;stroke:none;stroke-width:1px;marker:none;enable-background:accumulate"
       d="m 535.70109,762.59499 c 38.34876,34.92863 35.4166,55.61846 35.05492,70.73951 -5.21085,0.99543 -14.03945,4.31409 -14.03945,4.31409 0,0 2.34858,29.8366 -0.92638,41.34315 -3.27496,11.50653 -19.13613,8.37057 -19.13613,8.37057 0,0 -6.17597,-57.93992 -11.57097,-70.14779 14.42663,-2.21185 21.11631,-4.94055 26.71433,-3.83376 3.38923,-8.44544 -2.96428,-38.06103 -16.09632,-50.78577 z"
       id="path4456"
       inkscape:connector-curvature="0" />
    <path
       style="color:#000000;display:inline;overflow:visible;visibility:visible;fill:#ffffff;fill-opacity:1;fill-rule:nonzero;stroke:none;stroke-width:0.944754px;marker:none;enable-background:accumulate"
       d="m 782.81669,220.96654 -40.2,-12.92937 22.33662,38.5431 -37.7925,-13.91693 29.62312,38.5458 -37.33944,-2.12402 25.7385,27.69905 -21.22949,5.50682 21.62976,24.01954 -22.33486,7.1831 20.09075,25.34659 -22.16593,17.55751 13.22109,16.75239 -16.03279,14.73098 14.53784,9.88519 -12.78231,22.58141 17.26727,4.00387 -17.94553,23.22854 27.80199,-7.36887 -8.73165,26.72278 32.43886,-15.32206 -14.08971,33.28285 28.43761,-0.30661 -39.32137,75.2853 61.70439,-46.43505 4.69958,39.81015 30.56944,-34.97278 0.7747,24.39555 27.00855,-30.7799 -0.57997,30.51875 29.84036,-35.94439 0.0734,114.16014 50.44473,-97.31717 8.95524,40.19563 8.18962,-37.53903 8.77262,16.50127 8.50759,-20.74772 8.24425,32.74259 15.08778,-37.76036 59.3997,55.31161 -10.3828,-66.36423 49.2997,9.00832 -16.5309,-32.56565 71.0319,17.32379 -33.4621,-30.02124 60.3347,16.24103 -67.4967,-53.49572 62.0702,13.8993 -46.0407,-42.64259 42.8626,-3.63205 -39.4536,-29.38358 70.4661,-4.79727 -64.3311,-24.47284 57.7689,-12.67985 -43.5442,-25.61389 50.2645,-21.18636 -53.784,-16.3758 39.605,-54.57019 -55.3143,13.78512 6.3706,-37.30038 -51.7449,27.92204 24.2431,-66.56756 -65.8828,58.97103 3.2897,-18.89177 -23.3736,15.52398 14.4089,-42.67452 -44.102,40.37025 4.485,-18.70816 -13.45481,17.72361 2.98986,-24.61618 -23.17212,29.53936 2.13339,-25.73756 -14.15808,13.88312 -0.36435,-13.17885 -13.02568,10.26361 -17.55909,-44.73274 -26.19792,46.13179 -12.87986,-19.84227 -14.90955,19.00405 -10.35586,-22.35316 -15.59171,26.71121 -25.36537,-36.20815 1.65841,35.92759 -61.18697,-38.92023 z"
       id="path4024"
       inkscape:connector-curvature="0"
       sodipodi:nodetypes="ccccccccccccccccccccccccccccccccccccccccccccccccccccccccccccccccccccccccccccccccccccc" />
    <path
       style="color:#000000;display:inline;overflow:visible;visibility:visible;fill:#ffffff;fill-opacity:1;fill-rule:nonzero;stroke:none;stroke-width:1px;marker:none;enable-background:accumulate"
       d="m 981.87504,489.07837 c 15.79816,16.30726 34.68336,141.58053 227.57366,231.14516 -154.1725,-93.5024 -173.4435,-224.61445 -180.0947,-249.55706 -53.90514,-8.39388 -24.7768,9.78373 -47.47896,18.4119 z"
       id="path4024-3"
       inkscape:connector-curvature="0"
       sodipodi:nodetypes="cccc" />
    <path
       style="color:#000000;display:inline;overflow:visible;visibility:visible;fill:#ffffff;fill-opacity:1;fill-rule:nonzero;stroke:none;stroke-width:1px;marker:none;enable-background:accumulate"
       d="m 1165.7536,858.24078 c 28.961,44.03488 26.3945,130.36717 18.3117,150.34892 -8.0828,19.9817 -19.1821,49.9462 -58.1326,50.2525 -38.9506,0.3064 -309.43062,23.4584 -349.6799,-22.7008 -40.24929,-46.15927 -39.70015,-126.94282 -5.16902,-181.43608 34.53113,-54.49326 221.14913,-44.89527 221.14913,-44.89527 0,0 129.11259,-7.65482 173.52069,48.43073 z"
       id="path3992"
       inkscape:connector-curvature="0" />
    <path
       style="display:inline;fill:#ffffff;fill-rule:evenodd;stroke:none;stroke-width:1px;stroke-linecap:butt;stroke-linejoin:miter;stroke-opacity:1"
       d="m 727.10685,996.89136 c 74.866,73.60324 103.78855,3.96944 102.68898,-66.62566 30.56158,76.2866 51.76994,93.3483 64.34785,55.7614 40.46149,32.3075 65.73312,23.245 85.79709,0 7.47835,29.8947 23.51573,17.8312 37.39523,16.3462 4.5714,6.7635 -11.1293,23.5669 52.3016,1.1789 4.1088,8.9521 9.6437,16.6614 46.7984,-3.1864 9.6256,36.3357 40.509,-2.01383 72.1476,-43.01599 -19.7117,50.40869 -20.8834,52.65279 4.3042,33.36049 -3.7956,8.56916 -9.9761,25.7196 15.4916,7.14359 -14.9785,38.31631 35.7014,-11.18964 99.1309,-66.22169 -31.7284,40.67928 -105.608,136.6484 -50.1911,130.9639 -7.7282,11.9924 -33.6691,26.098 44.3605,36.547 -15.3256,8.1378 -62.1143,-3.7539 -23.0841,30.7017 5.2293,4.0276 -12.277,6.4871 21.1342,17.0938 -19.723,-0.7216 -31.8186,1.8562 -13.6496,17.525 -36.0017,-0.8472 -22.5314,15.6287 3.8999,36.6432 -52.1355,-26.9556 -55.0047,-17.1588 -56.5481,-6.3727 -65.3412,-36.7496 -69.1768,-25.1792 -77.9972,-17.5251 -31.849,0.2868 -63.6979,-4.3411 -95.5469,36.6433 -8.3408,-25.4912 -25.0631,-45.1128 -95.54659,-27.0841 30.94761,-32.4293 -13.07948,-11.7684 -46.79837,1.5931 18.46514,-40.5122 -28.397,-13.9241 -87.74711,25.491 33.23583,-44.7368 -36.02827,-48.3517 -91.964,-16.5884 39.05508,-34.6799 50.49092,-43.5858 -31.77091,-45.2956 39.37305,-15.8531 30.0734,-37.6472 -10.81042,-73.5366 46.08773,10.5678 59.83505,0.7517 27.29901,-38.2364 50.26943,32.0011 24.17136,-0.3644 4.55734,-43.30394 z"
       id="path4508"
       inkscape:connector-curvature="0"
       sodipodi:nodetypes="cccccccccccccccccccccccccccc" />
    <path
       style="color:#000000;display:inline;overflow:visible;visibility:visible;fill:#ffffff;fill-opacity:1;fill-rule:nonzero;stroke:none;stroke-width:1px;marker:none;enable-background:accumulate"
       d="m 760.12564,1192.5775 c 8.00598,-57.0318 75.15648,-96.8019 244.18316,-80.6312 90.5398,8.6619 199.6579,-3.5616 188.9833,94.9884 -9.0737,83.77 -166.2012,69.9004 -196.89089,70.8837 -30.68973,0.9834 -187.78228,3.1783 -214.30819,-26.2153 -16.60461,-18.3996 -23.3017,-41.326 -21.96738,-59.0256 z"
       id="path4546-6-3"
       inkscape:connector-curvature="0"
       sodipodi:nodetypes="cssssc" />
    <path
       style="color:#000000;display:inline;overflow:visible;visibility:visible;fill:#ffffff;fill-opacity:1;fill-rule:nonzero;stroke:none;stroke-width:0.915409px;marker:none;enable-background:accumulate"
       d="m 139.92716,1512.1012 c 38.50476,-39.9678 252.02205,-33.8552 318.43462,-23.561 72.47738,11.2343 94.79201,27.1527 98.03297,62.0408 1.00107,10.7761 -4.86144,59.6437 -40.51247,69.2637 -35.65088,9.6199 -137.74206,14.4299 -173.39309,14.4299 -35.65087,0 -149.45648,-6.1231 -178.25484,-20.2019 -27.54847,-13.468 -62.81212,-62.0038 -24.30719,-101.9715 z"
       id="path3330"
       inkscape:connector-curvature="0"
       sodipodi:nodetypes="zsssssz" />
    <path
       style="color:#000000;display:inline;overflow:visible;visibility:visible;fill:#ffffff;fill-opacity:1;fill-rule:nonzero;stroke:none;stroke-width:1px;marker:none;enable-background:accumulate"
       d="m 265.76142,1678.0072 c -1.00912,-29.0026 4.13675,-48.2355 27.24676,-63.6443 21.03848,-14.0276 67.36577,-17.904 98.27821,-17.904 49.96563,-0.198 178.2246,-5.4181 163.08985,85.1901 -0.59776,42.9756 -75.12988,44.8494 -90.26705,48.3297 -15.13717,3.4803 -75.65003,4.2477 -89.77807,3.0877 -51.93832,2.1088 -106.76576,-19.7128 -108.5697,-55.0592 z"
       id="path3357"
       inkscape:connector-curvature="0"
       sodipodi:nodetypes="csccscc" />
    <path
       style="color:#000000;display:inline;overflow:visible;visibility:visible;fill:#ffffff;fill-opacity:1;fill-rule:nonzero;stroke:none;stroke-width:1px;marker:none;enable-background:accumulate"
       d="m 453.45684,1711.8886 c -0.37144,57.0275 25.35707,95.1396 67.76656,103.3368 -67.9487,-0.4363 -102.57173,-72.2713 -100.82948,-96.6104 1.70602,-23.8329 33.06292,-6.7264 33.06292,-6.7264 z"
       id="path5010"
       inkscape:connector-curvature="0"
       sodipodi:nodetypes="ccsc" />
    <path
       style="color:#000000;display:inline;overflow:visible;visibility:visible;fill:#ffffff;fill-opacity:1;fill-rule:nonzero;stroke:none;stroke-width:1px;marker:none;enable-background:accumulate"
       d="m 232.60887,2112.7468 c 28.82884,-21.6901 278.41375,-34.8028 344.5222,0.8436 55.17978,29.7537 33.65046,103.8509 -15.42321,120.9177 -49.0735,17.0669 -212.3232,15.086 -283.87185,7.3484 -68.12416,-7.3674 -79.56334,-29.6049 -82.91431,-74.38 -1.36765,-18.2745 8.85821,-33.0393 37.68717,-54.7297 z"
       id="path4040-4"
       inkscape:connector-curvature="0"
       sodipodi:nodetypes="zssssz" />
    <path
       style="color:#000000;display:inline;overflow:visible;visibility:visible;fill:#ffffff;fill-opacity:1;fill-rule:nonzero;stroke:none;stroke-width:1px;marker:none;enable-background:accumulate"
       d="m 535.00775,1986.8306 c -11.22357,-11.0259 -34.07155,-13.8129 -52.41966,-13.1663 -5.21231,0.2939 -10.58546,0.9606 -15.40703,2.9669 -4.5497,3.204 -5.8508,9.2452 -4.71647,14.4517 1.1116,7.6336 5.4512,15.1923 3.33691,23.0221 -1.67716,5.6622 -7.62933,7.7967 -12.46033,10.0265 -12.42532,5.4417 -25.66044,9.2324 -37.15366,16.6288 -13.48154,7.4861 -27.12386,16.3412 -35.233,29.8576 -3.11895,5.4019 -5.62626,11.4889 -5.13528,17.8477 0.51982,16.3695 10.44001,32.6806 25.75127,39.1373 10.15783,3.1917 22.85144,-2.6898 25.43476,-13.369 1.44801,-5.6168 -1.12924,-11.3042 -4.7776,-15.4765 -5.27333,-8.9228 -5.03206,-20.3779 -0.31332,-29.473 3.77147,-7.5698 9.88065,-13.877 17.08927,-18.2489 8.233,-8.5339 20.53978,-9.9068 31.26386,-13.4482 4.87531,-1.6909 9.9467,-3.8199 13.48797,-7.6632 3.74598,-6.6816 1.05856,-14.5289 -1.98107,-20.9052 -2.96548,-6.6569 -7.15746,-14.0436 -4.63677,-21.5174 1.0509,-5.4219 7.54846,-5.1616 11.76803,-6.5249 14.15942,-2.6164 28.95507,-0.7769 42.45081,4.0015 1.25162,0.5512 2.45101,1.1992 3.65131,1.8525 z"
       id="path4496"
       inkscape:connector-curvature="0"
       sodipodi:nodetypes="ccccccccccccccccccccc" />
    <path
       style="color:#000000;display:inline;overflow:visible;visibility:visible;fill:#ffffff;fill-opacity:1;fill-rule:nonzero;stroke:none;stroke-width:1px;marker:none;enable-background:accumulate"
       d="m 215.29356,2528.0155 c 9.655,-78.4304 99.91909,-134.4262 329.5865,-115.8152 123.02226,9.969 262.8327,17.4924 250.11894,132.4111 -12.7139,114.9186 -213.80757,108.6096 -255.42473,110.6088 -41.61715,1.9992 -257.55967,-13.6708 -294.1705,-53.444 -22.91755,-24.8968 -31.54594,-49.4446 -30.11021,-73.7607 z"
       id="path4546-6"
       inkscape:connector-curvature="0"
       sodipodi:nodetypes="cssssc" />
    <path
       style="fill:#ffffff;stroke:none"
       d="m 694.38649,2534.9643 c 31.16173,50.5895 56.21292,58.6934 72.83219,79.5631 16.61925,20.8701 -4.22375,65.3135 0.2296,80.4242 5.36252,14.254 23.11118,27.2288 57.37772,44.4988 -73.16324,-15.6884 -73.36945,-34.9149 -78.29883,-48.1564 -6.77646,-18.203 5.60657,-39.7648 -12.3168,-56.2686 -17.36077,-15.9861 -80.58056,-61.1983 -92.85364,-95.1241 -12.2733,-33.9259 -18.60006,-35.9967 -18.60006,-35.9967 z"
       id="path3282"
       inkscape:connector-curvature="0"
       sodipodi:nodetypes="csccssscc" />
  </g>
  <g
     inkscape:groupmode="layer"
     id="layer1"
     inkscape:label="txt">
    <text
       xml:space="preserve"
       style="font-style:normal;font-variant:normal;font-weight:normal;font-stretch:normal;line-height:0%;font-family:Lavi;-inkscape-font-specification:Lavi;text-align:center;letter-spacing:0px;word-spacing:0px;text-anchor:middle;fill:#000000;fill-opacity:1;stroke:none"
       x="386.09131"
       y="934.58612"
       id="text4246"><tspan
         sodipodi:role="line"
         style="font-size:55.2866px;line-height:1.25"
         x="386.09131"
         y="934.58612"
         id="tspan4176">taso <tspan
   style="stroke:#000000;stroke-width:1.8;stroke-miterlimit:4;stroke-dasharray:none;stroke-opacity:1"
   id="tspan4183">ma a en kasi a </tspan></tspan><tspan
         sodipodi:role="line"
         style="font-size:55.2866px;line-height:1.25"
         x="386.09131"
         y="1003.6944"
         id="tspan67"><tspan
   style="stroke:#000000;stroke-width:1.8;stroke-miterlimit:4;stroke-dasharray:none;stroke-opacity:1"
   id="tspan69">en soweli a</tspan>!</tspan></text>
    <text
       xml:space="preserve"
       style="font-style:normal;font-variant:normal;font-weight:normal;font-stretch:normal;line-height:0%;font-family:Lavi;-inkscape-font-specification:Lavi;text-align:center;letter-spacing:0px;word-spacing:0px;text-anchor:middle;fill:#000000;fill-opacity:1;stroke:none"
       x="393.99847"
       y="1068.822"
       id="text4246-70"><tspan
         sodipodi:role="line"
         style="font-size:45px;line-height:1.25"
         x="393.99847"
         y="1068.822"
         id="tspan3630">mi ale o jaki ala e </tspan><tspan
         sodipodi:role="line"
         style="font-size:45px;line-height:1.25"
         x="393.99847"
         y="1125.072"
         id="tspan82">ale sama ni. </tspan><tspan
         sodipodi:role="line"
         style="font-size:45px;line-height:1.25"
         x="401.02972"
         y="1181.322"
         id="tspan80">ike li kama tan pali ni!!! </tspan></text>
    <text
       xml:space="preserve"
       style="font-style:normal;font-variant:normal;font-weight:normal;font-stretch:normal;line-height:0%;font-family:Lavi;-inkscape-font-specification:Lavi;text-align:center;letter-spacing:0px;word-spacing:0px;text-anchor:middle;fill:#000000;fill-opacity:1;stroke:none"
       x="972.51471"
       y="301.13306"
       id="text4246-7"
       transform="scale(0.97469088,1.0259663)"><tspan
         sodipodi:role="line"
         style="font-size:58.4815px;line-height:1.25;stroke:#000000;stroke-width:1.9;stroke-miterlimit:4;stroke-dasharray:none;stroke-opacity:1"
         x="972.51471"
         y="301.13306"
         id="tspan3649">ike li </tspan><tspan
         sodipodi:role="line"
         style="font-size:58.4815px;line-height:1.25;stroke:#000000;stroke-width:1.9;stroke-miterlimit:4;stroke-dasharray:none;stroke-opacity:1"
         x="972.51471"
         y="374.23492"
         id="tspan95">kama ala </tspan><tspan
         sodipodi:role="line"
         style="font-size:58.4815px;line-height:1.25;stroke:#000000;stroke-width:1.9;stroke-miterlimit:4;stroke-dasharray:none;stroke-opacity:1"
         x="972.51471"
         y="447.33679"
         id="tspan93">lon tenpo ni!</tspan></text>
    <text
       xml:space="preserve"
       style="font-style:normal;font-variant:normal;font-weight:normal;font-stretch:normal;line-height:0%;font-family:Lavi;-inkscape-font-specification:Lavi;text-align:center;letter-spacing:0px;word-spacing:0px;text-anchor:middle;fill:#000000;fill-opacity:1;stroke:none"
       x="969.58252"
       y="880.27979"
       id="text4246-70-2"><tspan
         sodipodi:role="line"
         style="font-size:45px;line-height:1.25"
         x="969.58252"
         y="880.27979"
         id="tspan3653">mi ale li jan pi </tspan><tspan
         sodipodi:role="line"
         style="font-size:45px;line-height:1.25"
         x="969.58252"
         y="936.52979"
         id="tspan103">kulupu Pakalaa!</tspan><tspan
         sodipodi:role="line"
         style="font-size:45px;line-height:1.25"
         x="969.58252"
         y="992.77979"
         id="tspan3657">mi ale li weka e </tspan><tspan
         sodipodi:role="line"
         style="font-size:45px;line-height:1.25"
         x="969.58252"
         y="1049.0298"
         id="tspan101">pali ike mi lon</tspan></text>
    <text
       xml:space="preserve"
       style="font-style:normal;font-variant:normal;font-weight:normal;font-stretch:normal;line-height:0%;font-family:Lavi;-inkscape-font-specification:Lavi;text-align:center;letter-spacing:0px;word-spacing:0px;text-anchor:middle;fill:#000000;fill-opacity:1;stroke:none"
       x="1000.3171"
       y="1096.5863"
       id="text4246-7-9"
       transform="scale(0.97469088,1.0259663)"><tspan
         sodipodi:role="line"
         style="font-size:58.4815px;line-height:1.25;stroke:#000000;stroke-width:2.24179;stroke-miterlimit:4;stroke-dasharray:none;stroke-opacity:1"
         x="1009.4548"
         y="1096.5863"
         id="tspan4221-2">anpa mute! </tspan></text>
    <text
       xml:space="preserve"
       style="font-style:normal;font-variant:normal;font-weight:normal;font-stretch:normal;line-height:0%;font-family:Lavi;-inkscape-font-specification:Lavi;text-align:center;letter-spacing:0px;word-spacing:0px;text-anchor:middle;fill:#000000;fill-opacity:1;stroke:none"
       x="973.31299"
       y="1195.8076"
       id="text4246-70-2-8"><tspan
         sodipodi:role="line"
         style="font-size:45px;line-height:1.25"
         x="973.31299"
         y="1195.8076"
         id="tspan107">nasin mi li awen. </tspan><tspan
         sodipodi:role="line"
         style="font-size:45px;line-height:1.25"
         x="973.31299"
         y="1252.0576"
         id="tspan111">mi toki ala e ona.</tspan></text>
    <text
       xml:space="preserve"
       style="font-style:normal;font-variant:normal;font-weight:normal;font-stretch:normal;line-height:0%;font-family:Lavi;-inkscape-font-specification:Lavi;text-align:center;letter-spacing:0px;word-spacing:0px;text-anchor:middle;fill:#000000;fill-opacity:1;stroke:none"
       x="338.31299"
       y="1573.3076"
       id="text4246-70-2-2"><tspan
         sodipodi:role="line"
         style="font-size:45px;line-height:1.25"
         x="338.31299"
         y="1573.3076"
         id="tspan3668">aa, o lukin e ijo ni!</tspan></text>
    <text
       xml:space="preserve"
       style="font-style:normal;font-variant:normal;font-weight:normal;font-stretch:normal;line-height:0%;font-family:Lavi;-inkscape-font-specification:Lavi;text-align:center;letter-spacing:0px;word-spacing:0px;text-anchor:middle;fill:#000000;fill-opacity:1;stroke:none"
       x="407.20337"
       y="1650.1035"
       id="text4246-70-2-2-2"><tspan
         sodipodi:role="line"
         style="font-size:45px;line-height:1.25"
         x="407.20337"
         y="1650.1035"
         id="tspan3670">ni li ken </tspan><tspan
         sodipodi:role="line"
         style="font-size:45px;line-height:1.25"
         x="407.20337"
         y="1706.3535"
         id="tspan62">ala ken!</tspan></text>
    <text
       xml:space="preserve"
       style="font-style:normal;font-variant:normal;font-weight:normal;font-stretch:normal;line-height:0%;font-family:Lavi;-inkscape-font-specification:Lavi;text-align:center;letter-spacing:0px;word-spacing:0px;text-anchor:middle;fill:#000000;fill-opacity:1;stroke:none"
       x="400.75806"
       y="2158.8105"
       id="text4246-70-2-2-2-7"><tspan
         sodipodi:role="line"
         style="font-size:45px;line-height:1.25"
         x="400.75806"
         y="2158.8105"
         id="tspan3674">ona li lon anpa ni </tspan><tspan
         sodipodi:role="line"
         style="font-size:45px;line-height:1.25"
         x="400.75806"
         y="2215.0605"
         id="tspan117">tan seme?</tspan></text>
    <text
       xml:space="preserve"
       style="font-style:normal;font-variant:normal;font-weight:normal;font-stretch:normal;line-height:0%;font-family:Lavi;-inkscape-font-specification:Lavi;text-align:center;letter-spacing:0px;word-spacing:0px;text-anchor:middle;fill:#000000;fill-opacity:1;stroke:none"
       x="509.49463"
       y="2485.7622"
       id="text4246-70-2-2-2-7-6"><tspan
         sodipodi:role="line"
         style="font-size:45px;line-height:1.25"
         x="509.49463"
         y="2485.7622"
         id="tspan123">linja kalama li wile e </tspan><tspan
         sodipodi:role="line"
         style="font-size:45px;line-height:1.25"
         x="509.49463"
         y="2542.0122"
         id="tspan127">pali pona. taso ona li </tspan><tspan
         sodipodi:role="line"
         style="font-size:45px;line-height:1.25"
         x="509.49463"
         y="2598.2622"
         id="tspan129">musi awen.</tspan></text>
  </g>
</svg>
