<?xml version="1.0" encoding="UTF-8" standalone="no"?>
<!-- Created with Inkscape (http://www.inkscape.org/) -->

<svg
   xmlns:dc="http://purl.org/dc/elements/1.1/"
   xmlns:cc="http://creativecommons.org/ns#"
   xmlns:rdf="http://www.w3.org/1999/02/22-rdf-syntax-ns#"
   xmlns:svg="http://www.w3.org/2000/svg"
   xmlns="http://www.w3.org/2000/svg"
   xmlns:xlink="http://www.w3.org/1999/xlink"
   xmlns:sodipodi="http://sodipodi.sourceforge.net/DTD/sodipodi-0.dtd"
   xmlns:inkscape="http://www.inkscape.org/namespaces/inkscape"
   id="svg2"
   version="1.1"
   inkscape:version="0.92.2 (5c3e80d, 2017-08-06)"
   width="2481"
   height="3503"
   sodipodi:docname="E23P05.svg"
   inkscape:export-filename="E:\Users\jamesmichael\Downloads\Compressed\eps\ep23_Take-a-Chance_lang-pack\lang\ph\E23P05.png"
   inkscape:export-xdpi="90"
   inkscape:export-ydpi="90">
  <metadata
     id="metadata8">
    <rdf:RDF>
      <cc:Work
         rdf:about="">
        <dc:format>image/svg+xml</dc:format>
        <dc:type
           rdf:resource="http://purl.org/dc/dcmitype/StillImage" />
        <dc:title />
      </cc:Work>
    </rdf:RDF>
  </metadata>
  <defs
     id="defs6" />
  <sodipodi:namedview
     pagecolor="#ffffff"
     bordercolor="#666666"
     borderopacity="1"
     objecttolerance="10"
     gridtolerance="10"
     guidetolerance="10"
     inkscape:pageopacity="0"
     inkscape:pageshadow="2"
     inkscape:window-width="1920"
     inkscape:window-height="1026"
     id="namedview4"
     showgrid="false"
     inkscape:zoom="0.2630065"
     inkscape:cx="1337.1767"
     inkscape:cy="1568.8538"
     inkscape:window-x="1920"
     inkscape:window-y="27"
     inkscape:window-maximized="1"
     inkscape:current-layer="layer1"
     inkscape:document-rotation="0"
     inkscape:snap-global="false" />
  <g
     inkscape:groupmode="layer"
     id="layer2"
     inkscape:label="artwork"
     sodipodi:insensitive="true">
    <image
       sodipodi:absref="E:\Users\jamesmichael\Downloads\Compressed\eps\ep23_Take-a-Chance_lang-pack\lang\ph\../gfx_Pepper-and-Carrot_by-David-Revoy_E23P05.png"
       xlink:href="../gfx_Pepper-and-Carrot_by-David-Revoy_E23P05.png"
       width="2481"
       height="3503"
       id="image10"
       x="0"
       y="0" />
  </g>
  <g
     inkscape:groupmode="layer"
     id="layer3"
     inkscape:label="speechbubbles"
     style="display:inline">
    <path
       style="color:#000000;display:inline;overflow:visible;visibility:visible;fill:#ffffff;fill-opacity:1;fill-rule:nonzero;stroke:none;stroke-width:0.93847448px;marker:none;enable-background:accumulate"
       d="M 143.99338,129.70807 C 154.60107,27.782565 196.73471,-3.2854389 271.27998,-3.1174379 c 69.525,0.156687 200.7066,-7.4247751 211.87043,19.7430229 11.09822,27.00807 15.14157,102.028885 14.57743,200.315445 -0.51328,89.42449 28.30474,255.48445 -105.19677,311.10623 C 327.40045,555.18312 213.23301,547.42589 162.99699,431.44905 114.22827,318.85966 143.99338,129.70807 143.99338,129.70807 Z"
       id="path3970"
       inkscape:connector-curvature="0"
       sodipodi:nodetypes="csssssc" />
    <path
       style="fill:#ffffff;fill-rule:evenodd;stroke:none;stroke-width:0.54577106px;stroke-linecap:butt;stroke-linejoin:miter;stroke-opacity:1"
       d="m 386.29542,482.09579 c -34.05145,144.32865 -79.27893,124.07874 -81.87587,80.77179 -2.59694,-43.30693 8.72115,-87.97278 8.72115,-87.97278 l 7.92034,3.42511 c 0,0 -4.73672,2.56188 -2.33775,41.8645 2.39898,39.30259 33.59086,79.99187 67.57213,-38.08862 z"
       id="path4367"
       inkscape:connector-curvature="0"
       sodipodi:nodetypes="csccsc" />
    <path
       style="opacity:1;fill:#ffffff;stroke:none;stroke-width:1.25233865"
       d="m 1473.6876,1082.1145 c 75.7572,-1.6562 98.8186,61.8487 108.4899,106.4666 6.9638,32.1271 3.0207,117.75 -34.2416,159.4521 -13.1495,-5.5233 -20.9183,-7.2702 -26.92,-3.5519 -4.5378,2.4264 -6.0614,13.8701 -5.3017,24.5098 -7.6552,-1.3984 -10.9031,-16.0156 -12.4605,-17.9215 -3.8498,-2.4941 -23.4597,6.5443 -38.0182,16.3899 -71.2232,-22.9847 -78.7553,-113.0404 -73.9077,-163.567 5.3224,-55.4755 10.4305,-113.5566 82.3598,-121.778 z"
       id="path3938"
       inkscape:connector-curvature="0"
       sodipodi:nodetypes="cscccccsc" />
    <path
       style="fill:#ffffff;fill-rule:evenodd;stroke:none;stroke-width:1px;stroke-linecap:butt;stroke-linejoin:miter;stroke-opacity:1"
       d="m 979.62113,1734.7313 c -79.6639,-37.1698 -55.9039,-129.7638 14.1457,-180.8499 70.04957,-51.086 29.49207,-47.0022 29.49207,-47.0022 0,0 -17.1327,-11.2383 -67.03287,47.9216 -49.9003,59.16 -82.7104,161.2474 23.3951,179.9305 z"
       id="path4375"
       inkscape:connector-curvature="0"
       sodipodi:nodetypes="cscsc" />
    <path
       style="fill:#ffffff;fill-opacity:1;stroke:none;stroke-width:1.14215934"
       d="m 2197.4945,963.58316 c 92.7615,5.85234 141.8678,48.96634 148.1143,63.94884 17.4546,41.8645 34.7151,484.7764 -30.6048,527.2471 -39.9498,25.9753 -213.4878,77.6013 -324.4702,-25.2558 -60.6099,-56.1725 -37.7215,-435.2717 3.8277,-481.4812 43.3346,-48.19515 96.9671,-93.98144 203.133,-84.45894 z"
       id="path3659"
       inkscape:connector-curvature="0"
       sodipodi:nodetypes="cssssc" />
    <path
       style="fill:#ffffff;fill-rule:evenodd;stroke:none;stroke-width:0.98660934px;stroke-linecap:butt;stroke-linejoin:miter;stroke-opacity:1"
       d="m 1943.2369,1791.0769 c -41.8651,-21.4418 -59.797,-185.6015 -9.4481,-269.1747 27.911,-33.7615 108.4366,-73.8732 168.2981,-35.4051 34.8209,48.1322 16.0714,101.9636 29.9036,152.3956 3.3472,57.2998 4.7444,108.6506 -32.6151,160.5838 -41.0188,35.5752 -114.6463,16.4373 -156.1385,-8.3996 z"
       id="path4405"
       inkscape:connector-curvature="0"
       sodipodi:nodetypes="cccccc" />
    <path
       style="fill:#ffffff;fill-rule:evenodd;stroke:none;stroke-width:1px;stroke-linecap:butt;stroke-linejoin:miter;stroke-opacity:1"
       d="m 2354.9633,1932.1775 c -10.8082,58.6675 -43.0076,77.5603 -81.0615,98.442 -26.983,14.8065 -74.8123,20.8538 -116.6581,-5.9016 -37.8479,-24.199 -35.9285,-77.6603 -42.5356,-114.6076 -9.9635,-55.7163 -3.9263,-137.8273 2.475,-181.777 5.9947,-41.1579 11.889,-83.5263 44.3136,-99.4361 32.4245,-15.9098 92.9504,-10.9381 110.2435,-4.9718 17.2931,5.9661 68.0916,25.8534 72.4149,41.7632 4.3233,15.9098 10.8082,258.5341 10.8082,258.5341 z"
       id="path4423"
       inkscape:connector-curvature="0"
       sodipodi:nodetypes="cssssssscc" />
    <path
       style="color:#000000;display:inline;overflow:visible;visibility:visible;fill:#ffffff;fill-opacity:1;fill-rule:nonzero;stroke:none;stroke-width:1.01265395px;marker:none;enable-background:accumulate"
       d="m 256.84993,2150.5655 c 35.17256,-6.1111 128.59968,10.1853 120.90561,135.4645 -7.69386,125.2791 -51.65961,145.6498 -64.8493,148.7053 -13.18968,3.0557 -87.9314,29.5374 -107.71603,-68.2414 -19.78463,-97.779 1.09923,-185.3725 51.65972,-215.9284 z"
       id="path3525"
       inkscape:connector-curvature="0" />
    <path
       style="color:#000000;display:inline;overflow:visible;visibility:visible;fill:#ffffff;fill-opacity:1;fill-rule:nonzero;stroke:none;stroke-width:0.86464828px;marker:none;enable-background:accumulate"
       d="m 386.7096,2292.7462 c 88.4166,-3.6682 220.47252,-37.4791 224.14128,180.4045 3.00899,178.7033 31.57955,390.1106 -196.94241,389.6438 -157.24373,-0.3212 -156.71526,-164.1569 -159.71057,-250.7811 -6.39626,-184.9791 42.64941,-316.4154 132.5117,-319.2672 z"
       id="path3525-0"
       inkscape:connector-curvature="0"
       sodipodi:nodetypes="csssc" />
  </g>
  <g
     inkscape:groupmode="layer"
     id="layer1"
     inkscape:label="txt">
    <text
       xml:space="preserve"
       style="font-style:normal;font-variant:normal;font-weight:normal;font-stretch:normal;line-height:0%;font-family:Lavi;-inkscape-font-specification:Lavi;text-align:center;letter-spacing:0px;word-spacing:0px;text-anchor:middle;fill:#d45500;fill-opacity:1;stroke:none;"
       x="318.59302"
       y="117.99729"
       id="text4246"><tspan
         sodipodi:role="line"
         style="font-size:45px;line-height:1.25;fill:#d45500;fill-opacity:1;"
         x="326.50317"
         y="117.99729"
         id="tspan68">Isang maliit </tspan><tspan
         sodipodi:role="line"
         style="font-size:45px;line-height:1.25;fill:#d45500;fill-opacity:1;"
         x="326.50317"
         y="174.2473"
         id="tspan4822">na pirma lang </tspan><tspan
         sodipodi:role="line"
         style="font-size:45px;line-height:1.25;fill:#d45500;fill-opacity:1;"
         x="326.50317"
         y="230.49731"
         id="tspan4818">ang kailangan at </tspan><tspan
         sodipodi:role="line"
         style="font-size:45px;line-height:1.25;fill:#d45500;fill-opacity:1;"
         x="326.50317"
         y="286.74731"
         id="tspan4832">magbubukas ang </tspan><tspan
         sodipodi:role="line"
         style="font-size:45px;line-height:1.25;fill:#d45500;fill-opacity:1;"
         x="326.50317"
         y="342.99731"
         id="tspan4828">kaluwalhatian </tspan><tspan
         sodipodi:role="line"
         style="font-size:45px;line-height:1.25;fill:#d45500;fill-opacity:1;"
         x="326.50317"
         y="399.24731"
         id="tspan4816">sa iyong </tspan><tspan
         sodipodi:role="line"
         style="font-size:45px;line-height:1.25;fill:#d45500;fill-opacity:1;"
         x="318.59302"
         y="455.49731"
         id="tspan4826">paanan!</tspan><tspan
         sodipodi:role="line"
         style="font-size:45px;line-height:1.25;fill:#d45500;fill-opacity:1;"
         x="318.59302"
         y="474.03082"
         id="tspan4814" /></text>
    <text
       xml:space="preserve"
       style="font-style:normal;font-variant:normal;font-weight:normal;font-stretch:normal;line-height:0%;font-family:Lavi;-inkscape-font-specification:Lavi;text-align:center;letter-spacing:0px;word-spacing:0px;text-anchor:middle;fill:#00000a;fill-opacity:1;stroke:none"
       x="1491.3722"
       y="1232.2936"
       id="text4246-3"><tspan
         sodipodi:role="line"
         style="font-size:45px;line-height:1.25;fill:#00000a;fill-opacity:1"
         x="1499.2823"
         y="1232.2936"
         id="tspan78">Teka nga </tspan><tspan
         sodipodi:role="line"
         style="font-size:45px;line-height:1.25;fill:#00000a;fill-opacity:1"
         x="1491.3722"
         y="1288.5436"
         id="tspan4846">saglit.</tspan></text>
    <text
       xml:space="preserve"
       style="font-style:normal;font-variant:normal;font-weight:normal;font-stretch:normal;line-height:0%;font-family:Lavi;-inkscape-font-specification:Lavi;text-align:center;letter-spacing:0px;word-spacing:0px;text-anchor:middle;fill:#00000a;fill-opacity:1;stroke:none"
       x="2026.952"
       y="1612.2404"
       id="text4246-3-6"><tspan
         sodipodi:role="line"
         style="font-size:45px;line-height:1.25;fill:#00000a;fill-opacity:1"
         x="2034.8622"
         y="1612.2404"
         id="tspan4263">Ano to? </tspan><tspan
         sodipodi:role="line"
         style="font-size:45px;line-height:1.25;fill:#00000a;fill-opacity:1"
         x="2034.8622"
         y="1668.4904"
         id="tspan4882">Deus ex </tspan><tspan
         sodipodi:role="line"
         style="font-size:45px;line-height:1.25;fill:#00000a;fill-opacity:1"
         x="2026.952"
         y="1724.7404"
         id="tspan4884">machina?*</tspan></text>
    <text
       xml:space="preserve"
       style="font-style:normal;font-variant:normal;font-weight:normal;font-stretch:normal;line-height:0%;font-family:Lavi;-inkscape-font-specification:Lavi;text-align:center;letter-spacing:0px;word-spacing:0px;text-anchor:middle;fill:#00000a;fill-opacity:1;stroke:none;"
       x="2156.9963"
       y="1111.2949"
       id="text4246-3-6-1"><tspan
         sodipodi:role="line"
         style="font-size:45px;line-height:1.25;fill:#00000a;fill-opacity:1;"
         x="2164.9065"
         y="1111.2949"
         id="tspan99">Nagmomoment </tspan><tspan
         sodipodi:role="line"
         style="font-size:45px;line-height:1.25;fill:#00000a;fill-opacity:1;"
         x="2156.9963"
         y="1167.5449"
         id="tspan4866">ako dito tapos</tspan><tspan
         sodipodi:role="line"
         style="font-size:45px;line-height:1.25;fill:#00000a;fill-opacity:1;"
         x="2164.9065"
         y="1223.7949"
         id="tspan4862">Biglang may </tspan><tspan
         sodipodi:role="line"
         style="font-size:45px;line-height:1.25;fill:#00000a;fill-opacity:1;"
         x="2164.9065"
         y="1280.0449"
         id="tspan4870">hulog ng langit na </tspan><tspan
         sodipodi:role="line"
         style="font-size:45px;line-height:1.25;fill:#00000a;fill-opacity:1;"
         x="2164.9065"
         y="1336.2949"
         id="tspan4878">milagrong susulpot </tspan><tspan
         sodipodi:role="line"
         style="font-size:45px;line-height:1.25;fill:#00000a;fill-opacity:1;"
         x="2164.9065"
         y="1392.5449"
         id="tspan4872">sa harap ko na </tspan><tspan
         sodipodi:role="line"
         style="font-size:45px;line-height:1.25;fill:#00000a;fill-opacity:1;"
         x="2164.9065"
         y="1448.7949"
         id="tspan4864">ganun-ganun </tspan><tspan
         sodipodi:role="line"
         style="font-size:45px;line-height:1.25;fill:#00000a;fill-opacity:1;"
         x="2156.9963"
         y="1505.0449"
         id="tspan4874">lang??</tspan></text>
    <text
       xml:space="preserve"
       style="font-style:normal;font-variant:normal;font-weight:normal;font-stretch:normal;line-height:0%;font-family:Lavi;-inkscape-font-specification:Lavi;text-align:center;letter-spacing:0px;word-spacing:0px;text-anchor:middle;fill:#00000a;fill-opacity:1;stroke:none"
       x="2234.8706"
       y="1741.3512"
       id="text4246-3-6-3"><tspan
         sodipodi:role="line"
         style="font-size:45px;line-height:1.25;fill:#00000a;fill-opacity:1"
         x="2242.7808"
         y="1741.3512"
         id="tspan106">Sinong </tspan><tspan
         sodipodi:role="line"
         style="font-size:45px;line-height:1.25;fill:#00000a;fill-opacity:1"
         x="2234.8706"
         y="1797.6012"
         id="tspan4897">namang</tspan><tspan
         sodipodi:role="line"
         style="font-size:45px;line-height:1.25;fill:#00000a;fill-opacity:1"
         x="2242.7808"
         y="1853.8512"
         id="tspan4895">hindi </tspan><tspan
         sodipodi:role="line"
         style="font-size:45px;line-height:1.25;fill:#00000a;fill-opacity:1"
         x="2234.8706"
         y="1910.1012"
         id="tspan4891">magdu</tspan><tspan
         sodipodi:role="line"
         style="font-size:45px;line-height:1.25;fill:#00000a;fill-opacity:1"
         x="2234.8706"
         y="1966.3512"
         id="tspan4893">-duda??</tspan></text>
    <text
       xml:space="preserve"
       style="font-style:normal;font-variant:normal;font-weight:normal;font-stretch:normal;line-height:0%;font-family:Lavi;-inkscape-font-specification:Lavi;text-align:center;letter-spacing:0px;word-spacing:0px;text-anchor:middle;fill:#00000a;fill-opacity:1;stroke:none"
       x="285.01123"
       y="2286.9509"
       id="text4246-3-6-3-2"><tspan
         sodipodi:role="line"
         style="font-size:45px;line-height:1.25;fill:#00000a;fill-opacity:1"
         x="292.92139"
         y="2286.9509"
         id="tspan4326">Tara na </tspan><tspan
         sodipodi:role="line"
         style="font-size:45px;line-height:1.25;fill:#00000a;fill-opacity:1"
         x="285.01123"
         y="2343.2009"
         id="tspan4901">Carrot</tspan></text>
    <text
       xml:space="preserve"
       style="font-style:normal;font-variant:normal;font-weight:normal;font-stretch:normal;line-height:0%;font-family:Lavi;-inkscape-font-specification:Lavi;text-align:center;letter-spacing:0px;word-spacing:0px;text-anchor:middle;fill:#00000a;fill-opacity:1;stroke:none"
       x="434.19589"
       y="2467.8208"
       id="text4246-3-6-3-2-7"><tspan
         sodipodi:role="line"
         style="font-size:45px;line-height:1.25;fill:#00000a;fill-opacity:1"
         x="442.10605"
         y="2467.8208"
         id="tspan866">Maniniwala </tspan><tspan
         sodipodi:role="line"
         style="font-size:45px;line-height:1.25;fill:#00000a;fill-opacity:1"
         x="434.19589"
         y="2524.0708"
         id="tspan4919">siguro ako noon</tspan><tspan
         sodipodi:role="line"
         style="font-size:45px;line-height:1.25;fill:#00000a;fill-opacity:1"
         x="442.10605"
         y="2580.3208"
         id="tspan4917">pero hindi na ko </tspan><tspan
         sodipodi:role="line"
         style="font-size:45px;line-height:1.25;fill:#00000a;fill-opacity:1"
         x="442.10605"
         y="2636.5708"
         id="tspan4921">magpapabilog </tspan><tspan
         sodipodi:role="line"
         style="font-size:45px;line-height:1.25;fill:#00000a;fill-opacity:1"
         x="434.19589"
         y="2692.8208"
         id="tspan4923">ngayon</tspan></text>
    <flowRoot
       xml:space="preserve"
       id="flowRoot4792"
       style="fill:#00000a;fill-opacity:1;stroke:none;font-family:sans-serif;font-style:normal;font-weight:normal;font-size:40px;line-height:1.25;letter-spacing:0px;word-spacing:0px;"><flowRegion
         id="flowRegion4794"
         style="fill:#00000a;fill-opacity:1;"><rect
           id="rect4796"
           width="127.37328"
           height="62.736092"
           x="211.02141"
           y="465.05228"
           style="fill:#00000a;fill-opacity:1;" /></flowRegion><flowPara
         id="flowPara4798"></flowPara></flowRoot>    <text
       id="text4840"
       y="415.42499"
       x="1531.5861"
       style="font-style:normal;font-variant:normal;font-weight:normal;font-stretch:normal;font-size:18.48315811px;line-height:0%;font-family:Lavi;-inkscape-font-specification:Lavi;text-align:center;letter-spacing:0px;word-spacing:0px;text-anchor:middle;fill:#00000a;fill-opacity:1;stroke:none;stroke-width:1.54026306;"
       xml:space="preserve"><tspan
         id="tspan4838"
         y="415.42499"
         x="1531.5861"
         style="font-size:69.31184387px;line-height:1.25;fill:#00000a;stroke-width:1.54026306;fill-opacity:1;"
         sodipodi:role="line">Hmmm...</tspan></text>
  </g>
</svg>
