<?xml version="1.0" encoding="UTF-8" standalone="no"?>
<!-- Created with Inkscape (http://www.inkscape.org/) -->

<svg
   xmlns:dc="http://purl.org/dc/elements/1.1/"
   xmlns:cc="http://creativecommons.org/ns#"
   xmlns:rdf="http://www.w3.org/1999/02/22-rdf-syntax-ns#"
   xmlns:svg="http://www.w3.org/2000/svg"
   xmlns="http://www.w3.org/2000/svg"
   xmlns:xlink="http://www.w3.org/1999/xlink"
   xmlns:sodipodi="http://sodipodi.sourceforge.net/DTD/sodipodi-0.dtd"
   xmlns:inkscape="http://www.inkscape.org/namespaces/inkscape"
   id="svg2"
   version="1.1"
   inkscape:version="0.92.2 (5c3e80d, 2017-08-06)"
   width="2481"
   height="3503"
   sodipodi:docname="E23P07.svg"
   inkscape:export-filename="E:\Users\jamesmichael\Downloads\Compressed\eps\ep23_Take-a-Chance_lang-pack\lang\ph\E23P07.png"
   inkscape:export-xdpi="90"
   inkscape:export-ydpi="90">
  <metadata
     id="metadata8">
    <rdf:RDF>
      <cc:Work
         rdf:about="">
        <dc:format>image/svg+xml</dc:format>
        <dc:type
           rdf:resource="http://purl.org/dc/dcmitype/StillImage" />
        <dc:title />
      </cc:Work>
    </rdf:RDF>
  </metadata>
  <defs
     id="defs6">
    <filter
       inkscape:collect="always"
       style="color-interpolation-filters:sRGB"
       id="filter4367-7-1"
       x="-0.0043557761"
       width="1.0087116"
       y="-0.020747934"
       height="1.0414959"
       inkscape:label="graphic-blending">
      <feGaussianBlur
         inkscape:collect="always"
         stdDeviation="0.59122338"
         id="feGaussianBlur4369-9-2" />
    </filter>
    <filter
       inkscape:collect="always"
       style="color-interpolation-filters:sRGB"
       id="filter4367-7"
       x="-0.0043557761"
       width="1.0087116"
       y="-0.020747934"
       height="1.0414959"
       inkscape:label="graphic-blending">
      <feGaussianBlur
         inkscape:collect="always"
         stdDeviation="0.59122338"
         id="feGaussianBlur4369-9" />
    </filter>
    <filter
       inkscape:collect="always"
       style="color-interpolation-filters:sRGB"
       id="filter4289"
       x="-0.0076879989"
       width="1.015376"
       y="-0.012777842"
       height="1.0255557">
      <feGaussianBlur
         inkscape:collect="always"
         stdDeviation="0.69527307"
         id="feGaussianBlur4291" />
    </filter>
    <filter
       inkscape:collect="always"
       style="color-interpolation-filters:sRGB"
       id="filter4367"
       x="-0.0043557761"
       width="1.0087116"
       y="-0.020747934"
       height="1.0414959"
       inkscape:label="graphic-blending">
      <feGaussianBlur
         inkscape:collect="always"
         stdDeviation="0.59122338"
         id="feGaussianBlur4369" />
    </filter>
    <filter
       style="color-interpolation-filters:sRGB"
       id="filter4375-4-1-1-1-9"
       inkscape:label="deevad outline effect">
      <feFlood
         id="feFlood4377-7-9-0-8-1"
         flood-opacity="1"
         flood-color="rgb(0,0,0)"
         result="flood" />
      <feComposite
         id="feComposite4379-3-8-8-2-77"
         in2="SourceGraphic"
         in="flood"
         operator="in"
         result="composite1" />
      <feMorphology
         id="feMorphology4393-1-0-49-8-9"
         operator="dilate"
         radius="2.8999999999999999"
         result="result3" />
      <feComposite
         id="feComposite4385-9-5-7-0-8"
         in2="result3"
         in="SourceGraphic"
         operator="over"
         result="composite2" />
    </filter>
    <filter
       inkscape:collect="always"
       style="color-interpolation-filters:sRGB"
       id="filter4367-7-1-7"
       x="-0.0043557761"
       width="1.0087116"
       y="-0.020747934"
       height="1.0414959"
       inkscape:label="graphic-blending">
      <feGaussianBlur
         inkscape:collect="always"
         stdDeviation="0.59122338"
         id="feGaussianBlur4369-9-2-5" />
    </filter>
    <filter
       inkscape:collect="always"
       style="color-interpolation-filters:sRGB"
       id="filter4367-7-6"
       x="-0.0043557761"
       width="1.0087116"
       y="-0.020747934"
       height="1.0414959"
       inkscape:label="graphic-blending">
      <feGaussianBlur
         inkscape:collect="always"
         stdDeviation="0.59122338"
         id="feGaussianBlur4369-9-29" />
    </filter>
    <filter
       inkscape:collect="always"
       style="color-interpolation-filters:sRGB"
       id="filter4367-9"
       x="-0.0043557761"
       width="1.0087116"
       y="-0.020747934"
       height="1.0414959"
       inkscape:label="graphic-blending">
      <feGaussianBlur
         inkscape:collect="always"
         stdDeviation="0.59122338"
         id="feGaussianBlur4369-3" />
    </filter>
    <filter
       style="color-interpolation-filters:sRGB"
       id="filter4375-4-1-1-1-9-3"
       inkscape:label="deevad outline poster">
      <feFlood
         id="feFlood4377-7-9-0-8-1-5"
         flood-opacity="1"
         flood-color="rgb(0,0,0)"
         result="flood" />
      <feComposite
         id="feComposite4379-3-8-8-2-77-6"
         in2="SourceGraphic"
         in="flood"
         operator="in"
         result="composite1" />
      <feMorphology
         id="feMorphology4393-1-0-49-8-9-2"
         operator="dilate"
         radius="3"
         result="result3" />
      <feComposite
         id="feComposite4385-9-5-7-0-8-9"
         in2="result3"
         in="SourceGraphic"
         operator="over"
         result="composite2" />
    </filter>
  </defs>
  <sodipodi:namedview
     pagecolor="#ffffff"
     bordercolor="#666666"
     borderopacity="1"
     objecttolerance="10"
     gridtolerance="10"
     guidetolerance="10"
     inkscape:pageopacity="0"
     inkscape:pageshadow="2"
     inkscape:window-width="1920"
     inkscape:window-height="1026"
     id="namedview4"
     showgrid="false"
     inkscape:zoom="0.32526913"
     inkscape:cx="1423.5612"
     inkscape:cy="2860.3092"
     inkscape:window-x="1920"
     inkscape:window-y="27"
     inkscape:window-maximized="1"
     inkscape:current-layer="layer3"
     inkscape:document-rotation="0" />
  <g
     inkscape:groupmode="layer"
     id="layer2"
     inkscape:label="artwork"
     sodipodi:insensitive="true">
    <image
       sodipodi:absref="E:\Users\jamesmichael\Downloads\Compressed\eps\ep23_Take-a-Chance_lang-pack\lang\ph\../gfx_Pepper-and-Carrot_by-David-Revoy_E23P07.png"
       xlink:href="../gfx_Pepper-and-Carrot_by-David-Revoy_E23P07.png"
       width="2481"
       height="3503"
       id="image10"
       x="0"
       y="0" />
  </g>
  <g
     inkscape:groupmode="layer"
     id="layer3"
     inkscape:label="speechbubbles">
    <path
       style="fill:#ffffff;fill-rule:evenodd;stroke:none;stroke-width:0.77037424px;stroke-linecap:butt;stroke-linejoin:miter;stroke-opacity:1"
       d="m 1672.5372,371.565 c -61.5418,-46.0678 -153.3401,-9.2533 -177.1345,71.1482 -18.0406,57.1452 -22.8615,122.4152 -10.5075,181.6808 12.9017,56.5641 50.4447,109.3018 103.2296,116.1094 41.3987,13.2185 85.5684,-11.8636 103.6753,-56.3761 28.1168,-64.9428 19.5677,-140.8594 16.2567,-210.7562 -4.2686,-36.5229 -14.0907,-73.6677 -35.5196,-101.8061 z"
       id="path4347"
       inkscape:connector-curvature="0" />
    <path
       style="fill:#ffffff;fill-rule:evenodd;stroke:none;stroke-width:0.50815248px;stroke-linecap:butt;stroke-linejoin:miter;stroke-opacity:1"
       d="m 1689.2785,728.893 c -64.3043,46.76566 -89.7607,30.5614 -92.1221,6.27365 -1.9437,-19.99105 -23.3264,-1.53134 -21.1004,16.07274 2.2258,17.60414 33.8564,42.07456 113.2225,-22.34639 z"
       id="path4360"
       inkscape:connector-curvature="0"
       sodipodi:nodetypes="cssc" />
  </g>
  <g
     inkscape:groupmode="layer"
     id="layer1"
     inkscape:label="txt">
    <text
       xml:space="preserve"
       style="font-style:normal;font-variant:normal;font-weight:normal;font-stretch:normal;line-height:0%;font-family:Lavi;-inkscape-font-specification:Lavi;text-align:center;letter-spacing:0px;word-spacing:0px;text-anchor:middle;opacity:0.7;fill:#784421;fill-opacity:1;stroke:#502d16;stroke-width:3.4000001;stroke-miterlimit:4;stroke-dasharray:none;stroke-opacity:1;filter:url(#filter4367)"
       x="399.24075"
       y="265.07324"
       id="text4246-3"><tspan
         sodipodi:role="line"
         style="font-style:normal;font-variant:normal;font-weight:normal;font-stretch:normal;font-size:95.64933777px;line-height:1.25;font-family:'Cursivah';-inkscape-font-specification:'Cursivah';text-align:start;text-anchor:start;fill:#784421;stroke:#502d16;stroke-width:3.4000001;stroke-miterlimit:4;stroke-dasharray:none;stroke-opacity:1"
         x="399.24075"
         y="265.07324"
         id="tspan4144-7">Celebrity</tspan></text>
    <text
       xml:space="preserve"
       style="font-style:normal;font-variant:normal;font-weight:normal;font-stretch:normal;font-size:45px;line-height:1.25;font-family:Lavi;-inkscape-font-specification:Lavi;font-variant-ligatures:normal;font-variant-position:normal;font-variant-caps:normal;font-variant-numeric:normal;font-variant-alternates:normal;font-variant-east-asian:normal;font-feature-settings:normal;text-indent:0;text-align:start;text-decoration:none;text-decoration-line:none;text-decoration-style:solid;text-decoration-color:#000000;letter-spacing:0px;word-spacing:0px;text-transform:none;writing-mode:lr-tb;direction:ltr;text-orientation:mixed;dominant-baseline:auto;baseline-shift:baseline;text-anchor:start;white-space:normal;shape-padding:0;opacity:0.5;vector-effect:none;fill:#000000;fill-opacity:1;stroke:#966431;stroke-width:3.78753948;stroke-linecap:butt;stroke-linejoin:miter;stroke-miterlimit:4;stroke-dasharray:none;stroke-dashoffset:0;stroke-opacity:1;filter:url(#filter4289)"
       x="-279.06573"
       y="1481.1207"
       id="text4246-36"
       transform="matrix(0.95619058,-0.57667245,0.54136471,1.0214699,-63.904458,-985.80263)"><tspan
         sodipodi:role="line"
         style="font-style:normal;font-variant:normal;font-weight:normal;font-stretch:normal;font-size:45px;line-height:1.25;font-family:Lavi;-inkscape-font-specification:Lavi;font-variant-ligatures:normal;font-variant-position:normal;font-variant-caps:normal;font-variant-numeric:normal;font-variant-alternates:normal;font-variant-east-asian:normal;font-feature-settings:normal;text-indent:0;text-align:start;text-decoration:none;text-decoration-line:none;text-decoration-style:solid;text-decoration-color:#000000;letter-spacing:0px;word-spacing:0px;text-transform:none;writing-mode:lr-tb;direction:ltr;text-orientation:mixed;dominant-baseline:auto;baseline-shift:baseline;text-anchor:start;white-space:normal;shape-padding:0;vector-effect:none;fill:#000000;fill-opacity:1;stroke:#966431;stroke-width:3.78753948;stroke-linecap:butt;stroke-linejoin:miter;stroke-miterlimit:4;stroke-dasharray:none;stroke-dashoffset:0;stroke-opacity:1;filter:url(#filter4289)"
         x="-279.06573"
         y="1481.1207"
         id="tspan4144-5">50 000 Ko</tspan></text>
    <text
       xml:space="preserve"
       style="font-style:normal;font-variant:normal;font-weight:normal;font-stretch:normal;line-height:80.00000119%;font-family:Lavi;-inkscape-font-specification:Lavi;text-align:center;letter-spacing:0px;word-spacing:0px;text-anchor:middle;opacity:0.5;fill:#ffffff;fill-opacity:1;stroke:#ffffff;stroke-width:2.07299328;stroke-miterlimit:4;stroke-dasharray:none;stroke-opacity:1;filter:url(#filter4375-4-1-1-1-9-3)"
       x="1000.265"
       y="1716.373"
       id="text4246-3-3-6-2"
       transform="matrix(0.72899519,0,0,0.71822761,-202.10881,-342.44691)"><tspan
         sodipodi:role="line"
         style="font-style:normal;font-variant:normal;font-weight:normal;font-stretch:normal;font-size:95.64933777px;line-height:80.00000119%;font-family:'Cursivah';-inkscape-font-specification:'Cursivah';text-align:center;text-anchor:middle;fill:#ffffff;stroke:#ffffff;stroke-width:2.07299328;stroke-miterlimit:4;stroke-dasharray:none;stroke-opacity:1"
         x="1000.265"
         y="1716.373"
         id="tspan4341">Saffron's</tspan><tspan
         sodipodi:role="line"
         style="font-style:normal;font-variant:normal;font-weight:normal;font-stretch:normal;font-size:95.64933777px;line-height:80.00000119%;font-family:'Cursivah';-inkscape-font-specification:'Cursivah';text-align:center;text-anchor:middle;fill:#ffffff;stroke:#ffffff;stroke-width:2.07299328;stroke-miterlimit:4;stroke-dasharray:none;stroke-opacity:1"
         x="1000.265"
         y="1792.8926"
         id="tspan86">Success</tspan></text>
    <text
       xml:space="preserve"
       style="font-style:normal;font-variant:normal;font-weight:normal;font-stretch:normal;line-height:0%;font-family:Lavi;-inkscape-font-specification:Lavi;text-align:center;letter-spacing:0px;word-spacing:0px;text-anchor:middle;opacity:0.7;fill:#784421;fill-opacity:1;stroke:#502d16;stroke-width:3.4000001;stroke-miterlimit:4;stroke-dasharray:none;stroke-opacity:1;filter:url(#filter4367-7)"
       x="1110.1958"
       y="264.61389"
       id="text4246-3-3"><tspan
         sodipodi:role="line"
         style="font-style:normal;font-variant:normal;font-weight:normal;font-stretch:normal;font-size:95.64933777px;line-height:1.25;font-family:'Cursivah';-inkscape-font-specification:'Cursivah';text-align:start;text-anchor:start;fill:#784421;stroke:#502d16;stroke-width:3.4000001;stroke-miterlimit:4;stroke-dasharray:none;stroke-opacity:1"
         x="1110.1958"
         y="264.61389"
         id="tspan4144-7-6">Fashion</tspan></text>
    <text
       xml:space="preserve"
       style="font-style:normal;font-variant:normal;font-weight:normal;font-stretch:normal;line-height:80.00000119%;font-family:Lavi;-inkscape-font-specification:Lavi;text-align:center;letter-spacing:0px;word-spacing:0px;text-anchor:middle;opacity:0.5;fill:#ffffff;fill-opacity:1;stroke:#ffffff;stroke-width:2.07299328;stroke-miterlimit:4;stroke-dasharray:none;stroke-opacity:1;filter:url(#filter4375-4-1-1-1-9-3)"
       x="1000.265"
       y="1716.373"
       id="text4246-3-3-6-20"
       transform="matrix(0.72899519,0,0,0.71822761,501.26856,-332.67316)"><tspan
         sodipodi:role="line"
         style="font-style:normal;font-variant:normal;font-weight:normal;font-stretch:normal;font-size:95.64933777px;line-height:80.00000119%;font-family:'Cursivah';-inkscape-font-specification:'Cursivah';text-align:center;text-anchor:middle;fill:#ffffff;stroke:#ffffff;stroke-width:2.07299328;stroke-miterlimit:4;stroke-dasharray:none;stroke-opacity:1"
         x="1000.265"
         y="1716.373"
         id="tspan4430">The Saffron</tspan><tspan
         sodipodi:role="line"
         style="font-style:normal;font-variant:normal;font-weight:normal;font-stretch:normal;font-size:95.64933777px;line-height:80.00000119%;font-family:'Cursivah';-inkscape-font-specification:'Cursivah';text-align:center;text-anchor:middle;fill:#ffffff;stroke:#ffffff;stroke-width:2.07299328;stroke-miterlimit:4;stroke-dasharray:none;stroke-opacity:1"
         x="1000.265"
         y="1792.8926"
         id="tspan90">Phenomenon</tspan></text>
    <text
       xml:space="preserve"
       style="font-style:normal;font-variant:normal;font-weight:normal;font-stretch:normal;line-height:0%;font-family:Lavi;-inkscape-font-specification:Lavi;text-align:center;letter-spacing:0px;word-spacing:0px;text-anchor:middle;fill:#000000;fill-opacity:1;stroke:none"
       x="1601.6196"
       y="470.10355"
       id="text4246"><tspan
         sodipodi:role="line"
         style="font-size:45px;line-height:1.25"
         x="1609.5298"
         y="470.10355"
         id="tspan119">Ngingitian </tspan><tspan
         sodipodi:role="line"
         style="font-size:45px;line-height:1.25"
         x="1609.5298"
         y="526.35352"
         id="tspan4822">din tayo </tspan><tspan
         sodipodi:role="line"
         style="font-size:45px;line-height:1.25"
         x="1609.5298"
         y="582.60358"
         id="tspan4824">ng Swerte </tspan><tspan
         sodipodi:role="line"
         style="font-size:45px;line-height:1.25"
         x="1601.6196"
         y="638.85358"
         id="tspan4818">balang-</tspan><tspan
         sodipodi:role="line"
         style="font-size:45px;line-height:1.25"
         x="1601.6196"
         y="695.10358"
         id="tspan4820">araw!</tspan></text>
    <text
       xml:space="preserve"
       style="font-style:normal;font-variant:normal;font-weight:normal;font-stretch:normal;line-height:0%;font-family:Lavi;-inkscape-font-specification:Lavi;text-align:center;letter-spacing:0px;word-spacing:0px;text-anchor:middle;opacity:0.7;fill:#784421;fill-opacity:1;stroke:#502d16;stroke-width:3.4000001;stroke-miterlimit:4;stroke-dasharray:none;stroke-opacity:1;filter:url(#filter4367-7-1)"
       x="1857.8116"
       y="269.07532"
       id="text4246-3-3-5"><tspan
         sodipodi:role="line"
         style="font-style:normal;font-variant:normal;font-weight:normal;font-stretch:normal;font-size:95.64933777px;line-height:1.25;font-family:'Cursivah';-inkscape-font-specification:'Cursivah';text-align:start;text-anchor:start;fill:#784421;stroke:#502d16;stroke-width:3.4000001;stroke-miterlimit:4;stroke-dasharray:none;stroke-opacity:1"
         x="1857.8116"
         y="269.07532"
         id="tspan4144-7-6-3">Chic</tspan></text>
    <text
       xml:space="preserve"
       style="font-style:normal;font-variant:normal;font-weight:normal;font-stretch:normal;line-height:80.00000119%;font-family:Lavi;-inkscape-font-specification:Lavi;text-align:center;letter-spacing:0px;word-spacing:0px;text-anchor:middle;opacity:0.5;fill:#ffffff;fill-opacity:1;stroke:#ffffff;stroke-width:2.07299328;stroke-miterlimit:4;stroke-dasharray:none;stroke-opacity:1;filter:url(#filter4375-4-1-1-1-9-3)"
       x="1000.265"
       y="1716.373"
       id="text4246-3-3-6"
       transform="matrix(0.72899519,0,0,0.71822761,1187.7169,-327.80054)"><tspan
         sodipodi:role="line"
         style="font-style:normal;font-variant:normal;font-weight:normal;font-stretch:normal;font-size:95.64933777px;line-height:80.00000119%;font-family:'Cursivah';-inkscape-font-specification:'Cursivah';text-align:center;text-anchor:middle;fill:#ffffff;stroke:#ffffff;stroke-width:2.07299328;stroke-miterlimit:4;stroke-dasharray:none;stroke-opacity:1"
         x="1000.265"
         y="1716.373"
         id="tspan4395">Saffron</tspan><tspan
         sodipodi:role="line"
         style="font-style:normal;font-variant:normal;font-weight:normal;font-stretch:normal;font-size:95.64933777px;line-height:80.00000119%;font-family:'Cursivah';-inkscape-font-specification:'Cursivah';text-align:center;text-anchor:middle;fill:#ffffff;stroke:#ffffff;stroke-width:2.07299328;stroke-miterlimit:4;stroke-dasharray:none;stroke-opacity:1"
         x="1000.265"
         y="1792.8926"
         id="tspan94">Special</tspan></text>
    <text
       xml:space="preserve"
       style="font-style:normal;font-variant:normal;font-weight:normal;font-stretch:normal;line-height:0%;font-family:Lavi;-inkscape-font-specification:Lavi;letter-spacing:0px;word-spacing:0px;fill:#000000;fill-opacity:1;stroke:#000000;stroke-width:0.78198898;stroke-miterlimit:4;stroke-dasharray:none;stroke-opacity:1;filter:url(#filter4375-4-1-1-1-9)"
       x="787.65729"
       y="1584.5073"
       id="text4580"
       transform="matrix(1.3668824,-0.09080367,-0.09658625,1.5444176,-365.22383,-709.85894)"><tspan
         sodipodi:role="line"
         id="tspan4582"
         x="787.65729"
         y="1584.5073"
         style="font-size:80.40014648px;line-height:1.25;letter-spacing:4.37618589px;fill:#ffffff;stroke-width:0.78198898">Bzeeooo !</tspan></text>
    <text
       xml:space="preserve"
       style="font-style:normal;font-variant:normal;font-weight:normal;font-stretch:normal;line-height:0%;font-family:Lavi;-inkscape-font-specification:Lavi;text-align:center;letter-spacing:0px;word-spacing:0px;text-anchor:middle;opacity:0.7;fill:#784421;fill-opacity:1;stroke:#502d16;stroke-width:3.4000001;stroke-miterlimit:4;stroke-dasharray:none;stroke-opacity:1;filter:url(#filter4367-9)"
       x="384.60318"
       y="2226.2607"
       id="text4246-3-6"><tspan
         sodipodi:role="line"
         style="font-style:normal;font-variant:normal;font-weight:normal;font-stretch:normal;font-size:95.64933777px;line-height:1.25;font-family:'Cursivah';-inkscape-font-specification:'Cursivah';text-align:start;text-anchor:start;fill:#784421;stroke:#502d16;stroke-width:3.4000001;stroke-miterlimit:4;stroke-dasharray:none;stroke-opacity:1"
         x="384.60318"
         y="2226.2607"
         id="tspan4144-7-0">Celebrity</tspan></text>
    <text
       xml:space="preserve"
       style="font-style:normal;font-variant:normal;font-weight:normal;font-stretch:normal;line-height:0%;font-family:Lavi;-inkscape-font-specification:Lavi;text-align:center;letter-spacing:0px;word-spacing:0px;text-anchor:middle;opacity:0.5;fill:#ffffff;fill-opacity:1;stroke:#ffffff;stroke-width:2.07299328;stroke-miterlimit:4;stroke-dasharray:none;stroke-opacity:1;filter:url(#filter4375-4-1-1-1-9-3)"
       x="1000.265"
       y="1716.373"
       id="text4246-3-3-6-2-6"
       transform="matrix(0.72899519,0,0,0.71822761,-190.83702,1603.3341)"><tspan
         sodipodi:role="line"
         style="font-style:normal;font-variant:normal;font-weight:normal;font-stretch:normal;font-size:95.64933777px;line-height:80.00000119%;font-family:'Cursivah';-inkscape-font-specification:'Cursivah';text-align:center;text-anchor:middle;fill:#ffffff;stroke:#ffffff;stroke-width:2.07299328;stroke-miterlimit:4;stroke-dasharray:none;stroke-opacity:1"
         x="1000.265"
         y="1716.373"
         id="tspan4341-8">Ms. Pigeon's</tspan><tspan
         sodipodi:role="line"
         style="font-style:normal;font-variant:normal;font-weight:normal;font-stretch:normal;font-size:95.64933777px;line-height:80.00000119%;font-family:'Cursivah';-inkscape-font-specification:'Cursivah';text-align:center;text-anchor:middle;fill:#ffffff;stroke:#ffffff;stroke-width:2.07299328;stroke-miterlimit:4;stroke-dasharray:none;stroke-opacity:1"
         x="1000.265"
         y="1792.8926"
         id="tspan106">Fast-paced Life</tspan></text>
    <text
       xml:space="preserve"
       style="font-style:normal;font-variant:normal;font-weight:normal;font-stretch:normal;line-height:0%;font-family:Lavi;-inkscape-font-specification:Lavi;text-align:center;letter-spacing:0px;word-spacing:0px;text-anchor:middle;opacity:0.7;fill:#784421;fill-opacity:1;stroke:#502d16;stroke-width:3.4000001;stroke-miterlimit:4;stroke-dasharray:none;stroke-opacity:1;filter:url(#filter4367-7-6)"
       x="1111.5582"
       y="2225.8013"
       id="text4246-3-3-7"><tspan
         sodipodi:role="line"
         style="font-style:normal;font-variant:normal;font-weight:normal;font-stretch:normal;font-size:95.64933777px;line-height:1.25;font-family:'Cursivah';-inkscape-font-specification:'Cursivah';text-align:start;text-anchor:start;fill:#784421;stroke:#502d16;stroke-width:3.4000001;stroke-miterlimit:4;stroke-dasharray:none;stroke-opacity:1"
         x="1111.5582"
         y="2225.8013"
         id="tspan4144-7-6-9">Fashion</tspan></text>
    <text
       xml:space="preserve"
       style="font-style:normal;font-variant:normal;font-weight:normal;font-stretch:normal;line-height:0%;font-family:Lavi;-inkscape-font-specification:Lavi;text-align:center;letter-spacing:0px;word-spacing:0px;text-anchor:middle;opacity:0.5;fill:#ffffff;fill-opacity:1;stroke:#ffffff;stroke-width:2.07299328;stroke-miterlimit:4;stroke-dasharray:none;stroke-opacity:1;filter:url(#filter4375-4-1-1-1-9-3)"
       x="1000.265"
       y="1716.373"
       id="text4246-3-3-6-20-2"
       transform="matrix(0.72899519,0,0,0.71822761,501.19822,1609.3271)"><tspan
         sodipodi:role="line"
         style="font-style:normal;font-variant:normal;font-weight:normal;font-stretch:normal;font-size:95.64933777px;line-height:80.00000119%;font-family:'Cursivah';-inkscape-font-specification:'Cursivah';text-align:center;text-anchor:middle;fill:#ffffff;stroke:#ffffff;stroke-width:2.07299328;stroke-miterlimit:4;stroke-dasharray:none;stroke-opacity:1"
         x="1000.265"
         y="1716.373"
         id="tspan4430-2">The Ms. Pigeon</tspan><tspan
         sodipodi:role="line"
         style="font-style:normal;font-variant:normal;font-weight:normal;font-stretch:normal;font-size:95.64933777px;line-height:80.00000119%;font-family:'Cursivah';-inkscape-font-specification:'Cursivah';text-align:center;text-anchor:middle;fill:#ffffff;stroke:#ffffff;stroke-width:2.07299328;stroke-miterlimit:4;stroke-dasharray:none;stroke-opacity:1"
         x="1000.265"
         y="1792.8926"
         id="tspan102">Phenomenon</tspan></text>
    <text
       xml:space="preserve"
       style="font-style:normal;font-variant:normal;font-weight:normal;font-stretch:normal;line-height:0%;font-family:Lavi;-inkscape-font-specification:Lavi;text-align:center;letter-spacing:0px;word-spacing:0px;text-anchor:middle;opacity:0.7;fill:#784421;fill-opacity:1;stroke:#502d16;stroke-width:3.4000001;stroke-miterlimit:4;stroke-dasharray:none;stroke-opacity:1;filter:url(#filter4367-7-1-7)"
       x="1857.1742"
       y="2230.2627"
       id="text4246-3-3-5-3"><tspan
         sodipodi:role="line"
         style="font-style:normal;font-variant:normal;font-weight:normal;font-stretch:normal;font-size:95.64933777px;line-height:1.25;font-family:'Cursivah';-inkscape-font-specification:'Cursivah';text-align:start;text-anchor:start;fill:#784421;stroke:#502d16;stroke-width:3.4000001;stroke-miterlimit:4;stroke-dasharray:none;stroke-opacity:1"
         x="1857.1742"
         y="2230.2627"
         id="tspan4144-7-6-3-7">Chic</tspan></text>
    <text
       xml:space="preserve"
       style="font-style:normal;font-variant:normal;font-weight:normal;font-stretch:normal;line-height:80.00000119%;font-family:Lavi;-inkscape-font-specification:Lavi;text-align:center;letter-spacing:0px;word-spacing:0px;text-anchor:middle;opacity:0.5;fill:#ffffff;fill-opacity:1;stroke:#ffffff;stroke-width:2.07299328;stroke-miterlimit:4;stroke-dasharray:none;stroke-opacity:1;filter:url(#filter4375-4-1-1-1-9-3)"
       x="1000.265"
       y="1716.373"
       id="text4246-3-3-6-5"
       transform="matrix(0.72899519,0,0,0.71822761,1200.3119,1613.0656)"><tspan
         sodipodi:role="line"
         style="font-style:normal;font-variant:normal;font-weight:normal;font-stretch:normal;font-size:95.64933777px;line-height:80.00000119%;font-family:'Cursivah';-inkscape-font-specification:'Cursivah';text-align:center;text-anchor:middle;fill:#ffffff;stroke:#ffffff;stroke-width:2.07299328;stroke-miterlimit:4;stroke-dasharray:none;stroke-opacity:1"
         x="1000.265"
         y="1716.373"
         id="tspan4395-2">Ms. Pigeon</tspan><tspan
         sodipodi:role="line"
         style="font-style:normal;font-variant:normal;font-weight:normal;font-stretch:normal;font-size:95.64933777px;line-height:80.00000119%;font-family:'Cursivah';-inkscape-font-specification:'Cursivah';text-align:center;text-anchor:middle;fill:#ffffff;stroke:#ffffff;stroke-width:2.07299328;stroke-miterlimit:4;stroke-dasharray:none;stroke-opacity:1"
         x="1000.265"
         y="1792.8926"
         id="tspan98">Special</tspan></text>
    <text
       xml:space="preserve"
       style="font-style:normal;font-variant:normal;font-weight:normal;font-stretch:normal;line-height:0%;font-family:Lavi;-inkscape-font-specification:Lavi;text-align:center;letter-spacing:0px;word-spacing:0px;text-anchor:middle;display:inline;opacity:1;fill:#241c1c;fill-opacity:1;stroke:#000000;stroke-width:4.32200003;stroke-miterlimit:4;stroke-dasharray:none;stroke-opacity:1"
       x="2414.1099"
       y="3323.9915"
       id="text4213"
       transform="matrix(0.95719015,0,-0.32603671,1.0447245,0,0)"><tspan
         sodipodi:role="line"
         id="tspan3562"
         x="2414.1099"
         y="3323.9915"
         style="font-size:72.18077087px;line-height:1.25;stroke-width:4.32200003;stroke-miterlimit:4;stroke-dasharray:none">- WAKs -</tspan></text>
  </g>
</svg>
