<?xml version="1.0" encoding="UTF-8" standalone="no"?>
<!-- Created with Inkscape (http://www.inkscape.org/) -->

<svg
   id="svg2"
   version="1.1"
   inkscape:version="1.1.1 (3bf5ae0d25, 2021-09-20)"
   width="2481"
   height="663"
   sodipodi:docname="E10P00.svg"
   xmlns:inkscape="http://www.inkscape.org/namespaces/inkscape"
   xmlns:sodipodi="http://sodipodi.sourceforge.net/DTD/sodipodi-0.dtd"
   xmlns:xlink="http://www.w3.org/1999/xlink"
   xmlns="http://www.w3.org/2000/svg"
   xmlns:svg="http://www.w3.org/2000/svg"
   xmlns:rdf="http://www.w3.org/1999/02/22-rdf-syntax-ns#"
   xmlns:cc="http://creativecommons.org/ns#"
   xmlns:dc="http://purl.org/dc/elements/1.1/">
  <sodipodi:namedview
     pagecolor="#ffffff"
     bordercolor="#666666"
     inkscape:pageopacity="0"
     inkscape:pageshadow="2"
     inkscape:window-width="942"
     inkscape:window-height="1141"
     id="namedview70"
     showgrid="false"
     inkscape:zoom="0.2"
     inkscape:cx="1097.5"
     inkscape:cy="280"
     inkscape:current-layer="layer1"
     borderopacity="1"
     inkscape:pagecheckerboard="0"
     inkscape:window-x="960"
     inkscape:window-y="15"
     inkscape:window-maximized="0" />
  <metadata
     id="metadata8">
    <rdf:RDF>
      <cc:Work
         rdf:about="">
        <dc:format>image/svg+xml</dc:format>
        <dc:type
           rdf:resource="http://purl.org/dc/dcmitype/StillImage" />
        <dc:title />
      </cc:Work>
    </rdf:RDF>
  </metadata>
  <defs
     id="defs6">
    <filter
       y="-0.25"
       height="1.5"
       inkscape:menu-tooltip="Darkens the edge with an inner blur and adds a flexible glow"
       inkscape:menu="Shadows and Glows"
       inkscape:label="Dark And Glow"
       style="color-interpolation-filters:sRGB;"
       id="filter4140">
      <feGaussianBlur
         stdDeviation="4.6710210876803542"
         result="result6"
         id="feGaussianBlur4142" />
      <feComposite
         result="result8"
         in="SourceGraphic"
         operator="atop"
         in2="result6"
         id="feComposite4144"
         stdDeviation="4.7000000000000002" />
      <feComposite
         result="result9"
         operator="over"
         in2="SourceAlpha"
         in="result8"
         id="feComposite4146" />
      <feColorMatrix
         values="1 0 0 0 0 0 1 0 0 0 0 0 1 0 0 0 0 0 1 0 "
         result="result10"
         id="feColorMatrix4148" />
      <feBlend
         in="result10"
         mode="normal"
         in2="result6"
         id="feBlend4150" />
    </filter>
  </defs>
  <sodipodi:namedview
     pagecolor="#ffffff"
     bordercolor="#666666"
     borderopacity="1"
     objecttolerance="10"
     gridtolerance="10"
     guidetolerance="10"
     inkscape:pageopacity="0"
     inkscape:pageshadow="2"
     inkscape:window-width="1920"
     inkscape:window-height="1025"
     id="namedview4"
     showgrid="false"
     inkscape:zoom="0.46082619"
     inkscape:cx="1418.5251"
     inkscape:cy="434.36405"
     inkscape:window-x="0"
     inkscape:window-y="26"
     inkscape:window-maximized="1"
     inkscape:current-layer="layer1" />
  <g
     inkscape:groupmode="layer"
     id="layer2"
     inkscape:label="artwork"
     sodipodi:insensitive="true">
    <image
       xlink:href="../gfx_Pepper-and-Carrot_by-David-Revoy_E10P00.png"
       y="0"
       x="0"
       id="image10"
       height="663"
       width="2481" />
  </g>
  <g
     inkscape:groupmode="layer"
     id="layer1"
     inkscape:label="txt"
     style="display:inline">
    <flowRoot
       xml:space="preserve"
       id="episode-title"
       style="font-style:normal;font-variant:normal;font-weight:normal;font-stretch:normal;line-height:0.01%;font-family:Arial;-inkscape-font-specification:Arial;letter-spacing:0px;word-spacing:0px;display:inline;fill:#241c1c;fill-opacity:1;stroke:none"
       transform="translate(-701.23633,-120.8471)"><flowRegion
         id="flowRegion2989"><rect
           id="rect2991"
           width="2405.8"
           height="107.55731"
           x="739.22333"
           y="644.36664"
           style="fill:#241c1c;fill-opacity:1" /></flowRegion><flowPara
         id="flowPara2993"
         style="font-style:normal;font-variant:normal;font-weight:normal;font-stretch:normal;font-size:72px;line-height:1.25;font-family:Lavi;-inkscape-font-specification:Lavi;text-align:center;text-anchor:middle;fill:#241c1c;fill-opacity:1">Wud 10:  Wumanuth</flowPara></flowRoot>
    <path
       style="fill:#000000;fill-opacity:0;stroke:none;display:inline"
       d="m 717.17849,501.65562 c -1.97526,-1.73425 -4.24414,-4.41591 -5.0423,-5.95927 l -1.45121,-2.8061 0,-4.10128 0,-4.10126 2.45826,-2.45822 2.45826,-2.45824 1.79817,-0.0318 c 0.98893,-0.0181 2.66715,-0.68922 3.72914,-1.49266 l 1.93099,-1.46083 0.75006,-5.26748 0.75005,-5.26746 0.0725,-22.85 0.0725,-22.85 -1.03683,-1.93717 -1.03664,-1.93716 -1.78609,0 c -0.98229,0 -4.17511,-0.70951 -7.09524,-1.57667 l -5.30916,-1.57667 -2.3838,-2.38382 -2.38379,-2.38381 0,-1.54779 0,-1.54777 5.75854,-0.0413 5.75875,-0.0412 4.50678,-2.21209 4.50677,-2.2121 0.28618,-35.05257 0.28598,-35.05257 -1.18858,-4.33255 -1.18878,-4.33256 -2.10205,-1.36332 -2.10185,-1.3633 -8.7632,-0.70126 -8.76299,-0.70125 0,-1.19951 0,-1.19952 4.42929,-4.49291 4.4295,-4.49291 12.67568,-5.72939 12.67549,-5.72938 1.92897,0.61222 c 1.06079,0.33673 3.27855,1.74783 4.92799,3.1358 l 2.99902,2.52359 0,1.34169 c 0,0.73792 0.7082,2.04988 1.57397,2.91547 l 1.57377,1.57377 10.33214,0 10.33213,0 8.6825,2.51606 c 4.77524,1.38383 10.85579,3.61748 13.51248,4.96365 2.65649,1.3462 8.40981,5.14506 12.78517,8.44195 l 7.95498,5.99435 2.74926,3.9671 2.74927,3.96715 1.4335,4.76333 1.4335,4.76335 0,6.76212 0,6.76211 -1.87424,6.02233 -1.87443,6.02234 -3.7048,6.62484 -3.7048,6.62483 -6.02339,6.43903 -6.02339,6.43903 -6.67483,4.91903 c -3.67119,2.70548 -8.92823,6.03434 -11.68232,7.39747 -2.7541,1.36314 -10.19026,4.19439 -16.52478,6.29171 -6.33452,2.0973 -12.53139,4.1811 -13.77068,4.63065 l -2.25339,0.81737 0,21.5993 0,21.59928 2.4174,2.41751 2.41761,2.4175 2.84043,0.60198 c 1.5621,0.33107 3.59754,1.00961 4.52308,1.50782 l 1.68265,0.90584 4.3671,-0.0875 c 2.40191,-0.0481 6.6678,0.22878 9.47985,0.61554 l 5.11294,0.70318 3.18175,-1.64541 3.18195,-1.64539 2.94911,0.64772 c 1.62187,0.35625 4.96925,0.64774 7.43817,0.64774 2.46893,0 4.48907,0.21077 4.48907,0.46839 0,0.25762 -1.6275,1.14838 -3.61665,1.97948 -3.64905,1.52469 -11.49677,6.4501 -16.7697,10.52516 l -2.85995,2.21024 -6.51645,1.80696 -6.51625,1.80693 -4.64464,2.95305 -4.64483,2.95308 -7.51123,2.12193 c -4.13104,1.16706 -9.80426,2.78209 -12.60665,3.58892 l -5.09563,1.46694 -4.13346,0 -4.13346,0 -3.5913,-3.15317 z m 44.23097,-107.46049 8.86503,-4.45447 8.07311,-6.48109 8.07292,-6.48112 4.83622,-5.83959 4.83602,-5.83959 2.86378,-6.00902 2.86357,-6.009 8.1e-4,-4.30613 8e-4,-4.30611 -1.4663,-2.83548 c -0.80641,-1.55952 -2.86438,-4.01197 -4.57339,-5.44991 l -3.10709,-2.61445 -5.69193,-1.70941 -5.69214,-1.70943 -8.51264,-0.0264 -8.51284,-0.0264 -5.53355,1.2508 -5.53355,1.25083 -3.22965,1.96399 -3.22945,1.96399 0,30.01001 0,30.01003 1.75248,1.0208 c 0.96399,0.56146 2.27029,1.03452 2.90282,1.05126 0.63253,0.0161 5.1393,-1.97403 10.01497,-4.424 z m 73.46182,109.0317 c -1.37695,-0.89032 -3.73418,-3.21306 -5.23792,-5.16162 l -2.73417,-3.54285 -0.61622,-3.28437 -0.61603,-3.28435 1.34737,-2.83932 1.34736,-2.83931 4.42527,-2.12362 4.42527,-2.12364 1.33328,-1.82342 1.33327,-1.82342 0,-27.72664 0,-27.72661 -5.25784,-0.58741 c -2.89175,-0.32306 -7.02359,-0.94386 -9.18159,-1.37952 l -3.92376,-0.7921 -0.31636,-0.99787 c -0.17308,-0.54885 0.0342,-1.55117 0.46368,-2.22739 l 0.78024,-1.22947 7.74186,-1.48126 c 4.25783,-0.81469 8.18098,-1.75272 8.71771,-2.0845 l 0.97606,-0.60324 0,-40.55147 0,-40.55146 -1.46127,-2.82597 -1.46147,-2.82598 -8.30314,-1.17936 c -4.56695,-0.64863 -9.76804,-1.40301 -11.55815,-1.67643 l -3.25501,-0.49708 0,-0.78153 c 0,-0.42985 1.0141,-1.70501 2.25339,-2.83367 2.45243,-2.23331 15.09088,-10.31505 16.13094,-10.31505 0.35279,0 4.6561,-1.80761 9.56256,-4.01692 l 8.92097,-4.01692 2.84627,1.08212 c 1.56532,0.59516 3.63557,1.79661 4.60056,2.66988 l 1.75449,1.58777 0,2.73248 0,2.73249 2.25339,0.60386 c 1.23929,0.33215 6.76922,0.61005 12.28848,0.61758 l 10.0351,0.0141 7.1856,1.99122 c 3.95213,1.09515 9.74892,3.12481 12.88176,4.51033 l 5.69616,2.51912 6.62734,4.93143 c 3.64523,2.7123 8.2953,6.65411 10.33375,8.75958 l 3.70621,3.82812 2.22239,5.00751 2.2222,5.0075 0.44798,7.5638 0.44818,7.56379 -2.93119,8.50449 -2.9314,8.50447 -3.85574,5.8088 c -2.12056,3.19485 -6.11475,8.28062 -8.87589,11.30174 l -5.02017,5.49289 -3.19382,-0.59917 -3.19383,-0.59916 -1.04428,1.27123 c -0.57437,0.69918 -1.20005,2.39368 -1.39063,3.76555 l -0.34635,2.49433 -4.92799,3.2198 -4.928,3.21983 -12.42895,4.55125 -12.42915,4.55128 -2.17229,0.0161 c -1.19461,0.008 -2.84808,0.44244 -3.67441,0.96448 l -1.50232,0.94915 0,21.48761 0,21.48761 2.38762,2.54228 2.38722,2.54228 5.20088,1.07966 5.20069,1.07968 9.93829,-0.0286 c 5.46573,-0.0161 12.55574,-0.0801 15.7552,-0.14329 l 5.81731,-0.11472 0.68405,0.68415 0.68424,0.68415 -1.99458,1.17 c -1.09701,0.6435 -4.86218,2.41501 -8.36673,3.93668 l -6.37216,2.76669 -2.96863,2.49797 c -1.63273,1.37385 -3.54661,2.49792 -4.253,2.49792 l -1.28437,0 -4.3975,3.86327 c -2.41861,2.12477 -6.32748,4.84543 -8.68632,6.04593 l -4.28882,2.18269 -9.73222,2.64554 -9.73201,2.64554 -5.00748,0.34043 -5.00769,0.34044 -2.50374,-1.61877 z m 40.84072,-108.04397 7.23391,-3.46672 7.25966,-5.38931 7.25967,-5.38928 7.01051,-7.43171 7.01052,-7.43167 2.80642,-5.7893 2.80663,-5.78928 0.50714,-4.71318 0.50735,-4.71317 -1.81144,-3.47974 -1.81165,-3.47972 -4.00586,-2.78632 -4.00607,-2.78632 -7.51143,-1.5891 -7.51123,-1.58913 -6.50961,0.58085 c -3.58042,0.31946 -9.21379,1.27069 -12.51891,2.11384 l -6.0089,1.53302 -2.29686,2.59279 -2.29685,2.59282 0.29382,28.28435 0.29382,28.28436 1.37454,1.65433 1.37453,1.65431 1.65829,0 c 0.91186,0 4.9133,-1.56002 8.892,-3.46672 z m 345.2383,77.6497 c -2.7541,-0.98168 -7.3015,-2.94784 -10.1051,-4.36929 l -5.0977,-2.58442 -3.1586,-3.59741 c -1.7374,-1.97858 -4.1606,-5.50026 -5.3852,-7.82596 l -2.2266,-4.22855 -0.032,-7.51125 -0.032,-7.51126 3.1618,-6.67371 3.1618,-6.67371 7.7715,-8.13423 7.7714,-8.1342 -2.8135,-5.88629 -2.8132,-5.88628 0.6007,-3.00411 0.6007,-3.00413 -1.4333,-1.18959 -1.4333,-1.18958 1.5545,-3.00596 1.5544,-3.00598 -2.2226,-2.36583 -2.2228,-2.36586 0.6352,-4.63322 0.6351,-4.63322 1.9948,-4.50956 1.9948,-4.50955 4.259,-5.08708 4.2593,-5.08708 4.3965,-2.78821 4.3964,-2.7882 5.4241,-1.21384 5.4239,-1.21381 5.2142,1.64724 5.2141,1.64725 5.7175,3.58075 5.7173,3.58074 3.6482,6.00582 3.6485,6.00581 0.5124,3.82053 0.5126,3.82052 -2.211,7.00528 -2.2109,7.00529 -3.8479,4.8997 c -2.1163,2.69484 -5.5023,7.37842 -7.5243,10.40796 -2.0221,3.02955 -5.026,6.70595 -6.6752,8.16978 l -2.9984,2.6615 0.8527,1.45461 c 0.4689,0.80005 4.9563,5.81115 9.9717,11.13581 l 9.1192,9.68117 1.196,-1.44116 1.1962,-1.44119 0.2013,-2.84186 0.2012,-2.84186 -3.7507,-0.31053 -3.7504,-0.31051 -2.5088,-3.28928 -2.509,-3.28925 0,-2.0873 0,-2.08732 1.4347,-1.4347 1.4347,-1.43469 8.3299,-2.58966 c 4.5817,-1.42432 10.5835,-3.10167 13.3376,-3.72745 l 5.0075,-1.13781 12.018,-0.39515 c 6.61,-0.21735 14.3841,-0.66306 17.276,-0.99049 l 5.2579,-0.59527 -6e-4,1.32393 -4e-4,1.32394 -7.1226,6.50977 c -3.9171,3.58037 -8.5364,7.91693 -10.2648,9.6368 l -3.1425,3.12704 -4.8851,0.70916 c -2.6869,0.39004 -5.5037,0.94645 -6.2594,1.23649 l -1.3742,0.52734 0,4.86278 0,4.86279 -2.1368,5.71107 -2.1369,5.71105 2.8777,2.08814 c 1.5826,1.14849 4.6848,3.47912 6.894,5.17917 l 4.0163,3.09101 -0.1852,1.41575 c -0.1026,0.77865 -0.8092,3.1023 -1.5709,5.16363 l -1.3846,3.74791 -2.3595,2.51149 -2.3594,2.51149 -3.0803,-0.004 -3.0803,-0.004 -3.2792,-1.99927 c -1.8036,-1.09906 -3.8835,-1.99873 -4.6221,-1.99873 -0.7386,0 -2.4888,-0.90135 -3.8893,-2.00301 -1.4007,-1.10166 -3.1514,-1.99146 -3.8908,-1.97736 -0.7394,0.0141 -3.8231,1.60809 -6.8525,3.54217 l -5.5084,3.51657 -9.4744,2.96758 -9.4744,2.96756 -5.0474,-0.0732 -5.0473,-0.0733 -5.0075,-1.78484 z m 24.3013,-24.23629 4.4029,-2.13141 0.4904,-1.2779 0.4903,-1.27789 -10.3356,-10.1049 -10.3358,-10.10491 -1.2091,-0.006 -1.2093,-0.006 -2.7967,3.68653 c -1.5384,2.02758 -4.2615,5.0399 -6.0518,6.69403 l -3.2548,3.00751 0,1.35441 0,1.35439 4.2562,4.34277 c 2.3412,2.38853 5.1578,4.83717 6.2595,5.4414 l 2.003,1.0986 6.444,0.0304 6.4438,0.0304 4.4029,-2.13141 z m -5.3575,-61.55159 7.732,-6.59741 1.9312,-3.16724 1.9314,-3.16724 0,-3.17803 0,-3.17805 -2.4834,-2.95144 -2.4835,-2.95146 -3.008,-1.246 -3.0083,-1.24597 -3.4615,0.64939 -3.4615,0.64939 -2.7161,3.22081 c -1.4936,1.77148 -3.3234,4.67108 -4.0662,6.44356 l -1.3512,3.22271 0,3.87902 0,3.879 1.4184,4.71245 c 1.4086,4.68056 3.1693,7.62391 4.5605,7.62391 0.3993,0 4.2055,-2.96883 8.4581,-6.5974 z m 177.6319,58.67972 c -3.1502,-0.40407 -8.9214,-1.76159 -12.8251,-3.01675 l -7.0972,-2.28208 -5.9469,-3.61208 c -3.2707,-1.98666 -8.2515,-5.4148 -11.0683,-7.61809 l -5.1214,-4.00601 -5.791,-6.81485 -5.7911,-6.81484 -3.0296,-5.70395 c -1.6664,-3.13715 -3.951,-8.63331 -5.0768,-12.21367 -1.1259,-3.58037 -3.0034,-11.68289 -4.1723,-18.00555 l -2.1253,-11.49579 0.4449,-4.52825 c 0.6432,-6.54184 3.4736,-21.07093 6.2629,-32.14786 2.7772,-11.02795 8.7169,-28.52702 11.6896,-34.43805 4.4282,-8.80581 15.5696,-26.49036 22.4079,-35.56836 3.9672,-5.26645 10.3037,-12.73638 14.0812,-16.59982 3.7776,-3.86346 10.0214,-9.40832 13.8753,-12.32187 l 7.0069,-5.2974 8.3044,-4.11505 8.3045,-4.11502 10.7276,-0.0674 10.7276,-0.0674 9.5143,3.83919 c 5.2328,2.11155 10.4156,3.91426 11.5173,4.00601 l 2.003,0.16683 0.5007,-5.55355 0.5007,-5.5536 1.8581,-2.83433 1.8578,-2.83431 5.5102,0.6476 5.51,0.6476 5.4128,2.56065 5.4128,2.56066 3.4935,3.29489 3.4937,3.29489 0,5.01445 c 0,2.75794 -0.2818,6.42354 -0.6263,8.14573 l -0.6261,3.13127 -3.9503,4.48782 -3.9506,4.4878 0.6297,1.01889 0.6298,1.01886 1.8329,0 1.833,0 2.3132,1.87311 2.3131,1.87311 -1.1894,13.90052 c -1.3688,15.9987 -2.396,23.6417 -4.5357,33.74705 -0.8378,3.95675 -1.9598,9.44743 -2.4933,12.20157 -0.5337,2.75413 -1.712,8.32053 -2.6186,12.36978 l -1.6485,7.36224 -2.4862,4.90614 -2.486,4.90616 -0.8678,0 -0.8678,0 -0.604,-2.25339 c -0.3322,-1.23936 -0.6099,-4.63389 -0.6176,-7.54343 l -0.02,-5.29006 -1.3532,-3.23884 -1.3532,-3.23887 -0.7386,-12.96335 -0.7384,-12.96337 -4.2914,-12.55878 -4.2915,-12.5588 -4.3125,-8.40961 -4.313,-8.4096 -3.5983,-3.7826 -3.5984,-3.78262 -2.7746,-0.6964 -2.7748,-0.69643 -4.3865,1.67518 c -2.4125,0.92136 -7.2377,3.557 -10.7225,5.85696 l -6.3364,4.18176 -9.3339,9.46135 -9.3342,9.46131 -7.378,11.09063 -7.3782,11.09061 -7.0006,14.52178 c -7.5179,15.59525 -12.5537,28.48814 -16.6556,42.64271 l -2.5716,8.87469 -0.6202,7.54123 -0.6203,7.54126 -2.3443,2.82064 -2.3442,2.82067 1.4738,2.84983 c 0.8106,1.56745 2.7577,3.90356 4.327,5.19137 l 2.8531,2.34152 2.6829,4.69834 2.6825,4.69837 4.7494,4.86333 4.7493,4.86335 4.8525,2.34143 4.8524,2.34143 11.1717,-0.52481 11.1716,-0.52484 9.6982,-3.14168 c 5.3341,-1.72791 12.2895,-4.2877 15.4567,-5.68837 l 5.7586,-2.54669 1.7794,0.46535 1.7797,0.46532 2.8762,-2.74868 2.8763,-2.74872 7.062,-2.69859 7.0623,-2.69864 1.8665,-2.06238 c 1.0266,-1.1343 3.0433,-2.67098 4.4819,-3.41484 l 2.6154,-1.35249 1.188,-2.80135 1.1881,-2.80137 5.6686,-3.44342 c 3.1178,-1.89385 7.3617,-4.97307 9.4312,-6.84263 l 3.7623,-3.39922 3.9749,-6.29371 3.9749,-6.29369 1.4979,-0.57479 1.4979,-0.57479 1.2256,1.47687 1.2256,1.47687 -1.1169,2.21924 c -0.6143,1.22057 -2.2238,6.81041 -3.5768,12.42187 l -2.4597,10.20261 -4.8338,8.82593 -4.8338,8.8259 -6.6938,6.69867 -6.6937,6.69868 -2.8735,1.48582 -2.8732,1.48585 -1.9308,-0.17247 -1.9308,-0.17248 -2.7863,5.50826 -2.7861,5.50827 -10.7563,6.70176 -10.7562,6.70176 -9.0136,2.99322 -9.0135,2.99325 -7.8341,1.07114 c -8.5794,1.17307 -13.2375,1.18876 -21.9297,0.0739 z m -944.56028,-17.42052 -3.86841,-1.45384 -2.98332,-2.83333 -2.98332,-2.83333 -1.96661,-3.82412 -1.9666,-3.82414 -0.56229,-4.74737 -0.5623,-4.74739 2.38903,-2.77724 2.38883,-2.77726 6.27556,-0.73993 6.27555,-0.73995 1.70479,-1.7048 1.70478,-1.70479 0.51379,-9.23484 0.51359,-9.23485 3.00445,-0.51172 3.00465,-0.51171 0.31073,-2.68666 0.31093,-2.68666 -2.81467,-1.79222 c -1.54801,-0.9857 -3.14573,-2.25329 -3.55024,-2.81683 l -0.73597,-1.02464 -0.0201,-28.82459 -0.0201,-28.82463 1.25197,-0.38568 c 0.68847,-0.21211 2.44156,-0.64476 3.89558,-0.96142 l 2.64361,-0.57576 0.63615,-1.65749 0.63595,-1.65749 -1.27673,-1.70929 c -0.70215,-0.94009 -2.79374,-3.69087 -4.64805,-6.11278 l -3.37112,-4.40352 0.80962,-16.02403 c 0.44516,-8.81321 0.83559,-20.38264 0.86739,-25.70985 l 0.0584,-9.68581 -2.41821,-2.57235 -2.41842,-2.57232 -5.59372,-2.08571 -5.59372,-2.08571 -2.17229,-2.02907 -2.17248,-2.02908 -2.13284,-4.95778 -2.13264,-4.95777 -0.16503,-5.91943 -0.16502,-5.9194 2.34556,-2.49676 2.34556,-2.49678 8.63339,-3.15583 8.6336,-3.15585 15.52316,-2.89648 15.52336,-2.89646 18.0269,0.0213 18.02711,0.0213 9.63038,0.9372 9.63038,0.9372 8.22989,3.00354 c 4.5265,1.65194 11.01638,4.56182 14.42212,6.46641 3.40575,1.9046 8.23311,5.2593 10.7274,7.45493 l 4.53515,3.99202 6.35344,8.85894 6.35324,8.85895 4.79959,10.01503 4.79979,10.01501 1.68205,6.50977 1.68204,6.50977 0.0906,7.51124 0.0906,7.51127 -1.29705,5.50827 -1.29725,5.50826 -3.91531,8.01201 -3.9153,8.012 -5.75432,6.6861 c -3.16485,3.67735 -8.00771,8.68701 -10.76181,11.13259 -2.75429,2.44558 -8.53739,6.97834 -12.85177,10.07278 l -7.8443,5.62627 -12.18584,5.89588 c -15.36257,7.43292 -33.28965,14.61007 -41.73005,16.70679 -3.58042,0.88942 -8.17957,2.0457 -10.22044,2.56953 l -3.71043,0.95237 -1.54741,1.54731 -1.5472,1.54734 0,12.9935 0,12.99352 2.29706,2.29722 2.29726,2.29718 4.08254,0.65283 4.08254,0.65281 1.25419,1.51122 1.25418,1.51122 5.13528,0.0141 5.13508,0.0141 4.32303,1.50567 4.32284,1.50566 0.92776,-0.57332 c 0.87342,-0.53987 21.95569,-1.66091 28.48361,-1.51458 1.65246,0.037 4.58184,0.0739 6.50961,0.0817 1.92797,0.008 4.11937,0.23437 4.87003,0.50338 l 1.36467,0.48914 -1.23688,1.49039 -1.23708,1.49041 -1.56411,0 c -0.86034,0 -3.62188,0.95745 -6.13669,2.12767 -2.51501,1.1702 -7.27677,3.38441 -10.58169,4.92046 -3.30491,1.53604 -8.71308,3.5561 -12.018,4.48899 -3.30491,0.93291 -7.48889,2.32409 -9.29792,3.09155 l -3.28881,1.39538 -3.74928,0 -3.74907,0 -2.1904,1.53413 c -3.27432,2.29349 -9.67687,4.36642 -20.28834,6.56873 l -9.51426,1.9746 -12.018,0.50031 -12.018,0.50032 -3.86862,-1.45382 z m 74.83978,-111.4666 8.87811,-3.50831 4.3341,0.64993 4.33431,0.64996 1.60556,-2.45042 1.60557,-2.45043 -0.60314,-2.40326 -0.60315,-2.40323 1.97627,-1.78865 1.97647,-1.78862 2.15035,1.15082 2.15035,1.15083 1.52466,-1.26528 1.52446,-1.26529 -0.55725,-2.78608 -0.55706,-2.78607 5.00265,-5.71685 c 6.2494,-7.14167 11.28948,-14.69071 14.77613,-22.13221 l 2.69392,-5.74955 6e-4,-9.01351 6.1e-4,-9.01353 -2.66434,-5.68366 -2.66434,-5.68366 -4.09824,-4.4461 -4.09844,-4.4461 -5.83945,-2.62065 -5.83965,-2.62065 -7.68511,-1.14301 -7.6851,-1.14302 -9.75778,1.18407 c -5.36671,0.65124 -10.50944,1.40116 -11.42814,1.66649 l -1.67057,0.48239 -3.46913,-3.04595 -3.46914,-3.04595 -2.08595,0 -2.08594,0 -1.03684,1.93717 c -0.57014,1.06543 -1.03664,3.01797 -1.03664,4.33895 l 0,2.40181 -3.67722,2.42117 c -2.02236,1.33165 -4.56011,3.62176 -5.63941,5.08915 l -1.96238,2.66799 -0.82412,15.85981 -0.82431,15.85979 -0.0463,28.60177 -0.0463,28.60176 1.25197,1.57846 c 0.68847,0.86817 1.92776,1.78134 2.75409,2.0293 l 1.50233,0.45082 11.51709,-2.43204 11.5173,-2.43204 8.87811,-3.50832 z m 94.27663,109.15576 c -1.65246,-0.21916 -5.40496,-1.07562 -8.33897,-1.9032 l -5.33451,-1.5047 -4.22322,-4.22317 -4.22301,-4.2232 -4.39931,-11.50021 -4.39911,-11.50025 -0.41779,-13.48098 -0.418,-13.481 1.18938,-7.3736 1.18959,-7.37359 2.41177,-7.09096 c 1.32643,-3.90003 4.02841,-10.03217 6.00447,-13.62695 4.30271,-7.82783 11.15485,-16.93414 17.68015,-23.49643 l 4.77484,-4.80187 8.30093,-3.98301 8.30073,-3.983 5.1063,-0.60477 5.1063,-0.60476 5.19565,2.82784 5.19565,2.82781 5.31801,5.10974 5.31801,5.10976 2.49731,4.95731 2.4975,4.95733 1.12619,5.30717 1.12599,5.30718 0,12.71986 0,12.71986 -1.04549,3.76511 -1.04569,3.7651 -2.20368,1.42993 -2.20368,1.42994 -7.01052,1.14629 c -7.02883,1.1493 -41.55757,9.72509 -49.07363,12.18832 l -4.00606,1.31285 -1.74564,3.56836 -1.74564,3.56833 1.69814,4.44368 c 0.934,2.44401 2.74967,6.15004 4.03465,8.2356 l 2.3363,3.79192 3.21939,2.03041 3.21938,2.03042 6.09886,-0.43625 6.09886,-0.43625 6.41985,-2.83135 c 3.53112,-1.55723 11.82561,-6.06529 18.43242,-10.01787 l 12.01237,-7.18655 1.36447,0.52363 1.36447,0.52361 -0.53532,3.29956 c -0.29463,1.81475 -1.44417,5.35348 -2.55446,7.8638 l -2.01913,4.56425 -2.48845,0 -2.48845,0 -1.64098,1.64091 -1.64099,1.6409 0.15899,4.11772 c 0.0885,2.26476 0.11873,4.60636 0.0664,5.20355 l -0.0926,1.0858 -8.79137,4.17793 -8.79157,4.17796 -6.98215,1.479 c -6.91512,1.46481 -9.17133,1.58747 -14.99407,0.81518 z m 9.57282,-73.90109 16.46622,-3.70315 4.17089,-1.81595 4.17069,-1.81597 1.08714,-2.03137 1.08715,-2.03135 0,-10.56134 0,-10.56136 -1.61462,-4.03541 -1.61462,-4.03539 -2.36529,-0.59363 -2.36528,-0.59362 -4.52086,2.18852 -4.52087,2.18853 -7.48305,6.98828 c -4.11554,3.84356 -9.01959,9.1014 -10.89785,11.68413 -1.87826,2.58271 -5.32485,8.37863 -7.65914,12.87983 l -4.24415,8.18398 0.70961,1.14819 0.7096,1.14819 1.20911,-0.464 c 0.66513,-0.25519 8.6189,-2.13039 17.67532,-4.16711 z m 317.29986,72.21552 c -1.99277,-0.71208 -5.26407,-2.30889 -7.26972,-3.54844 l -3.64664,-2.25371 -2.50596,-4.27607 c -1.37835,-2.35182 -4.19101,-8.96006 -6.2506,-14.68498 l -3.74464,-10.40895 0.0926,-16.02403 0.0926,-16.02403 2.17007,-8.01202 2.16987,-8.01203 4.0606,-8.51274 4.06061,-8.51279 5.42467,-7.09778 c 2.98352,-3.90379 7.91977,-9.45753 10.9693,-12.34165 l 5.54461,-5.24387 7.54283,-3.485 7.54262,-3.48499 4.87527,-0.5774 4.8753,-0.57741 4.3395,2.11892 4.3395,2.11889 6.218,5.56492 6.2176,5.56493 3.2967,6.69073 3.2965,6.69074 0.3244,17.55278 0.3246,17.55276 -1.031,2.70175 -1.031,2.70175 -2.2981,1.49101 -2.298,1.49102 -9.0442,1.55855 c -4.9745,0.85723 -17.5934,3.83473 -28.04206,6.6167 l -18.99793,5.05812 -4.50658,2.21008 -4.50678,2.21007 0.16905,6.17989 0.16905,6.1799 2.04369,4.62006 2.04369,4.6201 3.51441,1.46841 3.51442,1.46844 7.29307,-0.0161 7.29307,-0.0161 8.44643,-3.4252 8.44647,-3.42521 1.9022,1.0181 1.9024,1.01812 1.8297,-1.65577 c 1.0063,-0.9107 2.0794,-2.63663 2.3846,-3.83547 l 0.5551,-2.17967 6.3007,-4.25638 6.3007,-4.25639 1.8429,0 1.8428,0 2.8648,-2.03982 c 1.5754,-1.1219 4.9499,-2.96227 7.4985,-4.08971 l 4.6342,-2.04984 0.5234,0.52359 0.5237,0.52359 -1.6786,4.39553 -1.6786,4.3955 -3.9051,5.15943 c -2.1479,2.83767 -4.8044,6.92255 -5.9038,9.07751 l -1.999,3.91806 -5.0679,4.43324 -5.0677,4.43322 -9.2385,4.6496 -9.2384,4.6496 -4.76595,1.25041 -4.76618,1.2504 -1.55002,-2.21312 -1.55023,-2.21312 -2.69714,0.004 -2.69734,0.004 -4.00607,2.46738 c -2.20348,1.35704 -4.68207,2.46164 -5.5084,2.45468 -0.82612,-0.006 -3.13264,-0.59534 -5.12541,-1.30746 z m 16.1418,-71.78762 c 7.43616,-1.64717 16.34169,-3.92302 19.78989,-5.05744 l 6.2697,-2.06258 1.1056,-2.06611 1.1059,-2.06608 0.1348,-11.61949 0.1349,-11.61947 -2.0842,-3.50526 -2.0841,-3.50526 -3.5072,0.0994 -3.5071,0.0994 -6.15665,4.18099 -6.15682,4.18101 -2.37937,-0.5972 -2.37937,-0.59719 -1.64723,1.64712 -1.64702,1.64715 0.61341,2.44423 0.61361,2.44425 -3.97126,5.24496 c -2.18395,2.88473 -5.83985,8.68051 -8.12382,12.87951 l -4.15258,7.63464 0,2.24688 0,2.24689 2.25339,-0.65269 c 1.23929,-0.35899 8.33735,-2.0004 15.77351,-3.64756 z m 622.20289,72.46612 -2.2332,-0.43142 -2.0232,-2.57177 -2.0228,-2.57178 0,-1.7453 0,-1.74531 -1.4143,-1.17383 -1.4144,-1.17382 -6.0695,2.55453 c -3.3381,1.40505 -9.5744,3.71181 -13.8584,5.12619 l -7.7892,2.57158 -9.0938,0.56879 -9.0939,0.56879 -5.3138,-1.76502 -5.3139,-1.76501 -3.864,-3.49083 -3.8637,-3.49087 -1.5084,-5.07792 -1.5078,-5.07792 0,-4.78018 0,-4.78017 2.4265,-6.68476 2.4263,-6.68477 3.7486,-5.44239 3.748,-5.44238 5.5929,-4.03779 5.593,-4.0378 12.018,-5.85475 12.0182,-5.85474 8.8221,-2.19975 8.8228,-2.19976 2.1029,-1.70303 2.103,-1.70305 -1.1057,-9.7333 -1.1056,-9.7333 -1.8076,-3.69872 -1.8079,-3.69874 -8.0121,-0.28199 -8.0119,-0.28197 -8.012,3.89461 -8.0121,3.89464 -7.5112,5.57303 c -4.1313,3.06519 -8.0868,6.17161 -8.7902,6.90313 -0.7034,0.73157 -2.3621,2.68211 -3.6861,4.33459 l -2.4069,3.00451 -1.2047,-1.18489 -1.2043,-1.18488 2.7026,-6.82714 c 1.4862,-3.75491 4.1377,-9.24006 5.8918,-12.18918 l 3.1894,-5.36209 5.8829,-4.93381 c 3.2353,-2.7136 7.7569,-6.03222 10.0478,-7.37473 2.2908,-1.34252 6.1783,-3.15738 8.639,-4.03304 l 4.474,-1.59208 7.2075,-0.0405 7.2073,-0.0405 5.3571,2.45253 5.3571,2.45252 3.6693,3.22184 3.6696,3.22186 2.4293,5.18964 2.4295,5.18965 1.1388,5.41208 1.1387,5.41207 0.9642,14.11722 c 0.5303,7.76448 0.9708,18.06063 0.9791,22.88037 l 0.02,8.76312 0.9425,0 c 0.5182,0 1.2207,-0.45066 1.5612,-1.0015 l 0.6189,-1.0015 2.069,0 2.0693,0 -0.6501,3.25489 c -0.3574,1.79019 -1.9911,6.1222 -3.6305,9.62672 l -2.9803,6.37183 0,1.89054 0,1.89057 1.0568,0 c 0.5808,0 3.6231,-1.31625 6.7601,-2.92499 8.4062,-4.31121 14.6908,-7.09004 16.0344,-7.09004 l 1.1859,0 0,0.9307 c 0,0.51188 -1.8338,3.69152 -4.0751,7.06588 l -4.0751,6.13521 -0.7718,4.88297 -0.772,4.88295 -1.6226,2.47649 -1.6225,2.47648 -5.2981,3.00736 -5.2981,3.00735 -5.4395,1.59585 c -2.9918,0.87771 -5.696,1.53449 -6.0091,1.45946 -0.3132,-0.0751 -1.5744,-0.33051 -2.8028,-0.56779 z m -35.8173,-22.80094 7.6939,-1.47206 5.6642,-2.58332 c 3.1151,-1.42082 7.3563,-3.75042 9.4243,-5.17691 l 3.76,-2.59364 1.9986,-3.23386 1.9986,-3.23385 0,-4.18369 0,-4.18371 -2.4583,-2.45822 -2.4583,-2.45824 -1.9263,0 -1.9264,0 -1.5053,-2.25337 -1.5052,-2.25339 -1.9165,1.72167 -1.9165,1.72167 -6.7786,2.09375 -6.7787,2.09376 -3.6925,3.26364 c -2.0306,1.79502 -5.8161,4.76196 -8.4125,6.59323 l -4.7203,3.32959 -2.4405,3.61236 c -1.3421,1.98681 -2.7483,4.64848 -3.1244,5.9148 l -0.684,2.30243 1.6083,2.4547 1.6086,2.45474 5.3973,0 5.3969,0 7.6936,-1.47208 z m -507.5985,18.09929 -3.6746,-3.67465 -2.5038,-4.94073 -2.5037,-4.94075 0,-2.47794 0,-2.47794 1.2471,-0.77065 1.2468,-0.77062 8.5178,-0.0396 8.5177,-0.0396 0.603,-20.03006 0.6029,-20.03002 1.2297,-5.24339 1.2294,-5.24337 -0.3303,-12.95645 -0.3302,-12.95642 -2.218,-2.35792 -2.2182,-2.35792 0.579,-2.21426 0.5792,-2.21429 -1.6834,-0.64599 -1.6835,-0.64599 -2.1859,1.15024 -2.1856,1.15022 -5.0077,-1.91511 -5.0075,-1.91514 -0.3409,-1.69513 -0.3411,-1.69512 2.2234,-2.36663 2.2232,-2.36663 8.6336,-3.17211 8.6334,-3.17213 5.571,-0.11834 5.5709,-0.11833 2.7751,1.81826 2.775,1.81827 1.4186,3.39518 1.4188,3.39519 0,5.03969 0,5.03968 1.2518,-5.6e-4 1.2519,-5.5e-4 5.7276,-6.40481 5.7274,-6.4048 4.3534,-2.1074 4.3532,-2.10743 4.6094,0 c 2.5351,0 5.3569,0.2868 6.2703,0.63734 l 1.6609,0.63736 0.9,2.36715 0.9,2.36717 2.8419,0 2.842,0 2.5671,2.75412 2.5672,2.75414 4.13,8.54796 4.1298,8.54796 -0.058,1.96782 c -0.032,1.0823 -0.8611,5.0499 -1.8432,8.81693 l -1.7855,6.8491 -4.4162,1.97306 -4.416,1.97309 -2.6609,2.54273 -2.6609,2.54272 -5.9786,-2.68302 -5.9785,-2.68299 -1.0875,-2.38676 -1.0874,-2.38675 0.8298,-0.51291 0.8299,-0.5129 1.7914,1.97939 1.7913,1.9794 2.6579,0 2.6579,0 1.6402,-1.25189 1.6403,-1.25187 1.541,-4.50675 c 0.8477,-2.47873 1.5476,-5.31592 1.5557,-6.30492 l 0.02,-1.79814 -2.5038,-2.50377 c -1.3769,-1.37706 -2.5037,-2.85538 -2.5037,-3.28515 0,-0.42979 -1.0431,-1.76131 -2.3178,-2.95899 l -2.318,-2.17766 -5.4714,0 -5.4711,0 -2.248,1.5745 -2.2477,1.57447 -2.8431,5.6864 c -1.5637,3.12754 -3.5697,7.93979 -4.4579,10.69392 -0.8883,2.75412 -2.7665,11.75791 -4.1743,20.00841 l -2.5593,15.00088 -0.1006,7.76178 -0.1006,7.76174 1.716,2.61896 1.7161,2.61896 4.3039,1.90387 4.3041,1.9039 0.5448,2.08337 0.5448,2.08338 2.0541,-1.09933 2.0542,-1.09932 1.9642,1.22669 1.9644,1.2267 2.4882,-1.33175 2.4885,-1.33174 2.8314,0.70672 c 1.557,0.38869 3.5071,1.28707 4.3335,1.99644 0.8263,0.70932 2.7508,1.58648 4.2769,1.94919 l 2.7746,0.65952 2.09,-1.11852 2.09,-1.11853 0.9583,0.95837 0.9584,0.95837 -1.7159,1.71591 -1.716,1.71595 -2.03,-0.53089 -2.0304,-0.53092 -2.5776,1.38723 c -3.9168,2.10795 -12.0997,4.52656 -15.3147,4.52656 l -2.866,0 -4.2166,2.18251 -4.2163,2.18249 -11.0166,0.7417 c -6.059,0.40792 -15.3344,1.06433 -20.6118,1.45866 l -9.5953,0.71699 -3.6749,-3.67465 z m 581.1058,0.75797 c -1.4303,-1.57486 -3.3456,-3.97772 -4.2562,-5.33963 l -1.6559,-2.47623 0,-2.78167 0,-2.78165 1.9634,-1.96357 1.9636,-1.96357 5.5464,-1.61236 5.5464,-1.61237 0.571,-2.27486 0.5709,-2.27487 -0.3192,-35.96191 -0.3193,-35.96192 -2.0572,-3.50184 -2.057,-3.50185 -3.4512,-2.32572 -3.4512,-2.3257 0,-1.18296 0,-1.18294 9.5144,-3.22939 c 5.2327,-1.77617 10.4155,-3.24086 11.5173,-3.25485 l 2.0029,-0.0254 2.5951,3.25486 2.5953,3.25485 1.2813,4.006 c 0.7048,2.20332 1.6629,4.41924 2.1288,4.92427 l 0.8475,0.91824 7.2941,-7.57619 7.2941,-7.57621 4.2564,-1.14229 4.2562,-1.14229 3.7777,1.01719 3.7774,1.0172 4.2496,3.1251 4.2494,3.12514 2.3906,4.15867 c 1.3148,2.28728 2.6873,5.58352 3.0495,7.32503 l 0.6591,3.16632 -1.129,6.34794 c -0.621,3.49136 -2.2663,10.11034 -3.6561,14.70885 l -2.5269,8.36094 -5.9235,6.07232 -5.9234,6.07235 -0.6152,-0.6152 -0.615,-0.61518 1.7134,-6.9919 1.7132,-6.9919 -0.5697,-10.2587 -0.5697,-10.25871 -1.0109,-1.01093 -1.0109,-1.0109 -5.5615,1.75307 -5.5613,1.75308 -3.0842,4.19262 c -1.6963,2.30596 -3.7066,5.64342 -4.4673,7.41662 l -1.3834,3.224 -2.5031,16.49264 -2.5034,16.49263 0,6.12179 0,6.12178 1.4653,2.83341 c 0.8058,1.55837 2.0453,3.05005 2.7541,3.31487 0.709,0.26479 6.697,0.15939 13.307,-0.23429 l 12.018,-0.71574 0.9052,0.81019 0.9053,0.8102 -2.7457,3.59985 c -1.5104,1.97993 -4.2061,4.55705 -5.9908,5.72695 l -3.2449,2.12709 -2.1651,3.30286 -2.1648,3.3029 -2.6195,1.71619 -2.6192,1.71622 -9.6596,0.72474 c -5.3126,0.39861 -13.9409,1.041 -19.1738,1.4275 l -9.5143,0.70272 -2.6005,-2.86341 z m 85.545,1.01252 c -1.2008,-1.03011 -3.3417,-3.62585 -4.7571,-5.76833 l -2.574,-3.89538 0,-1.94028 0,-1.94029 2.806,-2.80587 2.8058,-2.80588 4.147,-0.70065 4.1471,-0.70061 0.9668,-1.17359 0.9668,-1.17358 0.2134,-35.05257 0.2135,-35.05257 -1,-4.79324 -1,-4.79323 -1.7634,-1.94866 -1.7637,-1.94866 -5.119,-1.90699 -5.1192,-1.90698 -0.2731,-1.36614 -0.2731,-1.36616 12.6981,-2.26597 12.698,-2.26598 2.5975,1.65201 c 1.4287,0.9086 3.5955,2.82965 4.8151,4.26898 l 2.2176,2.61697 0.6482,3.25488 0.648,3.25489 1.1403,-0.008 1.1405,-0.008 4.706,-5.90218 4.7062,-5.9022 5.5058,-2.69372 5.5057,-2.6937 3.3084,0.7127 c 1.8197,0.39199 4.6605,1.38588 6.313,2.20867 3.8557,1.91984 8.3254,6.07535 10.0188,9.31466 l 1.3274,2.5391 -1.4295,12.98418 -1.4294,12.98418 -2.9661,4.50676 c -1.6313,2.47871 -3.737,5.97147 -4.6796,7.76164 l -1.7134,3.25489 -1.6215,0 -1.6213,0 -0.097,-8.26239 -0.097,-8.26239 -1.7027,-4.23716 -1.703,-4.23715 -3.2719,-2.02223 -3.2721,-2.02223 -2.5126,0 -2.5126,0 -2.0033,4.75713 c -1.1018,2.61642 -2.7086,7.01052 -3.5707,9.76463 -1.7006,5.43146 -5.1896,26.71679 -6.2597,38.18673 l -0.6661,7.14018 1.1702,3.54587 c 0.6434,1.95023 1.7107,3.98729 2.3708,4.52686 l 1.2006,0.98099 5.5084,-0.98561 c 3.0296,-0.54209 8.2122,-1.1072 11.5173,-1.25578 3.3049,-0.14852 6.7519,-0.59185 7.6603,-0.98506 l 1.6515,-0.71487 0.7088,1.14718 0.7092,1.14716 -6.5837,6.32953 -6.5836,6.32951 -1.5645,3.91021 -1.5648,3.91022 -3.2055,1.89363 -3.2059,1.89366 -9.5341,0.70749 c -5.2438,0.38913 -13.5902,1.03257 -18.5478,1.42981 l -9.0133,0.72231 -2.1834,-1.87293 z m 113.8508,0.0849 -5.5082,-1.51265 -5.3221,-3.6435 -5.3218,-3.64352 -3.9264,-4.5911 -3.9262,-4.59108 -2.9185,-6.00902 -2.9183,-6.009 -1.1032,-5.30718 -1.1033,-5.30719 0.02,-9.2146 0.02,-9.2146 0.9738,-6.73346 0.9739,-6.73346 2.1505,-6.28606 c 2.8308,-8.27376 7.4219,-17.39474 11.1152,-22.08145 l 2.9767,-3.77737 6.2812,-4.48224 c 3.4548,-2.46526 8.744,-5.60978 11.7543,-6.98784 l 5.4728,-2.50555 7.4235,-0.6051 7.4233,-0.60512 6.9882,1.64411 6.9881,1.64413 4.1842,2.45202 4.184,2.45202 3.0964,3.90957 3.0964,3.90955 3.4764,7.37059 c 1.9121,4.05382 4.194,10.07466 5.0711,13.37962 l 1.5947,6.00902 0.5599,9.51426 0.5596,9.51428 -1.6202,8.51274 c -0.8914,4.68205 -2.0826,10.16458 -2.6473,12.18341 l -1.0269,3.67065 -3.4817,2.05421 -3.4816,2.05423 0,1.54962 c 0,0.85229 0.5559,2.43976 1.2353,3.52772 l 1.2353,1.9781 -1.9864,3.7028 c -1.0925,2.03656 -4.0869,6.00419 -6.6541,8.81697 l -4.6677,5.11413 -5.3472,2.95217 -5.3476,2.95216 -12.5187,0.24283 -12.5187,0.24283 -5.5082,-1.51265 z m 23.9925,-20.73598 5.5233,-1.25187 3.8322,-3.81794 3.8322,-3.81792 1.9464,-4.54139 1.9469,-4.5414 1.1037,-7.11355 1.1036,-7.11356 -0.6659,-14.07143 c -0.3663,-7.73928 -0.6476,-16.16501 -0.6249,-18.72383 l 0.04,-4.65238 -2.705,-1.77246 c -1.4881,-0.97488 -5.1037,-3.72605 -8.0353,-6.11378 l -5.3297,-4.3413 -3.2846,0 -3.2846,0 -5.1417,1.52693 -5.1417,1.52696 -3.226,2.71451 -3.2261,2.71453 -3.8092,5.89339 -3.8091,5.89338 -0.6109,3.63579 c -0.3361,1.99969 -0.8211,4.40448 -1.0777,5.34397 -0.2568,0.93952 -2.2456,3.86065 -4.4195,6.49142 l -3.9525,4.78321 0,1.54843 0,1.54842 1.8483,1.58264 1.8484,1.58264 0.6879,5.8539 0.6881,5.85388 4.3295,9.13966 4.3296,9.13965 2.9353,2.09016 c 3.4645,2.46685 8.516,4.04527 13.3486,4.17085 1.9117,0.0497 5.9614,-0.47302 8.9993,-1.16153 z m 89.3973,19.7018 -5.1805,-2.58163 -2.5752,-3.06038 c -1.4164,-1.68318 -3.414,-4.70452 -4.4392,-6.71403 l -1.8639,-3.65366 -1.0928,-5.91082 -1.0924,-5.91079 -0.07,-26.60626 -0.071,-26.60624 -0.783,-2.00299 -0.7831,-2.00302 -7.2277,0 -7.2276,0 -3.9369,-4.2176 -3.9366,-4.2176 0,-2.55612 0,-2.55613 -1.1596,-1.85675 -1.1594,-1.85674 0.5458,-1.42276 0.546,-1.42277 5.9082,-3.09704 5.9081,-3.09705 5.7789,-1.29321 5.7787,-1.2932 1.195,-2.0813 1.1948,-2.08128 -0.2568,-20.35846 -0.257,-20.35848 -1.0644,-1.98896 -1.0644,-1.98897 1.1936,-1.43823 1.1936,-1.43823 1.9998,0 1.9998,0 5.8604,3.56002 5.8606,3.56004 2.1081,2.9605 2.1081,2.9605 0.583,15.16987 0.583,15.16988 1.8602,1.86013 1.8601,1.86015 2.7388,-0.65813 c 1.5064,-0.36196 4.3162,-1.43875 6.2442,-2.39289 l 3.5053,-1.73475 7.8675,-0.72226 7.8676,-0.72225 3.6497,-1.55511 3.6496,-1.55513 5.2472,-0.10204 5.247,-0.10203 0.4906,1.2795 0.4909,1.27952 -1.7318,1.41163 c -0.9525,0.77642 -3.8457,3.13001 -6.4293,5.23026 -2.5836,2.10022 -8.5203,7.23339 -13.1925,11.40703 l -8.4949,7.58841 -8.8407,3.34325 c -4.8622,1.8388 -9.5165,3.96013 -10.3428,4.71409 l -1.5021,1.37081 -0.3226,27.75758 -0.3228,27.75759 0.6492,5.29056 0.649,5.29056 2.3242,2.70184 2.3239,2.70185 3.0783,-1.48265 3.0783,-1.48262 11.3995,-11.15265 c 6.2698,-6.13398 12.3765,-11.6756 13.5709,-12.31472 l 2.1713,-1.16208 0.8549,0.52842 0.8549,0.52842 -0.8096,4.27504 c -0.4454,2.35126 -1.5293,5.98382 -2.4088,8.07235 l -1.5991,3.79733 -3.1083,2.7772 -3.1081,2.77718 1.159,2.16576 1.159,2.16575 -1.5726,3.77851 -1.5727,3.7785 -4.2088,4.38089 c -2.3151,2.4095 -6.2127,5.6769 -8.6615,7.2609 l -4.4527,2.87999 -5.616,0 -5.6163,0 -5.1808,-2.58162 z"
       id="path4376"
       inkscape:connector-curvature="0" />
    <path
       style="display:inline;fill:#241c1c;fill-opacity:1;stroke:#301b0b;stroke-width:1.10178;stroke-opacity:1"
       d="m 816.60149,515.73249 c -4.37385,-1.3199 -12.29795,-7.6857 -15.39752,-12.3696 -2.68341,-4.0548 -3.02106,-5.5274 -2.81724,-12.2872 0.39551,-13.12425 6.85171,-23.754 22.04103,-36.28983 13.17044,-10.86952 12.35638,-9.50173 12.35638,-20.76173 0,-5.45382 -0.30059,-9.91603 -0.66796,-9.91603 -0.36749,0 -4.70575,3.14894 -9.64059,6.99765 -4.93494,3.84871 -10.47003,7.76892 -12.30025,8.7116 -4.1435,2.13424 -14.62787,4.12282 -21.73665,4.12282 -5.02885,0 -5.75981,-0.38133 -11.24587,-5.86741 -3.22708,-3.22706 -6.98288,-8.05402 -8.34634,-10.72658 -2.43506,-4.77303 -2.4665,-5.33809 -1.77284,-31.86863 0.83287,-31.85646 -0.38149,-56.36017 -3.04872,-61.51803 -1.54559,-2.98893 -2.41347,-3.50131 -5.91473,-3.49212 -2.25694,0.005 -6.78686,1.2599 -10.06673,2.78664 -3.27975,1.52673 -6.50247,2.57869 -7.16158,2.33769 -0.659,-0.24102 2.76811,-4.42386 7.61594,-9.2952 10.31349,-10.36345 12.05741,-11.03495 29.61946,-11.40464 10.58905,-0.22291 12.16608,-0.0129 13.48845,1.7954 1.20174,1.64343 1.48212,10.11305 1.42003,42.89015 -0.0792,41.63445 0.52347,49.72605 3.98639,53.55255 2.48337,2.74411 3.91947,2.71634 9.64862,-0.18658 5.71286,-2.89473 23.25712,-14.80466 25.1266,-17.05728 0.7989,-0.96257 1.26831,-4.13418 1.12749,-7.61655 -0.13278,-3.28195 0.32525,-7.02596 1.01776,-8.32003 0.91069,-1.70158 0.92596,-2.6861 0.0551,-3.55672 -0.7988,-0.79879 -1.20394,-9.48788 -1.20394,-25.82366 v -24.61982 l -2.81435,-2.81439 c -2.95346,-2.95345 -2.91203,-2.95116 -15.23994,-0.84586 -6.1181,1.0448 -4.36202,-0.9742 4.90728,-5.64221 14.11108,-7.1062 29.6182,-7.43163 37.51453,-0.78725 l 3.17702,2.67328 v 27.13667 27.13666 l 6.39733,-6.33054 c 3.51847,-3.48179 6.74705,-5.98073 7.17455,-5.5532 2.04197,2.04191 -0.81222,9.94459 -8.69398,24.07233 -4.11618,7.37815 -4.33125,8.26171 -4.96307,20.38295 -0.36324,6.96878 -1.01695,13.47416 -1.45274,14.45645 -1.68871,3.80654 2.58999,2.79339 10.2763,-2.43335 12.33594,-8.38839 12.95855,-6.55653 1.45309,4.27494 l -10.19148,9.59445 -0.0241,27.54425 c -0.0275,30.94636 -0.11854,31.39556 -8.54007,41.99806 -5.36143,6.75 -9.44629,9.413 -18.98025,12.3738 -9.08271,2.8207 -13.1516,3.4609 -16.18265,2.5461 z m 14.52997,-26.162 c 2.03336,-1.5467 2.18693,-2.8299 1.98746,-16.61595 -0.11891,-8.21688 -0.54022,-15.25573 -0.93641,-15.64184 -0.81084,-0.79027 -6.80751,5.76826 -11.62839,12.71786 -4.59328,6.62137 -4.25402,13.36496 0.97371,19.35813 2.05527,2.3562 6.63124,2.4429 9.60363,0.1818 z m 437.20074,-18.9514 c -2.794,-1.77657 -3.3455,-6.52038 -2.461,-21.17001 0.4939,-8.18074 0.9242,-15.41795 0.9564,-16.08271 0.032,-0.66475 1.0501,-2.35197 2.262,-3.74936 2.55,-2.94022 2.7524,-4.51891 0.8264,-6.44662 -0.9211,-0.92191 -1.4384,-5.64704 -1.5618,-14.26807 -0.2475,-17.30135 -1.9315,-33.93023 -3.6451,-35.99499 -0.769,-0.92661 -2.0043,-1.68476 -2.7453,-1.68476 -0.7408,0 -2.2776,-1.02836 -3.415,-2.28525 -1.3162,-1.45433 -2.9808,-2.11078 -4.5779,-1.80546 -1.9714,0.37685 -2.5094,-0.0194 -2.5076,-1.84643 0,-3.24984 8.9965,-9.10793 16.3924,-10.6775 9.0582,-1.92231 18.3715,-0.90374 21.6422,2.36694 3.3195,3.31944 4.9341,11.19478 4.9286,24.03867 0,7.59685 -0.451,10.22308 -2.2438,13.16365 l -2.2395,3.67343 2.2436,0.58675 c 2.1767,0.56921 2.2438,1.35924 2.2438,26.42363 0,25.71438 -0.013,25.85363 -2.6967,29.37251 -1.8189,2.38458 -2.3832,4.0432 -1.7331,5.09479 0.5964,0.96504 0.3891,2.6701 -0.5441,4.47454 -1.1821,2.28608 -3.2457,3.43055 -9.5601,5.30211 -8.8558,2.62485 -9.6534,2.72926 -11.5644,1.51414 z M 473.97237,439.11383 c -5.02193,-5.73624 -9.73003,-17.04818 -9.5739,-23.0027 0.1415,-5.39665 4.82068,-10.73334 9.41096,-10.73334 h 3.09919 v -20.93385 c 0,-20.19934 0.0773,-20.93385 2.20357,-20.93385 3.002,0 3.002,-4.40463 0,-5.18968 -2.11801,-0.55387 -2.20357,-1.50285 -2.20357,-24.44537 v -23.86915 l 3.45419,-1.30381 3.45418,-1.30381 -3.45418,-3.9341 -3.45419,-3.93411 v -20.2796 c 0,-11.25599 0.45414,-20.56026 1.02063,-20.91036 0.62486,-0.3862 0.61652,-2.01349 -0.0215,-4.19671 -0.94504,-3.2338 -0.53351,-15.28228 0.73272,-21.45311 0.87939,-4.28546 -2.75337,-6.69301 -9.1689,-6.07657 -4.59478,0.44149 -5.92235,0.13744 -7.86002,-1.80022 -1.2823,-1.28232 -2.33146,-3.33292 -2.33146,-4.55691 0,-3.34312 5.08472,-15.18982 8.36616,-19.49201 l 2.88946,-3.78826 15.0306,0.77338 c 16.01039,0.82379 26.73596,3.00898 37.88392,7.71831 3.79214,1.60194 12.84237,5.1166 20.11164,7.81033 7.26926,2.69373 13.61175,5.29258 14.09441,5.77525 1.97738,1.97738 -2.81144,3.37102 -17.38898,5.06058 -11.93569,1.38333 -15.91166,1.49361 -17.78111,0.4931 -1.93862,-1.03753 -2.90458,-0.94073 -4.9567,0.49661 -1.40186,0.98191 -3.92592,1.78529 -5.60902,1.78529 h -3.06019 v 14.86471 c 0,13.67148 -0.17689,14.97519 -2.20357,16.24085 -2.65996,1.66118 -2.83451,3.68886 -0.43323,5.03268 1.5131,0.84677 1.23294,1.49324 -1.92812,4.4492 -3.03275,2.83598 -3.48137,3.80332 -2.49239,5.37421 0.66332,1.05366 2.39863,2.20137 3.85624,2.55047 2.34263,0.56107 2.63004,1.20323 2.47679,5.53397 -0.0953,2.69457 -0.39716,12.58415 -0.67067,21.97684 -0.27349,9.39269 -0.97666,19.06083 -1.56258,21.48474 -0.79095,3.2722 -0.66883,5.445 0.47426,8.43734 1.14363,2.99379 1.44839,8.43031 1.18508,21.14017 -0.35428,17.10008 -0.35629,17.11182 -3.49146,20.38101 -3.48991,3.63914 -3.30624,7.23964 0.41902,8.21381 1.99061,0.52056 2.16706,1.56192 2.16706,12.78945 0,6.77837 0.45525,12.22275 1.02206,12.22275 3.7657,0 18.48508,2.58217 19.49696,3.42029 0.6808,0.56389 3.29723,1.19989 5.81429,1.41328 2.51705,0.21341 5.54529,1.26479 6.72942,2.33641 1.76987,1.60171 2.4533,1.69914 3.84086,0.54757 1.20007,-0.99598 3.9924,-1.21076 9.66126,-0.74315 4.38535,0.36172 14.49364,0.82223 22.4629,1.02335 8.15282,0.20573 15.13952,0.8864 15.97583,1.55641 0.95911,0.76839 3.63568,0.8975 7.54609,0.36398 3.33289,-0.45473 6.81984,-0.43347 7.74875,0.0472 0.92892,0.4807 3.72587,0.3303 6.21542,-0.33421 4.10833,-1.09656 5.11766,-0.9102 10.92577,2.01735 6.14304,3.0964 9.39182,6.22074 7.95868,7.65387 -0.98872,0.98873 -19.15107,5.87022 -23.86491,6.41416 -2.21413,0.25552 -6.5047,1.04925 -9.5346,1.76391 -5.37216,1.26709 -10.60046,1.80826 -28.64633,2.96503 -6.68973,0.42881 -9.33197,0.17852 -10.96215,-1.03845 -1.90799,-1.42435 -2.4618,-1.372 -4.95803,0.46881 -2.33269,1.7202 -5.80515,2.21846 -20.43862,2.93272 -13.7646,0.67183 -17.94763,0.55148 -19.08442,-0.54913 -1.85092,-1.79195 -2.49809,-1.76936 -5.2877,0.18456 -2.03071,1.42233 -19.84831,3.91476 -27.98561,3.91476 -2.27802,0 -4.21029,-1.27394 -7.32029,-4.82633 z m 442.29538,1.49015 c -5.73696,-3.8 -12.90335,-12.57521 -16.19379,-19.82922 -2.05872,-4.53843 -2.23431,-7.11794 -2.21079,-32.47458 0.0184,-20.28718 0.40685,-28.41543 1.47283,-30.84989 1.21517,-2.77521 1.19211,-3.8117 -0.1438,-6.46239 -1.02684,-2.03748 -1.45998,-5.53432 -1.22149,-9.86048 l 0.36944,-6.7034 -6.29725,-3.7374 c -4.60866,-2.73523 -8.08845,-3.89982 -12.97727,-4.34312 -3.67398,-0.33316 -6.96797,-1.07167 -7.31985,-1.64117 -1.07596,-1.74078 5.04663,-7.16689 11.02356,-9.76978 4.31335,-1.87842 8.39914,-2.57009 17.22348,-2.91573 10.46097,-0.40972 12.0411,-0.20795 16.50149,2.10722 8.75182,4.54251 9.3299,6.58103 9.78748,34.512 0.24217,14.78069 -0.13542,28.96846 -0.96761,36.3588 -1.74058,15.45742 -0.48914,22.80481 4.74385,27.85206 4.24819,4.09749 8.73634,5.97067 14.19808,5.9259 4.40643,-0.0362 20.7213,-6.11186 22.0975,-8.22919 0.46814,-0.72027 0.72648,-5.97625 0.57406,-11.67993 -0.1795,-6.71898 0.14461,-10.51259 0.92068,-10.77435 0.84012,-0.28339 0.87775,-1.95679 0.12613,-5.60548 -0.58945,-2.86081 -1.27898,-15.96356 -1.5325,-29.11718 l -0.46081,-23.91568 -3.15626,-2.65588 c -1.73598,-1.46073 -6.41949,-3.53916 -10.40771,-4.61874 -3.98821,-1.07955 -7.25133,-2.33231 -7.25133,-2.78392 0,-2.09968 18.16105,-7.80343 29.90603,-9.39246 6.0326,-0.81618 11.34871,1.30759 14.67643,5.86331 2.56658,3.51377 2.67481,5.15342 3.70647,56.14886 0.66932,33.08313 0.92951,36.78622 2.70934,38.56237 4.38076,4.37165 17.57396,1.1371 29.87086,-7.32337 9.6164,-6.61622 11.3964,-3.89253 4.5915,7.02545 -6.4699,10.3808 -20.403,23.60056 -29.6953,28.17511 -7.76551,3.82295 -19.46746,6.26507 -24.25862,5.06258 -3.19446,-0.80174 -8.70269,-5.53242 -9.6096,-8.25298 -0.39124,-1.17398 -2.6881,-0.74428 -10.66937,1.9961 -11.0488,3.79361 -24.43694,6.68275 -30.96788,6.68275 -2.74424,0 -5.8042,-1.11472 -9.15798,-3.33619 z m 155.39705,1.2854 c -8.1885,-3.31505 -12.5246,-6.42539 -19.1316,-13.72387 -6.8319,-7.54668 -13.8795,-20.82337 -16.4595,-31.00711 -3.6508,-14.41072 -0.9804,-33.70443 7.0048,-50.60858 7.4572,-15.78651 16.3359,-25.46647 28.7923,-31.39058 5.4732,-2.60309 7.2859,-2.87712 18.7301,-2.83154 10.2526,0.0409 13.9248,0.51391 19.243,2.47901 3.6149,1.3357 6.7136,2.42855 6.8862,2.42855 1.034,0 0,-39.68483 -1.1258,-42.9695 -1.531,-4.48938 -5.2535,-5.67131 -8.5283,-2.70773 -2.721,2.46258 -14.5256,1.82402 -17.2846,-0.935 -1.725,-1.72498 -1.7049,-1.95291 0.3088,-3.51416 5.4779,-4.24703 20.2743,-10.54519 27.664,-11.77531 10.2959,-1.71393 15.7029,-0.1913 22.1243,6.23014 l 4.6762,4.67612 -0.026,70.87695 c -0.026,68.66931 0.041,70.94348 2.1083,73.01208 3.8102,3.81034 7.3161,2.72943 14.9628,-4.61333 3.8654,-3.71162 7.5331,-6.74842 8.1507,-6.74842 0.6176,0 1.4236,-0.94724 1.791,-2.10499 1.0593,-3.33761 6.1725,-6.05918 12.1509,-6.46765 10.8135,-0.73883 11.2642,-0.64009 17.0121,3.72663 l 5.6536,4.29513 -0.5409,5.50891 c -0.4801,4.89043 -1.134,6.0434 -5.8239,10.26986 -4.7788,4.30655 -5.7,4.70788 -9.6515,4.20476 -4.3504,-0.55389 -7.2003,-2.95364 -7.2003,-6.06301 0,-1.23276 0.6163,-1.05526 2.5086,0.72261 3.2839,3.08494 6.1907,2.2439 9.6322,-2.78678 2.9302,-4.28332 2.9867,-6.32719 0.2596,-9.37734 -4.2387,-4.74048 -13.5161,0.43483 -18.5352,10.33962 -7.6994,15.19378 -14.7915,23.98629 -22.5116,27.90862 -10.5468,5.35856 -28.2658,6.79553 -33.4557,2.71317 -1.5966,-1.25596 -2.903,-3.04429 -2.903,-3.97412 0,-1.16305 -0.6017,-1.45509 -1.9281,-0.93591 -18.1606,7.10815 -34.9193,9.04265 -44.5524,5.14277 z m 18.3905,-22.18842 c 9.6053,0 16.6767,-5.69876 23.8109,-19.18911 1.9496,-3.68652 4.0818,-7.05948 4.7384,-7.49548 0.8425,-0.55955 0.7885,-1.44634 -0.1836,-3.01494 -0.9811,-1.58302 -1.3773,-8.52235 -1.3773,-24.12424 0,-20.2337 -0.1678,-22.11539 -2.2036,-24.70339 -1.212,-1.54076 -2.2034,-4.30989 -2.2034,-6.15363 0,-3.90301 -2.9087,-6.21946 -5.0815,-4.04681 -0.8941,0.89434 -3.3001,1.19322 -6.8551,0.85162 -4.2695,-0.41023 -6.7932,0.0761 -11.4425,2.20454 -11.3599,5.20072 -18.9163,16.14112 -22.8478,33.07933 -4.5175,19.46403 -3.9472,33.83928 1.6711,42.11844 1.4784,2.17846 2.688,4.83567 2.688,5.90489 0,1.06922 0.7103,2.90647 1.5785,4.08276 1.2652,1.71417 1.8556,1.86532 2.9749,0.76148 1.9692,-1.94248 2.9019,-1.71975 3.7305,0.89095 0.6733,2.12137 0.8896,2.15703 3.3408,0.5509 1.4415,-0.94453 4.8893,-1.71731 7.6617,-1.71731 z m 287.0089,22.77203 c 0,-0.80695 4.4737,-10.4731 9.9416,-21.48032 13.7528,-27.6851 13.1878,-25.09907 5.6776,-25.98127 -8.2799,-0.97262 -18.8722,-3.7304 -21.9544,-5.71596 -1.6396,-1.0562 -2.4791,-2.68556 -2.4791,-4.81188 0,-1.7682 -0.4593,-3.49876 -1.0206,-3.84569 -0.6029,-0.37259 -0.6341,-1.97836 -0.075,-3.92333 0.9891,-3.44875 1.0093,-3.42491 -6.0313,-7.13474 -1.1937,-0.62896 -2.8779,-2.40425 -3.7428,-3.9451 -1.3542,-2.41262 -1.3574,-3.25027 -0.023,-6.03384 2.8221,-5.88792 5.4447,-6.33582 24.9248,-4.25671 9.5537,1.01965 20.5675,1.91068 24.4751,1.98003 l 7.105,0.12611 4.6767,-14.32317 c 2.5722,-7.87774 4.7048,-15.19081 4.7393,-16.25128 0.034,-1.06046 0.7948,-1.92812 1.6897,-1.92812 0.895,0 2.3276,-1.11555 3.1833,-2.479 1.443,-2.29927 3.8825,-17.92597 4.6006,-29.47266 0.1697,-2.72692 0.8644,-7.12454 1.5436,-9.7725 1.1567,-4.50839 5.5247,-35.6473 5.0791,-36.20805 -0.1124,-0.14113 -1.9031,0.23072 -3.9799,0.82634 -5.6432,1.61847 -21.9195,1.30635 -28.1353,-0.53955 -7.7824,-2.31115 -15.9375,-11.27948 -13.6067,-14.9636 1.5284,-2.41575 1.2384,-6.11842 -0.5988,-7.64305 -0.9023,-0.74884 -1.4166,-1.72373 -1.143,-2.1664 0.2736,-0.44271 -0.019,-2.67392 -0.6494,-4.95826 -1.0519,-3.80981 -0.8948,-4.41639 1.9001,-7.33363 2.8766,-3.00251 3.5549,-3.18028 12.1342,-3.18028 10.1585,0 13.881,1.04444 17.8428,5.00619 3.2436,3.24362 5.3523,3.40413 8.3946,0.63907 2.2437,-2.03902 19.7096,-5.64526 27.3416,-5.64526 4.0276,0 16.8264,-2.91918 20.3315,-4.63721 1.8865,-0.92463 3.0392,-0.79084 5.1603,0.59886 6.7629,4.43128 9.8252,11.50861 13.3269,30.80048 1.7135,9.44085 1.7014,9.76391 -0.4894,12.84056 -2.707,3.8016 -2.8993,7.28801 -0.4537,8.22645 1.3532,0.51929 1.6446,1.60627 1.1869,4.42664 -0.5373,3.31149 -0.2548,3.88407 2.4741,5.01443 2.8679,1.18789 3.2484,2.1276 5.5046,13.59519 4.3365,22.04083 11.2226,48.77273 16.9966,65.9816 l 5.6543,16.85155 5.7816,0.33302 c 3.1797,0.18316 5.7812,0.81965 5.7812,1.41438 0,0.59476 -1.7353,2.10523 -3.8562,3.35661 -2.1209,1.25139 -3.8563,2.63042 -3.8563,3.06454 0,0.43411 2.3552,5.47806 5.2335,11.20876 6.6291,13.19806 14.7039,25.22559 29.4063,43.80155 11.0683,13.98419 14.1329,20.00568 10.1822,20.00568 -3.7767,0 -28.8021,-17.52103 -40.5179,-28.36765 -7.5172,-6.95966 -16.9953,-18.28281 -23.9919,-28.66189 -4.0956,-6.07576 -4.9091,-6.75988 -6.8212,-5.7365 -1.1942,0.63906 -3.7749,1.32715 -5.735,1.52906 -7.1173,0.73316 -24.5251,4.16977 -25.5994,5.05379 -0.6061,0.49861 -4.3246,2.04416 -8.2634,3.43454 -7.1637,2.52872 -9.1149,2.66187 -31.84,2.173 -4.9352,-0.10617 -7.6049,0.35081 -8.9009,1.52367 -1.0182,0.92145 -2.6687,1.67535 -3.6679,1.67535 -1.0215,0 -4.5211,3.85987 -7.9969,8.82008 -3.3991,4.85104 -6.5931,8.56501 -7.0976,8.25324 -1.8606,-1.14998 -4.6165,3.05382 -4.0052,6.10978 0.862,4.31024 -7.0399,13.43062 -18.3361,21.16362 -4.8289,3.30571 -7.3997,3.84864 -7.3997,1.56273 z m 100.1891,-77.95346 c 3.2926,-0.55519 9.3662,-1.00944 13.4968,-1.00944 4.1305,0 7.5101,-0.17674 7.5101,-0.39278 0,-0.21603 -2.9365,-6.53752 -6.5257,-14.04772 -8.9118,-18.64707 -8.8704,-18.36806 -3.4629,-23.37127 3.6862,-3.41054 4.2493,-4.45493 3.2576,-6.0426 -1.7046,-2.72964 -6.6547,-4.90036 -8.0326,-3.52247 -3.8358,3.83582 -5.8357,-0.55856 -12.5354,-27.54432 l -0.9574,-3.85624 -0.7435,4.58609 c -1.1704,7.21967 -7.8891,29.75232 -12.3355,41.36866 -2.9731,7.76766 -4.6501,10.74248 -6.2988,11.17362 -1.808,0.4728 -2.1241,1.20158 -1.6183,3.73048 0.4501,2.25089 -0.2888,4.82059 -2.6039,9.05408 -1.778,3.25115 -3.2327,6.03333 -3.2327,6.18265 0,0.14932 2.4784,0.61235 5.5077,1.02898 3.0292,0.41662 5.7905,1.21494 6.136,1.77404 0.3454,0.55908 1.0781,0.73854 1.6277,0.39878 0.5498,-0.33975 2.3658,0.0982 4.0357,0.97307 3.0259,1.58539 4.8095,1.53396 16.7751,-0.48361 z m 178.5617,78.63898 c -0.909,-0.33421 -2.5203,-1.36351 -3.5807,-2.28733 -1.7803,-1.5509 -1.9282,-5.30716 -1.9282,-48.99446 0,-40.42977 -0.2483,-47.83787 -1.7058,-50.90943 -3.2259,-6.7978 -11.0279,-7.87111 -23.5302,-3.23693 -4.2536,1.57663 -8.2162,3.44784 -8.8057,4.15822 -0.9432,1.13647 -3.1189,41.7637 -2.5444,47.51338 0.121,1.21197 0.3701,6.91039 0.5538,12.66317 0.3241,10.16258 0.4156,10.4884 3.2183,11.47408 2.3662,0.83218 4.6031,0.18996 12.4462,-3.57345 10.8232,-5.19328 10.4517,-5.08105 10.4517,-3.15889 0,1.60891 -6.7657,8.27203 -11.1365,10.96759 -1.9201,1.18415 -3.0853,3.0791 -3.5127,5.71232 -0.8626,5.31588 -7.231,12.81219 -13.6753,16.09742 -4.1813,2.13154 -6.9716,2.69274 -13.4116,2.6974 -7.636,0.006 -8.2742,-0.18346 -10.467,-3.10058 -2.1084,-2.80508 -2.369,-4.80071 -2.6851,-20.5689 -0.2847,-14.20316 -0.028,-18.08584 1.3772,-20.80257 1.8497,-3.57653 2.3501,-8.37171 0.7723,-7.39651 -0.5253,0.32464 -1.1869,-9.6861 -1.4703,-22.24606 -0.5636,-24.97479 -0.5557,-24.94046 -8.2412,-35.63824 -4.0992,-5.70577 -4.7094,-6.08758 -6.6411,-4.15583 -1.6476,1.6476 -14.9161,0.15648 -14.3395,-1.61148 0.7364,-2.25759 14.3501,-9.50027 23.3838,-12.44035 16.6738,-5.42668 28.3933,-3.38663 33.0535,5.75369 1.2118,2.37713 2.2984,4.49957 2.4143,4.71654 0.116,0.21695 3.0908,-1.33945 6.6107,-3.45869 7.8397,-4.72009 21.195,-9.60627 26.2563,-9.60627 5.0104,0 15.1794,3.89979 19.3754,7.4304 l 3.3895,2.85209 6.7847,-2.52575 c 9.6328,-3.58588 25.68,-7.75674 29.8441,-7.75674 7.6963,0 17.8182,4.12597 24.1427,9.84125 6.9516,6.28192 7.4176,8.58791 7.2935,36.11155 -0.089,19.61706 -0.4586,25.63998 -1.7279,28.09464 -1.4238,2.75348 -1.419,3.54686 0.041,6.68167 0.9108,1.95646 1.7967,6.48068 1.9685,10.05383 0.4569,9.50005 1.868,9.94938 13.1994,4.20374 5.0319,-2.55136 9.6446,-4.52992 10.2507,-4.39682 2.2071,0.48482 0.3096,3.73342 -5.3275,9.12139 -3.1764,3.03598 -7.1229,8.31006 -8.7914,11.74902 -5.4603,11.25355 -15.4963,19.15263 -25.8997,20.38476 -4.1405,0.49037 -5.7061,0.17076 -7.9126,-1.61522 l -2.7509,-2.22654 -0.7673,-46.09768 c -0.4221,-25.35374 -1.0515,-47.64098 -1.3988,-49.52721 -0.3473,-1.88624 -1.6133,-4.31815 -2.8134,-5.40423 -1.2002,-1.08609 -2.182,-2.58085 -2.182,-3.32169 0,-3.0888 -2.7957,-3.69658 -12.707,-2.76241 -5.4337,0.51215 -11.1191,1.49859 -12.634,2.1921 l -2.7546,1.26092 -0.3743,20.60647 c -0.5268,28.98773 -0.4701,33.57261 0.5623,45.39656 l 0.9139,10.46693 5.3189,0.3393 c 4.0921,0.26105 6.9511,-0.42446 12.3951,-2.97201 5.9986,-2.80712 7.0761,-3.03276 7.0761,-1.48193 0,2.11924 -11.4009,13.2611 -14.9502,14.61057 -1.3195,0.50164 -2.75,2.31045 -3.1791,4.01956 -0.4289,1.70909 -2.5878,5.47806 -4.7973,8.37545 -3.1853,4.17703 -5.1478,5.60366 -9.4757,6.88892 -5.4624,1.62219 -11.8687,1.98125 -14.9743,0.83927 z m 142.0654,-0.26308 c -7.5556,-2.29272 -15.9367,-9.47906 -17.0694,-14.63624 -0.3878,-1.76534 -2.4587,-6.27238 -4.6019,-10.01565 -2.9049,-5.0736 -3.9812,-8.34835 -4.2282,-12.86575 -0.1825,-3.33288 -0.8507,-9.5304 -1.4853,-13.77226 -1.7895,-11.96526 -1.4279,-18.47443 1.5432,-27.77801 1.5074,-4.71945 2.7468,-9.61416 2.7545,-10.87715 0.018,-2.96524 7.4698,-13.70682 14.7179,-21.21589 13.7779,-14.27407 29.5713,-23.22813 42.6169,-24.16153 6.6177,-0.47349 8.3829,-0.17053 13.4491,2.30807 6.9826,3.41627 11.4461,7.84591 16.8469,16.71938 3.8568,6.33673 3.9997,6.93031 3.4488,14.32316 -0.3161,4.24186 0.081,12.67049 0.8825,18.73029 0.8998,6.80254 1.0765,11.7396 0.4621,12.90439 -0.5473,1.03759 -3.1608,3.37646 -5.8075,5.19746 -3.8805,2.6699 -10.5434,4.72793 -34.4141,10.62992 -24.6151,6.08605 -30.0194,7.77292 -32.0809,10.01347 -1.3635,1.48195 -2.4772,3.53446 -2.4749,4.56114 0.012,2.93576 4.2127,9.1078 10.0949,14.81261 6.4933,6.29767 9.3648,6.62386 20.4252,2.32022 4.1179,-1.60229 9.3356,-2.85398 11.5947,-2.78151 2.9547,0.0948 4.4124,-0.43835 5.1946,-1.89992 0.5981,-1.11738 0.8818,-2.23709 0.6308,-2.48823 -0.5906,-0.59052 16.2356,-10.85095 17.7947,-10.85095 2.127,0 -1.7884,15.67936 -4.5561,18.24434 -1.3489,1.25001 -3.3352,5.08001 -4.4146,8.51112 -1.7243,5.48231 -2.5125,6.50047 -6.5033,8.40104 -2.4976,1.18946 -7.7007,2.96751 -11.5623,3.95121 -6.8358,1.74136 -7.085,1.7287 -9.436,-0.48019 -3.2774,-3.07888 -7.8201,-2.88165 -11.1876,0.48574 -2.8556,2.85566 -7.0068,3.41739 -12.6347,1.70972 z m 29.4705,-77.13414 c 5.6465,-1.53731 10.7208,-3.75821 13.5597,-5.93472 l 4.537,-3.47807 -0.3385,-10.74477 c -0.1863,-5.90963 -0.013,-10.74369 0.3846,-10.74237 1.8817,0.007 -0.696,-4.23901 -3.6241,-5.96862 -4.0091,-2.36826 -6.1897,-1.88989 -14.6564,3.21508 -4.8169,2.90439 -7.3086,3.77412 -9.4596,3.30172 -1.9596,-0.43041 -3.7525,0.0328 -5.4511,1.40838 -2.1664,1.75417 -2.3447,2.39848 -1.2369,4.46844 1.1375,2.12563 0.669,3.29531 -3.8673,9.65234 -4.6795,6.55754 -10.2631,17.88191 -10.3291,20.94846 -0.028,1.26096 12.8715,-1.33123 30.4817,-6.12587 z m 89.2829,75.50984 c -3.5,-1.43922 -7.2185,-3.26084 -8.2634,-4.04807 -4.8189,-3.63014 -9.0623,-8.19244 -9.0689,-9.75032 0,-0.94158 -0.9949,-3.19939 -2.2021,-5.01732 -3.0324,-4.56677 -12.6231,-24.42002 -14.2936,-29.58801 -1.7147,-5.30547 -1.0965,-25.41996 0.8408,-27.35729 0.7365,-0.73642 1.339,-2.63095 1.339,-4.21003 0,-5.24285 4.6142,-16.99118 8.2191,-20.92742 1.9427,-2.12093 6.7137,-7.82265 10.6023,-12.67049 8.757,-10.91667 8.7479,-10.9097 17.7943,-13.8385 9.4848,-3.07075 24.3703,-2.64131 34.411,0.99276 3.6149,1.30834 6.7137,2.37882 6.8861,2.37882 0.1726,0 0.3137,-6.25057 0.3137,-13.89015 0,-11.68625 0.2538,-13.79281 1.5989,-13.27662 0.8794,0.33743 2.6995,-0.27781 4.0449,-1.3672 l 2.4461,-1.98073 -4.4829,-4.05009 c -2.4657,-2.22754 -4.7633,-5.15381 -5.1059,-6.50283 -1.0118,-3.98478 -4.9233,-5.66771 -13.2829,-5.715 -4.1912,-0.0237 -7.7701,-0.53892 -7.9532,-1.1449 -0.4133,-1.3673 11.2066,-9.90569 16.4782,-12.10825 5.8806,-2.45707 15.2388,-3.24492 19.9754,-1.68168 5.9745,1.97168 11.4329,7.20626 12.4743,11.96248 0.9701,4.43037 0.8856,19.42327 -0.2707,48.10229 -0.9394,23.29531 -0.8327,33.40162 0.4415,41.86771 0.5473,3.63588 1.0368,16.59931 1.088,28.80764 l 0.093,22.19695 3.8945,3.41948 c 5.191,4.55768 10.4244,4.56569 19.4102,0.0295 10.6924,-5.39747 10.254,-2.80304 -1.7333,10.26048 -12.5451,13.67108 -16.4927,16.24893 -21.8926,14.29625 -5.4258,-1.96203 -6.2895,-1.68775 -6.2895,1.99776 0,3.89244 -2.9377,5.48164 -10.133,5.48164 -3.6891,0 -5.12,-0.67774 -8.0982,-3.8356 l -3.6176,-3.83563 -5.077,2.24586 c -13.0702,5.78155 -30.3723,6.95658 -40.5864,2.75633 z m 27.1515,-23.09093 c 4.9715,-2.07722 11.1571,-8.69334 15.6662,-16.75663 3.6552,-6.53593 3.7606,-7.07024 3.7606,-19.05824 0,-10.8605 0.2806,-12.7133 2.3491,-15.51113 l 2.3491,-3.17736 -2.3491,-2.9864 c -1.8225,-2.317 -2.3491,-4.51399 -2.3491,-9.80112 0,-6.23173 -0.3393,-7.21109 -3.9668,-11.449 -2.1817,-2.54889 -5.4958,-5.42499 -7.3644,-6.39133 -5.0427,-2.60766 -14.0571,-1.37362 -20.8608,2.85575 -3.3939,2.10973 -6.3195,3.16566 -7.8237,2.82375 -1.3217,-0.30038 -3.2975,0.14505 -4.391,0.98982 -1.6049,1.23986 -1.8063,2.23762 -1.045,5.17569 0.7301,2.81773 0.3755,5.04531 -1.5709,9.86369 -4.3394,10.74321 -6.2173,20.71294 -6.3184,33.54249 -0.088,11.15842 0.1504,12.61994 3.0025,18.42827 4.4937,9.1509 10.437,12.7209 21.4521,12.88553 3.2009,0.0479 7.4578,-0.59737 9.4596,-1.43378 z M 672.4749,442.11781 c -1.21196,-0.27215 -3.19517,-0.94283 -4.40714,-1.4904 -1.21195,-0.54758 -4.05232,-1.73185 -6.31193,-2.63171 -9.38834,-3.73876 -22.49952,-19.97949 -29.53668,-36.58692 -3.22822,-7.61847 -3.70972,-10.00116 -3.86866,-19.14394 -0.0999,-5.74335 0.21254,-11.94089 0.69418,-13.77227 0.48164,-1.8314 1.11503,-4.96713 1.40754,-6.96831 0.29251,-2.00115 0.98368,-4.23226 1.53597,-4.95801 0.55228,-0.72573 1.64933,-3.05484 2.43789,-5.17576 8.04747,-21.64487 16.0427,-29.8294 35.61162,-36.45487 5.68862,-1.926 7.4133,-2.03207 15.97583,-0.98258 10.59357,1.29841 16.18643,2.54322 22.82018,5.07908 4.96292,1.89715 9.36514,5.55611 9.36514,7.78395 0,0.81633 1.23951,2.049 2.75446,2.73924 1.51494,0.69028 2.75444,1.59934 2.75444,2.02018 0,0.42085 2.20563,2.15935 4.90143,3.86337 6.67531,4.21935 10.12515,12.4383 12.10939,28.84849 0.23482,1.94245 0.75851,4.06819 1.16376,4.72382 1.28886,2.08536 0.59014,21.24059 -1.02443,28.08405 -1.09146,4.62629 -2.4214,7.2823 -4.46107,8.90862 -2.30019,1.8342 -2.75606,2.91422 -2.18692,5.18186 1.54938,6.17307 -11.6494,20.01752 -25.70946,26.96724 -8.11005,4.0087 -8.75215,4.13949 -21.09332,4.29711 -7.00076,0.0895 -13.72027,-0.0601 -14.93222,-0.33224 z m 17.14962,-21.31683 c 9.84554,-2.73506 19.38411,-16.65676 21.98746,-32.09111 1.74792,-10.36287 0.84463,-34.72777 -1.57374,-42.44914 -3.30567,-10.55435 -13.30069,-15.73795 -24.17618,-12.53819 -6.09137,1.7922 -15.65671,11.68148 -20.16682,20.84981 -2.8426,5.77854 -4.32036,7.47009 -8.25731,9.45195 -5.819,2.92927 -6.59816,5.56614 -2.58926,8.76274 l 2.97494,2.37215 -1.37811,8.22317 c -1.78981,10.6798 -0.73775,18.53161 3.68515,27.50312 2.87861,5.83902 4.13993,7.30264 6.83534,7.93157 1.81795,0.42418 5.04066,1.24165 7.16158,1.81658 5.23109,1.41803 10.77914,1.47795 15.49695,0.16735 z m 575.70838,-79.44507 c -2.8308,-2.22674 -2.8787,-2.43403 -1.1667,-5.04702 2.4115,-3.68035 1.3786,-6.11065 -2.214,-5.20899 -2.3222,0.58282 -2.7787,0.30993 -2.7787,-1.66099 0,-3.96991 2.9637,-9.72543 6.0488,-11.74685 3.6969,-2.42226 20.2902,-2.7817 25.6638,-0.55588 4.0423,1.67437 5.5639,5.47232 3.7698,9.40985 -3.4425,7.55541 -16.2318,17.10144 -22.9386,17.12166 -1.8877,0.005 -4.7608,-1.03462 -6.3844,-2.31178 z m 175.6347,-155.74253 c 0,-0.88638 2.8534,-3.54938 6.341,-5.91778 12.563,-8.53134 16.7963,-15.41735 16.7963,-27.32114 0,-3.19643 0.5551,-7.02992 1.2335,-8.51885 1.0556,-2.31666 0.8089,-3.26393 -1.7104,-6.56683 -3.6953,-4.8448 -6.1433,-5.9052 -6.9053,-2.9912 -0.4919,1.88117 -1.2132,2.08227 -5.4068,1.50748 -6.4685,-0.88659 -13.4773,1.87171 -20.4167,8.03479 -6.1753,5.4847 -8.2857,5.95568 -9.7249,2.1704 -0.651,-1.71211 -2.2365,-2.92214 -4.4726,-3.41324 -5.6182,-1.23398 -12.0705,-13.04992 -12.0867,-22.13448 -0.012,-5.16562 3.5216,-7.62275 15.7381,-10.95153 4.4342,-1.20821 5.7546,-1.19027 8.2634,0.11236 3.2261,1.67505 6.8637,1.09475 8.2741,-1.32002 1.1442,-1.95871 7.2393,-1.89914 15.9557,0.15591 18.2206,4.29575 28.2645,14.68079 31.2959,32.35898 2.1901,12.77133 -2.0959,25.5757 -9.0249,26.96146 -2.6198,0.52397 -3.2999,1.23331 -3.2999,3.44198 0,5.13043 -6.631,9.55386 -20.5017,13.67603 -9.289,2.76061 -10.3481,2.83386 -10.3481,0.71573 z"
       id="path475" />
  </g>
</svg>
