<?xml version="1.0" encoding="UTF-8" standalone="no"?>
<!-- Created with Inkscape (http://www.inkscape.org/) -->

<svg
   xmlns:dc="http://purl.org/dc/elements/1.1/"
   xmlns:cc="http://creativecommons.org/ns#"
   xmlns:rdf="http://www.w3.org/1999/02/22-rdf-syntax-ns#"
   xmlns:svg="http://www.w3.org/2000/svg"
   xmlns="http://www.w3.org/2000/svg"
   xmlns:xlink="http://www.w3.org/1999/xlink"
   xmlns:sodipodi="http://sodipodi.sourceforge.net/DTD/sodipodi-0.dtd"
   xmlns:inkscape="http://www.inkscape.org/namespaces/inkscape"
   id="svg2"
   version="1.1"
   inkscape:version="0.92.4 (unknown)"
   width="2481"
   height="3503"
   sodipodi:docname="E28P05.svg">
  <metadata
     id="metadata8">
    <rdf:RDF>
      <cc:Work
         rdf:about="">
        <dc:format>image/svg+xml</dc:format>
        <dc:type
           rdf:resource="http://purl.org/dc/dcmitype/StillImage" />
        <dc:title />
      </cc:Work>
    </rdf:RDF>
  </metadata>
  <defs
     id="defs6" />
  <sodipodi:namedview
     pagecolor="#ffffff"
     bordercolor="#666666"
     borderopacity="1"
     objecttolerance="10"
     gridtolerance="10"
     guidetolerance="10"
     inkscape:pageopacity="0"
     inkscape:pageshadow="2"
     inkscape:window-width="1920"
     inkscape:window-height="1027"
     id="namedview4"
     showgrid="false"
     inkscape:zoom="0.51498715"
     inkscape:cx="512.18872"
     inkscape:cy="1596.1563"
     inkscape:window-x="0"
     inkscape:window-y="0"
     inkscape:window-maximized="1"
     inkscape:current-layer="layer1" />
  <g
     inkscape:groupmode="layer"
     id="layer2"
     inkscape:label="artwork"
     sodipodi:insensitive="true">
    <image
       sodipodi:absref="/mnt/Media/Komiksy/webcomics/ep28_The-Festivities/lang/pl/../gfx_Pepper-and-Carrot_by-David-Revoy_E28P05.png"
       xlink:href="../gfx_Pepper-and-Carrot_by-David-Revoy_E28P05.png"
       width="2481"
       height="3503"
       id="image10"
       x="0"
       y="0" />
  </g>
  <g
     inkscape:groupmode="layer"
     id="layer3"
     inkscape:label="speechbubbles">
    <path
       style="fill:#ffffff;fill-rule:evenodd;stroke:none;stroke-width:0.92832726px;stroke-linecap:butt;stroke-linejoin:miter;stroke-opacity:1"
       d="m 157.52442,195.41365 c 24.20553,-22.60357 60.20542,-34.13598 95.32605,-41.47678 32.86157,-6.99363 67.10176,-7.16061 100.81265,-5.64238 42.74906,2.00269 86.04868,4.46845 127.27554,14.37517 12.60467,2.89674 24.47312,8.1848 32.3106,16.81737 33.18909,29.23158 57.22843,67.29383 56.41726,107.58555 -3.33899,59.21215 -5.00934,118.49898 -9.7572,177.65551 -1.44125,19.47925 -7.06886,40.02142 -24.78355,54.33944 -20.34309,17.20762 -47.31577,28.82043 -76.05847,33.97592 -45.73102,8.71098 -93.01103,11.7853 -139.93635,11.12161 -18.34055,-1.59617 -36.67219,-3.72512 -54.95913,-5.84626 -39.18493,-5.41839 -81.26783,-13.75011 -109.36924,-38.06719 -22.312,-19.38833 -34.66728,-45.55056 -36.96184,-71.68838 0.17359,-54.96672 4.76462,-109.85458 7.79528,-164.75173 1.08057,-14.81887 0.23352,-29.96213 6.80423,-44.12308 5.9832,-15.50499 13.75107,-30.76592 25.08417,-44.27477 z"
       id="path1006"
       inkscape:connector-curvature="0" />
    <path
       style="fill:#ffffff;fill-rule:evenodd;stroke:none;stroke-width:1px;stroke-linecap:butt;stroke-linejoin:miter;stroke-opacity:1"
       d="M 333.27358,346.17986 C 395.90659,299.25879 684.65819,123.37673 1012.4941,266.75583 759.55842,143.42811 491.69794,181.66189 330.00219,300.24071 Z"
       id="path1008"
       inkscape:connector-curvature="0"
       sodipodi:nodetypes="cccc" />
    <path
       style="fill:#ffffff;fill-rule:evenodd;stroke:none;stroke-width:1px;stroke-linecap:butt;stroke-linejoin:miter;stroke-opacity:1"
       d="m 1819.6761,521.16397 c 116.7092,-13.15033 182.4608,-4.93138 226.8431,52.60129 44.3824,57.53267 34.5196,90.40848 23.0131,80.54574 -11.5065,-9.86274 -23.0131,-151.22873 -249.8562,-133.14703 z"
       id="path1011"
       inkscape:connector-curvature="0" />
    <path
       style="fill:#ffffff;fill-rule:evenodd;stroke:none;stroke-width:1px;stroke-linecap:butt;stroke-linejoin:miter;stroke-opacity:1"
       d="m 2110.627,552.39599 c 87.1209,1.64379 133.1471,13.15032 151.2288,29.58823 18.0817,16.4379 42.7385,60.82025 34.5196,87.12089 -8.219,26.30065 -39.451,69.03921 -129.8595,65.75163 -90.4085,-3.28759 -156.1601,-19.72549 -177.5294,-52.6013 -21.3692,-32.87581 8.219,-101.91501 42.7386,-113.42155 34.5196,-11.50653 39.451,-14.79411 78.9019,-16.4379 z"
       id="path1013"
       inkscape:connector-curvature="0" />
    <path
       style="fill:#ffffff;fill-rule:evenodd;stroke:none;stroke-width:1px;stroke-linecap:butt;stroke-linejoin:miter;stroke-opacity:1"
       d="m 1971.4467,713.84959 c 62.0121,-22.29208 137.3224,-10.45923 157.4764,-8.97309 20.1538,1.48614 76.6898,3.75159 114.4275,5.20149 17.4497,0.67043 81.226,6.78015 86.0144,39.46573 2.7533,18.79378 0,48.49759 -43.4084,54.88521 -43.4084,6.38761 -113.2512,6.38761 -167.5118,5.58916 -54.2605,-0.79846 -115.9921,0 -148.5484,-14.37214 -32.5563,-14.37214 -41.8581,-60.99043 1.5503,-81.79636 z"
       id="path1015"
       inkscape:connector-curvature="0"
       sodipodi:nodetypes="cssssssc" />
    <path
       style="fill:#ffffff;fill-rule:evenodd;stroke:none;stroke-width:1px;stroke-linecap:butt;stroke-linejoin:miter;stroke-opacity:1"
       d="m 310.91724,1056.1025 c 81.88918,1.1071 146.88059,1.1071 165.07819,12.1771 18.1976,11.0702 53.29296,36.5314 54.59278,60.8857 1.29984,24.3542 -1.29982,131.3128 -25.99656,153.3647 -24.69673,22.052 -68.89089,39.6935 -113.08505,47.0441 -44.19416,7.3507 -132.58248,7.3507 -162.47853,0 -29.89605,-7.3506 -81.88917,-32.3428 -88.38832,-57.3349 -6.49914,-24.9923 -20.26413,-111.5969 -1.29982,-158.5722 13.62436,-29.0135 45.49398,-42.0663 83.18899,-48.7083 37.69502,-6.6421 88.38832,-8.8562 88.38832,-8.8562 z"
       id="path1017"
       inkscape:connector-curvature="0"
       sodipodi:nodetypes="ccscssccsc" />
    <path
       style="fill:#ffffff;fill-rule:evenodd;stroke:none;stroke-width:1px;stroke-linecap:butt;stroke-linejoin:miter;stroke-opacity:1"
       d="m 464.5495,1496.1462 c 57.17532,-75.7573 57.17532,-148.6559 4.28815,-244.4245 -52.88717,-95.7687 -80.04545,-97.1981 -80.04545,-97.1981 l -4.28815,52.8872 c 0,0 168.6672,128.6445 80.04545,288.7354 z"
       id="path1019"
       inkscape:connector-curvature="0" />
    <path
       style="fill:#ffffff;fill-rule:evenodd;stroke:none;stroke-width:1.00006592px;stroke-linecap:butt;stroke-linejoin:miter;stroke-opacity:1"
       d="m 1951.0697,1187.5787 c -2.9976,-61.6542 74.9622,-113.4231 177.3659,-113.8655 102.4034,-0.4422 191.45,25.3429 190.888,89.0205 -0.5621,63.6776 -18.0684,117.4204 -149.7426,117.7299 -131.6743,0.3096 -212.9844,-16.8288 -218.5113,-92.8849 z"
       id="path1021"
       inkscape:connector-curvature="0" />
    <path
       style="fill:#ffffff;fill-rule:evenodd;stroke:none;stroke-width:1px;stroke-linecap:butt;stroke-linejoin:miter;stroke-opacity:1"
       d="m 2223.4008,1243.0202 c 9.6724,22.1135 -3.7615,81.471 -16.6581,91.9459 -8.9785,11.3235 4.9225,16.0942 9.6724,15.1304 4.2989,-2.9097 37.6151,-18.04 42.9887,-9.3111 5.3736,8.7291 -48.8996,51.2105 -42.9887,57.0298 5.911,5.8194 27.9427,-8.1471 30.6294,-3.4916 2.6868,4.6554 -4.2988,17.4581 -16.6581,25.6052 20.957,-6.9833 30.0921,-18.6219 25.7932,-26.769 -4.2988,-8.1471 -12.3592,-6.9833 -17.7328,-5.8194 10.2098,-8.7291 49.9875,-38.2659 39.7777,-53.9782 -10.2098,-15.7122 -36.0426,-12.0787 -41.9536,-9.169 14.5087,-12.8026 28.0737,-53.8649 21.6254,-85.8713 -6.4483,-32.0065 -34.4955,4.6983 -34.4955,4.6983 z"
       id="path1023"
       inkscape:connector-curvature="0"
       sodipodi:nodetypes="ccccsccccccsc" />
    <path
       style="fill:#ffffff;fill-rule:evenodd;stroke:none;stroke-width:1px;stroke-linecap:butt;stroke-linejoin:miter;stroke-opacity:1"
       d="m 826.50706,2344.762 c 9.78488,-40.2573 52.11355,-55.2416 84.72982,-52.849 32.61627,2.3928 81.25075,23.5682 76.17711,56.2586 -5.07364,32.6904 -43.85076,50.2768 -71.17595,51.6227 -27.32519,1.3458 -89.15114,-3.9181 -89.73098,-55.0323 z"
       id="path1025"
       inkscape:connector-curvature="0" />
    <path
       style="fill:#ffffff;fill-rule:evenodd;stroke:none;stroke-width:1px;stroke-linecap:butt;stroke-linejoin:miter;stroke-opacity:1"
       d="m 891.05439,2384.5928 c 8.97846,20.1058 2.08504,29.2013 -7.53169,42.2988 -9.61674,13.0974 -3.91478,26.6928 6.89341,31.8628 10.80819,5.1701 22.50997,25.1418 21.87169,42.5477 -2.42546,-50.8389 -20.08451,-46.2816 -21.10575,-59.2259 -1.02125,-12.9442 20.21215,-24.3759 22.42485,-32.7054 2.2127,-8.3295 0.51063,-29.1055 -5.14877,-40.9009 -5.65941,-11.7954 -17.40374,16.1229 -17.40374,16.1229 z"
       id="path1027"
       inkscape:connector-curvature="0"
       sodipodi:nodetypes="cccccssc" />
  </g>
  <g
     inkscape:groupmode="layer"
     id="layer1"
     inkscape:label="txt">
    <text
       xml:space="preserve"
       style="font-style:normal;font-variant:normal;font-weight:normal;font-stretch:normal;line-height:0%;font-family:Lavi;-inkscape-font-specification:Lavi;text-align:center;letter-spacing:0px;word-spacing:0px;text-anchor:middle;fill:#000000;fill-opacity:1;stroke:none"
       x="341.55533"
       y="233.12556"
       id="text4246"><tspan
         sodipodi:role="line"
         style="font-size:45px;line-height:1.20000005"
         x="341.55533"
         y="233.12556"
         id="tspan833">Wszyscy moi</tspan><tspan
         sodipodi:role="line"
         style="font-size:45px;line-height:1.20000005"
         x="341.55533"
         y="287.12558"
         id="tspan63">przyjaciele odnoszą</tspan><tspan
         sodipodi:role="line"
         style="font-size:45px;line-height:1.20000005"
         x="341.55533"
         y="341.12558"
         id="tspan65">wielkie sukcesy. Cza-</tspan><tspan
         sodipodi:role="line"
         style="font-size:45px;line-height:1.20000005"
         x="341.55533"
         y="395.12558"
         id="tspan67">sami chciałabym</tspan><tspan
         sodipodi:role="line"
         style="font-size:45px;line-height:1.20000005"
         x="341.55533"
         y="449.12558"
         id="tspan69">mieć choć ułamek</tspan><tspan
         sodipodi:role="line"
         style="font-size:45px;line-height:1.20000005"
         x="341.55533"
         y="503.12558"
         id="tspan71">tego, co oni.</tspan></text>
    <text
       xml:space="preserve"
       style="font-style:normal;font-variant:normal;font-weight:normal;font-stretch:normal;line-height:0%;font-family:Lavi;-inkscape-font-specification:Lavi;text-align:center;letter-spacing:0px;word-spacing:0px;text-anchor:middle;fill:#000000;fill-opacity:1;stroke:none"
       x="2146.603"
       y="624.04468"
       id="text4246-3"><tspan
         sodipodi:role="line"
         style="font-size:45px;line-height:1.20000005"
         x="2146.603"
         y="624.04468"
         id="tspan898">Coriander</tspan><tspan
         sodipodi:role="line"
         style="font-size:45px;line-height:1.20000005"
         x="2146.603"
         y="678.04468"
         id="tspan75">jest królową.</tspan></text>
    <text
       xml:space="preserve"
       style="font-style:normal;font-variant:normal;font-weight:normal;font-stretch:normal;line-height:0%;font-family:Lavi;-inkscape-font-specification:Lavi;text-align:center;letter-spacing:0px;word-spacing:0px;text-anchor:middle;fill:#000000;fill-opacity:1;stroke:none"
       x="2140.8701"
       y="770.26129"
       id="text4246-3-9"><tspan
         sodipodi:role="line"
         style="font-size:45px;line-height:1.20000005"
         x="2140.8701"
         y="770.26129"
         id="tspan79">Saffron gwiazdą.</tspan></text>
    <text
       xml:space="preserve"
       style="font-style:normal;font-variant:normal;font-weight:normal;font-stretch:normal;line-height:0%;font-family:Lavi;-inkscape-font-specification:Lavi;text-align:center;letter-spacing:0px;word-spacing:0px;text-anchor:middle;fill:#000000;fill-opacity:1;stroke:none"
       x="328.76392"
       y="1133.9608"
       id="text4246-3-9-7"><tspan
         sodipodi:role="line"
         style="font-size:45px;line-height:1.20000005"
         x="328.76392"
         y="1133.9608"
         id="tspan923-9">Nawet Shichimi</tspan><tspan
         sodipodi:role="line"
         style="font-size:45px;line-height:1.20000005"
         x="328.76392"
         y="1187.9608"
         id="tspan950">wygląda idealnie</tspan><tspan
         sodipodi:role="line"
         style="font-size:45px;line-height:1.20000005"
         x="328.76392"
         y="1241.9608"
         id="tspan87">ze swoimi kole-</tspan><tspan
         sodipodi:role="line"
         style="font-size:45px;line-height:1.20000005"
         x="328.76392"
         y="1295.9608"
         id="tspan91">żankami.</tspan></text>
    <text
       xml:space="preserve"
       style="font-style:normal;font-variant:normal;font-weight:normal;font-stretch:normal;line-height:0%;font-family:Lavi;-inkscape-font-specification:Lavi;text-align:center;letter-spacing:0px;word-spacing:0px;text-anchor:middle;fill:#000000;fill-opacity:1;stroke:none"
       x="2136.6509"
       y="1135.1573"
       id="text4246-3-9-7-3"><tspan
         sodipodi:role="line"
         style="font-size:45px;line-height:1.20000005"
         x="2136.6509"
         y="1135.1573"
         id="tspan981">A ja?</tspan><tspan
         sodipodi:role="line"
         style="font-size:45px;line-height:1.20000005"
         x="2136.6509"
         y="1189.1573"
         id="tspan95">Czym mam się</tspan><tspan
         sodipodi:role="line"
         style="font-size:45px;line-height:1.20000005"
         x="2136.6509"
         y="1243.1573"
         id="tspan97">pochwalić?</tspan></text>
    <text
       xml:space="preserve"
       style="font-style:normal;font-variant:normal;font-weight:normal;font-stretch:normal;line-height:0%;font-family:Lavi;-inkscape-font-specification:Lavi;text-align:center;letter-spacing:0px;word-spacing:0px;text-anchor:middle;fill:#000000;fill-opacity:1;stroke:none"
       x="906.7486"
       y="2355.8938"
       id="text4246-3-9-7-3-2"><tspan
         sodipodi:role="line"
         style="font-size:45px;line-height:1.20000005"
         x="906.7486"
         y="2355.8938"
         id="tspan981-1">Tym?</tspan></text>
  </g>
</svg>
