{
   "id": 2,
   "original-language": "en",
   "supporters": 21,
   "published": "2014-07-25",
   "pluxmlID": 237,
   "background-color": "#FFFFFF",
   "credits": {
      "art":[
         "David Revoy <https://framagit.org/Deevad>"
      ],
      "scenario":[
         "David Revoy <https://framagit.org/Deevad>"
      ]
   },
   "software":[
      {
         "name": "Krita",
         "version": "2.8.5"
      },
      {
         "name": "Inkscape",
         "version": "0.91"
      },
      {
         "name": "Ubuntu GNOME",
         "version": "14.04 LTS"
      }
   ]
}
