<?xml version="1.0" encoding="UTF-8" standalone="no"?>
<!-- Created with Inkscape (http://www.inkscape.org/) -->

<svg
   id="svg2"
   version="1.1"
   inkscape:version="1.2.2 (b0a8486541, 2022-12-01)"
   width="2481"
   height="3503"
   sodipodi:docname="E38P06.svg"
   xmlns:inkscape="http://www.inkscape.org/namespaces/inkscape"
   xmlns:sodipodi="http://sodipodi.sourceforge.net/DTD/sodipodi-0.dtd"
   xmlns:xlink="http://www.w3.org/1999/xlink"
   xmlns="http://www.w3.org/2000/svg"
   xmlns:svg="http://www.w3.org/2000/svg"
   xmlns:rdf="http://www.w3.org/1999/02/22-rdf-syntax-ns#"
   xmlns:cc="http://creativecommons.org/ns#"
   xmlns:dc="http://purl.org/dc/elements/1.1/">
  <metadata
     id="metadata8">
    <rdf:RDF>
      <cc:Work
         rdf:about="">
        <dc:format>image/svg+xml</dc:format>
        <dc:type
           rdf:resource="http://purl.org/dc/dcmitype/StillImage" />
        <dc:title />
      </cc:Work>
    </rdf:RDF>
  </metadata>
  <defs
     id="defs6">
    <filter
       style="color-interpolation-filters:sRGB"
       id="filter4375-4-1-1-1-9-5-8-8-3-2"
       inkscape:label="Dzing-sound"
       x="-0.042384687"
       y="-0.068815637"
       width="1.0716512"
       height="1.1779833">
      <feFlood
         id="feFlood4377-7-9-0-8-1-7-3-1-6-6"
         flood-opacity="1"
         flood-color="rgb(224,116,57)"
         result="flood"
         radius="5.0999999999999996" />
      <feComposite
         id="feComposite4379-3-8-8-2-77-4-1-0-7-1"
         in2="SourceGraphic"
         in="flood"
         operator="in"
         result="composite1"
         baseFrequency="0.053999999999999999 0.053999999999999999" />
      <feMorphology
         id="feMorphology4393-1-0-49-8-9-3-0-1-5-8"
         operator="dilate"
         radius="5.1272503082614058"
         result="result3" />
      <feComposite
         id="feComposite4385-9-5-7-0-8-8-7-5-3-7"
         in2="result3"
         in="SourceGraphic"
         operator="over"
         result="fbSourceGraphic"
         numOctaves="4" />
      <feColorMatrix
         result="fbSourceGraphicAlpha"
         in="fbSourceGraphic"
         values="0 0 0 -1 0 0 0 0 -1 0 0 0 0 -1 0 0 0 0 1 0"
         id="feColorMatrix4544-9-5-9" />
      <feTurbulence
         id="feTurbulence4546-3-6-2"
         type="fractalNoise"
         numOctaves="4.4123222748815163"
         seed="172"
         baseFrequency="0.062 0.054054054054054057"
         result="turbulence" />
      <feDisplacementMap
         id="feDisplacementMap4548-8-2-0"
         in2="turbulence"
         in="fbSourceGraphic"
         scale="10.781991"
         yChannelSelector="G"
         xChannelSelector="R"
         result="fbSourceGraphic" />
      <feColorMatrix
         result="fbSourceGraphicAlpha"
         in="fbSourceGraphic"
         values="0 0 0 -1 0 0 0 0 -1 0 0 0 0 -1 0 0 0 0 1 0"
         id="feColorMatrix4670-7-9-2"
         scale="10.800000000000001" />
      <feFlood
         id="feFlood4672-4-1-3"
         flood-opacity="1"
         flood-color="rgb(45,8,0)"
         result="flood"
         in="fbSourceGraphic"
         dx="-2.3999999999999999" />
      <feComposite
         id="feComposite4674-8-2-7"
         in2="fbSourceGraphic"
         in="flood"
         operator="in"
         result="composite1" />
      <feGaussianBlur
         id="feGaussianBlur4676-3-7-5"
         in="composite1"
         stdDeviation="0"
         result="blur" />
      <feOffset
         id="feOffset4678-6-0-9"
         dx="-2.3696682464454994"
         dy="3.1000000000000001"
         result="offset" />
      <feComposite
         id="feComposite4680-4-9-2"
         in2="offset"
         in="fbSourceGraphic"
         operator="over"
         result="composite2" />
    </filter>
    <filter
       y="-0.060929735"
       height="1.1218595"
       inkscape:label="scream"
       inkscape:menu="Distort"
       inkscape:menu-tooltip="Create a turbulent contour around"
       style="color-interpolation-filters:sRGB;"
       id="filter1267"
       x="-0.02249935"
       width="1.0449987">
      <feMorphology
         radius="7"
         operator="dilate"
         result="result8"
         in="SourceGraphic"
         id="feMorphology1257" />
      <feComposite
         in2="result8"
         result="result10"
         in="SourceGraphic"
         operator="arithmetic"
         k1="0.5"
         k3="0.5"
         id="feComposite1259" />
      <feTurbulence
         result="result11"
         type="fractalNoise"
         numOctaves="3"
         baseFrequency="0.07"
         id="feTurbulence1261" />
      <feDisplacementMap
         result="result12"
         in2="result11"
         in="result10"
         xChannelSelector="R"
         scale="10"
         id="feDisplacementMap1263" />
      <feComposite
         operator="arithmetic"
         result="result13"
         in="SourceGraphic"
         in2="result12"
         k1="0.25"
         k2="0.25"
         k3="0.75"
         id="feComposite1265" />
    </filter>
  </defs>
  <sodipodi:namedview
     pagecolor="#ffffff"
     bordercolor="#666666"
     borderopacity="1"
     objecttolerance="10"
     gridtolerance="10"
     guidetolerance="10"
     inkscape:pageopacity="0"
     inkscape:pageshadow="2"
     inkscape:window-width="1920"
     inkscape:window-height="1056"
     id="namedview4"
     showgrid="false"
     inkscape:zoom="0.60835004"
     inkscape:cx="1221.3363"
     inkscape:cy="931.2073"
     inkscape:window-x="1920"
     inkscape:window-y="0"
     inkscape:window-maximized="1"
     inkscape:current-layer="layer1"
     inkscape:showpageshadow="0"
     inkscape:pagecheckerboard="0"
     inkscape:deskcolor="#d1d1d1" />
  <g
     inkscape:groupmode="layer"
     id="layer2"
     inkscape:label="artwork"
     sodipodi:insensitive="true">
    <image
       xlink:href="../gfx_Pepper-and-Carrot_by-David-Revoy_E38P06.png"
       y="0"
       x="0"
       id="image10"
       height="3503"
       width="2481" />
  </g>
  <g
     inkscape:groupmode="layer"
     id="layer3"
     inkscape:label="speechbubbles">
    <path
       style="fill:none;fill-rule:evenodd;stroke:#000000;stroke-width:1px;stroke-linecap:butt;stroke-linejoin:miter;stroke-opacity:1"
       d="m 1679.3786,3635.0783 c 95.3398,-14.7941 226.8431,8.219 299.1699,32.8759 72.3268,24.6568 205.1108,52.0948 236.7058,59.1764 95.3399,21.3693 128.2157,131.5033 254.7876,170.9543"
       id="path21949"
       sodipodi:nodetypes="cssc" />
    <path
       style="fill:none;fill-rule:evenodd;stroke:#000000;stroke-width:1px;stroke-linecap:butt;stroke-linejoin:miter;stroke-opacity:1"
       d="m 211.31642,3799.8291 c 200.52312,-38.1704 324.07117,-58.4044 419.06513,-112.8575 61.77664,-35.4121 74.18986,-26.9803 174.07372,-50.0482 62.76648,-14.4958 170.58044,-47.2851 170.58044,-47.2851"
       id="path21553"
       sodipodi:nodetypes="cssc" />
    <path
       style="display:inline;fill:#ffffff;fill-rule:evenodd;stroke:none;stroke-width:0.999997px;stroke-linecap:butt;stroke-linejoin:miter;stroke-opacity:1"
       d="m 736.50367,387.39636 c 45.40462,23.71157 67.69044,4.97322 66.91102,-50.14438 21.66228,59.56179 41.58545,56.08839 50.50073,26.74192 28.67939,25.22412 46.59208,18.1482 60.81357,0 5.30069,23.34014 16.66811,13.92182 26.50594,12.76202 3.24023,5.28131 -7.88852,18.40015 37.07177,0.92087 2.91234,6.98895 6.83548,13.00826 33.171,-2.48788 6.8227,28.36951 27.3999,24.31763 49.8255,-7.69469 -13.9718,39.35645 -8.1783,44.91576 9.6749,29.85361 -8.1623,16.20735 -13.0441,28.75397 17.9676,1.24353 -7.5759,22.38637 -22.2967,51.08113 22.6627,8.11436 -14.2351,28.28623 -42.5929,43.59124 -3.3128,39.15356 -5.4778,9.36304 -25.0171,17.52075 33.1709,32.34069 -10.8628,6.35417 -44.027,-2.93083 -16.3621,23.97085 3.7064,3.14458 -8.7022,5.06514 14.9801,13.34637 -13.9798,-0.56406 -22.5534,1.44917 -9.6749,13.68207 -25.5184,-0.66076 -15.9706,12.20286 2.7641,28.6093 -36.9539,-21.04571 -41.4455,-18.00532 -42.5394,-9.58347 -33.4104,-9.02989 -31.3238,16.05386 -21.5995,21.72287 -22.5749,0.22351 -76.37722,-34.18643 -98.95203,-2.18792 -5.91205,-19.90215 -17.76494,-35.22193 -67.72409,-21.14566 21.93588,-25.32005 -21.83117,28.45598 -45.73139,38.88782 13.08819,-31.63033 -11.75431,-33.78546 -53.82212,-3.01178 23.55779,-34.92853 -36.67091,-30.53108 -78.28945,-16.24227 27.79119,-22.05213 30.21391,-46.90852 -28.0938,-48.2439 27.90788,-12.37676 44.18219,-27.95338 15.20345,-55.97422 32.66729,8.25037 42.41149,0.58682 19.34975,-29.85363 35.63126,24.98516 19.43109,-11.25436 5.52855,-44.78004 z"
       id="path4508-2"
       inkscape:connector-curvature="0"
       sodipodi:nodetypes="cccccccccccccccccccccccccccc" />
    <path
       style="display:inline;fill:#ffffff;fill-rule:evenodd;stroke:none;stroke-width:0.999999px;stroke-linecap:butt;stroke-linejoin:miter;stroke-opacity:1"
       d="m 1091.4664,734.19827 c -55.6628,-28.71783 -78.7929,-21.32748 -60.6847,23.98642 -37.99152,-46.40826 -53.56171,-48.24816 -64.49124,-12.70572 -35.15888,-30.54975 -57.11853,-21.97986 -74.55308,0 -6.49827,-28.26799 -35.27342,-17.56781 -49.10051,1.50294 10.86724,-20.52925 -13.64847,-34.29794 -47.9206,9.48438 26.46206,-43.79672 -12.973,-26.70772 -34.30544,-2.2867 9.65528,-32.94595 -22.48058,-20.3545 -49.97287,18.41665 17.12845,-47.66587 10.02596,-54.39893 -11.86072,-36.15668 10.00651,-19.62922 15.99138,-34.82485 -22.02693,-1.50609 13.01554,-36.23149 5.50352,-38.46405 -27.65165,-10.72355 15.42136,-28.1871 52.08455,-51.89874 3.93018,-46.52411 6.71535,-11.33987 30.66894,-21.21995 -40.66523,-39.16885 13.31704,-7.69575 53.97393,3.54963 20.05874,-29.03185 -4.54382,-3.8085 10.66817,-6.13456 -18.3645,-16.16424 17.1383,0.68315 27.64872,-1.75513 11.86082,-16.57078 31.28354,0.80028 19.57862,-14.77925 -3.38883,-34.64962 45.30298,25.48912 47.79614,16.22527 49.1373,6.02529 30.74564,4.51804 40.90789,-8.68387 28.72691,-27.84314 12.79092,17.61116 46.71477,39.56712 74.38995,0.81269 35.62211,45.38493 62.28573,-32.53707 71.93904,-51.33231 0.77911,7.48249 107.41522,26.16388 142.58151,1.79698 -16.04519,38.3085 26.72495,44.50339 78.29705,7.23241 -28.8802,42.30306 -15.1624,68.06522 7.3298,48.24238 -1.2119,21.5475 -38.4337,39.88973 34.2877,25.41335 -47.4492,32.00767 -23.1605,58.98578 30.0986,87.07079 -60.059,-7.13351 -63.4282,23.58879 -23.7212,54.73867 -52.2575,-25.9722 -58.1263,0.76602 -23.9301,39.94069 z"
       id="path4508-2-7"
       inkscape:connector-curvature="0"
       sodipodi:nodetypes="cccccccccccccccccccccccccccc" />
    <path
       style="display:inline;fill:#ffffff;fill-rule:evenodd;stroke:none;stroke-width:1.21419px;stroke-linecap:butt;stroke-linejoin:miter;stroke-opacity:1"
       d="m 616.96536,345.15034 c 31.8747,-21.30789 19.79111,-47.69475 -8.43529,-64.72544 61.244,-9.38365 13.78171,-50.03992 -17.39237,-97.44746 46.59826,28.88165 103.69976,81.53749 79.77988,-60.86974 33.05601,40.4435 60.05456,75.69934 80.7636,15.12689 10.51065,28.31221 32.07017,54.67194 55.73427,7.92691 8.29961,23.18109 17.74899,14.16211 28.40271,-28.58885 9.67456,52.75046 32.6704,52.03569 56.6654,-4.16949 16.81151,57.68258 35.3437,105.58671 76.21671,26.5397 -6.28304,59.04716 14.8888,56.41866 48.47033,25.91318 -5.0602,25.64963 0.6017,34.17464 40.2022,13.68422 -10.5303,24.81575 -24.7879,39.73054 13.3931,32.2841 -16.967,22.55776 -35.5838,72.4563 22.2283,60.08574 -52.2237,46.54119 -31.2423,67.8179 -18.565,75.61149 -42.8816,-4.37613 -61.1943,-5.90245 -35.9532,29.08606 -18.1726,-10.59232 -45.41903,-27.19318 -20.0838,39.59463 -25.79648,-46.36178 -54.76673,9.39934 -40.05049,11.54449 -61.17847,-23.66019 -58.66472,-1.7995 -61.28091,16.39481 l -95.83781,-15.87986 -68.22761,-0.16385 -57.25695,9.9303 c 9.36671,-35.95351 -10.38812,-23.48064 -25.79198,-18.24307 19.11555,-14.94871 3.96626,-47.25109 -42.65736,-24.57961 19.85297,-17.42183 25.82127,-56.34641 -10.32373,-49.05515 z"
       id="path1058"
       sodipodi:nodetypes="cccccccccccccccccccccccc" />
    <path
       style="display:inline;fill:#ffffff;fill-rule:evenodd;stroke:none;stroke-width:0.888008px;stroke-linecap:butt;stroke-linejoin:miter;stroke-opacity:1"
       d="m 521.88744,392.78542 c 62.18451,-36.90801 138.1775,-78.21159 131.86886,-93.31716 l 26.41583,24.79169 c -0.68828,6.39637 -103.07463,47.06259 -158.28469,68.52547 z"
       id="path1881"
       sodipodi:nodetypes="cccc" />
    <path
       style="color:#000000;display:inline;overflow:visible;visibility:visible;fill:#ffffff;fill-opacity:1;fill-rule:nonzero;stroke:none;stroke-width:1.13599px;marker:none;enable-background:accumulate"
       d="m 1607.976,1441.9541 c 18.048,5.8057 69.4445,49.7999 5.2198,46.1637 46.8804,19.0605 39.7435,54.8099 0.3727,74.9241 51.0924,-3.1751 88.7209,6.5917 61.5712,43.059 75.985,-22.0791 109.5735,-26.1876 92.6693,25.4954 35.7596,-42.1729 68.897,-33.4361 76.2954,16.969 8.7144,-37.2607 25.9124,-57.3542 74.6224,-9.1417 3.9921,-13.6543 15.4231,-56.8917 122.564,-42.0838 -40.0966,-27.0643 -65.5644,-44.384 3.9825,-53.9521 -35.0319,-12.5449 -57.1727,-28.9882 -1.5414,-53.1372 -35.4691,-8.7806 -91.9373,-7.6606 -22.2869,-54.6474 -45.706,21.9291 -120.6542,3.7366 -87.3084,-32.5132 -89.485,39.6001 -106.2453,28.1576 -118.9058,-1.8867 -33.9372,42.8514 -81.3775,36.8826 -108.4403,10.9558 12.5347,38.9007 -58.1747,30.6953 -98.8145,29.7951 z"
       id="path3549-3-78-5"
       inkscape:connector-curvature="0"
       sodipodi:nodetypes="ccccccccccccccc" />
    <path
       style="display:inline;fill:#ffffff;stroke:none;stroke-width:0.999999"
       d="m 1825.1159,1536.9519 c -38.7523,1.023 -77.9579,7.1045 -111.582,21.1145 -29.5309,12.6629 -54.3014,31.832 -65.6628,55.0643 -8.7999,17.4274 -7.511,37.0264 2.3779,54.0872 10.6107,18.7096 31.0083,34.4345 56.1888,43.9344 22.0164,8.517 46.887,12.4981 71.6567,14.5452 31.6525,2.7484 63.6241,3.2558 95.4795,2.7013 37.7756,-1.0688 75.4577,-4.7443 112.0794,-11.3942 23.1143,-4.3801 45.7328,-11.117 64.588,-21.6592 14.3976,-7.9552 25.4953,-18.7388 31.9081,-30.7994 5.7601,-10.4451 7.9552,-21.7017 7.8332,-32.8644 0.1434,-17.5349 -6.0791,-35.689 -21.7518,-49.6364 -15.7913,-13.8997 -38.688,-22.7976 -62.2787,-28.4982 -34.5593,-8.6904 -71.2009,-12.0442 -107.5342,-14.646 -24.3699,-1.4998 -48.8451,-2.0145 -73.3021,-1.9491 z"
       id="path3280-8-3"
       inkscape:connector-curvature="0"
       sodipodi:nodetypes="csssc" />
    <path
       style="color:#000000;display:inline;overflow:visible;visibility:visible;fill:#ffffff;fill-opacity:1;fill-rule:nonzero;stroke:none;stroke-width:0.770015px;marker:none;enable-background:accumulate"
       d="m 1902.9947,1721.5503 c -7.4072,26.7825 -11.8364,69.6137 -8.6738,77.044 10.3293,-5.5335 21.0262,-9.0207 29.2846,-11.8511 4.1717,14.0594 -17.4145,84.2869 -29.3245,96.6448 31.2566,-29.1366 62.7221,-96.0068 53.3291,-118.7858 -12.0054,2.3052 -18.6695,4.8606 -25.0469,5.9602 -5.4933,-11.2514 12.8457,-51.5426 12.8457,-51.5426 z"
       id="path5066-9"
       inkscape:connector-curvature="0"
       sodipodi:nodetypes="cccccccc" />
    <path
       style="fill:#ffffff;fill-rule:evenodd;stroke:none;stroke-width:1px;stroke-linecap:butt;stroke-linejoin:miter;stroke-opacity:1"
       d="M 391.74805 1270.5684 C 374.70339 1286.2342 352.32621 1293.6094 331.90083 1303.6295 C 308.57273 1315.0496 287.68246 1330.668 266.92383 1346.1172 C 263.88646 1350.9094 266.46854 1356.6763 268.7723 1361.1846 C 274.19396 1376.3934 276.40389 1392.8879 284.77344 1406.9395 C 270.3192 1414.4112 254.78353 1421.3881 244.24847 1434.2832 C 238.52519 1440.9854 236.53558 1450.7537 239.72945 1459.0449 C 244.79535 1476.0739 256.23605 1490.2342 268.06708 1503.109 C 279.81919 1515.6595 292.35086 1527.4552 304.93807 1539.1575 C 308.75367 1542.6397 312.60834 1546.0786 316.44531 1549.5371 C 295.98191 1524.3495 276.63275 1497.4489 265.61981 1466.6424 C 263.17369 1459.6138 261.86342 1452.2558 260.83398 1444.9043 C 276.03159 1429.966 296.29022 1422.2771 314.37524 1411.6391 C 317.55752 1410.0055 317.00582 1405.5004 315.50227 1402.8398 C 314.11823 1400.4104 312.22686 1398.3389 311.19827 1395.6956 C 304.73116 1383.0033 298.80353 1370.0035 291.31445 1357.8613 C 316.14742 1338.2915 345.96506 1326.3958 376.02121 1317.4406 C 383.83998 1314.8684 391.63923 1312.2367 399.4082 1309.5176 C 399.45822 1300.5134 395.90316 1292.0284 394.88393 1283.1578 C 393.98707 1278.7686 393.09022 1274.3794 392.19336 1269.9902 C 392.04492 1270.1829 391.89648 1270.3757 391.74805 1270.5684 z "
       id="path20337"
       sodipodi:nodetypes="ccsccsscscc" />
    <path
       style="color:#000000;display:inline;overflow:visible;visibility:visible;fill:#ffffff;fill-opacity:1;fill-rule:nonzero;stroke:none;stroke-width:1px;marker:none;enable-background:accumulate"
       d="m 279.85748,1233.1737 15.71662,28.8211 -22.23797,5.695 10.65697,11.2228 10.71727,8.1216 14.06863,4.5549 -13.48383,18.6124 19.13891,1.8984 2.01447,15.1863 17.12414,12.339 14.10215,-8.5424 7.08474,16.9022 29.17802,-10.2582 6.04384,11.3899 16.11676,-8.5423 38.27723,15.1863 2.01461,-12.3389 12.08769,13.2881 3.02199,-16.1355 18.13138,14.2371 28.20415,-17.0847 24.17523,-1.8982 3.022,-13.2881 19.13861,9.4915 -4.20846,-19.9419 42.47944,2.1031 -23.68635,-36.0389 29.48895,-7.3546 -23.9276,-11.8942 18.13138,-17.992 -27.19707,2.8475 20.64185,-24.8369 -38.51458,1.2425 -2.78804,-24.279 -27.80683,15.7001 -12.47391,-24.7758 -25.9151,20.6921 -9.41929,-14.5455 -14.45425,9.3799 -15.15712,-5.6529 -19.1639,-20.3143 -12.68864,20.1849 -21.8528,-9.3692 -15.13243,16.2066 -26.19073,-12.5519 -3.74776,11.5417 -19.97899,8.3735 -20.52893,-6.7644 4.07427,25.4689 z"
       id="path4448-1"
       inkscape:connector-curvature="0"
       sodipodi:nodetypes="cccccccccccccccccccccccccccccccccccccccccccccccccc" />
  </g>
  <g
     inkscape:groupmode="layer"
     id="layer1"
     inkscape:label="txt">
    <text
       xml:space="preserve"
       style="font-style:normal;font-variant:normal;font-weight:normal;font-stretch:normal;font-size:16.6404px;line-height:0%;font-family:Lavi;-inkscape-font-specification:Lavi;text-align:center;letter-spacing:0px;word-spacing:0px;text-anchor:middle;fill:#000000;fill-opacity:1;stroke:none;stroke-width:1"
       x="799.67346"
       y="238.32524"
       id="text4246-86-3-3"
       transform="scale(1.0124559,0.98769735)"><tspan
         sodipodi:role="line"
         style="font-size:62.4016px;line-height:1.2;stroke-width:1"
         x="799.67346"
         y="238.32524"
         id="tspan1044-3"><tspan
           style="font-style:normal;font-variant:normal;font-weight:bold;font-stretch:normal;font-family:Lavi;-inkscape-font-specification:'Lavi Bold';stroke-width:1"
           id="tspan1046-9">Grrr !!!</tspan></tspan></text>
    <text
       id="text4178-0"
       y="287.98599"
       x="845.63464"
       style="font-style:normal;font-variant:normal;font-weight:normal;font-stretch:normal;line-height:0%;font-family:Lavi;-inkscape-font-specification:Lavi;text-align:center;letter-spacing:0px;word-spacing:0px;text-anchor:middle;fill:#000000;fill-opacity:1;stroke:none"
       xml:space="preserve"><tspan
         y="287.98599"
         x="845.63464"
         style="font-weight:bold;font-size:40.6767px;line-height:1.25"
         sodipodi:role="line"
         id="tspan4245-6-6">Eh bien j'irais </tspan><tspan
         y="338.83188"
         x="845.63464"
         style="font-weight:bold;font-size:40.6767px;line-height:1.25"
         sodipodi:role="line"
         id="tspan3774">en rechercher</tspan><tspan
         y="389.67773"
         x="851.99036"
         style="font-weight:bold;font-size:40.6767px;line-height:1.25"
         sodipodi:role="line"
         id="tspan17568">si j'en ai plus ! </tspan></text>
    <text
       id="text4178-0-7"
       y="465.28772"
       x="928.59277"
       style="font-style:normal;font-variant:normal;font-weight:normal;font-stretch:normal;font-size:14.8082px;line-height:0%;font-family:Lavi;-inkscape-font-specification:Lavi;text-align:center;letter-spacing:0px;word-spacing:0px;text-anchor:middle;fill:#000000;fill-opacity:1;stroke:none;stroke-width:2;stroke-dasharray:none"
       xml:space="preserve"><tspan
         y="465.28772"
         x="928.59277"
         style="font-weight:bold;font-size:50.1956px;line-height:1.25;stroke-width:2;stroke-dasharray:none"
         sodipodi:role="line"
         id="tspan17568-1">Car <tspan
   style="stroke:#000000;stroke-opacity:1;stroke-width:2;stroke-dasharray:none"
   id="tspan4139">ÇA</tspan>,</tspan><tspan
         y="528.03223"
         x="928.59277"
         style="font-weight:bold;font-size:50.1956px;line-height:1.25;stroke-width:2;stroke-dasharray:none"
         sodipodi:role="line"
         id="tspan18594"> ça MARCHE !</tspan></text>
    <text
       id="text4178-0-7-5"
       y="597.14563"
       x="872.56256"
       style="font-style:normal;font-variant:normal;font-weight:normal;font-stretch:normal;line-height:0%;font-family:Lavi;-inkscape-font-specification:Lavi;text-align:center;letter-spacing:0px;word-spacing:0px;text-anchor:middle;fill:#000000;fill-opacity:1;stroke:none"
       xml:space="preserve"><tspan
         y="597.14563"
         x="872.56256"
         style="font-weight:bold;font-size:40.6767px;line-height:1.25"
         sodipodi:role="line"
         id="tspan17568-1-9">Pas comme tous vos</tspan><tspan
         y="647.99152"
         x="872.56256"
         style="font-weight:bold;font-size:40.6767px;line-height:1.25"
         sodipodi:role="line"
         id="tspan17670">trucs compliqués</tspan><tspan
         y="698.8374"
         x="872.56256"
         style="font-weight:bold;font-size:40.6767px;line-height:1.25"
         sodipodi:role="line"
         id="tspan18519"> du Chaos !</tspan></text>
    <text
       id="text4178-0-73"
       y="1142.3025"
       x="699.68024"
       style="font-style:normal;font-variant:normal;font-weight:normal;font-stretch:normal;font-size:19.1461px;line-height:0%;font-family:Lavi;-inkscape-font-specification:Lavi;text-align:center;letter-spacing:0px;word-spacing:0px;text-anchor:middle;fill:#000000;fill-opacity:1;stroke:none;stroke-width:1"
       xml:space="preserve"
       transform="matrix(0.88341136,0,-0.1582272,1.1319755,0,0)"
       inkscape:transform-center-x="-51.040378"
       inkscape:transform-center-y="1.6359933e-05"><tspan
         y="1142.3025"
         x="699.68024"
         style="font-style:normal;font-variant:normal;font-weight:bold;font-stretch:normal;font-size:64.9003px;line-height:1.25;font-family:Lavi;-inkscape-font-specification:'Lavi Bold';stroke-width:1"
         sodipodi:role="line"
         id="tspan4245-6-6-6">G<tspan
   style="font-size:54.1943px;stroke-width:1"
   id="tspan1039">R</tspan><tspan
   id="tspan1047"
   style="font-size:43.4883px;stroke-width:1">RR</tspan><tspan
   style="font-size:43.4883px;stroke-width:1"
   id="tspan1051"> ...!</tspan></tspan></text>
    <text
       id="text4178-0-6"
       y="1520.27"
       x="1829.1185"
       style="font-style:normal;font-variant:normal;font-weight:normal;font-stretch:normal;font-size:17.5748px;line-height:0%;font-family:Lavi;-inkscape-font-specification:Lavi;text-align:center;letter-spacing:0px;word-spacing:0px;text-anchor:middle;fill:#000000;fill-opacity:1;stroke:none;stroke-width:1"
       xml:space="preserve"><tspan
         y="1520.27"
         x="1829.1185"
         style="font-weight:bold;font-size:59.5735px;line-height:1.25;stroke-width:1"
         sodipodi:role="line"
         id="tspan4245-6-6-0">Attention !</tspan></text>
    <text
       id="text4178-0-6-0"
       y="1621.3752"
       x="1870.105"
       style="font-style:normal;font-variant:normal;font-weight:normal;font-stretch:normal;font-size:13.4359px;line-height:0%;font-family:Lavi;-inkscape-font-specification:Lavi;text-align:center;letter-spacing:0px;word-spacing:0px;text-anchor:middle;fill:#000000;fill-opacity:1;stroke:none;stroke-width:1"
       xml:space="preserve"><tspan
         y="1621.3752"
         x="1870.105"
         style="font-weight:normal;font-size:45.5439px;line-height:1.25;stroke-width:1"
         sodipodi:role="line"
         id="tspan19929">Le monstre va se</tspan><tspan
         y="1678.3052"
         x="1870.105"
         style="font-weight:normal;font-size:45.5439px;line-height:1.25;stroke-width:1"
         sodipodi:role="line"
         id="tspan19931">métamorphoser !</tspan></text>
    <text
       xml:space="preserve"
       style="color:#000000;font-style:normal;font-variant:normal;font-weight:normal;font-stretch:normal;font-size:195.703px;line-height:0.01%;font-family:Lavi;-inkscape-font-specification:'Lavi, Normal';font-variant-ligatures:normal;font-variant-caps:normal;font-variant-numeric:normal;font-feature-settings:normal;text-align:start;letter-spacing:6px;word-spacing:0px;writing-mode:lr-tb;text-anchor:start;display:inline;overflow:visible;visibility:visible;fill:#ffffff;fill-opacity:1;fill-rule:nonzero;stroke:#000000;stroke-width:12.1558;stroke-linecap:butt;stroke-linejoin:miter;stroke-miterlimit:4;stroke-dasharray:none;stroke-dashoffset:0;stroke-opacity:1;marker:none;paint-order:stroke fill markers;filter:url(#filter1267);enable-background:accumulate"
       id="text1702"
       transform="matrix(1.1289384,0.09549816,-0.16308141,1.3349889,483.69013,-2268.0131)"><textPath
         xlink:href="#path21553"
         id="textPath21555"
         style="font-style:normal;font-variant:normal;font-weight:normal;font-stretch:normal;font-family:Lavi;-inkscape-font-specification:Lavi;stroke:#000000;stroke-width:12.1558;stroke-dasharray:none;paint-order:stroke fill markers">CRi<tspan
   style="font-style:normal;font-variant:normal;font-weight:normal;font-stretch:normal;font-size:175.73px;font-family:Lavi;-inkscape-font-specification:Lavi;stroke:#000000;stroke-width:12.1558;stroke-dasharray:none;paint-order:stroke fill markers"
   id="tspan19293">iii</tspan><tspan
   id="tspan19301"
   style="font-style:normal;font-variant:normal;font-weight:normal;font-stretch:normal;font-size:159.086px;font-family:Lavi;-inkscape-font-specification:Lavi;stroke:#000000;stroke-width:12.1558;stroke-dasharray:none;paint-order:stroke fill markers">iii<tspan
   style="font-size:127.395px;stroke:#000000;stroke-width:12.1558;stroke-dasharray:none;paint-order:stroke fill markers"
   id="tspan21566">i</tspan></tspan><tspan
   style="font-size:127.395px;stroke:#000000;stroke-width:12.1558;stroke-dasharray:none;paint-order:stroke fill markers"
   id="tspan21568">ii</tspan><tspan
   id="tspan21574"
   style="font-size:87.404px;stroke:#000000;stroke-width:12.1558;stroke-dasharray:none;paint-order:stroke fill markers">i</tspan><tspan
   style="font-style:normal;font-variant:normal;font-weight:normal;font-stretch:normal;font-size:87.404px;font-family:Lavi;-inkscape-font-specification:Lavi;stroke:#000000;stroke-width:12.1558;stroke-dasharray:none;paint-order:stroke fill markers"
   id="tspan19305">ii</tspan></textPath></text>
    <text
       xml:space="preserve"
       style="color:#000000;font-style:normal;font-variant:normal;font-weight:normal;font-stretch:normal;font-size:212.5px;line-height:0.01%;font-family:Lavi;-inkscape-font-specification:'Lavi, Normal';font-variant-ligatures:normal;font-variant-caps:normal;font-variant-numeric:normal;font-feature-settings:normal;text-align:start;letter-spacing:6.51498px;word-spacing:0px;writing-mode:lr-tb;text-anchor:start;display:inline;overflow:visible;visibility:visible;fill:#ffffff;fill-opacity:1;fill-rule:nonzero;stroke:#000000;stroke-width:11.6577;stroke-linecap:butt;stroke-linejoin:miter;stroke-miterlimit:4;stroke-dasharray:none;stroke-dashoffset:0;stroke-opacity:1;marker:none;paint-order:stroke fill markers;filter:url(#filter1267);enable-background:accumulate"
       id="text1702-6"
       transform="matrix(1.5436618,0.07242885,-0.42287094,1.0526884,482.21141,-1323.7828)"><textPath
         xlink:href="#path21949"
         id="textPath22050"
         style="stroke-width:11.6577;stroke-dasharray:none"><tspan
           id="tspan19301-8"
           style="font-style:normal;font-variant:normal;font-weight:normal;font-stretch:normal;font-size:172.74px;font-family:Lavi;-inkscape-font-specification:Lavi;stroke:#000000;stroke-width:11.6577;stroke-dasharray:none;paint-order:stroke fill markers"><tspan
   style="font-size:132.74px;stroke-width:11.6577;stroke-dasharray:none"
   id="tspan22058"><tspan
   style="font-size:82.74px;stroke-width:11.6577;stroke-dasharray:none"
   id="tspan22062">ii</tspan><tspan
   id="tspan22070"
   style="font-size:97.74px;stroke-width:11.6577;stroke-dasharray:none">i</tspan>ii</tspan>iiiii<tspan
   style="font-size:138.329px;stroke:#000000;stroke-width:11.6577;stroke-dasharray:none;paint-order:stroke fill markers"
   id="tspan21566-1">i</tspan></tspan><tspan
           style="font-size:138.329px;stroke:#000000;stroke-width:11.6577;stroke-dasharray:none;paint-order:stroke fill markers"
           id="tspan21568-9">ii</tspan><tspan
           id="tspan21574-8"
           style="font-size:94.9059px;stroke:#000000;stroke-width:11.6577;stroke-dasharray:none;paint-order:stroke fill markers">i</tspan><tspan
           style="font-style:normal;font-variant:normal;font-weight:normal;font-stretch:normal;font-size:94.9059px;font-family:Lavi;-inkscape-font-specification:Lavi;stroke:#000000;stroke-width:11.6577;stroke-dasharray:none;paint-order:stroke fill markers"
           id="tspan19305-1">ii</tspan></textPath></text>
  </g>
</svg>
