<?xml version="1.0" encoding="UTF-8" standalone="no"?>
<!-- Created With Inkscape (http://www.inkscape.org/) -->

<svg
   xmlns:dc="http://purl.org/dc/elements/1.1/"
   xmlns:cc="http://creativecommons.org/ns#"
   xmlns:rdf="http://www.w3.org/1999/02/22-rdf-syntax-ns#"
   xmlns:svg="http://www.w3.org/2000/svg"
   xmlns="http://www.w3.org/2000/svg"
   xmlns:xlink="http://www.w3.org/1999/xlink"
   xmlns:sodipodi="http://sodipodi.sourceforge.net/DTD/sodipodi-0.dtd"
   xmlns:inkscape="http://www.inkscape.org/namespaces/inkscape"
   id="svg2"
   version="1.1"
   inkscape:version="0.92.3 (2405546, 2018-03-11)"
   width="2481"
   height="663"
   sodipodi:docname="E09P00.svg">
  <metadata
     id="metadata8">
    <rdf:RDF>
      <cc:Work
         rdf:about="">
        <dc:format>image/svg+xml</dc:format>
        <dc:type
           rdf:resource="http://purl.org/dc/dcmitype/StillImage" />
        <dc:title />
      </cc:Work>
    </rdf:RDF>
  </metadata>
  <defs
     id="defs6" />
  <sodipodi:namedview
     pagecolor="#ffffff"
     bordercolor="#666666"
     borderopacity="1"
     objecttolerance="10"
     gridtolerance="10"
     guidetolerance="10"
     inkscape:pageopacity="0"
     inkscape:pageshadow="2"
     inkscape:window-width="1920"
     inkscape:window-height="1022"
     id="namedview4"
     showgrid="false"
     inkscape:zoom="0.52995012"
     inkscape:cx="711.8296"
     inkscape:cy="415.71612"
     inkscape:window-x="0"
     inkscape:window-y="0"
     inkscape:window-maximized="1"
     inkscape:current-layer="layer1" />
  <g
     inkscape:groupmode="layer"
     id="layer2"
     inkscape:label="artwork"
     sodipodi:insensitive="true">
    <image
       sodipodi:absref="/home/peppercarrot/webcomics/"
       xlink:href="../gfx_Pepper-and-Carrot_by-David-Revoy_E09P00.png"
       width="2481"
       height="663"
       id="image10"
       x="0"
       y="0" />
  </g>
  <g
     inkscape:groupmode="layer"
     id="layer1"
     inkscape:label="txt"
     style="display:inline">
    <flowRoot
       xml:space="preserve"
       id="episode-title"
       style="font-style:normal;font-variant:normal;font-weight:normal;font-stretch:normal;line-height:0.01%;font-family:Arial;-inkscape-font-specification:Arial;letter-spacing:0px;word-spacing:0px;display:inline;fill:#301b0b;fill-opacity:1;stroke:none"
       transform="translate(-701.62305,-120.8471)"><flowRegion
         id="flowRegion2989"><rect
           id="rect2991"
           width="2405.8"
           height="107.55731"
           x="739.22333"
           y="644.36664"
           style="fill:#301b0b;fill-opacity:1" /></flowRegion><flowPara
         id="flowPara2993"
         style="font-style:normal;font-variant:normal;font-weight:normal;font-stretch:normal;font-size:80px;line-height:1.25;font-family:Neucha;-inkscape-font-specification:Neucha;text-align:center;text-anchor:middle;fill:#301b0b;fill-opacity:1">Эпизод 9: Снадобье</flowPara></flowRoot>    <g
       transform="translate(9.8010304,-357.36217)"
       id="g70"
       style="display:inline;opacity:1;vector-effect:none;fill:#301b0b;fill-opacity:1;stroke:none;stroke-width:1;stroke-linecap:butt;stroke-linejoin:miter;stroke-miterlimit:4;stroke-dasharray:none;stroke-dashoffset:0;stroke-opacity:1;font-variant-east_asian:normal">
      <path
         inkscape:connector-curvature="0"
         id="path232483"
         d="m 1360.7341,702.51781 c -4.4355,-0.10425 -6.0971,3.05522 -9.0235,7.41995 -2.7388,4.08435 -10.5596,21.299 -20.4388,38.43151 1.9536,3.90048 -2.4013,7.77084 -6.4144,10.57274 -4.9731,7.75359 -10.2626,14.87947 -15.5465,20.03113 -4.7497,4.63048 -12.761,8.53852 -12.2851,3.64203 0.7506,-7.72447 1.4744,-19.12884 1.7667,-39.6274 -5.2367,1.33185 -3.2077,-2.1388 0.054,-5.84355 0.044,-4.58172 0.082,-9.4383 0.082,-14.89424 0,-7.48276 -1.6866,-17.31321 -6.6046,-17.31321 -11.4013,0 -17.9453,1.14377 -37.0453,9.94762 -5.2024,2.39778 -1.7915,3.05172 2.2559,2.01127 8.0003,-2.05678 15.7793,-1.2496 15.7912,2.50049 0.1405,45.51158 -5.898,73.89298 -5.898,88.79472 0,10.26132 8.4527,14.57871 14.5409,14.56811 10.1082,-0.0199 21.6063,-9.39986 30.4137,-18.5091 -0.016,-2.97013 0.094,-5.91537 0.3805,-8.77891 2.6578,1.413 3.4362,2.31168 4.2943,3.75075 25.9297,-29.33072 36.1014,-56.1352 37.5075,-57.91907 3.4147,-4.33277 3.5374,-1.97565 3.805,5.68047 0.7311,20.91499 -0.434,36.47948 -2.8266,58.43547 -1.275,11.70034 -4.7569,24.2915 -7.1754,28.83722 -1.253,2.35482 2.8911,2.17901 7.719,-4.97381 2.5595,-0.0957 4.2046,-4.12383 7.3656,-4.40305 1.7327,-0.15306 4.1112,-1.94616 5.9794,-6.03379 3.6203,0.40522 6.2565,-8.10345 7.4199,-14.86707 0.6885,-4.00202 1.2795,-8.35044 1.7938,-12.88298 -5.7775,1.05839 -5.9175,-3.64455 0.7883,-7.69174 2.7028,-29.61309 2.4733,-63.46694 2.4733,-63.98004 0,-9.58614 -14.8504,-16.75687 -21.1726,-16.90552 z"
         style="color:#000000;display:inline;overflow:visible;visibility:visible;vector-effect:none;fill:#301b0b;fill-opacity:1;fill-rule:nonzero;stroke:none;stroke-width:1;stroke-linecap:butt;stroke-linejoin:miter;stroke-miterlimit:4;stroke-dasharray:none;stroke-dashoffset:0;stroke-opacity:1;marker:none;enable-background:accumulate;font-variant-east_asian:normal" />
      <g
         id="g38"
         style="vector-effect:none;fill:#301b0b;fill-opacity:1;stroke:none;stroke-width:1;stroke-linecap:butt;stroke-linejoin:miter;stroke-miterlimit:4;stroke-dasharray:none;stroke-dashoffset:0;stroke-opacity:1;font-variant-east_asian:normal">
        <path
           id="path4067"
           d="m 420.33077,661.34119 c -10.07986,0.23775 -26.71121,8.19665 -32.42489,12.14915 -1.36224,0.94232 -2.67485,2.36976 -0.38051,2.66357 7.67825,0.98329 15.95742,-4.4628 17.09578,8.5343 2.07607,23.70361 2.31173,51.57309 1.92972,75.28662 -9.37472,1.68957 -20.35728,5.08118 -20.35728,9.29531 0,8.82291 10.13369,12.75968 19.75934,13.99733 -0.59794,17.66567 -1.33178,29.6526 -1.33178,29.6526 -12.14221,1.56245 -13.29581,5.91837 -13.9158,9.94763 -0.66334,4.31089 1.65429,14.5806 7.12097,14.70398 8.83854,0.19949 34.28773,-0.40109 38.62177,-5.97944 7.29516,-2.1246 18.15647,-5.18225 19.16139,-10.2194 4.84417,-0.98783 8.17521,-1.89831 10.70864,-2.85383 4.6984,-1.77207 2.31666,-3.70575 10.27377,-6.57739 2.63286,-0.95018 5.72196,-5.77102 -1.11435,-3.61484 -6.65204,2.0981 -15.15152,2.71882 -24.05366,2.93536 -4.27585,4.60622 -9.68298,5.9331 -14.75836,0.19025 -3.96068,0.046 -7.85956,0.10939 -11.5512,0.32615 0,-3.37546 1.03794,-14.9071 2.2287,-29.89721 33.9443,-8.17856 74.38972,-42.09107 74.38972,-74.17227 0,-21.10205 -12.48296,-38.59807 -41.14945,-41.28534 -7.58498,4.54105 -13.86726,4.11634 -13.94298,-0.19026 -5.39671,0.32186 -11.22592,1.06241 -17.50345,2.28306 -0.75939,-5.53467 -3.92959,-7.29033 -8.80609,-7.17533 z m 37.28998,24.02649 c 11.90498,0 24.73315,2.34317 24.73315,18.67217 0,6.23878 -3.0391,13.13375 -8.20815,19.89524 -0.32029,4.21191 -1.71013,7.9383 -2.77228,10.32813 -2.64571,0.0684 -3.88,-0.72446 -4.94663,-1.79383 -9.70987,9.23539 -22.95886,17.49545 -37.12691,22.45009 1.27589,-20.34028 2.19963,-42.98839 1.60358,-62.64826 6.5705,-3.24162 21.21052,-6.90354 26.71724,-6.90354 z"
           style="color:#000000;display:inline;overflow:visible;visibility:visible;vector-effect:none;fill:#301b0b;fill-opacity:1;fill-rule:nonzero;stroke:none;stroke-width:1;stroke-linecap:butt;stroke-linejoin:miter;stroke-miterlimit:4;stroke-dasharray:none;stroke-dashoffset:0;stroke-opacity:1;marker:none;enable-background:accumulate;font-variant-east_asian:normal"
           inkscape:connector-curvature="0"
           sodipodi:nodetypes="sssscsccssccsssccccscccssscccccs" />
        <path
           style="color:#000000;display:inline;overflow:visible;visibility:visible;vector-effect:none;fill:#301b0b;fill-opacity:1;fill-rule:nonzero;stroke:none;stroke-width:1;stroke-linecap:butt;stroke-linejoin:miter;stroke-miterlimit:4;stroke-dasharray:none;stroke-dashoffset:0;stroke-opacity:1;marker:none;enable-background:accumulate;font-variant-east_asian:normal"
           d="m 216.07843,578.55309 c -26.2539,-0.0865 -57.42468,7.47079 -78.27634,14.13323 -5.8787,1.87832 -9.77247,6.36303 -9.40403,10.4912 2.08783,23.39312 2.16223,46.44378 1.22306,67.51335 2.63159,5.47781 2.91767,8.79628 -0.81537,14.37784 -1.86974,27.62239 -5.21334,50.76949 -7.41995,65.04003 -0.81527,5.27236 -6.10969,5.10745 -11.49683,4.94663 -5.14922,-0.15261 -14.691132,2.01322 -15.111689,8.86045 -0.473661,7.71168 5.372649,22.0424 19.514719,22.0424 2.70045,0 5.57674,-0.51669 8.47994,-1.4405 -2.71081,-11.24829 3.88952,-9.20441 12.44811,-6.49585 8.64391,-6.37275 15.58824,-15.91527 16.36193,-26.20083 0.33279,-4.42401 0.63863,-8.86495 0.9241,-13.31785 -4.56418,-1.25455 -7.43415,-2.82042 -6.30559,-4.86509 0.87276,-1.58123 2.24052,-2.21178 6.6861,-1.25026 2.39877,-40.50559 2.81821,-80.46998 1.06,-103.22692 -0.27708,-3.5862 0.30355,-6.40904 3.88663,-8.04507 7.53953,-3.44255 15.42526,-7.01617 23.29265,-9.9748 3.7e-4,-3.60405 0.92529,-5.5052 3.12562,-8.07225 1.81109,2.0617 2.4559,3.9248 2.88101,5.92509 13.01166,-4.2935 25.72088,-6.28998 36.47459,-2.41896 3.17042,1.14124 3.07591,4.3524 3.37024,8.37123 0.70026,9.56184 1.12619,20.46535 1.3046,32.15309 7.30475,0.7747 3.67094,9.65152 1.84819,13.75272 -0.66448,-0.47664 -1.25166,-0.97787 -1.76665,-1.46769 0.0256,30.73592 -1.47246,65.36244 -4.15844,95.34494 -1.84945,0.71223 -6.68213,3.28262 -7.39276,6.35996 -2.65956,11.5171 -0.61197,17.23132 4.23997,19.65062 7.19952,0.59297 23.80504,1.4269 28.2121,-4.89227 6.46916,-1.97787 20.37908,-2.8006 18.83525,-8.18096 8.96927,-3.5125 16.39827,-5.34416 19.73216,-7.0938 5.41434,-2.84148 -1.86295,-2.45605 -4.89227,-2.41896 -10.36338,0.12678 -27.0621,1.73203 -35.57769,-2.881 0.52986,-6.20646 1.19748,-14.71215 1.90255,-24.05368 -3.8742,-4.57065 -6.98039,-9.03369 0.73384,-9.78454 2.85794,-39.87788 5.96803,-95.7536 4.18561,-129.40058 -0.39905,-7.00763 -12.76603,-10.36743 -17.53064,-11.44248 -0.37756,-0.0852 -0.75871,-0.16524 -1.14153,-0.24461 -3.97684,2.47803 -8.02591,2.9486 -11.14351,-1.49486 -2.69324,-0.19334 -5.46568,-0.28967 -8.28968,-0.29897 z"
           id="path232458"
           inkscape:connector-curvature="0" />
        <path
           style="color:#000000;display:inline;overflow:visible;visibility:visible;vector-effect:none;fill:#301b0b;fill-opacity:1;fill-rule:nonzero;stroke:none;stroke-width:1;stroke-linecap:butt;stroke-linejoin:miter;stroke-miterlimit:4;stroke-dasharray:none;stroke-dashoffset:0;stroke-opacity:1;marker:none;enable-background:accumulate;font-variant-east_asian:normal"
           d="m 601.56225,663.02631 c -2.86938,0.05 -4.82421,1.03908 -4.78355,3.2887 0.17899,9.90546 0.0244,20.46674 -0.32615,30.90284 1.35046,0.2996 2.35843,0.76362 3.5333,2.71794 -0.98526,2.21681 -1.93256,5.72578 -3.99535,8.50711 -0.0883,1.9307 -0.1749,3.89364 -0.27179,5.78919 -15.54707,7.15179 -38.56837,18.84784 -47.34633,2.20152 -2.84463,-5.39445 4.01438,-18.97683 4.34869,-36.82793 0.32012,-17.09269 -4.18494,-18.14087 -18.61781,-13.83427 -4.5978,1.37198 -19.01045,4.89669 -22.23266,6.46868 -4.49081,2.19093 -3.64716,3.12657 -0.73383,2.93537 3.73389,-0.24506 8.59405,-0.75247 10.87171,0.0815 4.36578,1.59857 4.32151,5.65324 4.32151,8.47994 0,4.84084 -0.0857,8.6136 -0.24462,11.65991 4.40176,4.60657 9.41081,11.64331 0.16308,13.69836 -0.54038,-1.24996 -0.97767,-2.36844 -1.33179,-3.42459 -0.77252,3.79723 -1.67679,5.91908 -2.20153,11.90453 -1.3681,15.60551 10.75362,24.92341 17.63937,24.92341 1.88227,0 4.17082,-0.0505 6.65892,-0.16308 1.41972,-1.79917 3.89244,-4.04156 7.25688,-5.43586 0.18092,2.17122 2.54473,2.66571 0.8969,4.86509 13.8783,-1.28159 29.98532,-4.50901 31.82695,-11.63273 2.12307,-1.12984 6.33427,-2.1984 6.46867,-6.35996 0.59605,-0.31182 1.19902,-0.62199 1.79383,-0.97845 -1.47124,24.99041 -3.42458,44.54685 -3.42458,44.54685 -2.6954,12.86336 1.82146,17.79224 13.12759,15.00297 5.78899,-1.42817 22.17906,-5.12761 23.89059,-12.2035 2.93499,-0.28753 6.90288,-3.69278 8.72456,-7.14815 0.59759,-1.13352 8.04687,-4.98583 9.48556,-6.35996 1.30155,-1.24313 1.11274,-4.1183 -6.93071,-1.27742 -10.23819,3.61602 -25.10661,7.83981 -24.24393,1.60357 0.60338,-4.36174 2.54103,-10.53834 4.2128,-21.44446 -4.39227,-3.66399 -5.16297,-8.42062 -5.76202,-11.11632 2.81312,1.0586 4.77516,2.55448 6.65893,4.4574 1.41987,-12.07046 2.34081,-28.87029 1.35896,-52.99961 -0.28249,-6.94238 -13.45929,-12.95639 -20.79215,-12.82862 z"
           id="path232481"
           inkscape:connector-curvature="0" />
        <path
           style="color:#000000;display:inline;overflow:visible;visibility:visible;vector-effect:none;fill:#301b0b;fill-opacity:1;fill-rule:nonzero;stroke:none;stroke-width:1;stroke-linecap:butt;stroke-linejoin:miter;stroke-miterlimit:4;stroke-dasharray:none;stroke-dashoffset:0;stroke-opacity:1;marker:none;enable-background:accumulate;font-variant-east_asian:normal"
           d="m 346.24004,663.21656 c -0.64727,-0.008 -1.29253,-0.004 -1.95691,0.0272 -5.79926,0.27626 -11.11357,1.21399 -15.95425,2.74511 -1.79297,3.29047 -3.98014,6.28998 -6.27841,7.01225 -1.87282,0.58856 -3.84046,-0.35608 -6.00662,-1.27742 -18.49713,11.93255 -27.07019,35.17529 -27.20647,62.3221 -0.0584,11.63606 5.1718,21.97655 13.37221,29.81567 1.80088,-0.78799 4.25936,-1.19588 7.50148,-1.19588 0.33827,2.53512 0.31434,4.95119 0.43487,7.44712 17.41365,11.16526 42.19122,13.19171 61.31647,-0.84256 3.64879,-2.67763 4.20109,-3.5368 4.48459,-10.08351 9.72746,-4.11421 5.5697,-7.8653 13.31784,-12.09479 2.48284,-1.35535 5.1579,-7.87915 2.3646,-6.14251 -17.87108,11.11122 -33.75599,19.01058 -49.6022,17.80243 -14.08056,-1.0734 -27.26991,-15.15994 -26.33673,-24.73316 l 26.28237,-7.47429 c 1.78148,-5.36414 5.9805,-5.35808 12.09479,-3.45177 l 15.27475,-4.34869 c 7.33956,-2.09106 9.37146,-11.81556 9.21379,-18.04705 -0.45991,-18.17458 -12.25091,-37.22698 -32.31617,-37.48024 z m 1.54922,15.22041 c 4.31369,-0.0189 10.92079,1.03683 8.643,18.86242 -0.42587,3.33279 -3.96817,4.64765 -3.96817,4.64765 l -37.5346,11.36095 c 1.27005,-14.87444 19.32548,-34.84385 31.17465,-34.84385 0.48946,0 1.06887,-0.0245 1.68512,-0.0272 z"
           id="path232489"
           inkscape:connector-curvature="0" />
        <path
           style="color:#000000;display:inline;overflow:visible;visibility:visible;vector-effect:none;fill:#301b0b;fill-opacity:1;fill-rule:nonzero;stroke:none;stroke-width:1;stroke-linecap:butt;stroke-linejoin:miter;stroke-miterlimit:4;stroke-dasharray:none;stroke-dashoffset:0;stroke-opacity:1;marker:none;enable-background:accumulate;font-variant-east_asian:normal"
           d="m 936.54695,663.10784 c -10.32865,-0.0501 -19.38574,3.19694 -28.89163,8.72456 -4.25153,2.47253 -1.68955,4.11593 2.63644,3.64202 5.93283,-0.64992 11.97507,-1.20397 12.31226,7.44712 0.61934,15.89821 0.9488,35.64829 0.16299,61.77852 3.6549,7.75546 9.59164,22.4193 -0.51637,13.77991 -0.23482,5.63365 -0.50322,11.46796 -0.8425,17.66653 -0.38843,7.08948 -1.15572,12.23805 -1.63076,17.55782 -0.38652,4.3226 5.90177,-0.0929 5.95222,-2.85383 0.0521,-2.8313 4.56159,-3.86416 5.49021,-10.81736 3.4893,4.39866 6.2402,-3.47222 7.96349,-11.60555 0.89392,-4.21726 3.73448,-7.62382 4.02254,-9.92044 0.86851,-6.91487 1.61387,-13.29928 2.22878,-19.32447 4.10916,6.02335 8.92968,13.7507 14.13323,20.95523 2.65661,1.32477 5.90935,2.75573 9.45839,4.9738 1.00933,1.92362 1.12684,5.02613 1.00559,7.71893 5.19486,5.22635 10.55017,8.75172 15.79113,8.75172 6.99651,0 24.96414,-7.87222 22.64044,-12.96452 4.3636,-4.10358 7.3404,-9.8861 5.0009,-11.1435 2.5255,-2.55149 4.9308,-6.35599 7.4201,-11.93171 1.7008,-3.81031 0.8191,-6.52035 -0.3262,-4.70201 -3.449,5.47544 -21.90923,20.24857 -28.53837,20.24857 -5.59972,0 -18.69343,-20.20095 -26.06489,-33.24027 3.28108,-3.04667 6.58208,-7.06963 9.86604,-11.44248 -1.66642,-9.70494 1.27407,-9.79484 4.97385,-6.84918 9.80116,-13.92626 19.11239,-28.63604 26.36387,-28.29364 2.586,4.03569 -1.0926,15.15075 -7.22965,15.43784 -3.38702,0.15843 -3.67368,3.12492 0.0543,2.82664 2.97675,-0.23815 5.73955,-1.07972 8.18105,-2.39177 2.2393,2.06499 5.4793,-2.24095 6.061,-3.47896 0.5072,-1.07977 1.9226,-1.41236 2.7451,-3.07125 2.5933,-5.2318 3.6498,-8.95688 3.5877,-10.65428 -0.3081,-8.27179 -7.2883,-13.50811 -15.7913,-13.50811 -18.23794,0 -17.98276,1.82208 -39.98068,25.1952 -3.55079,3.7724 -14.80666,19.8716 -17.15017,20.11267 0.20038,-3.51647 0.36033,-6.92563 0.48922,-10.27377 -0.0265,0.0365 -0.0546,0.0725 -0.0815,0.10872 -2.06136,-11.33568 -9.80263,-17.31971 0.54359,-20.76498 0.0241,-3.08227 0.0271,-6.16421 0.0271,-9.29532 -1.3087,-6.135 -7.51427,-8.37632 -12.0676,-8.3984 z"
           id="path3379"
           inkscape:connector-curvature="0" />
        <path
           style="color:#000000;display:inline;overflow:visible;visibility:visible;vector-effect:none;fill:#301b0b;fill-opacity:1;fill-rule:nonzero;stroke:none;stroke-width:1;stroke-linecap:butt;stroke-linejoin:miter;stroke-miterlimit:4;stroke-dasharray:none;stroke-dashoffset:0;stroke-opacity:1;marker:none;enable-background:accumulate;font-variant-east_asian:normal"
           d="m 743.3294,662.37401 c -4.43513,-0.10426 -6.06976,3.05521 -8.99634,7.41994 -2.63274,3.92652 -8.23536,19.41912 -16.11731,35.38743 4.19836,4.75757 -2.145,9.63104 -6.84918,12.74709 -4.30316,7.34537 -9.0598,14.13551 -14.21477,19.1614 -4.74947,4.63046 -12.76078,8.51133 -12.28504,3.61484 0.75047,-7.72175 1.47425,-19.12269 1.76665,-39.60022 -5.23702,1.33195 -3.20808,-2.16569 0.0543,-5.87073 0.0433,-4.57497 0.0815,-9.41923 0.0815,-14.86707 0,-7.48274 -1.68656,-17.3132 -6.60457,-17.3132 -11.40129,0 -17.94517,1.14376 -37.04536,9.94762 -5.20217,2.39778 -1.79145,3.05171 2.25587,2.01126 8.00036,-2.05677 15.77952,-1.24959 15.79118,2.50049 0.0911,29.45342 -2.38503,51.6177 -4.15844,67.70361 5.29549,3.47622 4.12307,9.15423 -1.27743,12.44811 -0.27801,3.2409 -0.46204,6.13668 -0.46204,8.61583 0,10.26132 8.45258,14.6059 14.54091,14.59528 10.10449,-0.0199 21.60872,-9.404 30.41363,-18.50909 -0.0161,-2.97927 0.0933,-5.90679 0.38051,-8.7789 2.63819,1.40257 3.41672,2.30324 4.26714,3.72356 25.87391,-29.32922 30.91028,-56.13528 32.31618,-57.91907 3.41475,-4.33277 3.53748,-1.94847 3.80509,5.70766 0.73111,20.91498 -0.43408,36.47947 -2.82664,58.43546 -1.27503,11.70034 -2.79994,20.59511 -5.21842,25.14084 -1.25303,2.35481 -2.3274,6.283 3.58766,1.95691 3.83457,-2.80449 4.61743,-10.09977 7.31123,-15.57373 3.0016,1.78227 6.26068,-6.69862 8.31687,-10.46402 3.08367,-0.0485 7.23595,-4.86139 8.18096,-10.35531 5.40968,-31.44965 4.18561,-76.06036 4.18561,-76.69995 0,-9.58614 -14.87746,-15.01739 -21.19985,-15.16604 z"
           id="path3427"
           inkscape:connector-curvature="0" />
        <path
           style="color:#000000;display:inline;overflow:visible;visibility:visible;vector-effect:none;fill:#301b0b;fill-opacity:1;fill-rule:nonzero;stroke:none;stroke-width:1;stroke-linecap:butt;stroke-linejoin:miter;stroke-miterlimit:4;stroke-dasharray:none;stroke-dashoffset:0;stroke-opacity:1;marker:none;enable-background:accumulate;font-variant-east_asian:normal"
           d="m 883.71042,661.34119 c -8.78739,-0.11759 -23.5918,3.82868 -30.06029,7.96354 5.46752,1.21501 13.69723,3.17202 13.67113,8.83326 -0.0184,4.07337 -0.033,8.07916 -0.0542,12.09479 2.67218,1.08487 4.82112,2.15937 5.43585,3.56048 0.70545,1.6086 -0.61891,3.67029 -5.51743,6.79483 -0.0287,2.84634 -0.0605,5.7051 -0.10872,8.61583 -14.30358,0.96256 -28.17706,1.05173 -42.67148,2.03844 0.72147,-8.03517 1.16841,-15.88482 1.08717,-22.6947 -0.18383,-15.4118 -3.79953,-22.88008 -10.57274,-25.27674 -6.98573,-2.47185 -27.28448,4.22894 -35.79513,10.46403 10.29144,-0.6218 17.8508,-1.6516 18.31884,3.50612 0.42621,4.69666 0.68049,9.98209 0.81538,15.65528 1.7586,-1.08138 3.40321,-1.48285 4.5933,-0.78821 3.86022,2.25319 -0.403,9.25115 -4.51176,14.40502 -0.0924,11.43792 -0.5565,23.78035 -1.22307,35.9582 1.74052,3.07943 3.12477,6.21835 2.66357,9.59429 -0.38766,2.83761 -2.09728,5.21797 -3.75073,7.58303 -0.32387,4.63817 -0.65432,9.2075 -1.00564,13.56246 -0.51912,6.43513 -1.4001,14.51278 -3.04408,20.52036 -2.51706,9.198 1.57221,6.13294 4.72919,1.19589 2.26444,-3.54124 1.2097,-10.80766 2.58204,-11.63274 3.69864,-2.22373 7.08227,-1.74473 8.72455,-9.45839 5.29019,-2.1726 9.60988,-7.89245 10.16505,-12.58401 0.65132,-5.50411 1.90339,-14.06985 3.20716,-23.83623 2.72969,-0.11454 5.67845,-0.26843 8.64301,-0.43487 0.40283,-5.28384 1.69753,-10.28706 4.18561,-10.43685 3.01185,-0.18131 2.6136,5.85796 2.17434,10.02916 3.84301,-0.28698 7.44272,-0.62483 10.24659,-1.06 6.78289,-1.05267 5.95007,-2.56384 6.65892,-4.81072 5.02626,-0.98841 9.26962,-2.46455 13.3179,-3.72357 -0.47009,13.39311 -1.28208,28.12523 -2.77237,45.82427 -0.44687,5.30874 -0.94253,9.49064 -1.46759,15.19323 -0.7185,7.80016 3.82588,9.19368 6.03371,-3.64202 0.36808,-2.13956 1.41297,-7.94856 5.70774,-10.00199 5.4369,-2.59955 4.79834,-6.9448 5.68042,-9.15941 3.85198,-0.0536 9.16729,-2.62933 10.43685,-14.02451 0.16612,-1.49135 0.34624,-3.20467 0.51645,-4.78356 -1.90882,0.005 -3.84711,-0.34127 -5.87073,-1.27742 1.21894,-2.19505 4.18509,-6.64962 7.06662,-10.40967 2.79524,-29.19729 4.78999,-64.86622 -1.98413,-71.75332 -1.06517,-1.08288 -3.32214,-1.56438 -6.25124,-1.60358 z"
           id="path3437"
           inkscape:connector-curvature="0" />
        <path
           style="color:#000000;display:inline;overflow:visible;visibility:visible;vector-effect:none;fill:#301b0b;fill-opacity:1;fill-rule:nonzero;stroke:none;stroke-width:1;stroke-linecap:butt;stroke-linejoin:miter;stroke-miterlimit:4;stroke-dasharray:none;stroke-dashoffset:0;stroke-opacity:1;marker:none;enable-background:accumulate;font-variant-east_asian:normal"
           d="m 1124.4374,663.89605 c -1.352,-0.0167 -2.5447,0.45853 -3.4791,1.52204 -1.642,-0.73848 -4.6219,-1.14465 -9.5942,-0.81539 -48.2351,3.19421 -72.9064,39.97724 -77.325,70.17692 3.6431,3.10196 2.9904,7.47891 -0.7067,10.57274 0.5467,24.66767 19.9283,38.20852 36.828,37.23563 4.9258,-0.28358 11.9472,-0.75416 20.1942,-6.14252 -1.4749,-4.99945 2.921,-7.79753 8.3439,-6.90354 3.2351,-3.27483 6.587,-7.39896 10.0293,-12.58401 -0.134,1.28651 -0.2728,2.63464 -0.4077,3.88664 -1.3209,12.24914 1.8807,26.14897 17.9383,26.33673 7.5624,0.0884 25.7744,-14.42002 22.4228,-15.16605 2.6494,-2.72336 2.7934,-5.96987 4.9468,-8.643 3.2578,-4.04513 0.083,-3.10864 3.3429,-7.85482 1.177,-1.71365 3.6199,-5.17884 4.7293,-6.93072 1.705,-2.69281 -0.7939,-3.35795 -2.6093,-1.22307 -10.3505,12.17238 -23.5814,20.7993 -23.8633,12.2035 -0.2048,-6.244 0.1086,-17.36347 0.7338,-29.92439 -4.3851,3.09579 -8.1407,4.93088 -5.5717,-0.89691 1.133,-2.57042 3.7714,-5.14263 6.0065,-7.25688 0.7474,-12.85919 1.7697,-26.47831 2.9353,-37.83356 0.1883,-1.82856 -0.046,-3.7399 -0.5978,-5.59893 -0.5337,-3.05115 -2.0866,-5.84677 -4.5118,-8.12661 0,-0.005 0,-0.022 0,-0.0272 -0.032,-0.0304 -0.076,-0.0513 -0.1088,-0.0815 -2.9692,-3.47453 -6.6785,-5.88807 -9.6757,-5.92508 z m -7.0395,7.93635 c -0.3914,1.81471 -0.1028,4.25246 0.054,8.42558 -0.5689,3.65707 -1.1014,7.32635 -1.6036,11.0076 -2.9224,11.64342 -6.3265,21.42177 -9.9205,29.65261 0.06,1.86151 0.2006,3.5679 0.1088,4.78356 -0.5325,7.05035 -4.6371,9.32673 -8.779,11.82298 -9.7364,15.4656 -19.3563,21.68189 -23.9992,23.42855 -8.3191,3.12964 -15.834,-8.99273 -15.0845,-23.07521 0.8208,-15.43637 10.0269,-30.81381 22.0967,-42.97046 0.067,-6.22779 3.0131,-10.73648 10.5727,-9.29531 8.7853,-6.70857 18.1688,-11.625 26.5542,-13.7799 z"
           id="path3478"
           inkscape:connector-curvature="0" />
      </g>
      <g
         id="g48"
         style="vector-effect:none;fill:#301b0b;fill-opacity:1;stroke:none;stroke-width:1;stroke-linecap:butt;stroke-linejoin:miter;stroke-miterlimit:4;stroke-dasharray:none;stroke-dashoffset:0;stroke-opacity:1;font-variant-east_asian:normal">
        <path
           style="color:#000000;display:inline;overflow:visible;visibility:visible;vector-effect:none;fill:#301b0b;fill-opacity:1;fill-rule:nonzero;stroke:none;stroke-width:1;stroke-linecap:butt;stroke-linejoin:miter;stroke-miterlimit:4;stroke-dasharray:none;stroke-dashoffset:0;stroke-opacity:1;marker:none;enable-background:accumulate;font-variant-east_asian:normal"
           d="m 1809.7631,661.34119 c -10.08,0.23775 -26.7112,8.19665 -32.4249,12.14915 -1.3623,0.94232 -1.0737,3.10943 1.1959,2.66357 5.5956,-1.09924 14.3811,-4.4628 15.5194,8.5343 0.9941,11.35091 1.5366,23.66486 1.8209,36.01254 2.6329,3.27779 4.4369,6.06996 2.3646,12.3394 -0.6659,2.01448 -1.3782,3.27975 -2.12,3.99536 0.035,7.87423 -0.019,15.61305 -0.1359,22.93932 -9.3714,1.69044 -20.3301,5.08335 -20.3301,9.29531 0,8.83102 10.1258,12.76353 19.7594,13.99733 -0.5979,17.66585 -1.3589,29.6526 -1.3589,29.6526 -12.1423,1.56245 -13.2959,5.91837 -13.9159,9.94763 -0.6634,4.31089 3.6139,9.33047 13.9159,14.70398 12.5223,-1.0436 46.9499,-2.43338 46.7755,-11.19786 4.8202,-1.99267 12.9584,-3.67259 14.1332,-6.93072 3.865,-2.24172 4.493,-4.74336 11.062,-7.50148 2.5807,-1.08357 10.5317,-6.5601 3.5061,-5.13689 -20.6304,4.17924 -33.7891,2.47858 -50.3632,3.45177 0,-3.35619 0.5312,-14.64795 1.0871,-29.29926 7.193,-2.06962 14.6051,-5.22036 21.7979,-9.21379 -1.0046,-3.28597 -2.122,-7.49724 -2.4734,-9.07788 3.5767,1.50028 4.8783,3.7307 6.5502,6.68611 24.276,-14.72107 45.0633,-38.64211 45.0633,-61.64262 0,-16.11863 -7.294,-30.14751 -23.5101,-37.07255 -12.2134,2.30954 -9.093,0.93945 -10.4097,-3.17998 -10.3019,-2.08377 -23.1171,-1.9707 -38.7033,1.05999 -0.7594,-5.53445 -3.9296,-7.29033 -8.806,-7.17533 z m 37.2899,24.02649 c 11.9051,0 24.7332,2.34317 24.7332,18.67217 0,17.28869 -23.2998,39.68459 -50.6894,50.03707 0.4571,-20.07294 0.5676,-42.4296 -0.462,-61.94159 6.7066,-3.20502 20.9934,-6.76765 26.4182,-6.76765 z"
           id="path232510"
           inkscape:connector-curvature="0"
           sodipodi:nodetypes="scssccccsccccccsscccccscccsssccs" />
        <path
           style="color:#000000;display:inline;overflow:visible;visibility:visible;vector-effect:none;fill:#301b0b;fill-opacity:1;fill-rule:nonzero;stroke:none;stroke-width:1;stroke-linecap:butt;stroke-linejoin:miter;stroke-miterlimit:4;stroke-dasharray:none;stroke-dashoffset:0;stroke-opacity:1;marker:none;enable-background:accumulate;font-variant-east_asian:normal"
           d="m 1729.6929,668.16319 c -2.5438,0 -4.9938,0.17741 -7.3384,0.48924 -4.2335,3.61139 -8.0628,6.36064 -13.943,3.96816 -24.1312,11.10302 -33.755,40.37404 -33.9469,58.62573 -0.2715,25.79527 10.3794,51.26801 36.23,51.77654 27.5754,0.54257 65.1213,-21.52608 65.1215,-57.48419 0,-2.80813 -0.1077,-5.61979 -0.3533,-8.37122 -3.9297,-4.72028 -8.099,-11.13729 -3.5333,-17.44911 -6.0578,-18.15324 -19.4937,-31.55515 -42.2366,-31.55515 z m 5.7077,19.86806 c 15.4737,-0.30771 13.9832,20.32217 13.8886,24.65162 -0.7776,29.39355 -24.1407,45.19915 -35.8223,45.19915 -14.992,0 -15.2523,-13.17735 -13.7256,-29.29927 0.1759,-1.85715 0.4967,-3.78214 0.9513,-5.73483 -4.8038,-4.71773 -6.7102,-10.37813 -5.4903,-10.79018 4.0912,-1.38181 6.6533,0.62143 8.181,2.5005 5.6399,-13.5663 17.175,-26.23183 32.0173,-26.52699 z"
           id="path232537"
           inkscape:connector-curvature="0" />
        <path
           style="color:#000000;display:inline;overflow:visible;visibility:visible;vector-effect:none;fill:#301b0b;fill-opacity:1;fill-rule:nonzero;stroke:none;stroke-width:1;stroke-linecap:butt;stroke-linejoin:miter;stroke-miterlimit:4;stroke-dasharray:none;stroke-dashoffset:0;stroke-opacity:1;marker:none;enable-background:accumulate;font-variant-east_asian:normal"
           d="m 1928.0473,663.10784 c -10.3288,0 -19.3857,3.19694 -28.8916,8.72456 -4.2517,2.47253 -1.6896,4.11593 2.6364,3.64202 5.9329,-0.64992 12.3122,-1.21053 12.3122,7.44712 0,10.52676 -0.5136,36.98334 -2.2015,64.1703 1.8919,4.24123 3.9066,9.39181 3.9953,12.12196 0.073,2.23422 -1.1733,2.81916 -4.8106,-0.0815 -1.2959,17.0829 -3.1066,33.58565 -5.599,45.66119 -0.9887,4.79032 5.5542,-0.16367 7.9907,-10.76299 1.4417,-0.37176 5.6225,1.97798 8.8061,-6.74046 2.3983,5.8e-4 5.6924,-0.83649 6.3871,-3.31588 1.0699,-3.81879 5.0189,-2.06242 5.436,-4.29432 1.9041,-10.19222 2.9838,-24.31566 3.5876,-39.35561 3.9319,5.83593 8.4672,13.06085 13.345,19.8137 2.6601,1.32748 5.9277,2.75015 9.4856,4.97381 1.0091,1.92362 1.1268,5.02612 1.0056,7.71892 5.1965,5.22523 10.5486,8.75172 15.7911,8.75172 5.161,0 13.3716,-3.27738 17.9928,-7.01225 1.7738,-1.43362 1.6581,-3.13051 2.4461,-4.5933 1.103,-2.04739 2.7288,-3.8054 2.7723,-5.43585 6.2668,-5.32109 6.2832,-7.46791 5.0553,-8.94199 0.873,-1.74735 3.2128,-3.22976 4.0226,-4.83792 1.8766,-3.727 -1.5619,-3.45939 -3.0714,-1.92972 -5.1882,5.258 -15.5222,13.12759 -22.1511,13.12759 -5.2358,0 -18.4675,-21.30558 -26.228,-34.81666 3.0427,-2.94791 6.1169,-6.68765 9.1594,-10.73582 -1.6638,-9.69039 1.2549,-9.78121 4.9468,-6.84918 9.8136,-13.92919 19.1341,-28.63629 26.391,-28.29364 2.5859,4.03569 -1.0926,15.15075 -7.2297,15.43784 -3.3871,0.15843 -3.6741,3.12492 0.054,2.82664 11.0076,-0.88061 19.0254,-10.06403 19.0254,-20.52035 0,-10.73179 -5.739,-12.58401 -14.2419,-12.58401 -18.2379,0 -26.6799,13.99835 -48.678,37.37151 -3.9526,4.19928 -6.684,8.59707 -9.241,7.882 0.049,-5.00946 0.077,-9.83293 0.082,-14.51375 -2.5473,-7.92406 -6.6118,-12.67012 -0.027,-15.68244 -0.01,-3.39754 -0.027,-7.19007 -0.027,-9.9748 0,-5.97253 -4.3939,-8.3984 -10.3282,-8.3984 z"
           id="path232558"
           inkscape:connector-curvature="0" />
        <path
           style="color:#000000;display:inline;overflow:visible;visibility:visible;vector-effect:none;fill:#301b0b;fill-opacity:1;fill-rule:nonzero;stroke:none;stroke-width:1;stroke-linecap:butt;stroke-linejoin:miter;stroke-miterlimit:4;stroke-dasharray:none;stroke-dashoffset:0;stroke-opacity:1;marker:none;enable-background:accumulate;font-variant-east_asian:normal"
           d="m 1671.0944,581.62434 c -17.024,-0.15117 -32.8938,2.51978 -41.9649,8.37123 -0.7987,5.90591 -2.4667,8.39335 -7.9636,10.13787 -16.7929,39.7325 -29.2622,85.73574 -45.199,111.08175 0,0 -12.6282,-61.14536 -30.2778,-97.84544 -2.239,0.90843 -4.4074,0.84434 -7.0937,-1.5764 0.6219,-2.79959 1.7385,-4.30543 3.2071,-5.95226 -0.8055,-1.43847 -1.624,-2.81831 -2.4461,-4.13125 -7.0777,-11.30039 -16.7369,-17.36604 -21.4988,-17.04141 -13.302,0.90681 -29.1531,2.85093 -42.1823,8.83327 -4.4636,2.0494 -7.9541,6.31424 -2.9625,5.29996 14.9675,-3.04129 19.3862,6.9394 21.4987,9.40403 4.4598,21.3429 2.2584,71.14969 -0.6523,110.51098 3.8918,4.47567 3.9162,6.39125 4.2128,8.04507 0.2858,1.5901 -2.2089,0.94913 -4.7564,-0.59795 -1.2504,15.87952 -2.5704,29.54851 -3.5061,37.96946 -9.1457,-0.36649 -13.8614,6.24658 -13.8613,9.62147 0,5.70529 8.244,13.72555 11.986,13.72555 7.931,0 18.7426,-1.73004 28.0489,-4.18562 1.4803,-3.83494 5.2537,-7.33558 11.0349,-3.58767 3.7353,-1.52446 6.5582,-3.11017 7.7461,-4.64765 8.8353,-0.80471 10.8392,-6.81286 15.0573,-7.85481 4.4219,-1.09216 5.762,-5.41658 -0.9785,-4.04972 -8.8147,1.78758 -18.8021,2.87819 -25.9018,1.7123 1.8914,-28.84103 2.8368,-110.13126 0,-135.18977 11.4418,16.88532 19.4383,36.08062 25.3039,55.03805 6.1423,0.0104 8.7774,1.6985 3.9953,7.96353 -0.4431,0.58068 -0.8345,1.08605 -1.2231,1.52205 8.8079,31.91507 12.093,61.8728 16.2534,77.32506 1.3368,5.01482 4.3974,2.19547 5.7348,0.19026 10.7512,-17.16993 19.724,-33.54429 27.2064,-48.51503 -0.1248,-0.0124 -0.2253,-0.0134 -0.3533,-0.0271 -3.5685,-10.70519 -0.8629,-12.79368 4.8922,-9.21377 20.2507,-42.43368 27.587,-71.5087 27.587,-71.5087 4.6811,33.86163 1.7705,91.52315 -0.2175,120.8391 -23.0051,-3.04161 -18.0722,7.81064 -17.286,11.60556 1.2936,6.23751 7.813,12.04043 11.0076,12.04043 6.2887,0 24.9404,-0.19886 26.5542,-6.27843 5.0684,-1.94712 13.2721,-6.12968 13.0733,-8.45275 3.5827,-1.99626 8.7735,-2.62429 11.7143,-4.91945 6.3262,-4.93786 3.0696,-4.9942 1.4133,-4.75638 -12.2677,1.76059 -15.443,1.26607 -21.8522,0.62513 0.8992,-5.78267 2.1595,-16.54545 3.3974,-29.97875 -2.0199,-2.28652 -3.607,-4.35524 -3.343,-6.33278 0.3281,-2.45538 3.0658,-4.85317 4.566,-8.23533 1.5899,-19.94316 2.9806,-43.33233 3.3703,-65.12157 -2.7237,-2.97691 -4.6427,-6.07441 0.1086,-13.75271 0,-0.009 3e-4,-0.018 0,-0.0271 -0.051,-14.39638 -0.6676,-27.5095 -2.0926,-37.64331 2.4248,-2.40159 3.7729,-2.49577 7.3384,-2.14717 8.0477,0.78687 12.7338,13.79108 6.7676,17.01424 -2.8279,1.52739 0.6761,1.74367 2.0928,1.14153 4.3536,-1.85036 8.3411,-2.06425 8.7245,-9.15942 4.6449,-1.7752 2.095,-6.08289 0.7883,-11.93171 4.7797,-3.21893 -9.7633,-15.29142 -17.0686,-15.35629 z"
           id="path232582"
           inkscape:connector-curvature="0" />
        <path
           style="color:#000000;display:inline;overflow:visible;visibility:visible;vector-effect:none;fill:#301b0b;fill-opacity:1;fill-rule:nonzero;stroke:none;stroke-width:1;stroke-linecap:butt;stroke-linejoin:miter;stroke-miterlimit:4;stroke-dasharray:none;stroke-dashoffset:0;stroke-opacity:1;marker:none;enable-background:accumulate;font-variant-east_asian:normal"
           d="m 2068.9538,664.38527 c -9.6442,0 -18.5018,2.4626 -26.2279,6.84918 -1.0055,7.63378 -4.5629,7.66981 -13.3179,10.65429 -10.5708,11.52218 -16.9807,27.84755 -17.2588,46.36786 -0.5328,35.46443 28.9319,51.50474 46.531,51.50474 7.9365,0 14.7074,-1.32573 20.3843,-3.58766 -0.1984,-8.90384 3.817,-7.15066 7.6647,-4.02254 9.7847,-6.66922 14.5925,-16.88166 14.7855,-27.17929 0.1104,-5.90381 0.9987,-18.11458 -7.0123,-17.61217 -2.1955,-2.91672 -3.5336,-7.8988 -7.7732,-9.21378 11.4026,-7.73917 13.677,-17.64101 13.8342,-26.58134 -4.1616,-3.00535 -6.3886,-7.00545 -1.8754,-11.00761 -3.3404,-8.04335 -11.7358,-16.17168 -29.7342,-16.17168 z m 0.897,14.92143 c 12.1677,0 11.9459,9.4782 11.7686,13.69836 -0.497,11.82697 -16.0928,14.31627 -44.6555,23.42855 1.6359,-16.35893 16.2356,-37.12691 32.8869,-37.12691 z m 0.2174,46.66684 c 5.2421,0.0878 11.3066,3.2144 11.3066,10.84453 0,14.85707 -12.4751,25.1952 -23.1568,25.1952 -14.963,0 -20.6361,-12.58537 -20.167,-27.4239 6.1291,-2.7241 20.5508,-5.97402 28.6198,-8.20815 1.0369,-0.28705 2.1877,-0.42794 3.3974,-0.40768 z"
           id="path232598"
           inkscape:connector-curvature="0" />
        <path
           style="color:#000000;display:inline;overflow:visible;visibility:visible;vector-effect:none;fill:#301b0b;fill-opacity:1;fill-rule:nonzero;stroke:none;stroke-width:1;stroke-linecap:butt;stroke-linejoin:miter;stroke-miterlimit:4;stroke-dasharray:none;stroke-dashoffset:0;stroke-opacity:1;marker:none;enable-background:accumulate;font-variant-east_asian:normal"
           d="m 1808.1209,837.31538 c 17.3728,-7.19703 19.053,-15.47643 33.9375,-5.55341 -10.121,5.12844 -23.6261,7.84484 -33.9375,5.55341 z"
           id="path3086"
           inkscape:connector-curvature="0" />
        <path
           style="color:#000000;display:inline;overflow:visible;visibility:visible;vector-effect:none;fill:#301b0b;fill-opacity:1;fill-rule:nonzero;stroke:none;stroke-width:1;stroke-linecap:butt;stroke-linejoin:miter;stroke-miterlimit:4;stroke-dasharray:none;stroke-dashoffset:0;stroke-opacity:1;marker:none;enable-background:accumulate;font-variant-east_asian:normal"
           d="m 2277.9082,663.21656 c -8.9235,0.63207 -17.01,3.71401 -25.4398,8.61584 -4.2517,2.47253 -1.6895,4.11593 2.6364,3.64202 5.9328,-0.64992 11.9751,-1.20397 12.3123,7.44712 0.4757,12.21024 0.7579,26.77571 0.5164,44.65558 2.2032,1.78489 3.9822,4.43674 3.7506,8.99634 -0.1807,3.5621 -1.0393,12.33413 -4.4844,18.72653 -0.2582,6.60025 -0.5735,13.44701 -0.9785,20.84651 -0.3885,7.08948 -1.1558,12.23805 -1.6308,17.55782 -0.3863,4.3226 5.9018,-0.0929 5.9522,-2.85383 0.052,-2.8313 4.5617,-3.86416 5.4903,-10.81736 3.4893,4.39866 6.24,-3.47222 7.9635,-11.60555 0.8937,-4.21726 3.7344,-7.62382 4.0225,-9.92044 0.8697,-6.92496 1.6134,-13.31881 2.2288,-19.35165 4.1619,6.10302 9.0687,13.93737 14.3507,21.22702 4.2369,-1.82645 6.6386,-1.99626 7.746,-0.95127 1.4762,1.393 0.689,4.95769 -0.9242,9.703 6.2449,7.20195 12.8159,12.44811 19.2158,12.44811 6.996,0 24.9641,-7.87222 22.6404,-12.96452 4.3636,-4.10358 7.3405,-9.8861 5.001,-11.1435 2.5254,-2.55149 4.9309,-6.35599 7.4199,-11.93171 1.7009,-3.81031 0.8192,-6.52035 -0.326,-4.70201 -3.4491,5.47544 -20.1702,20.24857 -26.799,20.24857 -5.156,0 -19.5528,-20.02248 -27.6141,-33.43053 3.854,-3.6211 7.7638,-8.52732 11.6056,-13.80707 -3.4985,-3.1227 -3.8107,-7.33649 0.8697,-8.58866 1.4899,0.39391 2.8111,0.98395 3.9955,1.68512 9.1309,-13.09424 17.7407,-26.0056 24.5428,-25.68443 2.586,4.03569 -1.0927,15.15075 -7.2297,15.43784 -3.387,0.15843 -3.6741,3.12492 0.054,2.82664 2.9768,-0.23815 5.7399,-1.07972 8.1811,-2.39177 2.2396,2.06499 5.4793,-2.24095 6.0609,-3.47896 0.5072,-1.07977 1.9225,-1.41236 2.7451,-3.07125 2.5934,-5.2318 3.6501,-8.95688 3.5877,-10.65428 -0.3075,-8.27179 -7.2883,-13.50811 -15.7912,-13.50811 -18.238,0 -26.6799,13.99836 -48.6781,37.37152 -3.5506,3.77236 -6.1157,7.69277 -8.4528,7.93635 0.8144,-14.29096 0.9785,-26.89541 0.9785,-40.22535 0,-3.11222 -1.6692,-5.25984 -4.1042,-6.60456 -1.1904,1.33997 -2.5632,2.31874 -4.5932,2.0928 -2.6578,-0.29579 -5.0154,-1.91133 -6.822,-3.77792 z"
           id="path3501"
           inkscape:connector-curvature="0" />
        <path
           style="color:#000000;display:inline;overflow:visible;visibility:visible;vector-effect:none;fill:#301b0b;fill-opacity:1;fill-rule:nonzero;stroke:none;stroke-width:1;stroke-linecap:butt;stroke-linejoin:miter;stroke-miterlimit:4;stroke-dasharray:none;stroke-dashoffset:0;stroke-opacity:1;marker:none;enable-background:accumulate;font-variant-east_asian:normal"
           d="m 2211.6452,662.37401 c -4.4355,-0.10426 -6.0698,3.05521 -8.9964,7.41994 -0.724,1.07976 -1.6931,3.11057 -2.8538,5.70766 1.2358,8.78779 -2.4267,16.16873 -7.5831,17.42192 -6.6903,15.05684 -15.8381,33.53316 -26.7443,44.16634 -4.7495,4.63046 -12.7608,8.51133 -12.2851,3.61484 0.9736,-10.0174 1.9025,-26.0434 1.9025,-60.33802 0,-7.48274 -1.6865,-17.3132 -6.6045,-17.3132 -11.4014,0 -17.9453,1.14376 -37.0454,9.94762 -5.2022,2.39778 -1.7915,3.05171 2.256,2.01126 8.0001,-2.05677 15.7794,-1.24959 15.7911,2.50049 0.029,9.44954 -0.231,18.11591 -0.6252,26.1193 3.3706,3.59266 5.3994,7.83394 5.4087,9.45839 0.023,3.91446 -2.8467,3.32913 -6.0338,1.38615 -1.7321,24.5836 -4.6476,41.45026 -4.6476,51.80371 0,10.26132 8.4526,14.6059 14.5409,14.59528 9.0195,-0.0178 19.1672,-7.49088 27.5054,-15.57373 -0.8739,-3.12824 -1.4359,-6.23504 -0.924,-9.59429 0.295,-1.93662 3.0551,1.8616 5.2455,5.19125 0.988,-1.05184 1.9519,-2.11071 2.8539,-3.12562 26.2243,-29.5061 31.2836,-56.58812 32.6965,-58.38111 3.4149,-4.33277 3.5377,-1.94847 3.8052,5.70766 0.7311,20.91498 -0.434,36.47947 -2.8267,58.43546 -1.2746,11.70034 -2.7999,20.59511 -5.2184,25.14084 -1.253,2.35481 -2.3272,6.283 3.5877,1.95691 3.8346,-2.80449 4.6175,-10.09977 7.3112,-15.57373 3.0017,1.78227 6.2608,-6.69862 8.3169,-10.46402 3.0837,-0.0485 7.236,-4.86139 8.1809,-10.35531 0.7224,-4.19865 1.3166,-8.65012 1.8211,-13.18196 -4.4746,-3.29338 -2.1878,-7.94827 1.1959,-13.15477 1.8311,-25.42951 1.1685,-49.89078 1.1688,-50.36322 0,-9.58614 -14.8778,-15.01739 -21.1999,-15.16604 z"
           id="path3507"
           inkscape:connector-curvature="0" />
      </g>
    </g>
  </g>
</svg>
