<?xml version="1.0" encoding="UTF-8" standalone="no"?>
<svg
   xmlns:dc="http://purl.org/dc/elements/1.1/"
   xmlns:cc="http://creativecommons.org/ns#"
   xmlns:rdf="http://www.w3.org/1999/02/22-rdf-syntax-ns#"
   xmlns:svg="http://www.w3.org/2000/svg"
   xmlns="http://www.w3.org/2000/svg"
   xmlns:xlink="http://www.w3.org/1999/xlink"
   xmlns:sodipodi="http://sodipodi.sourceforge.net/DTD/sodipodi-0.dtd"
   xmlns:inkscape="http://www.inkscape.org/namespaces/inkscape"
   id="svg2"
   version="1.1"
   inkscape:version="1.0.2 (e86c870879, 2021-01-15)"
   width="2481"
   height="3503"
   sodipodi:docname="E34P09.svg">
  <metadata
     id="metadata8">
    <rdf:RDF>
      <cc:Work
         rdf:about="">
        <dc:format>image/svg+xml</dc:format>
        <dc:type
           rdf:resource="http://purl.org/dc/dcmitype/StillImage" />
        <dc:title />
      </cc:Work>
    </rdf:RDF>
  </metadata>
  <defs
     id="defs6">
    <filter
       style="color-interpolation-filters:sRGB"
       id="filter4375-4-1-1-1-9-5-8-8-5-5-3-3-3-0"
       inkscape:label="soundFX1">
      <feFlood
         id="feFlood4377-7-9-0-8-1-7-3-1-2-7-6-6-5-96"
         flood-opacity="1"
         flood-color="rgb(52,52,52)"
         result="flood" />
      <feComposite
         id="feComposite4379-3-8-8-2-77-4-1-0-6-4-7-7-6-3"
         in2="SourceGraphic"
         in="flood"
         operator="in"
         result="composite1"
         baseFrequency="0.053999999999999999 0.053999999999999999" />
      <feMorphology
         id="feMorphology4393-1-0-49-8-9-3-0-1-9-9-5-5-2-8"
         operator="dilate"
         radius="2.5856550817276021"
         result="result3" />
      <feComposite
         id="feComposite4385-9-5-7-0-8-8-7-5-4-9-3-3-9-5"
         in2="result3"
         in="SourceGraphic"
         operator="over"
         result="fbSourceGraphic" />
      <feColorMatrix
         result="fbSourceGraphicAlpha"
         in="fbSourceGraphic"
         values="0 0 0 -1 0 0 0 0 -1 0 0 0 0 -1 0 0 0 0 1 0"
         id="feColorMatrix4544-9-4-4-5-5-1-6" />
      <feTurbulence
         id="feTurbulence4546-3-6-5-6-6-2-1"
         type="fractalNoise"
         numOctaves="4"
         seed="147"
         baseFrequency="0.046080819231719368"
         result="turbulence" />
      <feDisplacementMap
         id="feDisplacementMap4548-8-0-9-2-2-7-1"
         in2="turbulence"
         in="fbSourceGraphic"
         scale="13.20326"
         yChannelSelector="G"
         xChannelSelector="R"
         result="fbSourceGraphic" />
      <feColorMatrix
         result="fbSourceGraphicAlpha"
         in="fbSourceGraphic"
         values="0 0 0 -1 0 0 0 0 -1 0 0 0 0 -1 0 0 0 0 1 0"
         id="feColorMatrix4670-7-7-3-9-9-0-5" />
      <feFlood
         id="feFlood4672-4-4-5-1-1-9-9"
         flood-opacity="1"
         flood-color="rgb(28,28,28)"
         result="flood"
         in="fbSourceGraphic" />
      <feComposite
         id="feComposite4674-8-3-7-2-2-3-8"
         in2="fbSourceGraphic"
         in="flood"
         operator="in"
         result="composite1" />
      <feGaussianBlur
         id="feGaussianBlur4676-3-7-08-7-7-6-4"
         in="composite1"
         stdDeviation="0"
         result="blur" />
      <feOffset
         id="feOffset4678-6-9-1-0-0-0-8"
         dx="-8.3919392296330813"
         dy="1.5526614972014983"
         result="offset" />
      <feComposite
         id="feComposite4680-4-0-9-9-9-6-1"
         in2="offset"
         in="fbSourceGraphic"
         operator="over"
         result="composite2" />
    </filter>
    <filter
       style="color-interpolation-filters:sRGB"
       id="filter4375-4-1-1-1-9-5-8-8-5-5-3-3-3-0-6"
       inkscape:label="soundFX1">
      <feFlood
         id="feFlood4377-7-9-0-8-1-7-3-1-2-7-6-6-5-96-3"
         flood-opacity="1"
         flood-color="rgb(52,52,52)"
         result="flood" />
      <feComposite
         id="feComposite4379-3-8-8-2-77-4-1-0-6-4-7-7-6-3-2"
         in2="SourceGraphic"
         in="flood"
         operator="in"
         result="composite1"
         baseFrequency="0.053999999999999999 0.053999999999999999" />
      <feMorphology
         id="feMorphology4393-1-0-49-8-9-3-0-1-9-9-5-5-2-8-0"
         operator="dilate"
         radius="2.5856550817276021"
         result="result3" />
      <feComposite
         id="feComposite4385-9-5-7-0-8-8-7-5-4-9-3-3-9-5-6"
         in2="result3"
         in="SourceGraphic"
         operator="over"
         result="fbSourceGraphic" />
      <feColorMatrix
         result="fbSourceGraphicAlpha"
         in="fbSourceGraphic"
         values="0 0 0 -1 0 0 0 0 -1 0 0 0 0 -1 0 0 0 0 1 0"
         id="feColorMatrix4544-9-4-4-5-5-1-6-1" />
      <feTurbulence
         id="feTurbulence4546-3-6-5-6-6-2-1-5"
         type="fractalNoise"
         numOctaves="4"
         seed="147"
         baseFrequency="0.046080819231719368"
         result="turbulence" />
      <feDisplacementMap
         id="feDisplacementMap4548-8-0-9-2-2-7-1-5"
         in2="turbulence"
         in="fbSourceGraphic"
         scale="13.20326"
         yChannelSelector="G"
         xChannelSelector="R"
         result="fbSourceGraphic" />
      <feColorMatrix
         result="fbSourceGraphicAlpha"
         in="fbSourceGraphic"
         values="0 0 0 -1 0 0 0 0 -1 0 0 0 0 -1 0 0 0 0 1 0"
         id="feColorMatrix4670-7-7-3-9-9-0-5-4" />
      <feFlood
         id="feFlood4672-4-4-5-1-1-9-9-7"
         flood-opacity="1"
         flood-color="rgb(28,28,28)"
         result="flood"
         in="fbSourceGraphic" />
      <feComposite
         id="feComposite4674-8-3-7-2-2-3-8-6"
         in2="fbSourceGraphic"
         in="flood"
         operator="in"
         result="composite1" />
      <feGaussianBlur
         id="feGaussianBlur4676-3-7-08-7-7-6-4-5"
         in="composite1"
         stdDeviation="0"
         result="blur" />
      <feOffset
         id="feOffset4678-6-9-1-0-0-0-8-6"
         dx="-8.3919392296330813"
         dy="1.5526614972014983"
         result="offset" />
      <feComposite
         id="feComposite4680-4-0-9-9-9-6-1-9"
         in2="offset"
         in="fbSourceGraphic"
         operator="over"
         result="composite2" />
    </filter>
  </defs>
  <sodipodi:namedview
     pagecolor="#ffffff"
     bordercolor="#666666"
     borderopacity="1"
     objecttolerance="10"
     gridtolerance="10"
     guidetolerance="10"
     inkscape:pageopacity="0"
     inkscape:pageshadow="2"
     inkscape:window-width="1920"
     inkscape:window-height="967"
     id="namedview4"
     showgrid="false"
     inkscape:zoom="0.748119"
     inkscape:cx="1902.646"
     inkscape:cy="678.65563"
     inkscape:window-x="0"
     inkscape:window-y="72"
     inkscape:window-maximized="1"
     inkscape:current-layer="layer1"
     inkscape:document-rotation="0"
     inkscape:snap-global="false"
     borderlayer="true" />
  <g
     inkscape:groupmode="layer"
     id="layer2"
     inkscape:label="artwork"
     sodipodi:insensitive="true">
    <image
       sodipodi:absref="/felles/omsetting/pepper-carrot/webcomics/new-ep34_The-Knighting-of-Shichimi/lang/gfx_Pepper-and-Carrot_by-David-Revoy_E34P09.png"
       xlink:href="../gfx_Pepper-and-Carrot_by-David-Revoy_E34P09.png"
       width="2481"
       height="3503"
       id="image10"
       x="0"
       y="0" />
  </g>
  <g
     inkscape:groupmode="layer"
     id="layer3"
     inkscape:label="speechbubbles"
     style="display:inline">
    <path
       style="color:#000000;display:inline;overflow:visible;visibility:visible;fill:#ffffff;fill-opacity:1;fill-rule:nonzero;stroke:none;stroke-width:1.06937px;marker:none;enable-background:accumulate"
       d="m 1455.6562,2300.2705 c -23.5398,-5.6849 -91.4158,-50.7128 -8.1689,-48.3609 -61.2676,-18.9462 -53.123,-56.6526 -2.7748,-78.6751 -66.0394,4.5012 -112.7225,0.6567 -78.6942,-38.2605 -88.7848,3.8037 -137.6343,10.8618 -123.0598,-30.2113 -44.9988,45.1056 -88.1608,36.6873 -99.2796,-16.0781 -7.764,37.2692 -91.5663,35.0452 -188.28757,13.4345 9.30665,15.4294 99.16377,57.945 -34.24037,48.3622 52.7309,27.5066 55.07465,41.6164 -34.65768,53.2529 45.73087,12.3743 74.89414,29.1369 3.62104,55.7682 46.18158,8.4112 119.24278,5.9453 30.5211,56.8805 58.49327,-24.0733 156.06658,-6.6795 114.01118,32.1508 114.6224,-43.6308 136.6679,-31.9971 153.9755,-0.7343 42.6188,-45.7765 104.2106,-40.5916 140.0352,-13.982 -17.4156,-40.5664 74.3653,-33.5641 126.9989,-33.5469 z"
       id="path3549-3-78-5"
       inkscape:connector-curvature="0"
       sodipodi:nodetypes="ccccccccccccccc" />
    <path
       style="color:#000000;display:inline;overflow:visible;visibility:visible;fill:#ffffff;fill-opacity:1;fill-rule:nonzero;stroke:none;stroke-width:1.53798px;marker:none;enable-background:accumulate"
       d="m 1153.9372,2415.5962 c -36.9414,-0.2203 -82.2234,5.0311 -113.4812,26.1422 -33.8464,23.1308 -50.60646,55.0408 -60.11498,104.2488 -7.70948,39.8977 6.08445,84.2717 21.94748,121.6905 25.6274,45.15 47.4783,66.5005 93.8219,78.6265 28.0762,6.8614 57.2901,8.7893 85.9387,5.1487 19.7841,-2.3037 39.6937,-6.1177 58.0135,-14.479 22.8486,-10.9149 47.2397,-24.7124 59.8855,-46.6232 26.3238,-45.61 30.376,-108.0763 21.6727,-156.4903 -12.9964,-34.0579 -18.2026,-60.4337 -43.1205,-80.74 -24.5696,-20.3766 -65.7942,-31.8504 -96.9748,-35.8281 -9.1432,-1.2357 -18.3701,-1.7591 -27.5883,-1.6961 z"
       id="path3365-3"
       inkscape:connector-curvature="0"
       sodipodi:nodetypes="cssccccacccc" />
    <path
       style="display:inline;fill:#ffffff;fill-rule:evenodd;stroke:none;stroke-width:1.17316px;stroke-linecap:butt;stroke-linejoin:miter;stroke-opacity:1"
       d="m 109.73501,2160.8096 c 32.37243,30.3179 36.33696,51.5539 8.28625,40.0601 27.29776,19.6797 21.65049,24.286 1.59704,33.6595 53.73084,47.8785 40.07809,85.4294 24.8405,122.7374 55.47541,-24.4147 58.56194,6.1781 73.12144,24.7253 11.45711,-43.0058 18.1995,-17.5152 23.62656,27.0878 11.48723,-55.0643 20.18165,-60.5868 26.3323,-20.9335 11.28377,-35.4294 26.55814,-50.6472 46.41874,-42.634 36.41269,-36.8388 51.26147,4.0906 73.07991,19.8844 -2.20913,-40.972 13.17705,-54.1712 50.66096,-19.1817 -0.99451,-24.8215 25.1019,-28.291 53.24759,2.9716 -39.40002,-63.9468 19.60735,-10.1328 28.39811,-7.3807 -19.15163,-33.0838 -3.99073,-59.8422 70.76367,-22.7115 -23.78662,-5.1176 -40.04407,-44.4138 -7.90642,-63.8338 -35.77405,-10.0223 -35.39712,-28.0683 -16.02865,-50.3299 -40.84583,-22.9042 0.12724,-56.893 20.68483,-88.1155 -41.50772,19.5768 -74.64204,24.1615 -82.02572,-17.3597 -63.07853,42.632 -53.64244,23.014 -47.51242,6.234 -39.1979,45.8572 -46.19548,10.3489 -46.79433,-0.9301 -54.32038,51.7427 -103.25653,14.381 -125.23421,-9.3868 -9.11811,59.0915 -31.53748,40.2807 -54.01199,21.1487 16.75023,39.6983 -3.56113,39.5951 -26.29049,25.7742 9.56402,26.9557 -4.98846,53.8902 -43.88484,19.9782 14.00469,17.6427 -5.71032,30.4182 -51.36883,-1.464 z"
       id="path4289-9"
       inkscape:connector-curvature="0"
       sodipodi:nodetypes="cccccccccccccccccccccccc" />
    <path
       style="fill:#ffffff;fill-rule:evenodd;stroke:none;stroke-width:1.82px;stroke-linecap:butt;stroke-linejoin:miter;stroke-opacity:1"
       d="m 945.39118,1282.3778 c 45.04929,96.8401 62.13732,89.3785 69.14052,44.2976 12.3094,16.2831 14.9297,64.039 50.1516,5.8938 21.7481,42.2293 39.2867,36.8387 53.3762,-7.5694 37.7796,80.0354 60.8159,33.8056 81.0888,15.9424 51.1574,44.766 191.8577,51.5701 253.4473,-6.1587 13.0449,20.5803 26.9454,36.7699 53.0987,-2.0432 -2.5587,47.0006 31.5686,7.9144 60.5469,-51.9183 -3.7118,35.1923 -22.768,95.1751 16.8063,60.4327 4.5819,25.1483 0.962,58.4222 85.609,4.2466 -24.6198,71.6616 46.6135,-1.281 115.6379,-70.8908 -43.5001,60.6968 -102.9319,135.3667 -28.642,110.9659 -41.7661,50.8499 -38.0246,69.5086 80.5466,67.0004 -112.2257,26.1862 -139.7711,60.4828 -72.6875,130.0072 -48.5387,-32.7413 -118.2377,-37.1845 -58.3226,7.962 -60.3756,-36.1552 -69.0736,-18.6462 -47.5871,10.9777 -65.9178,-52.0469 -34.9192,-10.3218 -31.2639,30.7598 -47.453,-25.8797 -79.2213,-55.6022 -72.2354,10.6394 -49.3858,-50.831 -57.8078,-32.6041 -63.6135,-9.9669 -87.6847,-76.816 -76.3413,-30.9127 -93.1919,-19.9484 -25.3535,-28.4186 -24.7118,-5.0961 -20.0379,26.2513 -24.2647,-33.2129 -46.2473,-46.0149 -62.3816,-6.5001 -15.2015,-18.2714 -30.1193,-44.1597 -47.4337,-5.7588 -20.9385,-20.9467 -43.0232,-29.2734 -70.0629,16.9586 -11.5007,-27.9307 -28.4703,-48.038 -85.3555,-11.0455 -10.7234,-59.9289 -59.4271,-50.2453 -120.49633,-17.8972 1.87459,-35.2132 -2.94896,-58.3466 -66.23994,23.9595 13.14912,-35.9693 28.12522,-73.8861 -10.20208,-54.9969 24.05022,-68.8182 -9.61375,-50.3844 -80.90649,-36.3205 72.82902,-40.0532 110.63635,-80.4335 40.30933,-79.783 48.33164,-39.9887 44.54107,-60.9415 22.75543,-59.1971 3.30087,-12.3564 42.65797,-34.7992 -12.47574,-33.9487 29.11655,-16.8301 72.06787,-11.9931 60.6215,-92.3514 z"
       id="path4656"
       inkscape:connector-curvature="0"
       sodipodi:nodetypes="ccccccccccccccccccccccccccccccccc" />
    <path
       style="fill:#ffffff;fill-rule:evenodd;stroke:none;stroke-width:0.88858px;stroke-linecap:butt;stroke-linejoin:miter;stroke-opacity:1"
       d="m 918.2073,1271.2382 c 16.12311,13.5269 57.47651,21.0234 1.64299,61.3674 29.55543,0.9671 45.90596,1.7537 18.07271,19.124 37.82271,0.3154 0.80228,9.9013 -17.89472,19.2955 20.58449,-0.2589 51.08616,-7.2784 4.69245,24.6341 38.37416,-9.2869 28.13507,2.0347 -10.53208,24.1629 37.47887,-18.0895 52.96146,-15.5403 37.06971,-1.2529 15.72148,-4.4671 17.67344,9.3935 -13.41104,23.1786 42.30009,-18.6636 41.40279,-11.588 43.67619,34.6472 10.0545,-81.4311 11.7651,-18.0057 14.1737,21.1079 16.02779,-121.4005 37.69649,-31.7441 42.44749,-18.6724 -3.9872,-94.3594 25.2228,-55.4681 32.8595,-19.5954 -1.9687,-23.0122 7.3966,-69.487 35.349,-13.1188 -6.6647,-20.7496 -2.1288,-42.2962 22.9767,9.0732 -7.6136,-34.3451 6.4903,-44.1683 50.4323,-11.8006 -0.3391,-17.0771 -4.6246,-35.014 41.5745,-4.833 -0.8667,-15.6767 -10.2864,-37.2075 52.5752,-9.2545 0.4101,-27.3754 10.536,-29.1099 28.1778,-16.5125 -3.0138,-23.4934 16.253,-12.9018 40.6729,2.7953 -15.5531,-32.042 5.6535,-28.6243 36.2999,-18.8217 -2.9758,-15.5655 -7.2304,-31.5384 10.6794,-40.4365 -34.6278,-45.8169 -3.9966,-49.5374 6.5718,-54.4273 -17.3451,-1.4095 -30.3111,-17.4541 -7.9741,-30.1681 -26.0077,7.4451 -16.4574,-15.1614 -15.0275,-27.4943 l -41.8959,-18.905 -41.0744,-8.3897 -49.2894,-8.3137 -46.0034,-1.3291 -46.8249,0.4324 -41.0744,3.8873 -35.3241,-8.4427 -36.1455,9.1027 -50.93219,-1.2836 -24.64468,30.0425 c 8.29892,28.7919 -17.92677,28.5474 -41.89593,30.2008 z"
       id="path4323"
       inkscape:connector-curvature="0"
       sodipodi:nodetypes="ccccccccccccccccccccccccccccccccccc" />
    <path
       style="color:#000000;display:inline;overflow:visible;visibility:visible;fill:#ffffff;fill-opacity:1;fill-rule:nonzero;stroke:none;stroke-width:1.29506px;marker:none;enable-background:accumulate"
       d="m 1945.1878,2196.9193 c -42.4876,1.6625 -85.1111,1.7932 -127.4195,6.2878 -21.8274,2.6696 -43.6678,9.0988 -61.4322,21.9885 -24.3771,16.8362 -40.4012,43.9344 -44.0724,72.5415 -5.355,30.1077 -8.8817,61.3223 -2.1342,91.5017 6.7905,24.0415 28.591,42.3572 53.118,48.7845 51.3832,15.7157 105.5378,20.5974 159.1987,21.6138 34.1,0.6629 68.2113,0.2292 102.3128,-0.023 47.9418,-1.1053 95.7175,-5.5872 143.3644,-10.5872 20.313,-2.5703 40.9324,-5.7442 59.7448,-13.9192 19.8283,-8.9603 36.5415,-24.6461 45.1374,-44.1947 13.3223,-28.3165 13.1361,-61.2633 3.9011,-90.6872 -9.3769,-29.0892 -29.9987,-54.751 -57.2931,-70.1975 -27.9741,-16.6745 -60.928,-23.9269 -93.5008,-25.4174 -58.5233,-4.6915 -117.2278,-7.6161 -175.9571,-7.8805 -1.656,0.063 -3.3119,0.1256 -4.9679,0.1885 z"
       id="path4546-6-5-5"
       inkscape:connector-curvature="0"
       sodipodi:nodetypes="cssssc" />
    <path
       style="color:#000000;display:inline;overflow:visible;visibility:visible;fill:#ffffff;fill-opacity:1;fill-rule:nonzero;stroke:none;stroke-width:0.710908px;marker:none;enable-background:accumulate"
       d="m 427.36079,1539.322 c -18.49435,2.3317 -20.41009,4.4325 -21.96654,15.8617 -1.55611,11.4299 -0.85275,28.3587 -14.56075,40.6485 -13.70771,12.2903 -23.6764,10.0093 -30.31719,9.0645 4.26773,13.7681 1.4232,41.4005 9.47615,45.7822 8.05295,4.3816 -16.23573,2.0167 -16.23573,2.0167 0,0 -18.78665,-30.5045 -14.52874,-48.8854 4.25786,-18.3808 31.63742,-15.9961 42.0788,-22.7096 10.44133,-6.7135 10.50842,-30.2213 17.90427,-37.5835 7.39563,-7.363 19.29539,-5.4547 28.14973,-4.1951 z"
       id="path4538-7"
       inkscape:connector-curvature="0"
       sodipodi:nodetypes="ccscccsscc" />
    <path
       style="color:#000000;display:inline;overflow:visible;visibility:visible;fill:#ffffff;fill-opacity:1;fill-rule:nonzero;stroke:none;stroke-width:0.576009px;marker:none;enable-background:accumulate"
       d="m 269.38616,1653.529 c 23.98622,-18.7388 72.99975,-31.6297 113.83578,1.6461 32.33893,26.3516 21.53309,64.4595 4.25504,76.2832 -17.27802,11.8238 -72.26174,14.2552 -97.55286,8.4261 -19.52455,-4.5006 -40.92884,-15.7046 -42.10867,-45.5966 -0.48149,-12.2006 -2.41553,-22.02 21.57071,-40.7588 z"
       id="path4040-2-9"
       inkscape:connector-curvature="0"
       sodipodi:nodetypes="zssssz" />
    <path
       style="color:#000000;display:inline;overflow:visible;visibility:visible;fill:#ffffff;fill-opacity:1;fill-rule:nonzero;stroke:none;stroke-width:0.590855px;marker:none;enable-background:accumulate"
       d="m 248.38875,1580.4882 c 25.2386,-18.1575 76.81125,-29.8607 119.77943,4.4047 34.02742,27.1353 22.65738,64.9814 4.47719,76.3864 -18.18014,11.405 -76.0347,12.504 -102.64632,6.062 -20.54397,-4.9737 -43.06584,-16.6964 -44.30727,-46.617 -0.50663,-12.2123 -2.54165,-22.0785 22.69697,-40.2361 z"
       id="path4040-2"
       inkscape:connector-curvature="0"
       sodipodi:nodetypes="zssssz" />
    <path
       style="display:inline;fill:#ffffff;stroke:none;stroke-width:0.931723"
       d="m 1937.8983,1073.654 c 8.8468,-64.1127 24.1136,-102.09957 194.2641,-97.2044 170.1504,4.89516 226.5424,28.8603 228.391,79.6976 3.3616,92.4473 -66.3506,93.5795 -210.165,98.0493 -132.5611,4.1201 -223.4032,-1.4561 -212.4901,-80.5425 z"
       id="path3280-8-3-6"
       inkscape:connector-curvature="0"
       sodipodi:nodetypes="sssss" />
    <path
       style="display:inline;fill:#ffffff;stroke:none;stroke-width:1.57021"
       d="m 2034.2639,157.73831 c -58.0278,1.40416 -116.6237,0.74791 -173.7395,13.31927 -38.0415,8.31535 -75.8994,20.87013 -108.9479,43.07071 -25.171,17.86651 -43.145,46.18533 -50.7013,77.24745 -9.7994,39.1113 -10.1927,98.20211 17.0854,134.04679 40.1998,52.82418 88.6286,53.27606 138.4835,59.5516 88.673,11.16179 174.9543,15.13861 259.8469,10.12756 34.2173,-5.33465 59.4197,-9.10639 100.9217,-20.16867 87.3351,-16.26751 111.1548,-84.97843 110.8031,-149.62089 -0.011,-27.51379 -6.3665,-55.99857 -22.5338,-77.9731 -16.0793,-21.07709 -38.5499,-34.99701 -60.8912,-47.29381 -33.6348,-17.46354 -70.6257,-25.32419 -107.1449,-32.61068 -33.9825,-6.79074 -68.6008,-10.18827 -103.182,-9.69623 z"
       id="path3280-8-3"
       inkscape:connector-curvature="0"
       sodipodi:nodetypes="csssssccccccc" />
    <path
       style="color:#000000;display:inline;overflow:visible;visibility:visible;fill:#ffffff;fill-opacity:1;fill-rule:nonzero;stroke:none;stroke-width:0.608783px;marker:none;enable-background:accumulate"
       d="m 1746.3788,120.06982 c -18.6395,0.18933 -37.2797,0.22455 -55.9193,0.0344 -12.2038,-0.14349 -24.4697,0.0747 -36.513,1.9339 -22.432,3.33547 -38.2136,3.26234 -56.9124,14.48016 -5.2108,3.15184 -16.3227,13.81133 -19.772,18.47213 -12.9209,16.257 -13.3505,39.54684 0.5065,55.49229 9.2517,10.35064 23.4525,16.12839 37.2752,20.81189 34.293,11.68115 86.5651,10.72677 123.2424,10.85698 31.6814,0.016 48.6869,-1.34554 80.0701,2.75396 27.489,-4.66092 54.4232,-14.43113 75.0994,-30.91977 12.5954,-10.71873 18.8455,-27.36074 13.4749,-42.12219 -5.0986,-15.01303 -18.8489,-26.96879 -34.8615,-33.98225 -25.0615,-11.69586 -53.7895,-16.28689 -82.0737,-17.27415 -14.5281,-0.58807 -29.0758,-0.61588 -43.6166,-0.53739 z"
       id="path3525-8"
       inkscape:connector-curvature="0"
       sodipodi:nodetypes="cscscccccccccsc" />
    <path
       style="fill:#ffffff;fill-rule:evenodd;stroke:none;stroke-width:1.06468px;stroke-linecap:butt;stroke-linejoin:miter;stroke-opacity:1"
       d="m 786.34361,430.16165 c 0,0 22.37691,25.375 30.38987,41.353 9.55841,41.6769 -15.08254,52.26548 -11.80509,72.946 4.69971,21.617 12.77263,34.196 42.40829,52.053 -36.46109,-14.098 -60.72938,-25.376 -65.42892,-46.992 -4.6996,-21.617 12.02504,-48.872 9.37974,-58.27 -2.64548,-9.399 -11.01511,-33.835 -33.19349,-51.692 -22.17826,-17.857 28.2496,-9.398 28.2496,-9.398 z"
       id="path1303"
       inkscape:connector-curvature="0"
       sodipodi:nodetypes="cccccccc" />
    <path
       style="color:#000000;display:inline;overflow:visible;visibility:visible;fill:#ffffff;fill-opacity:1;fill-rule:nonzero;stroke:none;stroke-width:1.01383px;marker:none;enable-background:accumulate"
       d="m 1306.1372,925.38922 c -52.2194,0.61784 -104.9875,6.3389 -153.3201,21.07436 -24.3339,6.98837 -44.3213,20.71198 -56.8039,37.18415 -17.6476,21.25327 -24.4581,46.38507 -23.9074,70.94137 -0.3404,22.3081 1.9885,45.198 13.919,66.0311 9.9877,16.7642 23.5266,33.1892 44.2372,44.1778 15.7737,8.1155 35.2701,11.0969 54.2492,12.3307 46.1856,3.2849 92.89,-3.3912 138.8408,2.5189 33.8402,3.8078 67.7831,9.5015 102.2566,7.9087 20.762,-1.3466 40.5951,-6.3595 61.0882,-8.844 13.4668,-1.6789 27.6596,-2.7866 39.5377,-8.0648 3.3861,-1.1923 5.397,-3.5383 6.4839,-6.0619 2.7612,-6.4395 1.347,-13.286 0.7773,-19.8805 -1.7334,-13.0631 -4.2109,-26.401 -0.2252,-39.3842 4.4335,-27.7107 13.0393,-55.4708 9.2266,-83.5002 -3.2776,-20.0163 -12.1947,-40.12368 -29.9728,-55.96956 -16.0561,-12.89083 -38.627,-20.21501 -61.0372,-25.5887 -34.3483,-7.87258 -70.3296,-10.93894 -106.0392,-13.63937 -13.0714,-0.80667 -26.1889,-1.28542 -39.3107,-1.23385 z"
       id="path4040-40"
       inkscape:connector-curvature="0"
       sodipodi:nodetypes="zsssszccccccccz" />
    <path
       style="display:inline;fill:#ffffff;stroke:none;stroke-width:0.943189"
       d="M 788.75953,81.42033 C 718.45867,84.09065 627.989,75.816861 590.21191,79.342246 c -5.37474,87.829414 -13.13048,158.741124 -6.35246,200.457604 5.89827,34.54789 12.52096,69.08694 22.67649,103.16233 6.70643,19.27707 19.37431,38.21047 40.91628,51.5226 23.97335,15.28973 55.00265,23.53084 85.76448,29.58115 74.27157,14.64912 154.70585,15.8856 228.77875,-0.0462 20.03599,-4.17863 39.07695,-10.55254 56.37655,-18.76966 32.5801,-15.26348 60.0337,-35.90923 79.4496,-59.75907 19.1732,-25.11063 24.9378,-53.78722 29.0153,-81.74462 4.8761,-34.09315 2.9578,-69.38237 -13.9546,-101.84404 -13.0148,-24.51247 -28.7998,-57.5691 -56.0942,-75.57026 C 1023.0592,105.03728 981.28218,92.41331 932.59832,86.869047 885.79761,77.954968 837.26329,81.121389 788.75953,81.42033 Z"
       id="path3280-5"
       inkscape:connector-curvature="0"
       sodipodi:nodetypes="ccsscccccccccc" />
    <path
       style="fill:#ffffff;fill-rule:evenodd;stroke:none;stroke-width:1.36569px;stroke-linecap:butt;stroke-linejoin:miter;stroke-opacity:1"
       d="m 1309.5687,939.23352 c 8.7674,-29.78389 -2.55,-70.85724 -21.3421,-92.51878 19.294,12.00335 47.6581,40.90723 49.4868,77.53639 2.8542,57.16677 -26.6522,18.09019 -26.6522,18.09019 z"
       id="path4248"
       inkscape:connector-curvature="0"
       sodipodi:nodetypes="ccscc" />
    <path
       style="color:#000000;display:inline;overflow:visible;visibility:visible;fill:#ffffff;fill-opacity:1;fill-rule:nonzero;stroke:none;stroke-width:1.27845px;marker:none;enable-background:accumulate"
       d="m 2157.8838,562.71889 c 47.5494,-40.109 11.4958,-121.92186 -22.0631,-138.04748 -43.9644,-41.61081 21.7355,-52.5057 21.7355,-52.5057 l 27.3389,46.67174 c -4.9414,6.99806 59.5251,106.49368 -27.0113,143.88144 z"
       id="path3072-56"
       inkscape:connector-curvature="0"
       sodipodi:nodetypes="ccccc" />
    <path
       style="fill:#ffffff;fill-rule:evenodd;stroke:none;stroke-width:1px;stroke-linecap:butt;stroke-linejoin:miter;stroke-opacity:1"
       d="m 2145.9447,911.76156 c 17.8164,6.86787 32.8659,22.27667 36.9127,41.22902 2.4357,13.03639 -1.9004,26.29118 -8.401,37.50329 -6.139,11.51773 -13.902,22.87523 -15.1546,36.21623 -0.038,3.7486 4.352,7.1591 7.7995,4.9374 5.4591,-2.2621 9.1063,-7.2123 13.9986,-10.3572 13.619,-10.9723 25.9848,-24.85172 30.732,-42.05359 4.3293,-16.93725 -3.8025,-35.55082 -17.8163,-45.50969 -14.6218,-11.8782 -32.4276,-19.47815 -50.851,-23.07104 0.9267,0.36853 1.8534,0.73706 2.7801,1.10558 z"
       id="path914"
       inkscape:connector-curvature="0"
       sodipodi:nodetypes="cscc" />
    <path
       style="fill:#ffffff;fill-rule:evenodd;stroke:none;stroke-width:1px;stroke-linecap:butt;stroke-linejoin:miter;stroke-opacity:1"
       d="m 1859.1104,1611.6362 -101.7503,-92.9388 -6.0669,33.3207 -71.4256,-61.6811 -11.1854,27.4382 91.4542,66.5103 8.19,-37.7549 z"
       id="path4667"
       inkscape:connector-curvature="0" />
    <path
       style="color:#000000;display:inline;overflow:visible;visibility:visible;fill:#ffffff;fill-opacity:1;fill-rule:nonzero;stroke:none;stroke-width:1.14715px;marker:none;enable-background:accumulate"
       d="m 284.24765,2318.4867 c -40.4116,58.36 -53.3089,167.707 24.2468,263.215 -108.4132,-99.32 -82.2954,-214.062 -72.6196,-244.978 2.0322,-33.697 48.3728,-18.237 48.3728,-18.237 z"
       id="path4008-0"
       inkscape:connector-curvature="0"
       sodipodi:nodetypes="cccc" />
    <path
       style="color:#000000;display:inline;overflow:visible;visibility:visible;fill:#ffffff;fill-opacity:1;fill-rule:nonzero;stroke:none;stroke-width:1px;marker:none;enable-background:accumulate"
       d="m 2007.8186,2508.6854 c -16.2035,68.7147 -23.8042,123.8365 19.1198,161.3448 -35.9827,-18.9303 -60.1167,-37.3437 -55.228,-133.0047 3.2811,-29.3033 15.4575,-25.6682 36.1082,-28.3401 z"
       id="path4064-5"
       inkscape:connector-curvature="0"
       sodipodi:nodetypes="cccc" />
    <path
       style="fill:#ffffff;fill-rule:evenodd;stroke:none;stroke-width:1.0599px;stroke-linecap:butt;stroke-linejoin:miter;stroke-opacity:1"
       d="m 1312.6704,2517.7831 c 23.7195,-14.0861 43.1327,-10.969 67.1439,-1.3968 -21.0663,-24.318 -50.0172,-29.1023 -87.4659,-14.9118 -44.493,16.8599 17.6099,16.5876 17.6099,16.5876 z"
       id="path4248-5"
       inkscape:connector-curvature="0"
       sodipodi:nodetypes="ccscc" />
    <path
       style="fill:#ffffff;fill-opacity:1;stroke:none;stroke-width:0.656533"
       d="m 2186.6362,2529.7013 c -20.2714,-4.5023 -28.068,-8.6829 -24.4295,-11.2559 -33.9462,-21.5129 -5.0712,-41.3861 -1.0396,-43.737 -0.011,-1.592 -10.9154,0.6431 -12.4746,-0.643 -1.5593,-1.2869 10.7022,-12.0255 8.6232,-12.6686 -2.0793,-0.6437 -46.567,3.9856 -53.3241,1.0911 -6.7572,-2.8945 -3.1188,-10.2913 -5.1978,-10.6129 -2.0791,-0.3215 -21.311,1.6078 -23.9099,1.2862 -2.5987,-0.3215 -7.2767,-9.9691 -9.8756,-10.2907 -2.599,-0.3215 -14.5539,4.1808 -16.633,3.8592 -2.0791,-0.3216 -1.0395,-8.3614 -3.6384,-8.6829 -2.599,-0.3216 -14.034,6.753 -15.5934,6.4315 -1.5593,-0.3216 -7.2769,-16.4013 -9.8758,-17.3659 -2.599,-0.9647 -19.2317,17.6874 -20.7911,18.0089 -1.5593,0.3222 -11.4351,-21.8681 -13.5143,-22.1897 -2.0791,-0.3215 -12.4746,15.1152 -14.0339,14.7936 -1.5594,-0.3216 -11.4352,-9.3267 -13.5142,-9.9698 -2.0791,-0.643 -15.5934,19.9389 -17.6725,19.9389 -2.0792,0 -19.7516,-8.6829 -21.3109,-10.2907 -1.5594,-1.6083 -3.1187,8.3615 -5.1978,8.3615 -2.0791,0 -25.9889,-5.7891 -26.5088,-5.4676 -0.5197,0.3216 3.6386,6.4322 2.0792,6.4322 -1.5593,0 -25.9888,-8.0398 -27.0285,-6.4322 -1.0395,1.6084 -53.0173,-8.0398 -56.6558,-6.7536 -3.6385,1.2868 23.3901,26.371 20.7912,28.3009 -2.5989,1.9292 -11.955,-0.3215 -12.4748,0.6431 -0.5197,0.9646 5.7176,5.1453 4.1584,6.4315 -1.5595,1.2868 -19.2319,6.4321 -20.7912,8.0399 -1.5594,1.6083 7.7966,5.789 5.7176,6.7536 -2.0792,0.9653 -32.7463,7.0753 -33.2659,8.6836 -0.5198,1.6078 15.5934,9.326 13.5142,11.5768 -2.0791,2.2515 -7.7967,3.2161 -7.2769,4.8245 0.5198,1.6077 10.3957,3.5376 9.8758,5.1453 -0.5197,1.6077 -5.7175,9.6483 -7.2768,10.9344 -1.5594,1.2862 10.9153,0.6431 10.9153,1.9293 0,1.2868 -0.9181,20.6031 -19.3844,32.291 32.2989,-7.7421 45.8931,-3.9901 63.0458,-1.4178 17.1527,2.573 10.3955,18.6528 12.9944,19.6174 2.5988,0.9652 21.8307,-5.4669 24.4296,-3.2161 2.5989,2.2515 3.6384,6.4321 5.7176,6.4321 2.079,0 14.034,-9.0045 16.6328,-8.6829 2.5989,0.3215 27.0285,14.472 30.6671,14.7935 3.6384,0.3216 17.6723,-5.4675 20.7911,-5.789 3.1187,-0.3216 5.7174,7.7183 8.3164,7.0752 2.5989,-0.6431 19.2318,-6.4321 21.8305,-5.789 2.599,0.6437 4.6781,3.216 6.7573,2.573 2.079,-0.6432 11.4351,-3.2161 11.4351,-3.2161 0,0 6.7571,1.9299 9.8757,1.9299 3.1187,0 24.4295,-10.6129 27.0285,-11.256 2.5989,-0.6431 29.2801,10.9614 27.7207,12.8907 3.3116,-8.4443 19.3137,-13.7539 22.6978,-14.1768 3.6384,-0.9653 14.5538,1.9292 15.5933,0.9646 1.0396,-0.9646 4.1582,-6.1106 7.2769,-6.4322 3.1187,-0.3215 10.3956,-1.6077 10.3956,-1.6077 l -1.0395,-1.9298 c 0,0 21.8306,5.1459 24.4296,7.0751 2.5988,1.93 -1.5594,-8.3614 -3.1188,-10.9343 9.356,2.5729 36.9043,8.0398 38.9833,9.6482 2.0792,1.6077 -3.6383,-5.789 -6.757,-8.0399 4.1582,0.9646 7.7967,1.2862 7.7967,1.2862 l -11.955,-7.7183 3.6386,-0.6431 c 0,0 -7.7967,-3.5376 -7.7967,-5.1453 0,-1.6084 20.2712,-3.5376 20.2712,-3.5376 0,0 -8.3164,-2.8945 -6.2373,-4.5023 2.0792,-1.6083 7.277,-2.573 7.277,-2.573 l 1.0394,-4.1807 z"
       id="path5888-3"
       inkscape:connector-curvature="0"
       sodipodi:nodetypes="cccccsscccccccsccscscsccsccccccsccscscssccsccscscccccccsccccccsccccc" />
  </g>
  <g
     inkscape:groupmode="layer"
     id="layer1"
     inkscape:label="txt">
    <text
       xml:space="preserve"
       style="font-style:normal;font-variant:normal;font-weight:normal;font-stretch:normal;font-size:80px;line-height:1.25;font-family:Lavi;-inkscape-font-specification:Lavi;letter-spacing:0px;word-spacing:0px;fill:#ffffff;fill-opacity:1;stroke:#ffffff;stroke-width:0.668774;stroke-miterlimit:4;stroke-dasharray:none;stroke-opacity:1;filter:url(#filter4375-4-1-1-1-9-5-8-8-5-5-3-3-3-0)"
       id="text4580-6-0-0-0-9-3-3-2-0"
       transform="matrix(1.1484433,-0.31259721,-0.62973044,2.2133476,1615.3614,-1809.1372)"
       x="-607.91235"
       y="1245.0809"><tspan
         id="tspan1534-6"
         style="font-size:61.3371px"><tspan
   id="tspan882"
   style="font-size:71.8115px">DR</tspan><tspan
   style="font-size:66.5743px"
   id="tspan1814">Z</tspan>OW!!</tspan></text>
    <text
       xml:space="preserve"
       style="font-style:normal;font-variant:normal;font-weight:normal;font-stretch:normal;font-size:45px;line-height:1.25;font-family:Lavi;-inkscape-font-specification:Lavi;text-align:center;letter-spacing:0px;word-spacing:0px;text-anchor:middle;fill:#000000;fill-opacity:1;stroke:none"
       x="847.35614"
       y="178.18335"
       id="text4246-3-2-2-6-3-7-9-3-3-56-9-3-20"><tspan
         style="font-size:45px"
         sodipodi:role="line"
         x="847.35614"
         y="178.18335"
         id="tspan970">Eg forstår. Du kom</tspan><tspan
         style="font-size:45px"
         sodipodi:role="line"
         x="847.35614"
         y="234.43335"
         id="tspan961">opp på nivå med</tspan><tspan
         style="font-size:45px"
         sodipodi:role="line"
         x="847.35614"
         y="290.68335"
         id="tspan963">forgjengarane dine</tspan><tspan
         style="font-size:45px"
         sodipodi:role="line"
         x="847.35614"
         y="346.93335"
         id="tspan959">mykje tidlegare enn</tspan><tspan
         style="font-size:45px"
         sodipodi:role="line"
         x="847.35614"
         y="403.18335"
         id="tspan965">eg hadde venta ...</tspan></text>
    <text
       xml:space="preserve"
       style="font-style:normal;font-variant:normal;font-weight:normal;font-stretch:normal;font-size:45px;line-height:1.25;font-family:Lavi;-inkscape-font-specification:Lavi;text-align:center;letter-spacing:0px;word-spacing:0px;text-anchor:middle;fill:#000000;fill-opacity:1;stroke:none"
       x="1306.303"
       y="1014.1287"
       id="text4246-3-2-2-6-3-7-9-3-3-56-9-3-20-3"><tspan
         style="font-size:45px"
         sodipodi:role="line"
         x="1306.303"
         y="1014.1287"
         id="tspan985">Det framskundar</tspan><tspan
         style="font-size:45px"
         sodipodi:role="line"
         x="1306.303"
         y="1070.3787"
         id="tspan976">planane mine, men</tspan><tspan
         style="font-size:45px"
         sodipodi:role="line"
         x="1306.303"
         y="1126.6287"
         id="tspan978">det er berre bra.</tspan></text>
    <text
       xml:space="preserve"
       style="font-style:normal;font-variant:normal;font-weight:normal;font-stretch:normal;font-size:45px;line-height:1.25;font-family:Lavi;-inkscape-font-specification:Lavi;text-align:center;letter-spacing:0px;word-spacing:0px;text-anchor:middle;fill:#000000;fill-opacity:1;stroke:none"
       x="1734.1354"
       y="195.33838"
       id="text4246-3-2-2-6-3-7-9-3-3-56-9-3-20-3-2"><tspan
         style="font-size:45px"
         sodipodi:role="line"
         x="1734.1354"
         y="195.33838"
         id="tspan994-7">Planane dine?</tspan></text>
    <text
       xml:space="preserve"
       style="font-style:normal;font-variant:normal;font-weight:normal;font-stretch:normal;font-size:45px;line-height:1.25;font-family:Lavi;-inkscape-font-specification:Lavi;text-align:center;letter-spacing:0px;word-spacing:0px;text-anchor:middle;fill:#000000;fill-opacity:1;stroke:none"
       x="2011.71"
       y="263.35706"
       id="text4246-3-2-2-6-3-7-9-3-3-56-9-3-20-3-2-0"><tspan
         style="font-size:45px"
         sodipodi:role="line"
         x="2011.71"
         y="263.35706"
         id="tspan8482">Du sette meg altså</tspan><tspan
         style="font-size:45px"
         sodipodi:role="line"
         x="2011.71"
         y="319.60706"
         id="tspan990">berre på prøve, og alt det</tspan><tspan
         style="font-size:45px"
         sodipodi:role="line"
         x="2011.71"
         y="375.85706"
         id="tspan998">her hadde ikkje noko å gjera</tspan><tspan
         style="font-size:45px"
         sodipodi:role="line"
         x="2011.71"
         y="432.10706"
         id="tspan1002">med at eg kom for seint?</tspan></text>
    <text
       xml:space="preserve"
       style="font-style:normal;font-variant:normal;font-weight:normal;font-stretch:normal;font-size:45px;line-height:1.25;font-family:Lavi;-inkscape-font-specification:Lavi;text-align:center;letter-spacing:0px;word-spacing:0px;text-anchor:middle;fill:#000000;fill-opacity:1;stroke:none"
       x="2147.0457"
       y="1053.5718"
       id="text4246-3-2-2-6-3-7-9-3-3-56-9-3-20-3-2-0-3"><tspan
         style="font-size:45px"
         sodipodi:role="line"
         x="2147.0457"
         y="1053.5718"
         id="tspan1147">Du er verkeleg</tspan><tspan
         style="font-size:45px"
         sodipodi:role="line"
         x="2147.0457"
         y="1109.8218"
         id="tspan1006">ikkje heilt god ...</tspan></text>
    <text
       xml:space="preserve"
       style="font-style:normal;font-variant:normal;font-weight:normal;font-stretch:normal;font-size:45px;line-height:1.25;font-family:Lavi;-inkscape-font-specification:Lavi;text-align:center;letter-spacing:0px;word-spacing:0px;text-anchor:middle;fill:#000000;fill-opacity:1;stroke:none"
       x="314.83337"
       y="1631.6757"
       id="text4246-3-2-2-6-3-7-9-3-3-56-9-3-20-3-2-0-3-1"><tspan
         style="font-size:45px"
         sodipodi:role="line"
         x="314.83337"
         y="1631.6757"
         id="tspan1224">Tji-</tspan></text>
    <text
       xml:space="preserve"
       style="font-style:normal;font-variant:normal;font-weight:normal;font-stretch:normal;font-size:45px;line-height:1.25;font-family:Lavi;-inkscape-font-specification:Lavi;text-align:center;letter-spacing:0px;word-spacing:0px;text-anchor:middle;fill:#000000;fill-opacity:1;stroke:none"
       x="327.27063"
       y="1708.0287"
       id="text4246-3-2-2-6-3-7-9-3-3-56-9-3-20-3-2-0-3-1-2"><tspan
         style="font-size:45px"
         sodipodi:role="line"
         x="327.27063"
         y="1708.0287"
         id="tspan1224-2">hi.</tspan></text>
    <text
       xml:space="preserve"
       style="font-style:normal;font-variant:normal;font-weight:normal;font-stretch:normal;font-size:51.7551px;line-height:1.25;font-family:Lavi;-inkscape-font-specification:Lavi;text-align:center;letter-spacing:0px;word-spacing:0px;text-anchor:middle;fill:#000000;fill-opacity:1;stroke:none;stroke-width:1.15011"
       x="1325.1479"
       y="1288.0323"
       id="text4246-3-2-2-6-3-7-9-3-3-56-9-3-20-3-3"
       transform="skewX(-7.1285627)"><tspan
         style="font-style:normal;font-variant:normal;font-weight:bold;font-stretch:normal;font-size:51.7551px;font-family:Lavi;-inkscape-font-specification:'Lavi Bold';stroke-width:1.15011"
         sodipodi:role="line"
         x="1325.1479"
         y="1288.0323"
         id="tspan1341">KVA ER DET</tspan><tspan
         style="font-style:normal;font-variant:normal;font-weight:bold;font-stretch:normal;font-size:51.7551px;font-family:Lavi;-inkscape-font-specification:'Lavi Bold';stroke-width:1.15011"
         sodipodi:role="line"
         x="1325.1479"
         y="1352.7262"
         id="tspan1011">DE GLOR PÅ?!</tspan></text>
    <text
       xml:space="preserve"
       style="font-style:normal;font-variant:normal;font-weight:normal;font-stretch:normal;font-size:47.4643px;line-height:1.25;font-family:Lavi;-inkscape-font-specification:Lavi;text-align:center;letter-spacing:0px;word-spacing:0px;text-anchor:middle;fill:#000000;fill-opacity:1;stroke:none;stroke-width:1.05476"
       x="1499.0521"
       y="1439.9385"
       id="text4246-3-2-2-6-3-7-9-3-3-56-9-3-20-3-3-2"
       transform="skewX(-7.1285625)"><tspan
         style="font-style:normal;font-variant:normal;font-weight:bold;font-stretch:normal;font-size:47.4643px;font-family:Lavi;-inkscape-font-specification:'Lavi Bold';stroke-width:1.05476"
         sodipodi:role="line"
         x="1499.0521"
         y="1439.9385"
         id="tspan1375">EG VART NETTOPP FORULEMPA,</tspan><tspan
         style="font-style:normal;font-variant:normal;font-weight:bold;font-stretch:normal;font-size:47.4643px;font-family:Lavi;-inkscape-font-specification:'Lavi Bold';stroke-width:1.05476"
         sodipodi:role="line"
         x="1499.0521"
         y="1499.2688"
         id="tspan1016">MEN DE BERRE STÅR DER</tspan><tspan
         style="font-style:normal;font-variant:normal;font-weight:bold;font-stretch:normal;font-size:47.4643px;font-family:Lavi;-inkscape-font-specification:'Lavi Bold';stroke-width:1.05476"
         sodipodi:role="line"
         x="1499.0521"
         y="1558.5992"
         id="tspan1015">OG KOPER?! TA HENNE!!!</tspan></text>
    <text
       xml:space="preserve"
       style="font-style:normal;font-variant:normal;font-weight:normal;font-stretch:normal;font-size:55.0712px;line-height:1.25;font-family:Lavi;-inkscape-font-specification:Lavi;text-align:center;letter-spacing:0px;word-spacing:0px;text-anchor:middle;fill:#000000;fill-opacity:1;stroke:none;stroke-width:1.22379"
       x="223.98988"
       y="2244.4355"
       id="text4246-3-2-2-6-3-7-9-3-3-56-9-3-20-3-3-2-7"
       transform="matrix(0.98099743,-0.17933218,0.0576347,1.0088347,0,0)"><tspan
         style="font-style:normal;font-variant:normal;font-weight:bold;font-stretch:normal;font-size:55.0712px;font-family:Lavi;-inkscape-font-specification:'Lavi Bold';stroke-width:1.22379"
         sodipodi:role="line"
         x="223.98988"
         y="2244.4355"
         id="tspan1019">FANG HENNE</tspan><tspan
         style="font-style:normal;font-variant:normal;font-weight:bold;font-stretch:normal;font-size:55.0712px;font-family:Lavi;-inkscape-font-specification:'Lavi Bold';stroke-width:1.22379"
         sodipodi:role="line"
         x="223.98988"
         y="2313.2747"
         id="tspan1030">LEVANDE!!!</tspan></text>
    <text
       xml:space="preserve"
       style="font-style:normal;font-variant:normal;font-weight:normal;font-stretch:normal;font-size:70.9781px;line-height:1.25;font-family:Lavi;-inkscape-font-specification:Lavi;text-align:center;letter-spacing:0px;word-spacing:0px;text-anchor:middle;fill:#000000;fill-opacity:1;stroke:none;stroke-width:1.57727"
       x="1565.9377"
       y="2015.5884"
       id="text4246-3-2-2-6-3-7-9-3-3-56-9-3-20-3-3-2-7-2"
       transform="matrix(0.89307379,0,-0.11169036,1.1197283,0,0)"><tspan
         style="font-style:normal;font-variant:normal;font-weight:bold;font-stretch:normal;font-size:70.9781px;font-family:Lavi;-inkscape-font-specification:'Lavi Bold';stroke-width:1.57727"
         sodipodi:role="line"
         x="1565.9377"
         y="2015.5884"
         id="tspan1414-3">TA HENNE!!!</tspan></text>
    <text
       xml:space="preserve"
       style="font-style:normal;font-variant:normal;font-weight:normal;font-stretch:normal;font-size:45px;line-height:1.25;font-family:Lavi;-inkscape-font-specification:Lavi;text-align:center;letter-spacing:0px;word-spacing:0px;text-anchor:middle;fill:#000000;fill-opacity:1;stroke:none"
       x="1153.3292"
       y="2525.9253"
       id="text4246-3-2-2-6-3-7-9-3-3-56-9-3-20-3-2-0-3-19"><tspan
         style="font-size:45px"
         sodipodi:role="line"
         x="1153.3292"
         y="2525.9253"
         id="tspan1031">Dette må me</tspan><tspan
         style="font-size:45px"
         sodipodi:role="line"
         x="1153.3292"
         y="2582.1753"
         id="tspan1041">snakka om</tspan><tspan
         style="font-size:45px"
         sodipodi:role="line"
         x="1153.3292"
         y="2638.4253"
         id="tspan1047">seinare,</tspan><tspan
         style="font-size:45px"
         sodipodi:role="line"
         x="1153.3292"
         y="2694.6753"
         id="tspan1049">Shichimi!</tspan></text>
    <text
       xml:space="preserve"
       style="font-style:normal;font-variant:normal;font-weight:normal;font-stretch:normal;font-size:45px;line-height:1.25;font-family:Lavi;-inkscape-font-specification:Lavi;text-align:center;letter-spacing:0px;word-spacing:0px;text-anchor:middle;fill:#000000;fill-opacity:1;stroke:none"
       x="1995.8917"
       y="2281.2275"
       id="text4246-3-2-2-6-3-7-9-3-3-56-9-3-20-3-2-0-3-19-8-3"><tspan
         style="font-size:45px"
         sodipodi:role="line"
         x="1995.8917"
         y="2281.2275"
         id="tspan8507">Eg er lei for det,</tspan><tspan
         style="font-size:45px"
         sodipodi:role="line"
         x="1995.8917"
         y="2337.4775"
         id="tspan1060">Gulrot, men me må nok</tspan><tspan
         style="font-size:45px"
         sodipodi:role="line"
         x="1995.8917"
         y="2393.7275"
         id="tspan1062">bruka hyperfart igjen ...</tspan></text>
    <text
       xml:space="preserve"
       style="font-style:normal;font-variant:normal;font-weight:normal;font-stretch:normal;font-size:45px;line-height:1.25;font-family:Lavi;-inkscape-font-specification:Lavi;text-align:center;letter-spacing:0px;word-spacing:0px;text-anchor:middle;fill:#000000;fill-opacity:1;stroke:none"
       x="1974.8418"
       y="2525.3699"
       id="text4246-3-2-2-6-3-7-9-3-3-56-9-3-20-3-2-0-3-19-8"><tspan
         style="font-size:45px"
         sodipodi:role="line"
         x="1974.8418"
         y="2525.3699"
         id="tspan1046">Hald deg fast!</tspan></text>
    <text
       xml:space="preserve"
       style="font-style:normal;font-variant:normal;font-weight:normal;font-stretch:normal;font-size:6.99764px;line-height:0%;font-family:Lavi;-inkscape-font-specification:Lavi;letter-spacing:0px;word-spacing:0px;fill:#000000;fill-opacity:1;stroke:#000000;stroke-width:6.65341;stroke-miterlimit:4;stroke-dasharray:none;stroke-opacity:1;paint-order:stroke fill markers"
       x="1234.3364"
       y="2988.7241"
       id="text4580-25"
       transform="matrix(0.70061135,-0.52267462,0.27429036,1.222697,0,0)"><tspan
         sodipodi:role="line"
         id="tspan4582-4"
         x="1234.3364"
         y="2988.7241"
         style="font-size:40.8195px;line-height:100%;letter-spacing:2.84772px;fill:#ffffff;stroke:#000000;stroke-width:6.65341;stroke-miterlimit:4;stroke-dasharray:none;stroke-opacity:1;paint-order:stroke fill markers"><tspan
           style="font-size:46.8842px;line-height:100%;letter-spacing:2.84772px;stroke:#000000;stroke-width:6.65341;stroke-miterlimit:4;stroke-dasharray:none;stroke-opacity:1;paint-order:stroke fill markers"
           id="tspan4617-9">Klapp!</tspan></tspan></text>
    <text
       xml:space="preserve"
       style="font-style:normal;font-variant:normal;font-weight:normal;font-stretch:normal;font-size:6.12727px;line-height:0%;font-family:Lavi;-inkscape-font-specification:Lavi;letter-spacing:0px;word-spacing:0px;fill:#000000;fill-opacity:1;stroke:#000000;stroke-width:5.82585;stroke-miterlimit:4;stroke-dasharray:none;stroke-opacity:1;paint-order:stroke fill markers"
       x="1244.6915"
       y="2939.7729"
       id="text4580-25-6"
       transform="matrix(0.70061135,-0.52267462,0.27429036,1.222697,0,0)"><tspan
         sodipodi:role="line"
         id="tspan4582-4-1"
         x="1244.6915"
         y="2939.7729"
         style="font-size:35.7423px;line-height:100%;letter-spacing:2.49352px;fill:#ffffff;stroke:#000000;stroke-width:5.82585;stroke-miterlimit:4;stroke-dasharray:none;stroke-opacity:1;paint-order:stroke fill markers"><tspan
           style="font-size:41.0527px;line-height:100%;letter-spacing:2.49352px;stroke:#000000;stroke-width:5.82585;stroke-miterlimit:4;stroke-dasharray:none;stroke-opacity:1;paint-order:stroke fill markers"
           id="tspan4617-9-0">Klapp!</tspan></tspan></text>
    <text
       xml:space="preserve"
       style="font-style:normal;font-variant:normal;font-weight:normal;font-stretch:normal;font-size:80px;line-height:1.25;font-family:Lavi;-inkscape-font-specification:Lavi;letter-spacing:0px;word-spacing:0px;fill:#ffffff;fill-opacity:1;stroke:#ffffff;stroke-width:0.668774;stroke-miterlimit:4;stroke-dasharray:none;stroke-opacity:1;filter:url(#filter4375-4-1-1-1-9-5-8-8-5-5-3-3-3-0-6)"
       id="text4580-6-0-0-0-9-3-3-2-0-3"
       transform="matrix(1.2199315,-0.31719701,-0.66892978,2.2459164,3443.4589,177.24169)"
       x="-607.91235"
       y="1245.0809"><tspan
         id="tspan1534-6-7"
         style="font-size:61.3371px"><tspan
   style="font-size:66.5743px"
   id="tspan1814-4">Ziioo</tspan>OO!!</tspan></text>
    <text
       xml:space="preserve"
       style="font-size:40px;line-height:1.25;font-family:sans-serif;letter-spacing:0px"
       x="345.68661"
       y="2231.9783"
       id="text1025"><tspan
         sodipodi:role="line"
         id="tspan1023"
         x="345.68661"
         y="2231.9783" /><tspan
         sodipodi:role="line"
         x="345.68661"
         y="2281.9783"
         id="tspan1028" /></text>
  </g>
</svg>
