<?xml version="1.0" encoding="UTF-8" standalone="no"?>
<!-- Created With Inkscape (http://www.inkscape.org/) -->

<svg
   xmlns:dc="http://purl.org/dc/elements/1.1/"
   xmlns:cc="http://creativecommons.org/ns#"
   xmlns:rdf="http://www.w3.org/1999/02/22-rdf-syntax-ns#"
   xmlns:svg="http://www.w3.org/2000/svg"
   xmlns="http://www.w3.org/2000/svg"
   xmlns:xlink="http://www.w3.org/1999/xlink"
   xmlns:sodipodi="http://sodipodi.sourceforge.net/DTD/sodipodi-0.dtd"
   xmlns:inkscape="http://www.inkscape.org/namespaces/inkscape"
   id="svg2"
   version="1.1"
   inkscape:version="0.92.5 (2060ec1f9f, 2020-04-08)"
   width="2646.3999"
   height="3736.5334"
   sodipodi:docname="E09P02.svg"
   viewBox="0 0 2481 3503">
  <metadata
     id="metadata8">
    <rdf:RDF>
      <cc:Work
         rdf:about="">
        <dc:format>image/svg+xml</dc:format>
        <dc:type
           rdf:resource="http://purl.org/dc/dcmitype/StillImage" />
        <dc:title />
      </cc:Work>
    </rdf:RDF>
  </metadata>
  <defs
     id="defs6" />
  <sodipodi:namedview
     pagecolor="#ffffff"
     bordercolor="#666666"
     borderopacity="1"
     objecttolerance="10"
     gridtolerance="10"
     guidetolerance="10"
     inkscape:pageopacity="0"
     inkscape:pageshadow="2"
     inkscape:window-width="1866"
     inkscape:window-height="1016"
     id="namedview4"
     showgrid="false"
     inkscape:zoom="0.34782609"
     inkscape:cx="1592.2827"
     inkscape:cy="831.59978"
     inkscape:window-x="54"
     inkscape:window-y="27"
     inkscape:window-maximized="1"
     inkscape:current-layer="layer1"
     showguides="false" />
  <g
     inkscape:groupmode="layer"
     id="layer2"
     inkscape:label="artwork"
     sodipodi:insensitive="true">
    <image
       sodipodi:absref="/home/user/lojban/webcomics/ep09_The-Remedy/lang/jb/../gfx_Pepper-and-Carrot_by-David-Revoy_E09P02.png"
       xlink:href="../gfx_Pepper-and-Carrot_by-David-Revoy_E09P02.png"
       y="0"
       x="0"
       id="image10"
       height="3503"
       width="2481" />
  </g>
  <g
     inkscape:groupmode="layer"
     id="layer3"
     inkscape:label="speechbubbles" />
  <g
     inkscape:groupmode="layer"
     id="layer1"
     inkscape:label="txt">
    <path
       style="fill:#ffffff;stroke:none;stroke-width:0.92961985"
       d="m 583.9813,2765.4231 c 0.67262,-81.4811 10.01019,-159.522 327.50527,-155.8172 225.87053,2.6356 313.08983,59.489 309.44213,162.1666 -3.6477,102.6775 -124.4773,145.0566 -313.99128,143.1191 -189.51394,-1.9375 -319.03469,-43.1711 -322.95612,-149.4685 z"
       id="path3274"
       inkscape:connector-curvature="0"
       sodipodi:nodetypes="csssc" />
    <path
       style="color:#000000;display:inline;overflow:visible;visibility:visible;fill:#ffffff;fill-opacity:1;fill-rule:nonzero;stroke:none;stroke-width:1.02655876px;marker:none;enable-background:accumulate"
       d="m 795.39023,2609.1218 c -35.20098,32.9386 -327.0576,62.6921 -427.88168,-9.2881 -100.82408,-71.9803 -36.9963,-153.9852 22.26715,-179.1563 59.26334,-25.1711 232.62347,-50.1743 310.96311,-25.5446 78.33977,24.6295 139.01493,60.1115 141.54147,129.885 1.03119,28.4774 -11.68896,51.1651 -46.89005,84.104 z"
       id="path4040"
       inkscape:connector-curvature="0"
       sodipodi:nodetypes="zssssz" />
    <path
       style="color:#000000;display:inline;overflow:visible;visibility:visible;fill:#ffffff;fill-opacity:1;fill-rule:nonzero;stroke:none;stroke-width:0.84554261px;marker:none;enable-background:accumulate"
       d="m 157.46763,1454.9829 c 7.34169,-60.3563 93.79402,-104.046 318.0003,-91.3875 120.097,6.7806 256.48284,11.5607 247.12152,99.9865 -9.36147,88.4256 -205.41081,85.0185 -245.89706,86.8535 -40.48628,1.8353 -251.24589,-8.661 -287.9544,-38.9709 -22.97869,-18.973 -32.02924,-37.7802 -31.27036,-56.4816 z"
       id="path4546-0-3"
       inkscape:connector-curvature="0"
       sodipodi:nodetypes="cssssc" />
    <path
       style="color:#000000;display:inline;overflow:visible;visibility:visible;fill:#ffffff;fill-opacity:1;fill-rule:nonzero;stroke:none;stroke-width:1px;marker:none;enable-background:accumulate"
       d="m 181.85704,237.97293 c -1.10047,-57.32649 87.35998,-69.41682 165.2991,-69.58715 77.93926,-0.17032 210.13605,1.8189 208.43531,81.92893 -1.97733,93.13843 -259.67907,70.4535 -267.31144,71.81988 -7.63238,1.36625 -119.13197,-14.77599 -106.42297,-84.16166 z"
       id="path5018"
       inkscape:connector-curvature="0"
       sodipodi:nodetypes="csscc" />
    <path
       style="fill:#ffffff;fill-rule:evenodd;stroke:none;stroke-width:1px;stroke-linecap:butt;stroke-linejoin:miter;stroke-opacity:1"
       d="m 842.8376,505.67472 c 22.75894,31.36316 36.92168,58.48731 -3.76855,108.91199 46.07559,-30.50609 66.18145,-76.69578 53.29121,-112.23489 -12.89024,-35.53909 -49.52266,3.3229 -49.52266,3.3229 z"
       id="path4201"
       inkscape:connector-curvature="0" />
    <path
       style="fill:#ffffff;stroke:none"
       d="m 599.66457,1809.031 c 51.60054,6.5328 69.89222,45.7908 69.53557,69.1473 -0.35672,23.3565 51.26695,38.0903 71.5221,24.124 -42.11057,37.4152 -95.95231,11.4531 -119.94631,-33.3419 -7.04419,-13.1509 -32.45984,-13.1413 -49.73119,5.435 -15.96302,17.1691 -43.85075,15.3917 -43.85075,15.3917 z"
       id="path3276"
       inkscape:connector-curvature="0"
       sodipodi:nodetypes="cscsscc" />
    <path
       style="color:#000000;display:inline;overflow:visible;visibility:visible;fill:#ffffff;fill-opacity:1;fill-rule:nonzero;stroke:none;stroke-width:0.73120165px;marker:none;enable-background:accumulate"
       d="m 745.59551,1824.7863 c -4.48849,39.8115 -71.55226,69.6007 -248.15942,63.9532 -94.60032,-3.0253 -201.96919,-4.539 -196.49021,-62.8486 5.4791,-58.3095 159.74383,-58.4136 191.54705,-60.106 31.80321,-1.6924 197.78857,2.6931 227.30537,22.2022 18.47681,12.2122 25.99568,24.4818 25.79721,36.7992 z"
       id="path4546-0-6"
       inkscape:connector-curvature="0"
       sodipodi:nodetypes="cssssc" />
    <path
       style="color:#000000;display:inline;overflow:visible;visibility:visible;fill:#ffffff;fill-opacity:1;fill-rule:nonzero;stroke:none;stroke-width:0.72796053px;marker:none;enable-background:accumulate"
       d="m 259.61074,1642.0916 c -1.67425,-76.8718 64.31882,-88.7294 249.10033,-83.0714 98.97894,3.0307 211.29467,4.1096 206.25425,75.8537 -5.04055,71.7439 -164.35296,68.6751 -197.69014,69.1979 -36.15152,0.5671 -163.27519,-7.9813 -192.43899,-16.9158 -24.17741,-7.4067 -65.28727,-29.916 -65.22545,-45.0644 z"
       id="path4546-0"
       inkscape:connector-curvature="0"
       sodipodi:nodetypes="cssssc" />
    <path
       style="fill:#ffffff;fill-opacity:1;stroke:none;stroke-width:0.7979849"
       d="m 496.66271,410.56995 c -6.43074,-83.66482 76.0807,-120.1392 254.85467,-116.33624 178.77395,3.80288 227.73748,56.74197 240.5989,86.21476 12.86152,29.47287 2.82465,99.34084 -107.78373,131.6659 -110.60834,32.32493 -280.53219,12.74865 -332.00529,-23.72406 -44.52792,-31.5515 -54.37844,-55.95348 -55.66455,-77.82036 z"
       id="path3238"
       inkscape:connector-curvature="0"
       sodipodi:nodetypes="cssssc" />
    <flowRoot
       xml:space="preserve"
       id="flowRoot2987-4-9-3-7"
       style="font-style:normal;font-variant:normal;font-weight:normal;font-stretch:normal;line-height:0.01%;font-family:Lavi;-inkscape-font-specification:Lavi;text-align:center;letter-spacing:0px;word-spacing:0px;text-anchor:middle;fill:#000000;fill-opacity:1;stroke:none"
       transform="translate(308.96262,41.816087)"><flowRegion
         id="flowRegion2989-5-4-5-9"><rect
           id="rect2991-7-9-6-4"
           width="633.98706"
           height="312.02435"
           x="111.92751"
           y="285.65546"
           style="font-style:normal;font-variant:normal;font-weight:normal;font-stretch:normal;font-family:Lavi;-inkscape-font-specification:Lavi;text-align:center;text-anchor:middle" /></flowRegion><flowPara
         style="font-size:48px;line-height:1.25;text-align:center;text-anchor:middle"
         id="flowPara3737">.i na ku gau mi</flowPara><flowPara
         style="font-size:48px;line-height:1.25;text-align:center;text-anchor:middle"
         id="flowPara60">le tutci co'u gasnu</flowPara><flowPara
         style="font-size:48px;line-height:1.25;text-align:center;text-anchor:middle"
         id="flowPara64">le bandu</flowPara></flowRoot>    <flowRoot
       xml:space="preserve"
       id="flowRoot2987-4-9-3-7-3-7"
       style="font-style:normal;font-variant:normal;font-weight:normal;font-stretch:normal;line-height:0.01%;font-family:Lavi;-inkscape-font-specification:Lavi;text-align:center;letter-spacing:0px;word-spacing:0px;text-anchor:middle;fill:#000000;fill-opacity:1;stroke:none"
       transform="translate(110.69946,1529.9992)"><flowRegion
         id="flowRegion2989-5-4-5-9-3-2"><rect
           id="rect2991-7-9-6-4-4-0"
           width="577.74487"
           height="312.3837"
           x="120.55251"
           y="265.53046"
           style="font-style:normal;font-variant:normal;font-weight:normal;font-stretch:normal;font-family:Lavi;-inkscape-font-specification:Lavi;text-align:center;text-anchor:middle" /></flowRegion><flowPara
         style="font-size:48px;line-height:1.25;text-align:center;text-anchor:middle"
         id="flowPara3468">.i la'a milxe carvi</flowPara></flowRoot>    <flowRoot
       xml:space="preserve"
       id="flowRoot2987-4-9-3-7-3-4"
       style="font-style:normal;font-variant:normal;font-weight:normal;font-stretch:normal;line-height:0.01%;font-family:Lavi;-inkscape-font-specification:Lavi;text-align:center;letter-spacing:0px;word-spacing:0px;text-anchor:middle;fill:#000000;fill-opacity:1;stroke:none"
       transform="translate(66.444963,1326.7913)"><flowRegion
         id="flowRegion2989-5-4-5-9-3-0"><rect
           id="rect2991-7-9-6-4-4-2"
           width="577.74487"
           height="312.3837"
           x="120.55251"
           y="265.53046"
           style="font-style:normal;font-variant:normal;font-weight:normal;font-stretch:normal;font-family:Lavi;-inkscape-font-specification:Lavi;text-align:center;text-anchor:middle" /></flowRegion><flowPara
         style="font-size:48px;line-height:1.25;text-align:center;text-anchor:middle"
         id="flowPara4298-3">.i pei purci nicte</flowPara></flowRoot>    <flowRoot
       xml:space="preserve"
       id="flowRoot2987-4-9-3-7-3-7-8"
       style="font-style:normal;font-variant:normal;font-weight:normal;font-stretch:normal;line-height:0.01%;font-family:Lavi;-inkscape-font-specification:Lavi;text-align:center;letter-spacing:0px;word-spacing:0px;text-anchor:middle;fill:#000000;fill-opacity:1;stroke:none"
       transform="translate(166.37935,2155.4217)"><flowRegion
         id="flowRegion2989-5-4-5-9-3-2-0"><rect
           id="rect2991-7-9-6-4-4-0-8"
           width="577.74487"
           height="312.3837"
           x="120.55251"
           y="265.53046"
           style="font-style:normal;font-variant:normal;font-weight:normal;font-stretch:normal;font-family:Lavi;-inkscape-font-specification:Lavi;text-align:center;text-anchor:middle" /></flowRegion><flowPara
         style="font-size:48px;line-height:1.25;text-align:center;text-anchor:middle"
         id="flowPara4412">.i mi mutce zungi</flowPara><flowPara
         style="font-size:48px;line-height:1.25;text-align:center;text-anchor:middle"
         id="flowPara3477">.i ku'i no da pu'i</flowPara><flowPara
         style="font-size:48px;line-height:1.25;text-align:center;text-anchor:middle"
         id="flowPara3751">to'e prali .ie nai pei</flowPara></flowRoot>    <path
       style="color:#000000;display:inline;overflow:visible;visibility:visible;fill:#ffffff;fill-opacity:1;fill-rule:nonzero;stroke:none;stroke-width:1px;marker:none;enable-background:accumulate"
       d="m 1216.7346,2918.2863 c -43.3715,1.0822 -59.0619,-1.0925 -84.8726,-48.9239 -25.8107,-47.8314 -41.7698,-38.7869 -41.7698,-38.7869 l -1.2183,35.8616 c 0,0 61.508,98.5494 127.8607,51.8492 z"
       id="path3072"
       inkscape:connector-curvature="0" />
    <flowRoot
       xml:space="preserve"
       id="flowRoot2987-4-9-3-7-3-7-8-5"
       style="font-style:normal;font-variant:normal;font-weight:normal;font-stretch:normal;line-height:0.01%;font-family:Lavi;-inkscape-font-specification:Lavi;text-align:center;letter-spacing:0px;word-spacing:0px;text-anchor:middle;fill:#000000;fill-opacity:1;stroke:none"
       transform="translate(477.31345,2375.631)"><flowRegion
         id="flowRegion2989-5-4-5-9-3-2-0-4"><rect
           id="rect2991-7-9-6-4-4-0-8-5"
           width="577.74487"
           height="312.3837"
           x="120.55251"
           y="265.53046"
           style="font-style:normal;font-variant:normal;font-weight:normal;font-stretch:normal;font-family:Lavi;-inkscape-font-specification:Lavi;text-align:center;text-anchor:middle" /></flowRegion><flowPara
         style="font-size:48px;line-height:1.25;text-align:center;text-anchor:middle"
         id="flowPara4412-8">.i lei tcati ca bredi</flowPara><flowPara
         style="font-size:48px;line-height:1.25;text-align:center;text-anchor:middle"
         id="flowPara3505">.i ju'o ma'a ba zi di'a cinmo lo zabna ba le xlali funca pe nau</flowPara></flowRoot>    <flowRoot
       transform="matrix(1.0893046,0,0.05787519,1.1966756,-224.64545,-108.66519)"
       style="font-style:normal;font-variant:normal;font-weight:normal;font-stretch:normal;line-height:0.01%;font-family:Lavi;-inkscape-font-specification:Lavi;text-align:center;letter-spacing:0px;word-spacing:0px;text-anchor:middle;fill:#000000;fill-opacity:1;stroke:#000000;stroke-width:1.97814989;stroke-miterlimit:4;stroke-dasharray:none;stroke-opacity:1"
       id="flowRoot4212-3-7-8-6"
       xml:space="preserve"><flowRegion
         id="flowRegion4214-6-7-8-3"><rect
           style="font-style:normal;font-variant:normal;font-weight:normal;font-stretch:normal;font-family:Lavi;-inkscape-font-specification:Lavi;text-align:center;text-anchor:middle;stroke:#000000;stroke-width:1.97814989;stroke-miterlimit:4;stroke-dasharray:none;stroke-opacity:1"
           y="265.53046"
           x="120.55251"
           height="355.03918"
           width="798.1947"
           id="rect4216-4-0-26-5" /></flowRegion><flowPara
         style="font-size:48px;line-height:1.25;text-align:center;letter-spacing:5.20896292px;text-anchor:middle;stroke:#000000;stroke-width:1.97814989;stroke-miterlimit:4;stroke-dasharray:none;stroke-opacity:1"
         id="flowPara4358-7-1">юi ko fraxu</flowPara></flowRoot>    <flowRoot
       xml:space="preserve"
       id="flowRoot2987-4-9-3-7-3-4-6"
       style="font-style:normal;font-variant:normal;font-weight:normal;font-stretch:normal;line-height:0.01%;font-family:Lavi;-inkscape-font-specification:Lavi;text-align:center;letter-spacing:0px;word-spacing:0px;text-anchor:middle;fill:#000000;fill-opacity:1;stroke:none"
       transform="translate(30.294829,1140.1741)"><flowRegion
         id="flowRegion2989-5-4-5-9-3-0-1"><rect
           id="rect2991-7-9-6-4-4-2-6"
           width="577.74487"
           height="312.3837"
           x="120.55251"
           y="265.53046"
           style="font-style:normal;font-variant:normal;font-weight:normal;font-stretch:normal;font-family:Lavi;-inkscape-font-specification:Lavi;text-align:center;text-anchor:middle" /></flowRegion><flowPara
         style="font-size:48px;line-height:1.25;text-align:center;text-anchor:middle"
         id="flowPara3462">.i ku'i mi mutce gleki</flowPara><flowPara
         style="font-size:48px;line-height:1.25;text-align:center;text-anchor:middle"
         id="flowPara76">le nu ro do klama</flowPara></flowRoot>    <flowRoot
       xml:space="preserve"
       id="flowRoot4519"
       style="font-style:normal;font-variant:normal;font-weight:normal;font-stretch:normal;line-height:0.01%;font-family:Arial;-inkscape-font-specification:Arial;letter-spacing:0px;word-spacing:0px;fill:#000000;fill-opacity:1;stroke:none;stroke-width:1px;stroke-linecap:butt;stroke-linejoin:miter;stroke-opacity:1"><flowRegion
         id="flowRegion4521"><rect
           id="rect4523"
           width="103.5"
           height="17.25"
           x="2866.375"
           y="1792.375" /></flowRegion><flowPara
         id="flowPara4525"
         style="font-size:12px;line-height:1.25"> </flowPara></flowRoot>  </g>
</svg>
