<?xml version="1.0" encoding="UTF-8" standalone="no"?>
<svg
   id="svg2"
   version="1.1"
   inkscape:version="1.1.1 (3bf5ae0d25, 2021-09-20, custom)"
   width="2481"
   height="3503"
   sodipodi:docname="E35P07.svg"
   xmlns:inkscape="http://www.inkscape.org/namespaces/inkscape"
   xmlns:sodipodi="http://sodipodi.sourceforge.net/DTD/sodipodi-0.dtd"
   xmlns:xlink="http://www.w3.org/1999/xlink"
   xmlns="http://www.w3.org/2000/svg"
   xmlns:svg="http://www.w3.org/2000/svg"
   xmlns:rdf="http://www.w3.org/1999/02/22-rdf-syntax-ns#"
   xmlns:cc="http://creativecommons.org/ns#"
   xmlns:dc="http://purl.org/dc/elements/1.1/">
  <metadata
     id="metadata8">
    <rdf:RDF>
      <cc:Work
         rdf:about="">
        <dc:format>image/svg+xml</dc:format>
        <dc:type
           rdf:resource="http://purl.org/dc/dcmitype/StillImage" />
        <dc:title />
      </cc:Work>
    </rdf:RDF>
  </metadata>
  <defs
     id="defs6">
    <filter
       style="color-interpolation-filters:sRGB"
       id="filter4375-4-1-1-1-9-5-8-8-5-5-3-8"
       inkscape:label="soundFX1"
       x="-0.044353127"
       y="-0.0023842071"
       width="1.0467294"
       height="1.0447156">
      <feFlood
         id="feFlood4377-7-9-0-8-1-7-3-1-2-7-6-7"
         flood-opacity="1"
         flood-color="rgb(255,255,255)"
         result="flood" />
      <feComposite
         id="feComposite4379-3-8-8-2-77-4-1-0-6-4-7-9"
         in2="SourceGraphic"
         in="flood"
         operator="in"
         result="composite1"
         baseFrequency="0.053999999999999999 0.053999999999999999" />
      <feMorphology
         id="feMorphology4393-1-0-49-8-9-3-0-1-9-9-5-2"
         operator="dilate"
         radius="2.9756367599225957"
         result="result3" />
      <feComposite
         id="feComposite4385-9-5-7-0-8-8-7-5-4-9-3-0"
         in2="result3"
         in="SourceGraphic"
         operator="over"
         result="fbSourceGraphic" />
      <feColorMatrix
         result="fbSourceGraphicAlpha"
         in="fbSourceGraphic"
         values="0 0 0 -1 0 0 0 0 -1 0 0 0 0 -1 0 0 0 0 1 0"
         id="feColorMatrix4544-9-4-4-5-2" />
      <feTurbulence
         id="feTurbulence4546-3-6-5-6-3"
         type="fractalNoise"
         numOctaves="5"
         seed="174"
         baseFrequency="0.053999999999999999 0.054054054054054057"
         result="turbulence" />
      <feDisplacementMap
         id="feDisplacementMap4548-8-0-9-2-7"
         in2="turbulence"
         in="fbSourceGraphic"
         scale="6.6"
         yChannelSelector="G"
         xChannelSelector="R"
         result="fbSourceGraphic" />
      <feColorMatrix
         result="fbSourceGraphicAlpha"
         in="fbSourceGraphic"
         values="0 0 0 -1 0 0 0 0 -1 0 0 0 0 -1 0 0 0 0 1 0"
         id="feColorMatrix4670-7-7-3-9-5" />
      <feFlood
         id="feFlood4672-4-4-5-1-9"
         flood-opacity="1"
         flood-color="rgb(255,255,255)"
         result="flood"
         in="fbSourceGraphic" />
      <feComposite
         id="feComposite4674-8-3-7-2-22"
         in2="fbSourceGraphic"
         in="flood"
         operator="in"
         result="composite1" />
      <feGaussianBlur
         id="feGaussianBlur4676-3-7-08-7-8"
         in="composite1"
         stdDeviation="0"
         result="blur" />
      <feOffset
         id="feOffset4678-6-9-1-0-9"
         dx="-6.3258232761971414"
         dy="6"
         result="offset" />
      <feComposite
         id="feComposite4680-4-0-9-9-7"
         in2="offset"
         in="fbSourceGraphic"
         operator="over"
         result="composite2" />
    </filter>
  </defs>
  <sodipodi:namedview
     pagecolor="#ffffff"
     bordercolor="#666666"
     borderopacity="1"
     objecttolerance="10"
     gridtolerance="10"
     guidetolerance="10"
     inkscape:pageopacity="0"
     inkscape:pageshadow="2"
     inkscape:window-width="1888"
     inkscape:window-height="1146"
     id="namedview4"
     showgrid="false"
     inkscape:zoom="0.65423239"
     inkscape:cx="1404.6996"
     inkscape:cy="1468.1328"
     inkscape:window-x="32"
     inkscape:window-y="0"
     inkscape:window-maximized="1"
     inkscape:current-layer="layer1"
     inkscape:document-rotation="0"
     inkscape:snap-global="false"
     inkscape:pagecheckerboard="0" />
  <g
     inkscape:groupmode="layer"
     id="layer2"
     inkscape:label="artwork"
     sodipodi:insensitive="true">
    <image
       xlink:href="../gfx_Pepper-and-Carrot_by-David-Revoy_E35P07.png"
       width="2481"
       height="3503.4727"
       id="image10"
       x="0"
       y="0" />
  </g>
  <g
     inkscape:groupmode="layer"
     id="layer3"
     inkscape:label="speechbubbles">
    <path
       style="fill:#ffffff;stroke:none;stroke-width:0.937135"
       d="m 1989.9604,264.49893 c -27.5393,0.57799 -55.4525,10.27297 -75.7634,29.61119 -19.5157,18.83308 -31.59,44.408 -37.9349,70.74228 -4.2951,17.40626 -6.6064,36.0778 -1.5278,53.58581 6.1127,20.35691 21.2659,36.85307 39.0322,47.49816 26.3106,16.08639 57.5878,22.02915 87.992,21.03551 31.8504,-0.78441 63.9654,-3.53915 94.6822,-12.60118 15.7994,-5.23401 31.1201,-14.58193 39.9595,-29.31674 8.2731,-13.69941 10.339,-30.30129 9.2724,-46.09587 -0.9259,-26.59653 -8.7464,-52.83428 -22.2423,-75.60444 -9.7337,-16.78401 -21.8422,-32.93125 -38.5003,-43.07894 -14.3625,-8.94069 -31.3085,-11.78905 -47.7816,-13.57259 -15.6576,-1.83126 -31.4392,-2.24914 -47.188,-2.20319 z"
       id="path3280-8"
       inkscape:connector-curvature="0"
       sodipodi:nodetypes="csssc" />
    <path
       style="fill:#ffffff;fill-rule:evenodd;stroke:none;stroke-width:0.934796px;stroke-linecap:butt;stroke-linejoin:miter;stroke-opacity:1"
       d="m 1937.2471,432.07438 c -6.2176,11.12141 -85.6078,33.31577 -108.1931,83.17757 30.1276,-36.25015 118.0705,-48.01797 132.9745,-62.07815 51.3058,-16.19189 -3.5494,-23.72277 -24.7814,-21.09942 z"
       id="path4186"
       inkscape:connector-curvature="0"
       sodipodi:nodetypes="cccc" />
    <path
       style="fill:#ffffff;fill-rule:evenodd;stroke:none;stroke-width:1px;stroke-linecap:butt;stroke-linejoin:miter;stroke-opacity:1"
       d="m 1557.7613,1692.8906 134.1326,-31.6108 -24.0947,-23.8017 91.2177,-24.1969 -16.3502,-24.7111 -106.501,38.013 26.5589,28.0558 z"
       id="path4667"
       inkscape:connector-curvature="0" />
    <path
       style="color:#000000;display:inline;overflow:visible;visibility:visible;fill:#ffffff;fill-opacity:1;fill-rule:nonzero;stroke:none;stroke-width:1.11752px;marker:none;enable-background:accumulate"
       d="m 395.57629,3068.53 c -7.28264,18.1911 -52.37807,10.0571 -67.49902,5.9156 30.4803,21.3829 29.41766,34.1339 -11.96598,35.0107 67.07128,32.6528 16.86737,33.2074 -4.40218,28.2613 34.38926,17.3049 36.43102,33.1113 1.45365,41.0762 62.63408,2.2185 47.47128,14.8607 23.75809,33.0023 27.73178,-11.5511 70.51085,-19.2465 72.02869,12.9335 40.18115,-27.002 60.91267,-25.9007 75.44289,6.2362 12.13729,-27.0523 53.46538,-31.2158 69.26836,-1.2687 13.61327,-39.5937 62.18695,-32.6693 91.10112,-12.5309 -16.23107,-14.1009 -5.16297,-36.3093 50.1745,-30.2786 -4.45415,-12.6475 2.55045,-28.2729 30.49526,-25.4377 -32.18896,-8.428 -38.12121,-16.3932 21.64638,-23.1954 -45.47964,-2.0278 -87.88976,-4.827 -34.53224,-32.048 -16.73969,-1.1409 -59.0319,29.9353 -40.51443,-39.5251 -49.02701,19.3168 -97.96939,20.2505 -95.43473,-23.0111 -18.22691,22.9493 -49.84108,33.701 -63.59489,4.0595 -11.35375,27.0423 -45.83943,14.6694 -63.75414,-4.4743 -11.83713,18.206 -19.62086,51.4588 -53.67133,25.2745 z"
       id="path3549-3-7-8"
       inkscape:connector-curvature="0"
       sodipodi:nodetypes="ccccccccccccccccccc" />
    <path
       style="color:#000000;display:inline;overflow:visible;visibility:visible;fill:#ffffff;fill-opacity:1;fill-rule:nonzero;stroke:none;stroke-width:0.957119px;marker:none;enable-background:accumulate"
       d="m 347.07817,2974.6569 c 54.42931,30.305 -54.80468,19.7645 -75.757,15.5863 54.76262,10.6657 42.4845,28.438 -14.28048,34.013 98.00584,29.1878 21.14104,38.9077 1.7914,39.3345 65.03284,12.2981 50.79277,21.7236 39.21464,36.9597 127.15907,-17.4286 38.46252,29.9855 38.58118,50.2775 6.33689,-9.1274 103.67843,-95.0736 38.25313,-5.9753 49.44198,-29.5185 108.99358,-48.586 113.72217,3.0715 19.92101,-25.9876 39.78221,-36.9707 38.2531,-5.9755 49.35801,-40.3134 120.94725,-29.6945 165.56512,-18.3003 -57.93126,-30.6111 -22.62641,-28.331 41.73406,-19.8138 -74.88202,-20.9908 -68.52386,-30.5751 18.42213,-28.0474 -38.41498,-7.2853 -45.49476,-14.8 25.83328,-22.8867 -54.81558,-1.3186 -115.01967,-12.4624 -41.21152,-29.9634 -27.79816,1.5355 -131.72222,-2.1269 -45.27725,-45.0005 -67.84569,16.134 -137.68805,22.6568 -116.9675,-11.7031 -57.83514,20.8673 -63.89997,33.5192 -75.89544,5.5448 -20.45578,24.2779 -47.02439,9.2405 -76.08553,-2.6661 21.14688,18.9819 -26.08867,30.174 -75.89549,5.5448 z"
       id="path3549-3-7"
       inkscape:connector-curvature="0"
       sodipodi:nodetypes="ccccccccccccccccccc" />
    <path
       style="fill:#ffffff;fill-rule:evenodd;stroke:none;stroke-width:1.61403px;stroke-linecap:butt;stroke-linejoin:miter;stroke-opacity:1"
       d="m 559.65143,2966.4499 c 7.81388,-49.8207 8.23157,-62.9667 6.02019,-75.0728 -2.2114,-12.106 -16.03862,-8.1385 -26.02653,-3.643 -6.53887,2.9161 -28.34548,24.9309 -13.34891,-11.2886 14.99673,-36.2194 33.04009,-86.6247 37.65555,-102.5126 -15.5946,27.8024 -42.45502,71.0937 -50.25242,84.9947 -7.79723,13.9012 -19.54665,39.459 -22.39666,47.151 -3.46707,9.3577 -1.1372,19.0591 14.63013,17.8664 24.66487,-3.6362 41.86312,-37.8298 13.23772,21.5203 -28.62567,59.3501 4.95095,150.5651 4.95095,150.5651 z"
       id="path1089"
       inkscape:connector-curvature="0"
       sodipodi:nodetypes="csccccscccc" />
    <path
       style="color:#000000;display:inline;overflow:visible;visibility:visible;fill:#ffffff;fill-opacity:1;fill-rule:nonzero;stroke:none;stroke-width:1.12892px;marker:none;enable-background:accumulate"
       d="m 1760.3914,1475.9514 c -2.3909,41.4333 -47.693,14.6169 -69.2057,4.0693 25.6407,23.3457 45.1047,54.5096 -11.4,52.5517 63.4522,41.376 21.0327,39.3517 10.8053,49.8427 49.8217,14.2593 35.5033,32.5194 3.5243,42.4535 57.265,0.6069 43.4019,15.1701 21.7215,36.127 25.3547,-13.7204 64.4667,-23.5866 65.8544,12.2862 36.7369,-31.3381 55.6912,-30.7276 68.9759,4.709 11.097,-30.5571 48.8824,-36.4381 63.3309,-3.4835 12.4463,-44.5995 56.8563,-38.3203 83.292,-16.7056 -14.8398,-15.2547 -4.7204,-40.3733 45.8737,-35.2935 -4.0724,-13.984 2.3317,-31.6336 27.8811,-29.303 -29.4297,-8.4464 -34.8533,-17.1598 19.7909,-26.536 -41.5811,-0.9061 -80.3559,-2.7646 -31.5721,-34.7405 -15.3048,-0.7736 -51.6172,25.9079 -34.6869,-52.1743 -44.8247,23.0239 -91.9263,34.794 -89.6089,-13.569 -16.6645,26.1593 -45.5688,39.1035 -58.1436,6.4292 -10.3806,30.5226 -41.9102,17.7415 -58.2893,-3.0911 -10.8223,20.6741 -27.0116,34.6377 -58.1435,6.4279 z"
       id="path3549-3-7-8-6"
       inkscape:connector-curvature="0"
       sodipodi:nodetypes="ccccccccccccccccccc" />
  </g>
  <g
     inkscape:groupmode="layer"
     id="layer1"
     inkscape:label="txt">
    <text
       xml:space="preserve"
       style="font-style:normal;font-variant:normal;font-weight:normal;font-stretch:normal;font-size:45px;line-height:1.25;font-family:Lavi;-inkscape-font-specification:Lavi;text-align:center;letter-spacing:0px;word-spacing:0px;text-anchor:middle;fill:#000000;fill-opacity:1;stroke:none"
       x="2006.9666"
       y="335.19894"
       id="text4246-3-2-2"><tspan
         style="font-size:45px"
         sodipodi:role="line"
         x="2006.9666"
         y="335.19894"
         id="tspan886">Odlično!</tspan><tspan
         style="font-size:45px"
         sodipodi:role="line"
         x="2006.9666"
         y="391.44894"
         id="tspan3488">Sledita</tspan><tspan
         style="font-size:45px"
         sodipodi:role="line"
         x="2006.9666"
         y="447.69894"
         id="tspan5071">nama!</tspan></text>
    <text
       xml:space="preserve"
       style="font-style:normal;font-variant:normal;font-weight:normal;font-stretch:normal;font-size:45px;line-height:1.25;font-family:Lavi;-inkscape-font-specification:Lavi;text-align:center;letter-spacing:0px;word-spacing:0px;text-anchor:middle;fill:#000000;fill-opacity:1;stroke:none"
       x="1876.2313"
       y="1553.912"
       id="text4246-3-2-2-3"><tspan
         style="font-size:45px"
         sodipodi:role="line"
         x="1876.2313"
         y="1553.912"
         id="tspan8118">Kmalu se ju</tspan><tspan
         style="font-size:45px"
         sodipodi:role="line"
         x="1876.2313"
         y="1610.162"
         id="tspan19179">bova znebila.</tspan></text>
    <text
       xml:space="preserve"
       style="font-style:normal;font-variant:normal;font-weight:normal;font-stretch:normal;font-size:50.2786px;line-height:1.25;font-family:Lavi;-inkscape-font-specification:Lavi;text-align:center;letter-spacing:0px;word-spacing:0px;text-anchor:middle;fill:#000000;fill-opacity:1;stroke:none;stroke-width:1.1173"
       x="496.85504"
       y="3065.5552"
       id="text4246-3-2-2-3-3"><tspan
         style="font-style:normal;font-variant:normal;font-weight:bold;font-stretch:normal;font-size:50.2786px;font-family:Lavi;-inkscape-font-specification:'Lavi Bold';stroke-width:1.1173"
         sodipodi:role="line"
         x="496.85504"
         y="3065.5552"
         id="tspan896">Komaj čakam!</tspan></text>
    <text
       xml:space="preserve"
       style="font-style:normal;font-variant:normal;font-weight:normal;font-stretch:normal;font-size:57.3248px;line-height:1.25;font-family:Lavi;-inkscape-font-specification:Lavi;text-align:center;letter-spacing:0px;word-spacing:0px;text-anchor:middle;fill:#000000;fill-opacity:1;stroke:none;stroke-width:1.27388"
       x="516.08405"
       y="3161.1641"
       id="text4246-3-2-2-3-3-3"><tspan
         style="font-style:normal;font-variant:normal;font-weight:bold;font-stretch:normal;font-size:57.3248px;font-family:Lavi;-inkscape-font-specification:'Lavi Bold';stroke-width:1.27388"
         sodipodi:role="line"
         x="516.08405"
         y="3161.1641"
         id="tspan1015">Muhahaha!</tspan></text>
    <text
       xml:space="preserve"
       style="font-style:normal;font-variant:normal;font-weight:normal;font-stretch:normal;font-size:105.817px;line-height:1.25;font-family:Lavi;-inkscape-font-specification:Lavi;letter-spacing:0px;word-spacing:0px;fill:#000000;fill-opacity:1;stroke:#030303;stroke-width:0.716208;stroke-miterlimit:4;stroke-dasharray:none;stroke-opacity:1;filter:url(#filter4375-4-1-1-1-9-5-8-8-5-5-3-8)"
       x="787.65729"
       y="1584.5073"
       id="text4580-6-0-0-0-9-3-36"
       transform="matrix(1.0545214,-0.26714456,-0.41513081,1.2309466,1890.7199,857.1408)"><tspan
         style="font-size:195.17px;fill:#000000;fill-opacity:1;stroke:#030303;stroke-width:0.716208;stroke-miterlimit:4;stroke-dasharray:none;stroke-opacity:1"
         sodipodi:role="line"
         id="tspan876-6-1"
         x="787.65729"
         y="1584.5073">!<tspan
   style="font-size:173.821px;fill:#000000;stroke:#030303;stroke-opacity:1"
   id="tspan1317">!</tspan><tspan
   id="tspan1322"
   style="font-size:152.472px;fill:#000000;stroke:#030303;stroke-opacity:1">!</tspan></tspan></text>
  </g>
</svg>
