<?xml version="1.0" encoding="UTF-8" standalone="no"?>
<svg
   id="svg2"
   version="1.1"
   inkscape:version="1.1.1 (3bf5ae0d25, 2021-09-20, custom)"
   width="2481"
   height="3503"
   sodipodi:docname="E35P06.svg"
   xmlns:inkscape="http://www.inkscape.org/namespaces/inkscape"
   xmlns:sodipodi="http://sodipodi.sourceforge.net/DTD/sodipodi-0.dtd"
   xmlns:xlink="http://www.w3.org/1999/xlink"
   xmlns="http://www.w3.org/2000/svg"
   xmlns:svg="http://www.w3.org/2000/svg"
   xmlns:rdf="http://www.w3.org/1999/02/22-rdf-syntax-ns#"
   xmlns:cc="http://creativecommons.org/ns#"
   xmlns:dc="http://purl.org/dc/elements/1.1/">
  <metadata
     id="metadata8">
    <rdf:RDF>
      <cc:Work
         rdf:about="">
        <dc:format>image/svg+xml</dc:format>
        <dc:type
           rdf:resource="http://purl.org/dc/dcmitype/StillImage" />
        <dc:title />
      </cc:Work>
    </rdf:RDF>
  </metadata>
  <defs
     id="defs6" />
  <sodipodi:namedview
     pagecolor="#ffffff"
     bordercolor="#666666"
     borderopacity="1"
     objecttolerance="10"
     gridtolerance="10"
     guidetolerance="10"
     inkscape:pageopacity="0"
     inkscape:pageshadow="2"
     inkscape:window-width="1888"
     inkscape:window-height="1146"
     id="namedview4"
     showgrid="false"
     inkscape:zoom="0.37194737"
     inkscape:cx="1204.4715"
     inkscape:cy="2703.3395"
     inkscape:window-x="32"
     inkscape:window-y="0"
     inkscape:window-maximized="1"
     inkscape:current-layer="layer1"
     inkscape:document-rotation="0"
     inkscape:snap-global="false"
     inkscape:pagecheckerboard="0" />
  <g
     inkscape:groupmode="layer"
     id="layer2"
     inkscape:label="artwork"
     sodipodi:insensitive="true">
    <image
       xlink:href="../gfx_Pepper-and-Carrot_by-David-Revoy_E35P06.png"
       width="2481"
       height="3503.4727"
       id="image10"
       x="0"
       y="0" />
  </g>
  <g
     inkscape:groupmode="layer"
     id="layer3"
     inkscape:label="speechbubbles"
     style="display:inline">
    <path
       style="fill:#ffffff;stroke:none;stroke-width:0.817171"
       d="m 599.00921,184.25281 c -16.31997,0.26163 -32.60831,1.15362 -48.8326,2.3241 -25.05411,1.9535 -50.10306,5.18603 -73.60065,11.47198 -27.89893,8.13198 -48.71638,25.8148 -55.34376,45.69681 -10.55187,23.73674 -11.41871,49.78999 0.67054,73.38527 7.94366,14.55139 25.6983,25.98445 46.16857,32.67731 33.14617,11.17437 70.19372,17.15679 107.2628,16.85803 22.5091,0.0536 45.03191,-0.51709 67.45012,-1.84923 27.47213,-1.83255 55.11566,-6.43847 78.69349,-16.37705 15.67336,-6.6583 28.37196,-16.64852 34.64698,-28.45291 5.5581,-9.96338 6.59238,-20.76199 5.95454,-31.31741 -0.42844,-17.90732 -1.45986,-36.1478 -9.87603,-53.31105 -5.6571,-11.0888 -17.90086,-20.22213 -32.19149,-26.70447 -9.82269,-4.45536 -20.79035,-7.57444 -31.63283,-10.70216 -25.82484,-7.12111 -53.18733,-11.89059 -81.01435,-13.43787 -2.78074,-0.14192 -5.56756,-0.22668 -8.35533,-0.26135 z"
       id="path3286-6"
       inkscape:connector-curvature="0"
       sodipodi:nodetypes="csssssssc" />
    <path
       style="display:inline;fill:#ffffff;fill-rule:evenodd;stroke:none;stroke-width:1.30705px;stroke-linecap:butt;stroke-linejoin:miter;stroke-opacity:1"
       d="m -36.362145,1478.0336 c 47.285128,0.8935 41.0202847,17.4128 23.991775,37.0729 13.09982665,-1.3224 43.737529,-19.5341 25.570695,9.2542 39.667306,-10.4589 56.420658,14.3464 53.197356,24.9871 19.484344,-3.663 39.465279,-0.5867 19.136544,37.063 19.638025,-8.4364 36.841445,-33.9264 34.605005,6.6487 15.89818,-5.0364 36.78638,-24.4416 39.43737,8.6667 21.01567,-16.3447 41.89473,-30.2892 60.6718,-7.2883 19.53008,-33.2918 39.245,-21.4934 52.60208,11.4829 6.27564,-39.9686 43.52626,-23.8455 66.90689,18.0175 -7.42371,-34.6344 -38.94668,-82.5007 54.67081,-12.4451 -39.72841,-51.4615 -44.6055,-71.2638 72.48794,-14.5276 -14.94217,-20.8453 -39.19887,-70.9613 56.32185,-16.9804 -64.83065,-61.9411 -26.58017,-68.472 20.0383,-79.6642 -56.61095,-1.6526 -73.29896,-17.8637 -12.88074,-24.7373 -92.57779,-8.0437 -70.1637,-27.9958 -40.69585,-61.3962 -47.37424,25.4847 -40.57833,10.6543 -29.22077,-2.9001 -84.20036,26.7812 -49.08304,-15.6066 -41.30815,-32.1297 -41.35702,17.4988 -54.17414,15.4994 -50.28863,-10.9051 -22.95791,22.6169 -47.24278,22.0408 -45.05674,13.1453 l -57.8602,-7.5701 -275.302728,4.9839 -12.063932,81.2149 c 72.623699,-3.8553 28.4652267,13.5246 -14.960675,18.007 z"
       id="path961"
       sodipodi:nodetypes="cccccccccccccccccccccccc" />
    <path
       style="color:#000000;display:inline;overflow:visible;visibility:visible;fill:#ffffff;fill-opacity:1;fill-rule:nonzero;stroke:none;stroke-width:0.879898px;marker:none;enable-background:accumulate"
       d="m 660.5533,2285.3556 c -5.79278,-35.9524 9.65491,-131.4529 128.40911,-123.5877 118.75418,7.8642 138.06385,52.8058 140.96025,66.2874 2.89638,13.4827 27.99892,89.8831 -64.68721,110.1061 -92.68632,20.2239 -175.71763,-1.1239 -204.68215,-52.8058 z"
       id="path3525-0"
       inkscape:connector-curvature="0" />
    <path
       style="color:#000000;display:inline;overflow:visible;visibility:visible;fill:#ffffff;fill-opacity:1;fill-rule:nonzero;stroke:none;stroke-width:1px;marker:none;enable-background:accumulate"
       d="m 777.45911,2075.5812 c 24.221,32.672 31.0089,45.658 8.1243,87.146 -22.8847,41.487 -7.3195,49.577 -7.3195,49.577 l 28.2503,-15.376 c 0,0 42.659,-91.848 -29.0551,-121.347 z"
       id="path3072-56"
       inkscape:connector-curvature="0" />
    <path
       style="color:#000000;display:inline;overflow:visible;visibility:visible;fill:#ffffff;fill-opacity:1;fill-rule:nonzero;stroke:none;stroke-width:1px;marker:none;enable-background:accumulate"
       d="m 777.11479,427.20539 c -47.0829,-20.24287 -67.22496,-54.55991 -84.15983,-115.70701 -17.59681,-45.717 -36.07245,-33.52653 -36.07245,-33.52653 l 6.37734,17.91035 c 0,0 -3.04742,117.01808 113.85494,131.32319 z"
       id="path3072-5-5"
       inkscape:connector-curvature="0"
       sodipodi:nodetypes="ccccc" />
    <path
       style="display:inline;fill:#ffffff;fill-opacity:1;stroke:none;stroke-width:1.10947"
       d="m 368.90323,1568.8049 c 21.51156,33.7205 38.79051,39.1501 50.26035,53.0664 11.46981,13.9172 -2.88402,43.4737 0.19353,53.5399 3.70439,9.4958 0.69509,16.2497 29.83986,39.4536 -46.26,-20.9908 -40.86354,-33.0957 -44.26871,-41.9175 -4.68096,-12.128 3.84885,-26.4644 -8.51834,-37.4754 -11.9791,-10.667 -55.59571,-40.8524 -64.07404,-63.4543 -8.47865,-22.6019 -12.84256,-23.9886 -12.84256,-23.9886 z"
       id="path3282-7"
       inkscape:connector-curvature="0"
       sodipodi:nodetypes="csccssscc" />
  </g>
  <g
     inkscape:groupmode="layer"
     id="layer1"
     inkscape:label="txt">
    <text
       xml:space="preserve"
       style="font-style:normal;font-variant:normal;font-weight:normal;font-stretch:normal;font-size:45px;line-height:1.25;font-family:Lavi;-inkscape-font-specification:Lavi;text-align:center;letter-spacing:0px;word-spacing:0px;text-anchor:middle;fill:#000000;fill-opacity:1;stroke:none"
       x="586.89105"
       y="254.11182"
       id="text4246-3-2-2"><tspan
         style="font-size:45px"
         sodipodi:role="line"
         x="586.89105"
         y="254.11182"
         id="tspan216">Jama pri</tspan><tspan
         style="font-size:45px"
         sodipodi:role="line"
         x="586.89105"
         y="310.36182"
         id="tspan218">jezeru rogov!</tspan></text>
    <text
       xml:space="preserve"
       style="font-style:normal;font-variant:normal;font-weight:normal;font-stretch:normal;font-size:45px;line-height:1.25;font-family:Lavi;-inkscape-font-specification:Lavi;text-align:center;letter-spacing:0px;word-spacing:0px;text-anchor:middle;fill:#000000;fill-opacity:1;stroke:none"
       x="283.22031"
       y="1471.1165"
       id="text4246-3-2-2-3"><tspan
         style="font-size:45px"
         sodipodi:role="line"
         x="283.22031"
         y="1471.1165"
         id="tspan1548">Korenček, to je</tspan><tspan
         style="font-size:45px"
         sodipodi:role="line"
         x="283.22031"
         y="1527.3665"
         id="tspan16142">najina priložnost!</tspan></text>
    <text
       xml:space="preserve"
       style="font-style:normal;font-variant:normal;font-weight:normal;font-stretch:normal;font-size:45px;line-height:1.25;font-family:Lavi;-inkscape-font-specification:Lavi;text-align:center;letter-spacing:0px;word-spacing:0px;text-anchor:middle;fill:#000000;fill-opacity:1;stroke:none"
       x="802.73193"
       y="2240.5891"
       id="text4246-3-2-2-3-5"><tspan
         style="font-size:45px"
         sodipodi:role="line"
         x="802.73193"
         y="2240.5891"
         id="tspan3198">Poznam</tspan><tspan
         style="font-size:45px"
         sodipodi:role="line"
         x="802.73193"
         y="2296.8391"
         id="tspan1836">to jamo.</tspan></text>
    <text
       xml:space="preserve"
       style="font-style:normal;font-variant:normal;font-weight:normal;font-stretch:normal;font-size:45px;line-height:1.25;font-family:Lavi;-inkscape-font-specification:Lavi;text-align:center;letter-spacing:0px;word-spacing:0px;text-anchor:middle;fill:#ffffff;fill-opacity:1;stroke:none"
       x="206.67752"
       y="2567.1943"
       id="text4246-3-2-2-3-5-9"><tspan
         style="font-size:45px;text-align:start;text-anchor:start;fill:#ffffff"
         sodipodi:role="line"
         x="206.67752"
         y="2567.1943"
         id="tspan8438">Je dolg tunel z zrušenim odsekom na koncu.</tspan></text>
    <text
       xml:space="preserve"
       style="font-style:normal;font-variant:normal;font-weight:normal;font-stretch:normal;font-size:45px;line-height:1.25;font-family:Lavi;-inkscape-font-specification:Lavi;text-align:center;letter-spacing:0px;word-spacing:0px;text-anchor:middle;fill:#ffffff;fill-opacity:1;stroke:none"
       x="1298.4758"
       y="3052.7424"
       id="text4246-3-2-2-3-5-9-7"><tspan
         style="font-size:45px;text-align:end;text-anchor:end;fill:#ffffff"
         sodipodi:role="line"
         x="1298.4758"
         y="3052.7424"
         id="tspan10648">Stalaktiki na vdrtem stropu tvorijo bodičasto steno!</tspan><tspan
         style="font-size:45px;text-align:end;text-anchor:end;fill:#ffffff"
         sodipodi:role="line"
         x="1298.4758"
         y="3108.9924"
         id="tspan29577">Smrtno past!</tspan></text>
    <text
       xml:space="preserve"
       style="font-style:normal;font-variant:normal;font-weight:normal;font-stretch:normal;font-size:45px;line-height:1.25;font-family:Lavi;-inkscape-font-specification:Lavi;text-align:center;letter-spacing:0px;word-spacing:0px;text-anchor:middle;fill:#000000;fill-opacity:1;stroke:none"
       x="1486.5177"
       y="2758.5361"
       id="text4246-3-2-2-3-5-9-7-3"><tspan
         style="font-size:45px;text-align:start;text-anchor:start;fill:#ffffff"
         sodipodi:role="line"
         x="1486.5177"
         y="2758.5361"
         id="tspan23651">Pred pastjo je majhna odprtina,</tspan><tspan
         style="font-size:45px;text-align:start;text-anchor:start;fill:#ffffff"
         sodipodi:role="line"
         x="1486.5177"
         y="2814.7861"
         id="tspan45464">ravno prav</tspan><tspan
         style="font-size:45px;text-align:start;text-anchor:start;fill:#ffffff"
         sodipodi:role="line"
         x="1486.5177"
         y="2871.0361"
         id="tspan48082">velika za naju,</tspan></text>
    <text
       xml:space="preserve"
       style="font-style:normal;font-variant:normal;font-weight:normal;font-stretch:normal;font-size:45px;line-height:1.25;font-family:Lavi;-inkscape-font-specification:Lavi;text-align:center;letter-spacing:0px;word-spacing:0px;text-anchor:middle;fill:#000000;fill-opacity:1;stroke:none;stroke-width:1.25015"
       x="2301.0408"
       y="3223.4587"
       id="text4246-3-2-2-3-5-9-7-3-3"><tspan
         style="font-size:45px;text-align:end;text-anchor:end;fill:#ffffff;stroke-width:1.25015"
         sodipodi:role="line"
         x="2301.0408"
         y="3223.4587"
         id="tspan58909">ampak zmaj se ne bo uspel</tspan><tspan
         style="font-size:45px;text-align:end;text-anchor:end;fill:#ffffff;stroke-width:1.25015"
         sodipodi:role="line"
         x="2301.0408"
         y="3279.7087"
         id="tspan60649">pravočasno ustaviti in bo s polno</tspan><tspan
         style="font-size:45px;text-align:end;text-anchor:end;fill:#ffffff;stroke-width:1.25015"
         sodipodi:role="line"
         x="2301.0408"
         y="3335.9587"
         id="tspan66911">hitrostjo treščil v steno! Muhahaha!</tspan></text>
  </g>
</svg>
