<?xml version="1.0" encoding="UTF-8" standalone="no"?>
<!-- Created with Inkscape (http://www.inkscape.org/) -->

<svg
   xmlns:dc="http://purl.org/dc/elements/1.1/"
   xmlns:cc="http://creativecommons.org/ns#"
   xmlns:rdf="http://www.w3.org/1999/02/22-rdf-syntax-ns#"
   xmlns:svg="http://www.w3.org/2000/svg"
   xmlns="http://www.w3.org/2000/svg"
   xmlns:xlink="http://www.w3.org/1999/xlink"
   xmlns:sodipodi="http://sodipodi.sourceforge.net/DTD/sodipodi-0.dtd"
   xmlns:inkscape="http://www.inkscape.org/namespaces/inkscape"
   id="svg2"
   version="1.1"
   inkscape:version="0.91 r13725"
   width="2481"
   height="3503"
   sodipodi:docname="Pepper-and-Carrot_by-David-Revoy_E22P02.svg">
  <metadata
     id="metadata8">
    <rdf:RDF>
      <cc:Work
         rdf:about="">
        <dc:format>image/svg+xml</dc:format>
        <dc:type
           rdf:resource="http://purl.org/dc/dcmitype/StillImage" />
        <dc:title />
      </cc:Work>
    </rdf:RDF>
  </metadata>
  <defs
     id="defs6">
    <filter
       style="color-interpolation-filters:sRGB"
       id="filter4375-4-1-1-1-9-6-9-2-1"
       inkscape:label="deevad outline effect">
      <feFlood
         id="feFlood4377-7-9-0-8-1-0-2-2-06"
         flood-opacity="1"
         flood-color="rgb(0,0,0)"
         result="flood" />
      <feComposite
         id="feComposite4379-3-8-8-2-77-6-0-8-3"
         in2="SourceGraphic"
         in="flood"
         operator="in"
         result="composite1" />
      <feMorphology
         id="feMorphology4393-1-0-49-8-9-2-2-9-2"
         operator="dilate"
         radius="4"
         result="result3" />
      <feComposite
         id="feComposite4385-9-5-7-0-8-6-3-7-0"
         in2="result3"
         in="SourceGraphic"
         operator="over"
         result="composite2" />
    </filter>
    <filter
       style="color-interpolation-filters:sRGB"
       id="filter4375-4-1-1-1-9-6-9-2-1-9"
       inkscape:label="deevad outline effect">
      <feFlood
         id="feFlood4377-7-9-0-8-1-0-2-2-06-9"
         flood-opacity="1"
         flood-color="rgb(0,0,0)"
         result="flood" />
      <feComposite
         id="feComposite4379-3-8-8-2-77-6-0-8-3-7"
         in2="SourceGraphic"
         in="flood"
         operator="in"
         result="composite1" />
      <feMorphology
         id="feMorphology4393-1-0-49-8-9-2-2-9-2-8"
         operator="dilate"
         radius="4"
         result="result3" />
      <feComposite
         id="feComposite4385-9-5-7-0-8-6-3-7-0-2"
         in2="result3"
         in="SourceGraphic"
         operator="over"
         result="composite2" />
    </filter>
  </defs>
  <sodipodi:namedview
     pagecolor="#ffffff"
     bordercolor="#666666"
     borderopacity="1"
     objecttolerance="10"
     gridtolerance="10"
     guidetolerance="10"
     inkscape:pageopacity="0"
     inkscape:pageshadow="2"
     inkscape:window-width="1366"
     inkscape:window-height="715"
     id="namedview4"
     showgrid="false"
     inkscape:zoom="0.41468262"
     inkscape:cx="1303.8577"
     inkscape:cy="693.02369"
     inkscape:window-x="-8"
     inkscape:window-y="-8"
     inkscape:window-maximized="1"
     inkscape:current-layer="layer1"
     inkscape:snap-text-baseline="true" />
  <g
     inkscape:groupmode="layer"
     id="layer2"
     inkscape:label="artwork"
     sodipodi:insensitive="true">
    <image
       sodipodi:absref="D:\GitHub\peppercarrot_ep22_translation\cn\..\gfx_Pepper-and-Carrot_by-David-Revoy_E22P02.png"
       xlink:href="../gfx_Pepper-and-Carrot_by-David-Revoy_E22P02.png"
       y="0"
       x="0"
       id="image10"
       height="3503"
       width="2481" />
  </g>
  <g
     inkscape:groupmode="layer"
     id="layer3"
     inkscape:label="speechbubbles"
     style="display:inline">
    <rect
       style="color:#000000;clip-rule:nonzero;display:inline;overflow:visible;visibility:visible;opacity:1;isolation:auto;mix-blend-mode:normal;color-interpolation:sRGB;color-interpolation-filters:linearRGB;solid-color:#000000;solid-opacity:1;fill:#fff6d5;fill-opacity:1;fill-rule:nonzero;stroke:none;stroke-width:2.5999999;stroke-linecap:butt;stroke-linejoin:miter;stroke-miterlimit:4;stroke-dasharray:none;stroke-dashoffset:0;stroke-opacity:1;marker:none;color-rendering:auto;image-rendering:auto;shape-rendering:auto;text-rendering:auto;enable-background:accumulate"
       id="rect4632-8-6-1-3-6-7"
       width="514.46503"
       height="261.05905"
       x="1342.4185"
       y="430.84369"
       ry="40"
       rx="40" />
    <path
       style="color:#000000;display:inline;overflow:visible;visibility:visible;fill:#fff6d5;fill-opacity:1;fill-rule:nonzero;stroke:none;stroke-width:1px;marker:none;enable-background:accumulate"
       d="m 1287.9562,804.69125 c -2.3726,-48.11045 10.1998,-102.00947 18.1937,-112.95934 3.1988,0.86242 18.9006,18.62975 18.9006,18.62975 0,0 73.4226,-141.05933 116.098,-161.78266 9.5804,-4.65225 36.6834,-14.11398 2.5863,22.28059 -34.0971,36.39457 -113.8187,149.01883 -113.6551,167.47568 -8.8102,-3.73425 -16.9173,-15.12982 -19.3721,-17.88533 -10.1199,5.38582 -24.1474,69.23793 -22.7514,84.24131 z"
       id="path4456"
       inkscape:connector-curvature="0"
       sodipodi:nodetypes="cccszccc" />
    <rect
       style="color:#000000;clip-rule:nonzero;display:inline;overflow:visible;visibility:visible;opacity:1;isolation:auto;mix-blend-mode:normal;color-interpolation:sRGB;color-interpolation-filters:linearRGB;solid-color:#000000;solid-opacity:1;fill:#fff6d5;fill-opacity:1;fill-rule:nonzero;stroke:none;stroke-width:2.64763379;stroke-linecap:butt;stroke-linejoin:miter;stroke-miterlimit:4;stroke-dasharray:none;stroke-dashoffset:0;stroke-opacity:1;marker:none;color-rendering:auto;image-rendering:auto;shape-rendering:auto;text-rendering:auto;enable-background:accumulate"
       id="rect4632-8-6-1-3-6-7-3-0"
       width="352.13397"
       height="147.87367"
       x="1924.8738"
       y="1348.7334"
       ry="38.134346"
       rx="27.548569" />
    <path
       style="color:#000000;display:inline;overflow:visible;visibility:visible;fill:#fff6d5;fill-opacity:1;fill-rule:nonzero;stroke:none;stroke-width:1px;marker:none;enable-background:accumulate"
       d="m 2192.6047,1464.2863 c -25.0108,27.1285 -2.0561,271.3313 83.4201,284.9495 -1.6379,7.2112 -29.3802,33.6228 -38.2077,38.9428 23.1156,-12.3173 55.6405,-32.3554 56.5803,-44.6937 -71.8085,5.3997 -108.6969,-229.5705 -79.3282,-275.7342 z"
       id="path5066"
       inkscape:connector-curvature="0"
       sodipodi:nodetypes="cccccc" />
    <rect
       style="color:#000000;clip-rule:nonzero;display:inline;overflow:visible;visibility:visible;opacity:1;isolation:auto;mix-blend-mode:normal;color-interpolation:sRGB;color-interpolation-filters:linearRGB;solid-color:#000000;solid-opacity:1;fill:#fff6d5;fill-opacity:1;fill-rule:nonzero;stroke:none;stroke-width:2.64763379;stroke-linecap:butt;stroke-linejoin:miter;stroke-miterlimit:4;stroke-dasharray:none;stroke-dashoffset:0;stroke-opacity:1;marker:none;color-rendering:auto;image-rendering:auto;shape-rendering:auto;text-rendering:auto;enable-background:accumulate"
       id="rect4632-8-6-1-3-6-7-3-0-6"
       width="410.00958"
       height="143.0507"
       x="1929.4927"
       y="1520.0284"
       ry="27.810688"
       rx="43.037518" />
    <rect
       style="color:#000000;clip-rule:nonzero;display:inline;overflow:visible;visibility:visible;opacity:1;isolation:auto;mix-blend-mode:normal;color-interpolation:sRGB;color-interpolation-filters:linearRGB;solid-color:#000000;solid-opacity:1;fill:#fff6d5;fill-opacity:1;fill-rule:nonzero;stroke:none;stroke-width:2.5999999;stroke-linecap:butt;stroke-linejoin:miter;stroke-miterlimit:4;stroke-dasharray:none;stroke-dashoffset:0;stroke-opacity:1;marker:none;color-rendering:auto;image-rendering:auto;shape-rendering:auto;text-rendering:auto;enable-background:accumulate"
       id="rect4632-8-6-1-3-6-7-3-7"
       width="627.65997"
       height="197.59259"
       x="917.35803"
       y="2044.0802"
       ry="29.81246"
       rx="41.432667" />
    <path
       style="color:#000000;display:inline;overflow:visible;visibility:visible;fill:#fff6d5;fill-opacity:1;fill-rule:nonzero;stroke:none;stroke-width:1px;marker:none;enable-background:accumulate"
       d="m 1574.8392,2314.3627 c -16.2878,-47.6331 -28.9561,-50.5494 -38.005,-54.4378 -1.2063,4.8605 -4.2226,12.6373 -4.2226,12.6373 0,0 -17.4944,-10.6931 -24.7335,-10.6931 -7.2389,0 -7.2389,16.5258 -7.2389,16.5258 0,0 33.7821,22.3583 40.4179,31.1072 3.0162,-13.6094 5.4292,-19.442 5.4292,-25.2746 5.4295,-0.9721 22.3205,13.6094 28.3529,30.1352 z"
       id="path4456-6"
       inkscape:connector-curvature="0"
       inkscape:transform-center-x="19.942486"
       inkscape:transform-center-y="41.5879" />
    <rect
       style="color:#000000;clip-rule:nonzero;display:inline;overflow:visible;visibility:visible;opacity:1;isolation:auto;mix-blend-mode:normal;color-interpolation:sRGB;color-interpolation-filters:linearRGB;solid-color:#000000;solid-opacity:1;fill:#fff6d5;fill-opacity:1;fill-rule:nonzero;stroke:none;stroke-width:2.5999999;stroke-linecap:butt;stroke-linejoin:miter;stroke-miterlimit:4;stroke-dasharray:none;stroke-dashoffset:0;stroke-opacity:1;marker:none;color-rendering:auto;image-rendering:auto;shape-rendering:auto;text-rendering:auto;enable-background:accumulate"
       id="rect4632-8-6-1-3-6-7-3"
       width="460.68155"
       height="258.48111"
       x="369.48441"
       y="1942.4945"
       ry="27.627878"
       rx="41.748283" />
    <path
       style="color:#000000;display:inline;overflow:visible;visibility:visible;fill:#fff6d5;fill-opacity:1;fill-rule:nonzero;stroke:none;stroke-width:1px;marker:none;enable-background:accumulate"
       d="m 613.19842,2000.0869 c 2.64799,-3.1047 -30.76851,-40.0426 -30.76851,-40.0426 0,0 7.3568,-25.419 6.83945,-29.9059 -7.10705,-9.4953 -31.75268,-23.7882 -31.75268,-23.7882 l 20.47161,-49.6306 -1.60453,42.2469 38.75844,22.0522 -5.21058,32.4539 33.85028,23.5924 z"
       id="path4448"
       inkscape:connector-curvature="0"
       sodipodi:nodetypes="cccccccccc" />
    <path
       style="color:#000000;display:inline;overflow:visible;visibility:visible;fill:#fff6d5;fill-opacity:1;fill-rule:nonzero;stroke:none;stroke-width:1px;marker:none;enable-background:accumulate"
       d="m 671.62353,2421.0775 c -54.09593,5.607 -64.7378,23.2704 -74.00168,35.1834 3.71843,3.6849 8.98597,11.192 8.98597,11.192 0,0 -20.83462,21.7942 -25.38098,32.537 -4.54642,10.743 10.67263,17.1836 10.67263,17.1836 0,0 41.80678,-41.4193 54.03137,-47.8571 -10.63895,-9.7802 -14.49488,-15.6343 -19.86627,-17.9076 2.51456,-8.4359 26.55128,-27.8196 45.55896,-30.3313 z"
       id="path4456-6-0"
       inkscape:connector-curvature="0"
       inkscape:transform-center-x="-28.519271"
       inkscape:transform-center-y="49.4025" />
    <rect
       style="color:#000000;clip-rule:nonzero;display:inline;overflow:visible;visibility:visible;opacity:1;isolation:auto;mix-blend-mode:normal;color-interpolation:sRGB;color-interpolation-filters:linearRGB;solid-color:#000000;solid-opacity:1;fill:#fff6d5;fill-opacity:1;fill-rule:nonzero;stroke:none;stroke-width:2.5999999;stroke-linecap:butt;stroke-linejoin:miter;stroke-miterlimit:4;stroke-dasharray:none;stroke-dashoffset:0;stroke-opacity:1;marker:none;color-rendering:auto;image-rendering:auto;shape-rendering:auto;text-rendering:auto;enable-background:accumulate"
       id="rect4632-8-6-1-3-6-7-3-0-1"
       width="505.79083"
       height="248.59404"
       x="138.12892"
       y="2428.8579"
       ry="26.935585"
       rx="43.755032" />
    <path
       style="color:#000000;display:inline;overflow:visible;visibility:visible;fill:#ffffff;fill-opacity:1;fill-rule:nonzero;stroke:none;stroke-width:1px;marker:none;enable-background:accumulate"
       d="m 1243.4813,2754.3032 c -13.7096,-24.0351 -2.6957,-68.2648 87.536,-72.275 76.4546,-3.3978 101.6936,30.7348 103.9489,38.0344 2.2552,7.2994 22.6313,50.2723 -49.5385,61.2216 -72.1701,10.9492 -128.2369,-2.9459 -141.9464,-26.981 z"
       id="path3525-0-2"
       inkscape:connector-curvature="0"
       sodipodi:nodetypes="zscsz" />
    <path
       style="color:#000000;display:inline;overflow:visible;visibility:visible;fill:#ffffff;fill-opacity:1;fill-rule:nonzero;stroke:none;stroke-width:1px;marker:none;enable-background:accumulate"
       d="m 1198.6768,2805.1502 c 40.634,-7.198 63.5285,-19.6293 73.2215,-66.9749 9.693,-47.3455 18.2676,-34.7655 18.2676,-34.7655 l 11.8509,31.6276 c -3.8962,-1.8542 -5.4671,79.997 -103.34,70.1128 z"
       id="path3072"
       inkscape:connector-curvature="0"
       sodipodi:nodetypes="csccc" />
  </g>
  <g
     inkscape:groupmode="layer"
     id="layer1"
     inkscape:label="txt"
     style="display:inline">
    <text
       xml:space="preserve"
       style="font-style:normal;font-variant:normal;font-weight:normal;font-stretch:normal;line-height:0%;font-family:'小赖字体 SC';-inkscape-font-specification:'小赖字体 SC';text-align:center;letter-spacing:0px;word-spacing:0px;text-anchor:middle;display:inline;fill:#000000;fill-opacity:1;stroke:none"
       x="1601.863"
       y="488.37137"
       id="text4246-2-3-1-3-9-9-6-2"
       sodipodi:linespacing="0%"><tspan
         sodipodi:role="line"
         style="font-style:normal;font-variant:normal;font-weight:normal;font-stretch:normal;font-size:45px;line-height:1.25;font-family:'小赖字体 SC';-inkscape-font-specification:'小赖字体 SC'"
         x="1601.863"
         y="488.37137"
         id="tspan4273">我们聪明的工程师</tspan><tspan
         sodipodi:role="line"
         style="font-style:normal;font-variant:normal;font-weight:normal;font-stretch:normal;font-size:45px;line-height:1.25;font-family:'小赖字体 SC';-inkscape-font-specification:'小赖字体 SC'"
         x="1601.863"
         y="544.62134"
         id="tspan3399">制作了全场观众</tspan><tspan
         sodipodi:role="line"
         style="font-style:normal;font-variant:normal;font-weight:normal;font-stretch:normal;font-size:45px;line-height:1.25;font-family:'小赖字体 SC';-inkscape-font-specification:'小赖字体 SC'"
         x="1601.863"
         y="600.87134"
         id="tspan3401">都可以参与的</tspan><tspan
         sodipodi:role="line"
         style="font-style:normal;font-variant:normal;font-weight:normal;font-stretch:normal;font-size:45px;line-height:1.25;font-family:'小赖字体 SC';-inkscape-font-specification:'小赖字体 SC'"
         x="1601.863"
         y="657.12134"
         id="tspan3403">投票系统！</tspan></text>
    <text
       xml:space="preserve"
       style="font-style:normal;font-variant:normal;font-weight:normal;font-stretch:normal;line-height:0%;font-family:'小赖字体 SC';-inkscape-font-specification:'小赖字体 SC';text-align:center;letter-spacing:0px;word-spacing:0px;text-anchor:middle;display:inline;fill:#000000;fill-opacity:1;stroke:none"
       x="608.28955"
       y="2007.1349"
       id="text4246-2-3-1-3-9-9-6"
       sodipodi:linespacing="0%"><tspan
         sodipodi:role="line"
         style="font-style:normal;font-variant:normal;font-weight:normal;font-stretch:normal;font-size:45px;line-height:1.25;font-family:'小赖字体 SC';-inkscape-font-specification:'小赖字体 SC'"
         x="608.28955"
         y="2007.1349"
         id="tspan4197">是的，亲爱的朋友们，</tspan><tspan
         sodipodi:role="line"
         style="font-style:normal;font-variant:normal;font-weight:normal;font-stretch:normal;font-size:45px;line-height:1.25;font-family:'小赖字体 SC';-inkscape-font-specification:'小赖字体 SC'"
         x="608.28955"
         y="2063.3848"
         id="tspan3415">仔细看看礼仪小姐</tspan><tspan
         sodipodi:role="line"
         style="font-style:normal;font-variant:normal;font-weight:normal;font-stretch:normal;font-size:45px;line-height:1.25;font-family:'小赖字体 SC';-inkscape-font-specification:'小赖字体 SC'"
         x="608.28955"
         y="2119.6348"
         id="tspan3417">发给你们的这个</tspan><tspan
         sodipodi:role="line"
         style="font-style:normal;font-variant:normal;font-weight:normal;font-stretch:normal;font-size:45px;line-height:1.25;font-family:'小赖字体 SC';-inkscape-font-specification:'小赖字体 SC'"
         x="608.28955"
         y="2175.8848"
         id="tspan3419">小巧的高精尖投票器！</tspan></text>
    <text
       xml:space="preserve"
       style="font-style:normal;font-variant:normal;font-weight:normal;font-stretch:normal;line-height:0%;font-family:'小赖字体 SC';-inkscape-font-specification:'小赖字体 SC';text-align:center;letter-spacing:0px;word-spacing:0px;writing-mode:lr-tb;text-anchor:middle;display:inline;fill:#000000;fill-opacity:1;stroke:none;stroke-width:1.39999998;stroke-miterlimit:4;stroke-dasharray:none"
       x="1244.5405"
       y="2104.7434"
       id="text4246-2-3-1-3-9-9-6-5"
       sodipodi:linespacing="0%"><tspan
         sodipodi:role="line"
         x="1244.5405"
         y="2104.7434"
         style="font-style:normal;font-variant:normal;font-weight:normal;font-stretch:normal;font-size:45px;line-height:1.25;font-family:'小赖字体 SC';-inkscape-font-specification:'小赖字体 SC';stroke-width:1.39999998;stroke-miterlimit:4;stroke-dasharray:none"
         id="tspan4302">绿色按钮会为参赛者加一分，</tspan><tspan
         sodipodi:role="line"
         x="1244.5405"
         y="2160.9934"
         style="font-style:normal;font-variant:normal;font-weight:normal;font-stretch:normal;font-size:45px;line-height:1.25;font-family:'小赖字体 SC';-inkscape-font-specification:'小赖字体 SC';stroke-width:1.39999998;stroke-miterlimit:4;stroke-dasharray:none"
         id="tspan3427">红色按钮则会给参赛者减一分。</tspan><tspan
         sodipodi:role="line"
         x="1244.5405"
         y="2217.2434"
         style="font-style:normal;font-variant:normal;font-weight:normal;font-stretch:normal;font-size:45px;line-height:1.25;font-family:'小赖字体 SC';-inkscape-font-specification:'小赖字体 SC';stroke-width:1.39999998;stroke-miterlimit:4;stroke-dasharray:none"
         id="tspan3429">选择权就在你们的手里！</tspan></text>
    <text
       xml:space="preserve"
       style="font-style:normal;font-variant:normal;font-weight:normal;font-stretch:normal;line-height:0%;font-family:'小赖字体 SC';-inkscape-font-specification:'小赖字体 SC';text-align:center;letter-spacing:0px;word-spacing:0px;text-anchor:middle;display:inline;fill:#000000;fill-opacity:1;stroke:none"
       x="2106.1616"
       y="1405.9927"
       id="text4246-2-3-1-3-9-9-6-9-3"
       sodipodi:linespacing="0%"><tspan
         sodipodi:role="line"
         style="font-style:normal;font-variant:normal;font-weight:normal;font-stretch:normal;font-size:45px;line-height:1.25;font-family:'小赖字体 SC';-inkscape-font-specification:'小赖字体 SC'"
         x="2106.1616"
         y="1405.9927"
         id="tspan3559-5">你们会问：</tspan><tspan
         sodipodi:role="line"
         style="font-style:normal;font-variant:normal;font-weight:normal;font-stretch:normal;font-size:45px;line-height:1.25;font-family:'小赖字体 SC';-inkscape-font-specification:'小赖字体 SC'"
         x="2106.1616"
         y="1462.2427"
         id="tspan3433">“那评委呢？”。</tspan></text>
    <text
       xml:space="preserve"
       style="font-style:normal;font-variant:normal;font-weight:normal;font-stretch:normal;line-height:0%;font-family:'小赖字体 SC';-inkscape-font-specification:'小赖字体 SC';text-align:center;letter-spacing:0px;word-spacing:0px;text-anchor:middle;display:inline;fill:#000000;fill-opacity:1;stroke:none"
       x="2146.9834"
       y="1579.5059"
       id="text4246-2-3-1-3-9-9-6-9"
       sodipodi:linespacing="0%"><tspan
         sodipodi:role="line"
         style="font-style:normal;font-variant:normal;font-weight:normal;font-stretch:normal;font-size:45px;line-height:1.25;font-family:'小赖字体 SC';-inkscape-font-specification:'小赖字体 SC'"
         x="2146.9834"
         y="1579.5059"
         id="tspan3559">不要着急，</tspan><tspan
         sodipodi:role="line"
         style="font-style:normal;font-variant:normal;font-weight:normal;font-stretch:normal;font-size:45px;line-height:1.25;font-family:'小赖字体 SC';-inkscape-font-specification:'小赖字体 SC'"
         x="2146.9834"
         y="1635.7559"
         id="tspan3439">我们全都考虑到了！</tspan></text>
    <text
       xml:space="preserve"
       style="font-style:normal;font-variant:normal;font-weight:normal;font-stretch:normal;line-height:0%;font-family:'小赖字体 SC';-inkscape-font-specification:'小赖字体 SC';text-align:center;letter-spacing:0px;word-spacing:0px;text-anchor:middle;display:inline;fill:#000000;fill-opacity:1;stroke:none"
       x="390.13788"
       y="2483.9707"
       id="text4246-2-3-1-3-9-9-6-9-8"
       sodipodi:linespacing="0%"><tspan
         sodipodi:role="line"
         style="font-style:normal;font-variant:normal;font-weight:normal;font-stretch:normal;font-size:45px;line-height:1.25;font-family:'小赖字体 SC';-inkscape-font-specification:'小赖字体 SC'"
         x="390.13788"
         y="2483.9707"
         id="tspan4196">评委们手中拿到的</tspan><tspan
         sodipodi:role="line"
         style="font-style:normal;font-variant:normal;font-weight:normal;font-stretch:normal;font-size:45px;line-height:1.25;font-family:'小赖字体 SC';-inkscape-font-specification:'小赖字体 SC'"
         x="390.13788"
         y="2540.2207"
         id="tspan3453">是特殊投票器，</tspan><tspan
         sodipodi:role="line"
         style="font-style:normal;font-variant:normal;font-weight:normal;font-stretch:normal;font-size:45px;line-height:1.25;font-family:'小赖字体 SC';-inkscape-font-specification:'小赖字体 SC'"
         x="390.13788"
         y="2596.4707"
         id="tspan3451">他们的按键将会给参赛者</tspan><tspan
         sodipodi:role="line"
         style="font-style:normal;font-variant:normal;font-weight:normal;font-stretch:normal;font-size:45px;line-height:1.25;font-family:'小赖字体 SC';-inkscape-font-specification:'小赖字体 SC'"
         x="390.13788"
         y="2652.7207"
         id="tspan3455">增加或减去一百分！</tspan></text>
    <text
       id="text4250"
       y="2751.4998"
       x="1348.7506"
       style="font-style:normal;font-variant:normal;font-weight:normal;font-stretch:normal;line-height:0%;font-family:'小赖字体 SC';-inkscape-font-specification:'小赖字体 SC';text-align:center;letter-spacing:0px;word-spacing:0px;writing-mode:lr-tb;text-anchor:middle;display:inline;fill:#000000;fill-opacity:1;stroke:none"
       xml:space="preserve"
       sodipodi:linespacing="0%"><tspan
         y="2751.4998"
         x="1348.7506"
         id="tspan4260"
         sodipodi:role="line"
         style="font-style:normal;font-variant:normal;font-weight:normal;font-stretch:normal;font-size:45px;line-height:1.25;font-family:'小赖字体 SC';-inkscape-font-specification:'小赖字体 SC'">哇欧！</tspan></text>
  </g>
</svg>
