<?xml version="1.0" encoding="UTF-8" standalone="no"?>
<svg
   xmlns:dc="http://purl.org/dc/elements/1.1/"
   xmlns:cc="http://creativecommons.org/ns#"
   xmlns:rdf="http://www.w3.org/1999/02/22-rdf-syntax-ns#"
   xmlns:svg="http://www.w3.org/2000/svg"
   xmlns="http://www.w3.org/2000/svg"
   xmlns:xlink="http://www.w3.org/1999/xlink"
   xmlns:sodipodi="http://sodipodi.sourceforge.net/DTD/sodipodi-0.dtd"
   xmlns:inkscape="http://www.inkscape.org/namespaces/inkscape"
   id="svg2"
   version="1.1"
   inkscape:version="0.92.5 (2060ec1f9f, 2020-04-08)"
   width="2481"
   height="3503"
   sodipodi:docname="E33P03.svg">
  <metadata
     id="metadata8">
    <rdf:RDF>
      <cc:Work
         rdf:about="">
        <dc:format>image/svg+xml</dc:format>
        <dc:type
           rdf:resource="http://purl.org/dc/dcmitype/StillImage" />
        <dc:title />
      </cc:Work>
    </rdf:RDF>
  </metadata>
  <defs
     id="defs6">
    <filter
       style="color-interpolation-filters:sRGB"
       id="filter4375-4-1-1-1-9-5-8-8-3-3-3"
       inkscape:label="magic-Fx-blue_background"
       height="1.38"
       width="1.22"
       x="-0.14">
      <feFlood
         id="feFlood4377-7-9-0-8-1-7-3-1-6-61-6"
         flood-opacity="1"
         flood-color="rgb(50,161,179)"
         result="flood"
         radius="5.0999999999999996" />
      <feComposite
         id="feComposite4379-3-8-8-2-77-4-1-0-7-2-7"
         in2="SourceGraphic"
         in="flood"
         operator="in"
         result="composite1"
         baseFrequency="0.053999999999999999 0.053999999999999999" />
      <feMorphology
         id="feMorphology4393-1-0-49-8-9-3-0-1-5-9-5"
         operator="dilate"
         radius="3.5152451489568604"
         result="result3" />
      <feComposite
         id="feComposite4385-9-5-7-0-8-8-7-5-3-3-3"
         in2="result3"
         in="SourceGraphic"
         operator="over"
         result="fbSourceGraphic"
         numOctaves="4" />
      <feColorMatrix
         result="fbSourceGraphicAlpha"
         in="fbSourceGraphic"
         values="0 0 0 -1 0 0 0 0 -1 0 0 0 0 -1 0 0 0 0 1 0"
         id="feColorMatrix4544-9-5-1-5" />
      <feTurbulence
         id="feTurbulence4546-3-6-9-6"
         type="fractalNoise"
         numOctaves="4.4123222748815163"
         seed="172"
         baseFrequency="0.062 0.054054054054054057"
         result="turbulence" />
      <feDisplacementMap
         id="feDisplacementMap4548-8-2-4-2"
         in2="turbulence"
         in="fbSourceGraphic"
         scale="9.5273399103047183"
         yChannelSelector="G"
         xChannelSelector="R"
         result="fbSourceGraphic" />
      <feColorMatrix
         result="fbSourceGraphicAlpha"
         in="fbSourceGraphic"
         values="0 0 0 -1 0 0 0 0 -1 0 0 0 0 -1 0 0 0 0 1 0"
         id="feColorMatrix4670-7-9-7-9"
         scale="10.800000000000001" />
      <feComposite
         id="feComposite4674-8-2-4-1"
         in2="fbSourceGraphic"
         in="flood"
         operator="in"
         result="composite1" />
      <feGaussianBlur
         id="feGaussianBlur4676-3-7-50-2"
         in="composite1"
         stdDeviation="1.5865199271065846"
         result="blur" />
      <feOffset
         id="feOffset4678-6-0-3-7"
         dx="-0.42771311737301687"
         dy="5.2374444725016502"
         result="offset" />
      <feComposite
         id="feComposite4680-4-9-6-0"
         in2="offset"
         in="fbSourceGraphic"
         operator="over"
         result="composite2" />
      <feGaussianBlur
         id="feGaussianBlur58-9"
         stdDeviation="0.01" />
      <feOffset
         id="feOffset60-3"
         dy="0"
         dx="0" />
    </filter>
    <filter
       x="-0.14"
       width="1.22"
       height="1.38"
       inkscape:label="magic-Fx-blue"
       id="filter4375-4-1-1-1-9-5-8-8-3-3-3-6"
       style="color-interpolation-filters:sRGB">
      <feFlood
         radius="5.0999999999999996"
         result="flood"
         flood-color="rgb(50,161,179)"
         flood-opacity="1"
         id="feFlood4377-7-9-0-8-1-7-3-1-6-61-6-2" />
      <feComposite
         baseFrequency="0.053999999999999999 0.053999999999999999"
         result="composite1"
         operator="in"
         in="flood"
         in2="SourceGraphic"
         id="feComposite4379-3-8-8-2-77-4-1-0-7-2-7-6" />
      <feMorphology
         result="result3"
         radius="0.96959439099754563"
         operator="dilate"
         id="feMorphology4393-1-0-49-8-9-3-0-1-5-9-5-1" />
      <feComposite
         numOctaves="4"
         result="fbSourceGraphic"
         operator="over"
         in="SourceGraphic"
         in2="result3"
         id="feComposite4385-9-5-7-0-8-8-7-5-3-3-3-8" />
      <feColorMatrix
         id="feColorMatrix4544-9-5-1-5-7"
         values="0 0 0 -1 0 0 0 0 -1 0 0 0 0 -1 0 0 0 0 1 0"
         in="fbSourceGraphic"
         result="fbSourceGraphicAlpha" />
      <feTurbulence
         result="turbulence"
         baseFrequency="0.062 0.054054054054054057"
         seed="172"
         numOctaves="4.4123222748815163"
         type="fractalNoise"
         id="feTurbulence4546-3-6-9-6-9" />
      <feDisplacementMap
         result="fbSourceGraphic"
         xChannelSelector="R"
         yChannelSelector="G"
         scale="11.642079"
         in="fbSourceGraphic"
         in2="turbulence"
         id="feDisplacementMap4548-8-2-4-2-2" />
      <feColorMatrix
         scale="10.800000000000001"
         id="feColorMatrix4670-7-9-7-9-0"
         values="0 0 0 -1 0 0 0 0 -1 0 0 0 0 -1 0 0 0 0 1 0"
         in="fbSourceGraphic"
         result="fbSourceGraphicAlpha" />
      <feComposite
         result="composite1"
         operator="in"
         in="flood"
         in2="fbSourceGraphic"
         id="feComposite4674-8-2-4-1-2" />
      <feGaussianBlur
         result="blur"
         stdDeviation="1.5865199271065846"
         in="composite1"
         id="feGaussianBlur4676-3-7-50-2-3" />
      <feOffset
         result="offset"
         dy="5.2374444725016502"
         dx="-0.42771311737301687"
         id="feOffset4678-6-0-3-7-7" />
      <feComposite
         result="composite2"
         operator="over"
         in="fbSourceGraphic"
         in2="offset"
         id="feComposite4680-4-9-6-0-5" />
      <feGaussianBlur
         stdDeviation="0.60935760846819198"
         id="feGaussianBlur58-9-9" />
      <feOffset
         dx="0"
         dy="0"
         id="feOffset60-3-2" />
    </filter>
    <filter
       style="color-interpolation-filters:sRGB"
       id="filter4375-4-1-1-1-9-5-8-8-3-3-3-6-1"
       inkscape:label="magic-Fx-red"
       height="1.38"
       width="1.22"
       x="-0.14">
      <feFlood
         id="feFlood4377-7-9-0-8-1-7-3-1-6-61-6-2-0"
         flood-opacity="1"
         flood-color="rgb(216,88,33)"
         result="flood"
         radius="5.0999999999999996" />
      <feComposite
         id="feComposite4379-3-8-8-2-77-4-1-0-7-2-7-6-6"
         in2="SourceGraphic"
         in="flood"
         operator="in"
         result="composite1"
         baseFrequency="0.053999999999999999 0.053999999999999999" />
      <feMorphology
         id="feMorphology4393-1-0-49-8-9-3-0-1-5-9-5-1-3"
         operator="dilate"
         radius="0.96959439099754563"
         result="result3" />
      <feComposite
         id="feComposite4385-9-5-7-0-8-8-7-5-3-3-3-8-2"
         in2="result3"
         in="SourceGraphic"
         operator="over"
         result="fbSourceGraphic"
         numOctaves="4" />
      <feColorMatrix
         result="fbSourceGraphicAlpha"
         in="fbSourceGraphic"
         values="0 0 0 -1 0 0 0 0 -1 0 0 0 0 -1 0 0 0 0 1 0"
         id="feColorMatrix4544-9-5-1-5-7-0" />
      <feTurbulence
         id="feTurbulence4546-3-6-9-6-9-6"
         type="fractalNoise"
         numOctaves="4.4123222748815163"
         seed="172"
         baseFrequency="0.062 0.054054054054054057"
         result="turbulence" />
      <feDisplacementMap
         id="feDisplacementMap4548-8-2-4-2-2-1"
         in2="turbulence"
         in="fbSourceGraphic"
         scale="11.642079"
         yChannelSelector="G"
         xChannelSelector="R"
         result="fbSourceGraphic" />
      <feColorMatrix
         result="fbSourceGraphicAlpha"
         in="fbSourceGraphic"
         values="0 0 0 -1 0 0 0 0 -1 0 0 0 0 -1 0 0 0 0 1 0"
         id="feColorMatrix4670-7-9-7-9-0-5"
         scale="10.800000000000001" />
      <feComposite
         id="feComposite4674-8-2-4-1-2-5"
         in2="fbSourceGraphic"
         in="flood"
         operator="in"
         result="composite1" />
      <feGaussianBlur
         id="feGaussianBlur4676-3-7-50-2-3-4"
         in="composite1"
         stdDeviation="1.5865199271065846"
         result="blur" />
      <feOffset
         id="feOffset4678-6-0-3-7-7-7"
         dx="-0.42771311737301687"
         dy="5.2374444725016502"
         result="offset" />
      <feComposite
         id="feComposite4680-4-9-6-0-5-6"
         in2="offset"
         in="fbSourceGraphic"
         operator="over"
         result="composite2" />
      <feGaussianBlur
         id="feGaussianBlur58-9-9-5"
         stdDeviation="0.60935760846819198" />
      <feOffset
         id="feOffset60-3-2-6"
         dy="0"
         dx="0" />
    </filter>
    <filter
       x="-0.14"
       width="1.22"
       height="1.38"
       inkscape:label="magic-Fx-red_background"
       id="filter4375-4-1-1-1-9-5-8-8-3-3-3-6-1-3"
       style="color-interpolation-filters:sRGB">
      <feFlood
         radius="5.0999999999999996"
         result="flood"
         flood-color="rgb(216,88,33)"
         flood-opacity="1"
         id="feFlood4377-7-9-0-8-1-7-3-1-6-61-6-2-0-1" />
      <feComposite
         baseFrequency="0.053999999999999999 0.053999999999999999"
         result="composite1"
         operator="in"
         in="flood"
         in2="SourceGraphic"
         id="feComposite4379-3-8-8-2-77-4-1-0-7-2-7-6-6-4" />
      <feMorphology
         result="result3"
         radius="0.96959439099754563"
         operator="dilate"
         id="feMorphology4393-1-0-49-8-9-3-0-1-5-9-5-1-3-9" />
      <feComposite
         numOctaves="4"
         result="fbSourceGraphic"
         operator="over"
         in="SourceGraphic"
         in2="result3"
         id="feComposite4385-9-5-7-0-8-8-7-5-3-3-3-8-2-2" />
      <feColorMatrix
         id="feColorMatrix4544-9-5-1-5-7-0-0"
         values="0 0 0 -1 0 0 0 0 -1 0 0 0 0 -1 0 0 0 0 1 0"
         in="fbSourceGraphic"
         result="fbSourceGraphicAlpha" />
      <feTurbulence
         result="turbulence"
         baseFrequency="0.062 0.054054054054054057"
         seed="172"
         numOctaves="4.4123222748815163"
         type="fractalNoise"
         id="feTurbulence4546-3-6-9-6-9-6-6" />
      <feDisplacementMap
         result="fbSourceGraphic"
         xChannelSelector="R"
         yChannelSelector="G"
         scale="11.642079"
         in="fbSourceGraphic"
         in2="turbulence"
         id="feDisplacementMap4548-8-2-4-2-2-1-8" />
      <feColorMatrix
         scale="10.800000000000001"
         id="feColorMatrix4670-7-9-7-9-0-5-9"
         values="0 0 0 -1 0 0 0 0 -1 0 0 0 0 -1 0 0 0 0 1 0"
         in="fbSourceGraphic"
         result="fbSourceGraphicAlpha" />
      <feComposite
         result="composite1"
         operator="in"
         in="flood"
         in2="fbSourceGraphic"
         id="feComposite4674-8-2-4-1-2-5-2" />
      <feGaussianBlur
         result="blur"
         stdDeviation="1.5865199271065846"
         in="composite1"
         id="feGaussianBlur4676-3-7-50-2-3-4-6" />
      <feOffset
         result="offset"
         dy="5.2374444725016502"
         dx="-0.42771311737301687"
         id="feOffset4678-6-0-3-7-7-7-6" />
      <feComposite
         result="composite2"
         operator="over"
         in="fbSourceGraphic"
         in2="offset"
         id="feComposite4680-4-9-6-0-5-6-4" />
      <feGaussianBlur
         stdDeviation="0.76414472307477677"
         id="feGaussianBlur58-9-9-5-9" />
      <feOffset
         dx="0"
         dy="0"
         id="feOffset60-3-2-6-5" />
    </filter>
  </defs>
  <sodipodi:namedview
     pagecolor="#ffffff"
     bordercolor="#666666"
     borderopacity="1"
     objecttolerance="10"
     gridtolerance="10"
     guidetolerance="10"
     inkscape:pageopacity="0"
     inkscape:pageshadow="2"
     inkscape:window-width="1366"
     inkscape:window-height="707"
     id="namedview4"
     showgrid="false"
     inkscape:zoom="0.4"
     inkscape:cx="1338.3591"
     inkscape:cy="555.4093"
     inkscape:window-x="0"
     inkscape:window-y="24"
     inkscape:window-maximized="1"
     inkscape:current-layer="layer1"
     inkscape:document-rotation="0"
     inkscape:snap-global="false" />
  <g
     inkscape:groupmode="layer"
     id="layer2"
     inkscape:label="artwork"
     sodipodi:insensitive="true">
    <image
       sodipodi:absref="/home/juanjo/Comics/lang-ep33-final/es/../gfx_Pepper-and-Carrot_by-David-Revoy_E33P03.png"
       xlink:href="../gfx_Pepper-and-Carrot_by-David-Revoy_E33P03.png"
       y="0"
       x="0"
       id="image10"
       height="3503"
       width="2481" />
  </g>
  <g
     inkscape:groupmode="layer"
     id="layer3"
     inkscape:label="speechbubbles"
     style="display:inline">
    <path
       sodipodi:nodetypes="ccscc"
       inkscape:connector-curvature="0"
       id="path4035-4"
       d="m 1337.6551,1636.5125 c 8.8976,45.5766 -43.6583,77.8188 -97.8244,67.3334 34.8149,20.2889 112.2862,16.8578 141.315,-55.013 20.1776,-49.9566 -21.9143,-18.2887 -21.9143,-18.2887 z"
       style="color:#000000;display:inline;overflow:visible;visibility:visible;fill:#ffffff;fill-opacity:1;fill-rule:nonzero;stroke:none;stroke-width:1px;marker:none;enable-background:accumulate" />
    <path
       style="color:#000000;display:inline;overflow:visible;visibility:visible;fill:#ffffff;fill-opacity:1;fill-rule:nonzero;stroke:none;stroke-width:1.07665px;marker:none;enable-background:accumulate"
       d="M 1401.6719 1475.6406 C 1346.012 1476.3972 1289.9429 1475.7284 1234.9209 1485.4153 C 1200.3348 1492.6508 1166.532 1506.7403 1139.6184 1530.0234 C 1119.9377 1549.0634 1110.1112 1578.5384 1116.6222 1605.4013 C 1122.0376 1623.8886 1137.8642 1638.0021 1155.7813 1644.1308 C 1191.9987 1658.7313 1231.1485 1663.7856 1269.8501 1666.4346 C 1306.0651 1668.9084 1342.3782 1667.6026 1378.6301 1666.9723 C 1421.8036 1666.6052 1464.9666 1665.2995 1508.0953 1663.3275 C 1536.3446 1661.8514 1564.7886 1660.2345 1592.4409 1653.8846 C 1604.9703 1651.0284 1617.6381 1647.0281 1627.8119 1638.8756 C 1644.4964 1626.1657 1655.6762 1606.1091 1656.4626 1585.021 C 1657.7589 1563.3134 1648.8859 1540.8949 1631.9639 1526.9767 C 1614.2413 1511.2563 1592.1716 1501.4374 1569.8207 1494.2505 C 1536.5038 1484.3136 1501.5897 1482.4333 1467.2142 1478.7625 C 1445.4264 1476.7717 1423.5562 1475.5413 1401.6719 1475.6406 z "
       id="path4040-40-3"
       inkscape:connector-curvature="0"
       sodipodi:nodetypes="zssssz" />
    <path
       sodipodi:nodetypes="cscccccsc"
       inkscape:connector-curvature="0"
       id="path3063-8"
       d="m 405.5873,1467.0731 c 0.69619,4.0279 2.03869,7.8716 2.94408,11.8485 4.03275,15.1379 7.95897,30.3197 11.44743,45.6444 26.28701,85.102 89.33029,126.0615 171.9921,122.634 -69.7059,-11.1103 -95.37649,-44.5011 -130.34103,-113.6104 -1.38388,-12.1551 -4.96605,-52.2369 -18.62913,-56.7919 -12.33011,-4.0443 -24.95595,-6.8504 -37.43828,-10.2285 0.008,0.1679 0.0165,0.3359 0.0248,0.5039 z"
       style="fill:#ffffff;stroke:none;stroke-width:0.999997" />
    <path
       sodipodi:nodetypes="zssssz"
       inkscape:connector-curvature="0"
       id="path4040-40"
       d="m 408.67143,1341.9609 c -41.13275,0.4454 -82.71619,1.6055 -122.85851,12.6897 -21.23037,5.1715 -43.00103,10.7155 -61.56685,23.957 -19.47272,13.5403 -33.53861,34.9797 -43.23057,57.9213 -9.96108,22.5546 -16.22342,47.4669 -16.45557,72.7261 0.32401,17.4151 4.5148,35.5809 15.20032,48.7138 10.32993,12.3351 24.98194,18.3813 39.26086,22.5527 28.7129,7.9919 58.45366,8.643 87.84457,10.3464 56.81651,2.3289 113.71989,3.334 170.54532,0.8057 34.18258,-1.6206 68.37026,-4.5042 102.20055,-10.345 20.98097,-4.4765 42.02694,-12.366 58.83558,-27.594 17.01405,-16.2001 25.12132,-42.9974 20.80115,-67.4983 -3.31476,-26.2059 -14.1486,-50.3714 -27.00317,-72.2585 -12.11477,-19.8161 -28.65976,-36.9609 -48.91131,-45.5764 -21.59038,-9.7932 -44.72148,-13.9622 -67.50025,-18.6938 -35.40711,-6.3526 -71.35149,-7.994 -107.16212,-7.7467 z"
       style="color:#000000;display:inline;overflow:visible;visibility:visible;fill:#ffffff;fill-opacity:1;fill-rule:nonzero;stroke:none;stroke-width:1.05054247px;marker:none;enable-background:accumulate" />
    <path
       inkscape:connector-curvature="0"
       id="path1297"
       d="M 323.88281 2375.248 C 301.59089 2375.7776 278.60328 2377.9439 258.35156 2388.0117 C 237.99468 2399.9518 227.19282 2425.0642 230.63216 2448.1526 C 232.56181 2467.0444 247.87252 2483.0464 266.04807 2487.5708 C 281.54959 2491.8305 297.78205 2490.7212 313.66114 2491.8214 C 344.53655 2492.8434 375.47596 2493.1698 406.33242 2491.5923 C 426.90981 2488.4857 443.85933 2470.9403 447.53516 2450.6465 C 451.11145 2433.7447 446.58543 2414.6121 433.60547 2402.7266 C 420.73633 2390.8404 403.49148 2385.5145 386.76816 2381.7021 C 366.16398 2376.9963 345.00672 2374.9376 323.88281 2375.248 z "
       style="fill:#ffffff;fill-rule:evenodd;stroke:none;stroke-width:1.0537px;stroke-linecap:butt;stroke-linejoin:miter;stroke-opacity:1" />
    <path
       inkscape:connector-curvature="0"
       id="path1299"
       d="m 400.99886,2463.2871 c -61.07114,0.8903 -122.36215,-1.049 -183.19716,4.6683 -20.06579,2.2185 -40.84212,6.3324 -57.01084,17.3688 -15.15043,10.6974 -22.91012,27.1578 -26.25891,43.3757 -4.23093,20.6584 0.91944,43.1343 16.39048,59.6577 12.0257,13.2285 30.1215,21.4493 48.90147,25.2478 15.11875,3.1275 30.70549,3.8564 46.12527,5.227 38.07478,2.8171 76.34976,3.786 114.54163,2.4648 38.30298,-1.2277 76.54603,-4.07 114.51403,-8.5797 14.12304,-1.8522 28.70761,-5.3612 39.3839,-13.9623 15.56081,-11.6635 24.13861,-29.0913 25.68239,-46.5861 2.71187,-17.2012 1.28083,-35.6974 -9.06994,-50.9866 -14.93105,-20.7605 -42.30377,-33.5629 -70.27064,-35.7348 -19.80155,-2.1538 -39.80209,-2.3066 -59.73168,-2.1606 z"
       style="fill:#ffffff;fill-rule:evenodd;stroke:none;stroke-width:1.2243644px;stroke-linecap:butt;stroke-linejoin:miter;stroke-opacity:1" />
    <path
       sodipodi:nodetypes="ccccscscsccc"
       inkscape:connector-curvature="0"
       id="path1301"
       d="M 379.79883 2590.3457 C 329.5328 2590.8575 278.86952 2590.0123 229.19859 2598.9603 C 203.61279 2603.4678 177.49091 2608.8213 154.80077 2622.0758 C 129.99325 2636.8269 110.41653 2661.1315 103.61211 2689.4085 C 97.428784 2713.4984 96.328626 2738.4663 94.568075 2763.1624 C 93.487027 2787.4634 94.900184 2812.5176 104.19523 2835.2816 C 114.63197 2860.3714 135.57228 2881.3418 161.50055 2890.0774 C 187.7295 2900.0646 215.63383 2904.8694 243.5346 2906.9742 C 272.35901 2909.5928 301.32038 2910.4508 330.2529 2910.5275 C 360.70438 2909.7895 391.11571 2907.2161 421.21484 2902.5078 C 448.15172 2898.4873 475.15301 2894.2618 501.43679 2886.9961 C 521.04608 2880.4588 539.54829 2868.4824 550.71847 2850.7493 C 563.0476 2831.8312 567.91112 2809.3371 571.58289 2787.3793 C 576.52186 2758.0634 579.73351 2728.1132 576.57438 2698.4206 C 573.55379 2675.2688 564.5582 2652.3291 548.22217 2635.3098 C 531.72324 2617.6724 509.34221 2606.4406 486.08958 2600.6897 C 451.58054 2590.9809 415.39033 2590.2937 379.79883 2590.3457 z "
       style="fill:#ffffff;fill-rule:evenodd;stroke:none;stroke-width:1.0791px;stroke-linecap:butt;stroke-linejoin:miter;stroke-opacity:1" />
    <path
       sodipodi:nodetypes="cccccccc"
       inkscape:connector-curvature="0"
       id="path1303"
       d="m 314.48548,2843.9382 c 0,0 40.07769,-10.737 62.91403,-9.5303 65.47757,22.7394 62.75811,63.2649 85.90234,77.6086 27.12418,16.7249 60.24335,4.6482 84.95704,-19.9743 -23.26738,37.863 -47.27697,53.8308 -87.47529,44.384 -28.47092,-9.6839 -61.55072,-45.8928 -74.16623,-49.3135 -12.6168,-3.4211 -40.97217,-15.237 -71.71515,0.7502 -30.74293,15.9872 -0.41674,-43.9247 -0.41674,-43.9247 z"
       style="fill:#ffffff;fill-rule:evenodd;stroke:none;stroke-width:1px;stroke-linecap:butt;stroke-linejoin:miter;stroke-opacity:1" />
    <path
       sodipodi:nodetypes="csssssssscc"
       inkscape:connector-curvature="0"
       id="path1289"
       d="m 1980.3912,2956.8336 c -46.8133,2.4321 -94.0399,6.5474 -138.6622,18.5455 -28.9957,9.1662 -51.3989,29.2328 -61.393,52.3929 -12.9693,26.2691 -16.039,54.7821 -16.1403,82.7432 0.1656,28.6172 3.8846,57.4936 14.8774,84.8695 7.1229,15.3782 20.7463,29.1983 39.2664,36.9259 23.5677,10.9938 49.985,17.5402 76.5437,22.3287 43.2473,7.1498 87.6813,7.7095 131.6946,7.159 38.9528,-1.028 78.3371,-4.9715 114.8536,-16.1862 25.1194,-8.9794 43.911,-27.2188 52.0204,-47.8354 12.5019,-27.6478 19.3763,-57.1043 17.6015,-86.5116 -0.5251,-14.4357 -1.0231,-28.8752 -1.5192,-43.3094 -1.3228,-17.4524 -6.9451,-35.2164 -20.1419,-49.537 -16.2451,-18.7771 -38.8422,-34.1074 -64.7237,-44.0843 -23.9435,-8.4512 -50.3632,-10.3541 -75.9908,-13.5116 -20.8949,-2.3048 -41.9407,-4.3641 -63.0699,-4.2384 -1.7388,0.083 -3.4778,0.1661 -5.2166,0.2492 z"
       style="fill:#ffffff;fill-rule:evenodd;stroke:none;stroke-width:1.05948007px;stroke-linecap:butt;stroke-linejoin:miter;stroke-opacity:1" />
    <path
       sodipodi:nodetypes="csccccc"
       inkscape:connector-curvature="0"
       id="path1291"
       d="m 2201.8575,3004.5845 c -6.101,13.0623 -13.9868,25.9773 -26.0872,34.287 -10.0716,6.895 -22.3859,9.4079 -34.3733,10.2491 -15.3319,1.751 -30.3429,5.9848 -44.4946,12.0831 -1.4531,0.2912 -1.4547,2.02 -0.7596,3.0252 1.2799,2.7989 3.5967,4.9748 4.8588,7.7885 6.0053,9.5165 12.0107,19.033 18.016,28.5495 4.0585,-4.1531 8.017,-8.5477 13.1368,-11.4274 14.4187,-9.7338 31.2987,-15.4299 44.9108,-26.4111 7.7153,-7.3493 12.3164,-17.1793 16.7571,-26.6914 4.5856,-10.7331 7.5703,-22.1261 9.0664,-33.6947 -0.3437,0.7474 -0.6875,1.4948 -1.0312,2.2422 z"
       style="fill:#ffffff;fill-rule:evenodd;stroke:none;stroke-width:1px;stroke-linecap:butt;stroke-linejoin:miter;stroke-opacity:1" />
  </g>
  <g
     inkscape:groupmode="layer"
     id="layer1"
     inkscape:label="txt">
    <text
       xml:space="preserve"
       style="font-style:normal;font-variant:normal;font-weight:normal;font-stretch:normal;line-height:0%;font-family:Lavi;-inkscape-font-specification:Lavi;letter-spacing:3.03024006px;word-spacing:0px;fill:#d4fffe;fill-opacity:1;stroke:#4082aa;stroke-width:0.76869899;stroke-miterlimit:4;stroke-dasharray:none;stroke-opacity:1;filter:url(#filter4375-4-1-1-1-9-5-8-8-3-3-3-6)"
       x="787.65729"
       y="1584.5073"
       id="text4580-6-0-0-3-3-6-2"
       transform="matrix(1.641503,-0.13257132,-0.02464032,1.6990631,-755.89738,-2371.264)"
       inkscape:label="FXA-1"><tspan
         sodipodi:role="line"
         id="tspan4582-1-1-0-6-9-0-8"
         x="787.65729"
         y="1584.5073"
         style="font-style:normal;font-variant:normal;font-weight:bold;font-stretch:normal;font-size:70px;line-height:1.25;font-family:Drukah;-inkscape-font-specification:'Drukah Bold';fill:#d4fffe;fill-opacity:1;stroke:#4082aa;stroke-width:0.76869899;stroke-miterlimit:4;stroke-dasharray:none;stroke-opacity:1">¡Fiizz!</tspan></text>
    <text
       xml:space="preserve"
       style="font-style:normal;font-variant:normal;font-weight:normal;font-stretch:normal;line-height:0%;font-family:Lavi;-inkscape-font-specification:Lavi;letter-spacing:3.03024006px;word-spacing:0px;fill:#d4fffe;fill-opacity:1;stroke:#4082aa;stroke-width:0.90884799;stroke-miterlimit:4;stroke-dasharray:none;stroke-opacity:1;filter:url(#filter4375-4-1-1-1-9-5-8-8-3-3-3-6)"
       x="787.65729"
       y="1584.5073"
       id="text4580-6-0-0-3-3"
       transform="matrix(1.4432721,-0.04864218,0.16344738,1.3752651,-361.83028,-1918.789)"
       inkscape:label="FXA-2"><tspan
         sodipodi:role="line"
         id="tspan4582-1-1-0-6-9"
         x="787.65729"
         y="1584.5073"
         style="font-style:normal;font-variant:normal;font-weight:bold;font-stretch:normal;font-size:70px;line-height:1.25;font-family:Drukah;-inkscape-font-specification:'Drukah Bold';fill:#d4fffe;fill-opacity:1;stroke:#4082aa;stroke-width:0.90884799;stroke-miterlimit:4;stroke-dasharray:none;stroke-opacity:1">¡Dzii!</tspan></text>
    <text
       transform="matrix(0.73086327,-0.10344101,-0.01097086,0.78115386,821.84576,-771.75516)"
       id="text4580-6-0-0-3-3-6"
       y="1584.5073"
       x="787.65729"
       style="font-style:normal;font-variant:normal;font-weight:normal;font-stretch:normal;line-height:0%;font-family:Lavi;-inkscape-font-specification:Lavi;letter-spacing:3.03024006px;word-spacing:0px;opacity:0.80528301;fill:#d4fffe;fill-opacity:1;stroke:#4082aa;stroke-width:3.02449012;stroke-miterlimit:4;stroke-dasharray:none;stroke-opacity:1;paint-order:stroke fill markers;filter:url(#filter4375-4-1-1-1-9-5-8-8-3-3-3)"
       xml:space="preserve"
       inkscape:label="FXA-3"><tspan
         style="font-style:normal;font-variant:normal;font-weight:bold;font-stretch:normal;font-size:70px;line-height:1.25;font-family:Drukah;-inkscape-font-specification:'Drukah Bold';fill:#d4fffe;fill-opacity:1;stroke:#4082aa;stroke-width:3.02449012;stroke-miterlimit:4;stroke-dasharray:none;stroke-opacity:1;paint-order:stroke fill markers"
         y="1584.5073"
         x="787.65729"
         id="tspan4582-1-1-0-6-9-0"
         sodipodi:role="line">¡Schii!</tspan></text>
    <text
       xml:space="preserve"
       style="font-style:normal;font-variant:normal;font-weight:normal;font-stretch:normal;line-height:0%;font-family:Lavi;-inkscape-font-specification:Lavi;letter-spacing:3.03024006px;word-spacing:0px;opacity:0.80528301;fill:#d4fffe;fill-opacity:1;stroke:#4082aa;stroke-width:3.81155992;stroke-miterlimit:4;stroke-dasharray:none;stroke-opacity:1;paint-order:stroke fill markers;filter:url(#filter4375-4-1-1-1-9-5-8-8-3-3-3)"
       x="787.65729"
       y="1584.5073"
       id="text4580-6-0-0-3-3-6-3"
       transform="matrix(0.58809054,-0.08094382,-0.00882772,0.61126221,1040.8841,-449.34757)"
       inkscape:label="FXA-4"><tspan
         sodipodi:role="line"
         id="tspan4582-1-1-0-6-9-0-6"
         x="787.65729"
         y="1584.5073"
         style="font-style:normal;font-variant:normal;font-weight:bold;font-stretch:normal;font-size:70px;line-height:1.25;font-family:Drukah;-inkscape-font-specification:'Drukah Bold';fill:#d4fffe;fill-opacity:1;stroke:#4082aa;stroke-width:3.81155992;stroke-miterlimit:4;stroke-dasharray:none;stroke-opacity:1;paint-order:stroke fill markers">¡Ffhii!</tspan></text>
    <text
       transform="matrix(1.5086209,-0.13257132,-0.02264565,1.6990631,202.41684,-1572.8785)"
       id="text4580-6-0-0-3-3-6-2-9"
       y="1584.5073"
       x="787.65729"
       style="font-style:normal;font-variant:normal;font-weight:normal;font-stretch:normal;line-height:0%;font-family:Lavi;-inkscape-font-specification:Lavi;letter-spacing:3.03024006px;word-spacing:0px;fill:#ffffdb;fill-opacity:1;stroke:#aa7640;stroke-width:0.80183899;stroke-miterlimit:4;stroke-dasharray:none;stroke-opacity:1;filter:url(#filter4375-4-1-1-1-9-5-8-8-3-3-3-6-1)"
       xml:space="preserve"
       inkscape:label="FXB-1"><tspan
         style="font-style:normal;font-variant:normal;font-weight:bold;font-stretch:normal;font-size:70px;line-height:1.25;font-family:Drukah;-inkscape-font-specification:'Drukah Bold';fill:#ffffdb;fill-opacity:1;stroke:#aa7640;stroke-width:0.80183899;stroke-miterlimit:4;stroke-dasharray:none;stroke-opacity:1"
         y="1584.5073"
         x="787.65729"
         id="tspan4582-1-1-0-6-9-0-8-3"
         sodipodi:role="line">¡Dziing!</tspan></text>
    <text
       xml:space="preserve"
       style="font-style:normal;font-variant:normal;font-weight:normal;font-stretch:normal;line-height:0%;font-family:Lavi;-inkscape-font-specification:Lavi;letter-spacing:3.03024006px;word-spacing:0px;fill:#ffffdb;fill-opacity:1;stroke:#aa7640;stroke-width:1.24228001;stroke-miterlimit:4;stroke-dasharray:none;stroke-opacity:1;filter:url(#filter4375-4-1-1-1-9-5-8-8-3-3-3-6-1)"
       x="787.65729"
       y="1584.5073"
       id="text4580-6-0-0-3-3-6-2-9-8"
       transform="matrix(0.99139269,-0.08404637,-0.01488163,1.0771567,361.73002,-762.46085)"
       inkscape:label="FXB-2"><tspan
         sodipodi:role="line"
         id="tspan4582-1-1-0-6-9-0-8-3-4"
         x="787.65729"
         y="1584.5073"
         style="font-style:normal;font-variant:normal;font-weight:bold;font-stretch:normal;font-size:70px;line-height:1.25;font-family:Drukah;-inkscape-font-specification:'Drukah Bold';fill:#ffffdb;fill-opacity:1;stroke:#aa7640;stroke-width:1.24228001;stroke-miterlimit:4;stroke-dasharray:none;stroke-opacity:1">¡Fiizz!</tspan></text>
    <text
       transform="matrix(0.78114637,-0.07089707,-0.01172566,0.90863239,192.84955,-421.94011)"
       id="text4580-6-0-0-3-3-6-2-9-8-0"
       y="1584.5073"
       x="787.65729"
       style="font-style:normal;font-variant:normal;font-weight:normal;font-stretch:normal;line-height:0%;font-family:Lavi;-inkscape-font-specification:Lavi;letter-spacing:3.03024006px;word-spacing:0px;fill:#ffffdb;fill-opacity:1;stroke:#aa7640;stroke-width:1.52376997;stroke-miterlimit:4;stroke-dasharray:none;stroke-opacity:1;paint-order:stroke fill markers;filter:url(#filter4375-4-1-1-1-9-5-8-8-3-3-3-6-1-3)"
       xml:space="preserve"
       inkscape:label="FXB-3"><tspan
         style="font-style:normal;font-variant:normal;font-weight:bold;font-stretch:normal;font-size:70px;line-height:1.25;font-family:Drukah;-inkscape-font-specification:'Drukah Bold';fill:#ffffdb;fill-opacity:1;stroke:#aa7640;stroke-width:1.52376997;stroke-miterlimit:4;stroke-dasharray:none;stroke-opacity:1;paint-order:stroke fill markers"
         y="1584.5073"
         x="787.65729"
         id="tspan4582-1-1-0-6-9-0-8-3-4-4"
         sodipodi:role="line">¡Schii!</tspan></text>
    <text
       xml:space="preserve"
       style="font-style:normal;font-variant:normal;font-weight:normal;font-stretch:normal;line-height:0%;font-family:Lavi;-inkscape-font-specification:Lavi;letter-spacing:3.03024006px;word-spacing:0px;fill:#ffffdb;fill-opacity:1;stroke:#aa7640;stroke-width:1.91363001;stroke-miterlimit:4;stroke-dasharray:none;stroke-opacity:1;paint-order:stroke fill markers;filter:url(#filter4375-4-1-1-1-9-5-8-8-3-3-3-6-1-3)"
       x="787.65729"
       y="1584.5073"
       id="text4580-6-0-0-3-3-6-2-9-8-0-4"
       transform="matrix(0.63960761,-0.05489999,-0.00960104,0.70361026,133.75269,-120.38078)"
       inkscape:label="FXB-4"><tspan
         sodipodi:role="line"
         id="tspan4582-1-1-0-6-9-0-8-3-4-4-9"
         x="787.65729"
         y="1584.5073"
         style="font-style:normal;font-variant:normal;font-weight:bold;font-stretch:normal;font-size:70px;line-height:1.25;font-family:Drukah;-inkscape-font-specification:'Drukah Bold';fill:#ffffdb;fill-opacity:1;stroke:#aa7640;stroke-width:1.91363001;stroke-miterlimit:4;stroke-dasharray:none;stroke-opacity:1;paint-order:stroke fill markers">¡Ffhii!</tspan></text>
    <text
       id="text4246-7-6-4-6-4-5"
       y="1423.0189"
       x="403.92346"
       style="font-style:normal;font-variant:normal;font-weight:normal;font-stretch:normal;line-height:0%;font-family:Lavi;-inkscape-font-specification:Lavi;text-align:center;letter-spacing:0px;word-spacing:0px;text-anchor:middle;fill:#000000;fill-opacity:1;stroke:none"
       xml:space="preserve"
       inkscape:label="kingA"><tspan
         y="1423.0189"
         x="410.95471"
         style="font-size:45px;line-height:1.25"
         sodipodi:role="line"
         id="tspan890">	¿Este hechizo es </tspan><tspan
         y="1479.2689"
         x="410.95471"
         style="font-size:45px;line-height:1.25"
         sodipodi:role="line"
         id="tspan128">para dar más fuerza </tspan><tspan
         y="1535.5189"
         x="403.92346"
         style="font-size:45px;line-height:1.25"
         sodipodi:role="line"
         id="tspan134">a nuestras espadas...</tspan><tspan
         y="1554.0259"
         x="403.92346"
         style="font-size:45px;line-height:1.25"
         sodipodi:role="line"
         id="tspan886" /></text>
    <text
       xml:space="preserve"
       style="font-style:normal;font-variant:normal;font-weight:normal;font-stretch:normal;line-height:0%;font-family:Lavi;-inkscape-font-specification:Lavi;text-align:center;letter-spacing:0px;word-spacing:0px;text-anchor:middle;fill:#000000;fill-opacity:1;stroke:none"
       x="1386.3756"
       y="1557.3434"
       id="text4246-7-6-4-6-4-5-6"
       inkscape:label="kingB"><tspan
         sodipodi:role="line"
         style="font-size:45px;line-height:1.25"
         x="1393.4069"
         y="1557.3434"
         id="tspan931">...y debilitar las armas </tspan><tspan
         sodipodi:role="line"
         style="font-size:45px;line-height:1.25"
         x="1386.3756"
         y="1613.5934"
         id="tspan141">de nuestros enemigos?</tspan></text>
    <text
       transform="matrix(1.2204342,-0.42657098,0.13821148,1.3324655,541.81701,-180.24918)"
       id="text4580-6-0-0-3-3-63"
       y="1584.5073"
       x="787.65729"
       style="font-style:normal;font-variant:normal;font-weight:normal;font-stretch:normal;line-height:0%;font-family:Lavi;-inkscape-font-specification:Lavi;letter-spacing:3.03024px;word-spacing:0px;fill:#d4fffe;fill-opacity:1;stroke:#4082aa;stroke-width:0.988344;stroke-miterlimit:4;stroke-dasharray:none;stroke-opacity:1;filter:url(#filter4375-4-1-1-1-9-5-8-8-3-3-3-6)"
       xml:space="preserve"
       inkscape:label="FXC"><tspan
         style="font-style:normal;font-variant:normal;font-weight:bold;font-stretch:normal;font-size:70px;line-height:1.25;font-family:Drukah;-inkscape-font-specification:'Drukah Bold';fill:#d4fffe;fill-opacity:1;stroke:#4082aa;stroke-width:0.988344;stroke-miterlimit:4;stroke-dasharray:none;stroke-opacity:1"
         y="1584.5073"
         x="787.65729"
         id="tspan4582-1-1-0-6-9-9"
         sodipodi:role="line">Dzii...</tspan></text>
    <text
       id="text4246-7-6-4-6-4-5-6-6"
       y="2452.0837"
       x="343.2887"
       style="font-style:normal;font-variant:normal;font-weight:normal;font-stretch:normal;font-size:13.35830021px;line-height:0%;font-family:Lavi;-inkscape-font-specification:Lavi;text-align:center;letter-spacing:0px;word-spacing:0px;text-anchor:middle;fill:#000000;fill-opacity:1;stroke:none;stroke-width:1"
       xml:space="preserve"
       inkscape:label="pepperA"><tspan
         y="2452.0837"
         x="343.2887"
         style="font-size:50.09360123px;line-height:1.25;stroke-width:1"
         sodipodi:role="line"
         id="tspan980">Jeje.</tspan><tspan
         y="2472.6855"
         x="343.2887"
         style="font-size:50.09360123px;line-height:1.25;stroke-width:1"
         sodipodi:role="line"
         id="tspan978" /></text>
    <text
       xml:space="preserve"
       style="font-style:normal;font-variant:normal;font-weight:normal;font-stretch:normal;font-size:50px;line-height:0%;font-family:Lavi;-inkscape-font-specification:Lavi;text-align:center;letter-spacing:0px;word-spacing:0px;text-anchor:middle;fill:#000000;fill-opacity:1;stroke:none;stroke-width:1"
       x="335.19232"
       y="2558.8501"
       id="text4246-7-6-4-6-4-5-6-6-2"
       inkscape:label="pepperB"><tspan
         id="tspan978-0"
         sodipodi:role="line"
         style="font-size:58.66666667px;line-height:1.25;stroke-width:1"
         x="335.19232"
         y="2558.8501">¡Ya lo veréis!</tspan><tspan
         sodipodi:role="line"
         style="font-size:50px;line-height:1.25;stroke-width:1"
         x="335.19232"
         y="2594.7698"
         id="tspan147" /></text>
    <text
       id="text4246-7-6-4-6-4-5-6-6-2-9"
       y="2680.8411"
       x="335.44699"
       style="font-style:normal;font-variant:normal;font-weight:normal;font-stretch:normal;line-height:0%;font-family:Lavi;-inkscape-font-specification:Lavi;text-align:center;letter-spacing:0px;word-spacing:0px;text-anchor:middle;fill:#000000;fill-opacity:1;stroke:none"
       xml:space="preserve"
       inkscape:label="pepperC"><tspan
         y="2680.8411"
         x="335.44699"
         style="font-size:45px;line-height:1.25"
         sodipodi:role="line"
         id="tspan1025">	Lo único que puedo</tspan><tspan
         y="2737.0911"
         x="335.44699"
         style="font-size:45px;line-height:1.25"
         sodipodi:role="line"
         id="tspan3826">adelantaros es que</tspan><tspan
         y="2793.3411"
         x="335.44699"
         style="font-size:45px;line-height:1.25"
         sodipodi:role="line"
         id="tspan3828">no vais a perder</tspan><tspan
         y="2849.5911"
         x="335.44699"
         style="font-size:45px;line-height:1.25"
         sodipodi:role="line"
         id="tspan3832">a ningún soldado hoy.</tspan><tspan
         y="2868.0981"
         x="335.44699"
         style="font-size:45px;line-height:1.25"
         sodipodi:role="line"
         id="tspan171" /></text>
    <text
       xml:space="preserve"
       style="font-style:normal;font-variant:normal;font-weight:normal;font-stretch:normal;line-height:0%;font-family:Lavi;-inkscape-font-specification:Lavi;text-align:center;letter-spacing:0px;word-spacing:0px;text-anchor:middle;fill:#000000;fill-opacity:1;stroke:none"
       x="1987.3091"
       y="3038.4326"
       id="text4246-7-6-4-6-4-5-6-6-2-9-6"
       inkscape:label="pepperD"><tspan
         sodipodi:role="line"
         style="font-size:45px;line-height:1.25"
         x="1987.3091"
         y="3038.4326"
         id="tspan1093">	¡Pero aún así</tspan><tspan
         sodipodi:role="line"
         style="font-size:45px;line-height:1.25"
         x="1987.3091"
         y="3094.6826"
         id="tspan3844">tendréis que luchar</tspan><tspan
         sodipodi:role="line"
         style="font-size:45px;line-height:1.25"
         x="1987.3091"
         y="3113.1897"
         id="tspan3846" /><tspan
         sodipodi:role="line"
         style="font-size:45px;line-height:1.25"
         x="1994.3403"
         y="3150.9326"
         id="tspan192">y dar lo mejor de </tspan><tspan
         sodipodi:role="line"
         style="font-size:45px;line-height:1.25"
         x="1987.3091"
         y="3207.1826"
         id="tspan3862">vosotros mismos!</tspan></text>
  </g>
</svg>
