<?xml version="1.0" encoding="UTF-8" standalone="no"?>
<svg
   xmlns:dc="http://purl.org/dc/elements/1.1/"
   xmlns:cc="http://creativecommons.org/ns#"
   xmlns:rdf="http://www.w3.org/1999/02/22-rdf-syntax-ns#"
   xmlns:svg="http://www.w3.org/2000/svg"
   xmlns="http://www.w3.org/2000/svg"
   xmlns:xlink="http://www.w3.org/1999/xlink"
   xmlns:sodipodi="http://sodipodi.sourceforge.net/DTD/sodipodi-0.dtd"
   xmlns:inkscape="http://www.inkscape.org/namespaces/inkscape"
   id="svg2"
   version="1.1"
   inkscape:version="1.0.2-2 (e86c870879, 2021-01-15)"
   width="2481"
   height="3503"
   sodipodi:docname="E36P01.svg">
  <metadata
     id="metadata8">
    <rdf:RDF>
      <cc:Work
         rdf:about="">
        <dc:format>image/svg+xml</dc:format>
        <dc:type
           rdf:resource="http://purl.org/dc/dcmitype/StillImage" />
      </cc:Work>
    </rdf:RDF>
  </metadata>
  <defs
     id="defs6" />
  <sodipodi:namedview
     pagecolor="#1e1e1e"
     bordercolor="#111111"
     borderopacity="1"
     objecttolerance="10"
     gridtolerance="10"
     guidetolerance="10"
     inkscape:pageopacity="0"
     inkscape:pageshadow="2"
     inkscape:window-width="3440"
     inkscape:window-height="1369"
     id="namedview4"
     showgrid="false"
     inkscape:zoom="0.52900002"
     inkscape:cx="931.00185"
     inkscape:cy="2563.3269"
     inkscape:window-x="-8"
     inkscape:window-y="-8"
     inkscape:window-maximized="1"
     inkscape:current-layer="layer1"
     inkscape:pagecheckerboard="0"
     inkscape:snap-global="false"
     inkscape:document-rotation="0" />
  <g
     inkscape:groupmode="layer"
     id="layer2"
     inkscape:label="artwork"
     sodipodi:insensitive="true">
    <image
       sodipodi:absref="F:\Komiksy\webcomics\ep36_The-Surprise-Attack\lang\gfx_Pepper-and-Carrot_by-David-Revoy_E36P01.png"
       xlink:href="../gfx_Pepper-and-Carrot_by-David-Revoy_E36P01.png"
       width="2481"
       height="3503"
       id="image10"
       x="0"
       y="0" />
  </g>
  <g
     inkscape:groupmode="layer"
     id="layer3"
     inkscape:label="speechbubbles"
     style="display:inline">
    <path
       style="display:inline;fill:#ffffff;fill-rule:evenodd;stroke:none;stroke-width:0.757147px;stroke-linecap:butt;stroke-linejoin:miter;stroke-opacity:1"
       d="m 1013.4266,1847.5959 c 46.0063,18.6105 72.2123,11.0422 71.4225,-32.2181 21.9494,46.7485 37.1814,57.2039 46.2148,34.1707 29.0595,19.7977 47.2095,14.244 61.6196,0 5.3711,18.3191 14.5009,14.5249 39.849,-5.7092 -4.714,10.0936 -9.6618,34.4674 36.3091,3.7392 -21.1737,18.0948 -5.7593,18.4416 20.9253,6.2791 -8.7553,18.5144 24.4562,5.0828 52.7642,-21.8825 -20.3233,27.9112 -12.131,31.7885 5.9588,19.9666 -8.2706,12.7207 -3.5615,20.4672 22.05,4.4408 -10.7575,23.4798 0.5438,14.092 41.4185,-8.3845 -33.7311,24.7902 -46.533,44.7944 -21.8122,45.4838 -7.649,2.1213 -25.3484,13.7517 33.6107,25.3834 -13.7982,1.1149 -39.4701,4.0323 -15.0998,14.3005 -14.7124,-3.3575 -21.2424,2.6484 -0.7636,12.4053 -14.7359,-1.5599 -31.8167,-5.5525 -8.826,9.7127 -25.8564,-0.5186 -21.9513,3.0634 -2.9682,15.9405 -37.4438,-16.5183 -34.2976,29.9177 -35.4059,36.5278 -46.9282,-22.5203 -34.3449,-11.1813 -40.6797,-6.4906 -22.8741,0.1753 -47.038,-37.2176 -69.9121,-12.1028 -5.9904,-15.6207 -18.0002,-0.9052 -68.6217,10.1428 22.2266,-19.8729 -17.785,-2.2747 -42.0022,5.913 13.2618,-24.8258 -8.5117,-22.5923 -51.1372,1.5612 23.87,-27.4145 -6.732,-35.1285 -46.905,-15.6644 15.1784,-26.9322 -9.5415,-39.9566 -68.622,-41.0047 27.7815,-10.5776 44.7678,-21.9399 15.40499,-43.9327 33.10031,6.4756 42.97371,0.4606 19.60631,-23.4313 36.1035,19.6102 19.6885,-8.8333 5.6018,-35.1466 z"
       id="path4508-2"
       inkscape:connector-curvature="0"
       sodipodi:nodetypes="cccccccccccccccccccccccccccc" />
    <path
       style="display:inline;fill:#ffffff;fill-rule:evenodd;stroke:none;stroke-width:0.747482px;stroke-linecap:butt;stroke-linejoin:miter;stroke-opacity:1"
       d="m 1389.8816,2114.8904 c -39.4512,-23.4966 -66.4449,-27.7732 -57.2385,18.5945 -38.5049,-45.4606 -43.9011,-27.1852 -51.7472,-2.5679 -34.1581,-35.4026 -49.0577,-15.2793 -56.4796,0.9011 -7.6882,-33.0962 -20.3977,-7.9644 -28.582,2.0655 2.1923,-29.0753 -7.5773,-32.5903 -34.4433,-0.2189 5.26,-12.9683 13.3493,-37.4137 -26.9942,-9.7537 7.9292,-27.1723 -18.3493,-8.8652 -40.698,15.8288 12.394,-33.0439 -4.5083,-25.6648 -20.8665,-12.8333 7.3412,-13.6435 24.6474,-34.8845 -11.69,-18.3146 17.4247,-19.9519 0.3899,-15.6157 -32.0719,4.5607 26.9669,-26.0237 51.0656,-45.8162 14.6507,-41.5316 4.9489,-7.8931 22.9749,-14.9892 -31.2853,-26.492 9.9945,-5.4625 40.9326,1.7931 14.8413,-20.2423 -3.4888,-2.5689 8.007,-4.3551 -14.1098,-10.9136 12.9916,0.2635 20.9245,-1.5433 8.7829,-11.5589 23.7096,0.1732 14.652,-10.418 -2.9904,-23.8292 34.6317,17.0119 30.6036,-15.5887 31.495,-22.6318 43.4382,23.2536 48.7363,8.6143 54.4542,3.5354 20.9627,-0.5209 41.1307,20.1123 61.6235,-6.9201 5.7852,16.5178 17.8191,19.9472 64.0097,7.4626 -19.9981,21.4505 19.1155,6.7566 41.1583,-2.3012 -11.6877,26.5846 14.9728,20.3789 53.5874,-5.9202 -21.3622,29.4915 39.4362,13.4561 58.3323,4.6815 -2.3174,11.908 -18.7606,51.6778 35.4114,51.9281 -25.7358,10.74 -34.4765,20.8825 -7.1485,43.8322 -30.4613,-6.3998 -39.3978,0.1388 -17.5295,25.195 -44.1107,-12.0114 -26.5298,16.4256 -4.472,37.4439 z"
       id="path4508-2-3"
       inkscape:connector-curvature="0"
       sodipodi:nodetypes="cccccccccccccccccccccccccccc" />
    <path
       style="fill:#ffffff;fill-rule:evenodd;stroke:none;stroke-width:1.01927px;stroke-linecap:butt;stroke-linejoin:miter;stroke-opacity:1"
       d="m 795.85859,2075.6026 c 68.17018,-19.9402 107.76468,-24.6985 129.19825,-26.9041 -9.4626,14.6823 -10.93703,18.8605 -3.60753,19.5618 12.56737,1.2024 323.02739,-38.3324 323.02739,-38.3324 l -134.9102,-3.9965 c 0,0 -88.3447,16.493 -115.60557,20.8649 -27.26123,4.3719 -53.63946,7.3565 -53.63946,7.3565 0,0 11.08456,-17.0097 8.79652,-16.5151 -9.73596,2.1047 -32.55208,-8.0957 -153.2594,37.9649 z"
       id="path891"
       inkscape:connector-curvature="0"
       sodipodi:nodetypes="ccsccscsc" />
    <path
       style="display:inline;fill:#ffffff;fill-rule:evenodd;stroke:none;stroke-width:1.20785px;stroke-linecap:butt;stroke-linejoin:miter;stroke-opacity:1"
       d="m 983.14153,2513.5778 c 31.84857,34.085 48.30677,60.774 1.49533,37.0453 23.40904,21.5205 17.13804,24.8361 -3.98115,30.3589 18.62218,14.4301 45.48949,46.2428 7.20129,56.8178 55.2151,9.4652 25.6909,36.7362 -3.15382,56.6045 84.26422,-22.8067 74.95192,2.8066 56.25862,28.9088 41.8083,-32.7144 43.7564,-23.0057 24.8201,20.5624 27.2392,-31.49 34.5132,-40.6024 33.9906,-4.2266 16.8468,-30.1013 38.8066,-48.797 55.1036,-14.1622 21.984,-49.7852 46.5967,-6.3705 65.2963,10.8879 4.5873,-36.9925 21.78,-46.6073 52.6128,-9.9254 3.1148,-22.3614 29.1615,-21.735 51.4916,10.2753 -27.9372,-62.8774 20.8087,-6.2663 28.9373,-2.5454 -13.2505,-32.3544 17.5776,-37.9013 72.8184,-10.2102 -39.6363,-30.2071 -32.1622,-44.2996 2.4074,-57.0873 -33.2734,-14.0879 -41.1807,-47.6329 13.5702,-49.0658 -68.4941,-21.3847 -17.7355,-55.0924 14.1436,-75.3839 -59.9187,12.0524 -108.6453,17.7795 -77.2168,-27.2707 -68.5946,29.1411 -56.154,12.9296 -47.408,-1.2147 -45.8133,35.4437 -46.7998,2.6573 -45.5279,-7.5248 -61.5444,38.5493 -97.6595,12.8559 -111.4454,-15.8395 -16.1627,40.3424 -46.6813,21.0737 -65.472,0.7332 9.8175,37.9319 -9.9936,34.9347 -29.9073,19.3121 4.8997,25.4973 -13.7398,47.5269 -46.1289,11.6075 10.7675,17.7959 9.6495,43.8619 -49.90587,-8.6572 z"
       id="path4289-9"
       inkscape:connector-curvature="0"
       sodipodi:nodetypes="ccccccccccccccccccccccccc" />
    <path
       style="display:inline;fill:#ffffff;fill-rule:evenodd;stroke:none;stroke-width:1px;stroke-linecap:butt;stroke-linejoin:miter;stroke-opacity:1"
       d="m 839.35758,2683.1542 126.85528,-18.3923 -13.09351,-16.3937 103.27445,-9.3803 -13.3725,-26.4414 -117.98262,26.0585 15.22178,19.3955 z"
       id="path4667"
       inkscape:connector-curvature="0"
       sodipodi:nodetypes="cccccccc" />
  </g>
  <g
     inkscape:groupmode="layer"
     id="layer1"
     inkscape:label="txt"
     style="display:inline">
    <text
       xml:space="preserve"
       style="font-style:normal;font-variant:normal;font-weight:normal;font-stretch:normal;font-size:45px;line-height:1.25;font-family:Lavi;-inkscape-font-specification:Lavi;text-align:center;letter-spacing:0px;word-spacing:0px;text-anchor:middle;fill:#000000;fill-opacity:1;stroke:none;stroke-width:0.818387"
       x="1438.4034"
       y="1936.7717"
       id="text4246-3-2-2-6-3-7-9-3-3-56-9-3-20-3-3-2"
       transform="skewX(-7.1285625)"><tspan
         style="font-style:normal;font-variant:normal;font-weight:bold;font-stretch:normal;font-size:45px;font-family:Lavi;-inkscape-font-specification:'Lavi Bold';stroke-width:0.818387"
         sodipodi:role="line"
         x="1438.4034"
         y="1936.7717"
         id="tspan146">PRZEPROSINY?!</tspan></text>
    <text
       id="text4246-4-2-7"
       y="2025.6934"
       x="1216.6045"
       style="font-style:normal;font-variant:normal;font-weight:normal;font-stretch:normal;line-height:0%;font-family:Lavi;-inkscape-font-specification:Lavi;text-align:center;letter-spacing:0px;word-spacing:0px;text-anchor:middle;fill:#000000;fill-opacity:1;stroke:none"
       xml:space="preserve"
       inkscape:label="pepperB"><tspan
         y="2025.6934"
         x="1216.6045"
         style="font-size:45px;line-height:1.25"
         sodipodi:role="line"
         id="tspan6461">Raczysz</tspan><tspan
         y="2081.9434"
         x="1216.6045"
         style="font-size:45px;line-height:1.25"
         sodipodi:role="line"
         id="tspan25">żartować!</tspan></text>
    <text
       xml:space="preserve"
       style="font-style:normal;font-variant:normal;font-weight:normal;font-stretch:normal;font-size:45px;line-height:1.25;font-family:Lavi;-inkscape-font-specification:Lavi;text-align:center;letter-spacing:0px;word-spacing:0px;text-anchor:middle;fill:#000000;fill-opacity:1;stroke:none;stroke-width:0.818387"
       x="1540.7991"
       y="2605.0286"
       id="text4246-3-2-2-6-3-7-9-3-3-56-9-3-20-3-3-2-7"
       transform="skewX(-7.1285625)"><tspan
         style="font-style:normal;font-variant:normal;font-weight:bold;font-stretch:normal;font-size:45px;font-family:Lavi;-inkscape-font-specification:'Lavi Bold';stroke-width:0.818387"
         sodipodi:role="line"
         x="1540.7991"
         y="2605.0286"
         id="tspan29">WTRĄCIĆ</tspan><tspan
         style="font-style:normal;font-variant:normal;font-weight:bold;font-stretch:normal;font-size:45px;font-family:Lavi;-inkscape-font-specification:'Lavi Bold';stroke-width:0.818387"
         sodipodi:role="line"
         x="1540.7991"
         y="2661.2786"
         id="tspan33">JĄ DO LOCHU!</tspan></text>
  </g>
</svg>
