<?xml version="1.0" encoding="UTF-8" standalone="no"?>
<svg
   xmlns:dc="http://purl.org/dc/elements/1.1/"
   xmlns:cc="http://creativecommons.org/ns#"
   xmlns:rdf="http://www.w3.org/1999/02/22-rdf-syntax-ns#"
   xmlns:svg="http://www.w3.org/2000/svg"
   xmlns="http://www.w3.org/2000/svg"
   xmlns:xlink="http://www.w3.org/1999/xlink"
   xmlns:sodipodi="http://sodipodi.sourceforge.net/DTD/sodipodi-0.dtd"
   xmlns:inkscape="http://www.inkscape.org/namespaces/inkscape"
   id="svg2"
   version="1.1"
   inkscape:version="0.92.4 (5da689c313, 2019-01-14)"
   width="2481"
   height="3503"
   sodipodi:docname="E35P11.svg">
  <metadata
     id="metadata8">
    <rdf:RDF>
      <cc:Work
         rdf:about="">
        <dc:format>image/svg+xml</dc:format>
        <dc:type
           rdf:resource="http://purl.org/dc/dcmitype/StillImage" />
        <dc:title />
      </cc:Work>
    </rdf:RDF>
  </metadata>
  <defs
     id="defs6">
    <filter
       style="color-interpolation-filters:sRGB"
       id="filter4375-4-1-1-1-9-3-2-3-8-7-6-4-9"
       inkscape:label="deevad outline effect"
       x="-0.002101149"
       y="-0.0071745174"
       width="1.0042023"
       height="1.014349">
      <feFlood
         id="feFlood4377-7-9-0-8-1-6-9-6-7-5-32-7-4"
         flood-opacity="1"
         flood-color="rgb(95,141,211)"
         result="flood" />
      <feComposite
         id="feComposite4379-3-8-8-2-77-7-1-0-9-9-0-6-8"
         in2="SourceGraphic"
         in="flood"
         operator="in"
         result="composite1" />
      <feMorphology
         id="feMorphology4393-1-0-49-8-9-5-2-6-2-2-6-5-1"
         operator="dilate"
         radius="4"
         result="result3" />
      <feComposite
         id="feComposite4385-9-5-7-0-8-3-7-2-0-2-1-6-2"
         in2="result3"
         in="SourceGraphic"
         operator="over"
         result="composite2" />
    </filter>
  </defs>
  <sodipodi:namedview
     pagecolor="#ffffff"
     bordercolor="#666666"
     borderopacity="1"
     objecttolerance="10"
     gridtolerance="10"
     guidetolerance="10"
     inkscape:pageopacity="0"
     inkscape:pageshadow="2"
     inkscape:window-width="1600"
     inkscape:window-height="847"
     id="namedview4"
     showgrid="false"
     inkscape:zoom="0.46261216"
     inkscape:cx="1272.8665"
     inkscape:cy="746.05178"
     inkscape:window-x="-8"
     inkscape:window-y="-8"
     inkscape:window-maximized="1"
     inkscape:current-layer="layer1"
     inkscape:document-rotation="0"
     inkscape:snap-global="false"
     inkscape:pagecheckerboard="0" />
  <g
     inkscape:groupmode="layer"
     id="layer2"
     inkscape:label="artwork"
     sodipodi:insensitive="true">
    <image
       sodipodi:absref="D:\Pepper&amp;Carrot\code\ep35_The-Reflection\lang\ro\../gfx_Pepper-and-Carrot_by-David-Revoy_E35P11.png"
       xlink:href="../gfx_Pepper-and-Carrot_by-David-Revoy_E35P11.png"
       y="0"
       x="0"
       id="image10"
       height="3503"
       width="2481" />
  </g>
  <g
     inkscape:groupmode="layer"
     id="layer3"
     inkscape:label="speechbubbles">
    <path
       style="color:#000000;display:inline;overflow:visible;visibility:visible;fill:#ffffff;fill-opacity:1;fill-rule:nonzero;stroke:none;stroke-width:1.05826px;marker:none;enable-background:accumulate"
       d="m 692.7246,1526.6704 c 28.1693,-24.9106 272.04455,-35.5556 336.641,7.541 53.9173,35.9724 32.8807,122.5341 -15.0706,141.6334 -47.95088,19.099 -207.46599,13.6696 -277.37785,3.2265 -66.56578,-9.9423 -77.74329,-36.2614 -81.01761,-88.8787 -1.33637,-21.4761 8.65558,-38.612 36.82506,-63.5222 z"
       id="path4040-4-9-2"
       inkscape:connector-curvature="0"
       sodipodi:nodetypes="zssssz" />
    <path
       style="color:#000000;display:inline;overflow:visible;visibility:visible;fill:#ffffff;fill-opacity:1;fill-rule:nonzero;stroke:none;stroke-width:1.36564px;marker:none;enable-background:accumulate"
       d="m 672.87343,351.47617 c 33.46845,54.26318 16.77932,109.75225 -42.25383,148.97796 101.91057,-50.70471 112.5118,-145.0271 95.84592,-167.01491 -16.31806,-21.52888 -53.59209,18.03695 -53.59209,18.03695 z"
       id="path5010-4"
       inkscape:connector-curvature="0"
       sodipodi:nodetypes="ccsc" />
    <path
       style="display:inline;fill:#ffffff;stroke:none;stroke-width:0.593809"
       d="m 1189.7651,57.299 c -37.6383,0.291165 -75.9441,5.226017 -110.6114,20.596138 -18.9707,9.035479 -34.6736,26.398282 -38.8001,47.340992 -3.9744,20.62219 -2.5171,42.19634 3.4954,62.27217 7.1845,18.83833 23.1758,33.143 41.1121,41.62797 26.4023,13.35548 56.0864,18.26676 85.3259,20.41751 39.6467,3.26547 79.5432,6.45676 119.3042,3.28382 30.4333,-2.53403 60.9347,-10.51405 86.9358,-26.93945 14.8833,-9.57802 28.8059,-21.8084 36.8096,-37.87408 6.7527,-13.08567 8.326,-28.38022 6.1478,-42.81545 -2.6598,-17.3016 -11.6926,-33.4704 -24.9835,-44.85659 -15.9119,-14.191543 -36.2871,-21.85208 -56.4207,-27.88553 -27.3936,-7.963814 -55.8576,-11.472072 -84.239,-13.544453 -21.3271,-1.406949 -42.709,-1.66886 -64.0761,-1.623047 z"
       id="path3280-8-1"
       inkscape:connector-curvature="0"
       sodipodi:nodetypes="csssc" />
    <path
       style="color:#000000;display:inline;overflow:visible;visibility:visible;fill:#ffffff;fill-opacity:1;fill-rule:nonzero;stroke:none;stroke-width:0.768319px;marker:none;enable-background:accumulate"
       d="m 1964.8579,80.042241 c -32.012,0.406432 -64.9167,6.568789 -91.2979,22.208449 -21.9887,13.16571 -40.4018,31.61855 -47.819,53.53875 -4.1234,13.03951 -5.487,26.75881 -3.6198,40.16175 3.1779,21.10953 15.9513,40.74776 33.5559,56.00596 14.6773,12.70148 33.5083,22.1213 54.0991,26.47524 49.9822,12.34459 102.0716,17.93543 154.0665,19.84518 49.4187,1.52074 99.562,-1.50162 147.0796,-13.43241 31.1707,-8.85512 60.5897,-24.40452 79.3546,-47.26665 15.2938,-19.38443 19.7523,-43.2101 18.8339,-65.9967 -0.6025,-21.44646 -7.6988,-43.71351 -25.2082,-60.02958 -16.5773,-15.127089 -40.9807,-22.876397 -65.1478,-24.641498 -59.6833,-7.607729 -120.235,-5.079663 -180.3715,-6.383948 -24.5072,-0.270672 -49.0153,-0.607176 -73.5254,-0.484543 z"
       id="path4546-6-7"
       inkscape:connector-curvature="0"
       sodipodi:nodetypes="cscssssc" />
    <path
       style="color:#000000;display:inline;overflow:visible;visibility:visible;fill:#ffffff;fill-opacity:1;fill-rule:nonzero;stroke:none;stroke-width:0.985823px;marker:none;enable-background:accumulate"
       d="m 552.76188,1388.2962 c 31.93806,-25.3329 308.44158,-39.6345 381.68011,2.4936 61.13111,35.164 37.27981,122.0411 -17.08671,141.8593 -54.36626,19.818 -235.22294,16.7802 -314.48834,7.3854 -75.47159,-8.9443 -88.14456,-35.0958 -91.85696,-87.6639 -1.51515,-21.4561 9.81361,-38.7418 41.7519,-64.0744 z"
       id="path4040-4-9"
       inkscape:connector-curvature="0"
       sodipodi:nodetypes="zssssz" />
    <path
       style="fill:#ffffff;fill-rule:evenodd;stroke:none;stroke-width:0.952453px;stroke-linecap:butt;stroke-linejoin:miter;stroke-opacity:1"
       d="M 1085.5371 1635.3711 C 1052.8898 1636.0254 1020.2721 1637.7241 987.68188 1639.7022 C 967.39616 1641.1984 946.8575 1642.9465 927.41722 1649.3049 C 902.37529 1658.3442 882.43559 1679.0032 872.14074 1703.3192 C 867.40038 1714.6592 864.0808 1726.5633 861.61613 1738.589 C 859.36641 1750.7134 859.68421 1763.6035 864.5293 1775.0898 C 870.11617 1789.1838 879.50704 1801.3734 889.53711 1812.584 C 908.4962 1832.8007 934.12774 1847.0885 961.72534 1850.84 C 985.53689 1854.7634 1009.5998 1856.8771 1033.6332 1858.8993 C 1073.6819 1861.5709 1113.8633 1862.1241 1153.9807 1860.9939 C 1187.725 1859.951 1221.4648 1857.6599 1254.9312 1853.1421 C 1272.7188 1850.2909 1290.8599 1845.7776 1305.7903 1835.2475 C 1320.3 1824.7651 1330.1352 1808.5092 1333.8866 1791.1089 C 1337.6668 1777.854 1340.8885 1763.729 1337.7663 1749.9963 C 1333.8761 1733.5495 1325.2282 1718.8217 1317.123 1704.1738 C 1308.6807 1689.856 1297.7144 1676.364 1282.87 1668.3568 C 1264.9043 1658.097 1244.5739 1653.3561 1224.8492 1647.7395 C 1193.6568 1639.6004 1161.3366 1637.0569 1129.2077 1636.2733 C 1114.6575 1635.7282 1100.0998 1635.2439 1085.5371 1635.3711 z "
       id="path1079"
       inkscape:connector-curvature="0" />
    <path
       style="color:#000000;display:inline;overflow:visible;visibility:visible;fill:#ffffff;fill-opacity:1;fill-rule:nonzero;stroke:none;stroke-width:0.939237px;marker:none;enable-background:accumulate"
       d="m 1404.4998,1793.8153 c -45.9909,-29.4273 -78.0349,-27.5278 -104.8526,-18.0354 -25.7868,9.1275 -19.8278,10.3608 -19.8278,10.3608 l 10.5667,-48.0852 c -3.1179,-4.3789 71.5596,-1.8389 114.1137,55.7598 z"
       id="path3072-12"
       inkscape:connector-curvature="0"
       sodipodi:nodetypes="csccc" />
    <path
       style="display:inline;fill:#ffffff;stroke:none;stroke-width:0.912089"
       d="m 1364.1825,197.26135 c -47.5216,0.71141 -95.6195,6.56567 -139.9311,23.18281 -36.3256,15.5755 -65.7666,45.87113 -75.9487,82.0756 -6.6231,25.0237 -5.9933,51.00356 -5.6241,76.57747 1.6757,29.0786 17.5941,56.19505 39.5473,76.47645 12.9731,12.23074 28.949,21.35899 45.8405,28.16258 38.0716,15.82346 79.8497,22.86993 121.3841,24.03039 31.2129,0.6584 62.4273,-0.37645 93.6318,-0.94856 38.7376,-1.17898 77.7473,-3.0418 115.6398,-11.13023 21.0624,-4.70887 42.3306,-11.56473 59.0668,-24.77076 21.9753,-17.34664 36.1545,-41.96217 43.4215,-67.61578 7.4536,-26.9469 5.6299,-55.48535 -1.6656,-82.27993 -6.2897,-25.61175 -18.2533,-50.87469 -38.9631,-69.27695 -21.4238,-19.27673 -49.3657,-31.03158 -77.8937,-38.14607 -43.9048,-11.44019 -89.6898,-14.37129 -135.0595,-15.94323 -14.4778,-0.39537 -28.9631,-0.42638 -43.446,-0.39379 z"
       id="path3280-8-1-3"
       inkscape:connector-curvature="0"
       sodipodi:nodetypes="csssc" />
    <path
       style="display:inline;fill:#ffffff;stroke:none;stroke-width:0.986136"
       d="m 2011.8516,226.1866 c -58.2287,0.51905 -117.4901,9.31627 -171.1225,36.71618 -29.3487,16.1073 -53.642,47.05952 -60.026,84.39353 -6.1486,36.76262 -3.8941,75.2223 5.4076,111.01093 11.1149,33.5826 35.8544,59.08314 63.6028,74.20908 40.8459,23.80845 86.769,32.56366 132.0043,36.39776 61.3359,5.82125 123.0581,11.51027 184.5707,5.85396 47.0823,-4.51735 94.2697,-18.74311 134.495,-48.02423 23.0253,-17.07448 44.5645,-38.87726 56.9466,-67.51711 10.4469,-23.32748 12.8809,-50.59266 9.5111,-76.32597 -4.1149,-30.84309 -18.0892,-59.6668 -38.6511,-79.96465 -24.6166,-25.29889 -56.1382,-38.9551 -87.2862,-49.71079 -42.3795,-14.19688 -86.415,-20.45096 -130.3227,-24.14535 -32.9944,-2.50813 -66.0734,-2.97503 -99.1296,-2.89334 z"
       id="path3280-8-1-1"
       inkscape:connector-curvature="0"
       sodipodi:nodetypes="csssc" />
    <path
       style="display:inline;fill:#ffffff;stroke:none;stroke-width:0.67022902"
       d="m 2025.8672,538.36696 c -40.6828,0.14992 -81.8228,5.12967 -119.5154,17.92791 -10.2682,3.4389 -20.146,7.74847 -28.7254,13.51869 -21.3065,13.89477 -36.3364,34.38863 -39.4798,56.54262 -3.9291,21.68635 1.1276,45.11031 17.653,62.83595 17.4102,18.7994 43.2354,31.439 70.4434,38.79894 29.3763,8.56791 60.7172,11.18372 91.714,12.34113 46.8821,3.11262 94.0708,2.42706 140.902,-0.92092 21.9002,-1.55842 44.027,-3.76448 64.6917,-10.17274 21.8185,-6.67963 41.384,-18.16984 56.107,-32.82894 12.4965,-12.53341 21.3683,-27.80759 22.9601,-44.00548 3.2593,-28.25875 -11.7227,-57.94296 -40.1139,-74.91315 -24.4262,-15.13168 -54.2657,-22.8808 -83.8044,-28.59825 -50.0232,-9.42156 -101.6968,-10.66868 -152.8323,-10.52576 z"
       id="path3280-8-1-1-8"
       inkscape:connector-curvature="0"
       sodipodi:nodetypes="csssc" />
    <path
       style="fill:#ffffff;fill-rule:evenodd;stroke:none;stroke-width:1px;stroke-linecap:butt;stroke-linejoin:miter;stroke-opacity:1"
       d="m 1917.1509,703.14914 c -35.1448,34.55495 -40.918,43.76621 -48.2945,59.20991 -7.3765,15.44359 -1.4166,45.82505 15.3336,59.77726 16.7502,13.95231 20.6476,39.75145 6.4656,51.09426 -14.1819,11.34295 -70.6572,56.04997 -12.3413,98.68519 -52.1304,-50.93005 4.6214,-80.3316 15.046,-87.77901 10.4245,-7.44749 30.9525,-25.50425 13.4446,-59.50485 -17.5082,-34.00062 -21.7713,-50.818 31.7495,-83.72489 53.5207,-32.90685 -21.4035,-37.75787 -21.4035,-37.75787 z"
       id="path1081"
       inkscape:connector-curvature="0"
       sodipodi:nodetypes="ccccccssc" />
    <path
       style="color:#000000;display:inline;overflow:visible;visibility:visible;fill:#ffffff;fill-opacity:1;fill-rule:nonzero;stroke:none;stroke-width:1.4638px;marker:none;enable-background:accumulate"
       d="m 1446.9857,482.25247 c 38.5518,83.9689 2.5856,139.06018 -54.1917,168.09629 98.918,-30.2652 116.1188,-134.92733 86.7076,-167.77583 -23.1309,-25.83416 -32.5159,-0.32046 -32.5159,-0.32046 z"
       id="path5010-4-3"
       inkscape:connector-curvature="0"
       sodipodi:nodetypes="ccsc" />
    <path
       style="color:#000000;display:inline;overflow:visible;visibility:visible;fill:#ffffff;fill-opacity:1;fill-rule:nonzero;stroke:none;stroke-width:0.861506px;marker:none;enable-background:accumulate"
       d="m 1708.9341,2344.6889 c 0.1396,-105.6475 -1.9817,-81.2211 156.3841,-79.1966 68.739,0.8787 150.308,10.6222 143.7753,157.3952 -5.1637,116.0161 -130.901,110.3132 -154.2725,113.5955 -23.2236,3.2615 -117.9728,-16.6744 -138.5725,-62.3724 -12.895,-28.6062 -8.0693,-101.383 -7.3144,-129.4217 z"
       id="path4546-6-59"
       inkscape:connector-curvature="0"
       sodipodi:nodetypes="cssssc" />
    <path
       style="fill:#ffffff;stroke:none;stroke-width:1.38151753"
       d="m 708.36926,102.435 c -53.33372,2.82977 -105.54539,14.12856 -158.18373,21.91192 -33.18426,5.72091 -66.27321,15.8587 -93.76499,34.77212 -17.40628,12.10308 -30.95399,29.30573 -37.23934,48.88691 -10.0707,27.60401 -10.4837,57.61212 -5.39718,86.18398 4.05993,21.07218 12.95425,41.9883 29.06597,57.47463 16.02692,15.68819 36.03813,27.56486 57.66321,35.1316 18.67203,7.1937 38.26147,12.15479 58.17527,15.12612 44.46914,7.2111 89.718,9.06223 134.77359,8.6622 46.07475,-0.71298 92.0886,-5.6523 137.08601,-15.04968 22.43717,-4.38255 45.06644,-10.65833 63.96164,-23.3035 20.84533,-13.77109 37.39432,-33.30392 46.98244,-55.52975 4.18915,-9.84198 6.23657,-20.39125 6.62183,-30.9673 0.78297,-13.59203 0.86276,-27.2101 1.16175,-40.81597 0.11307,-41.08202 -3.62973,-82.2408 -12.36589,-122.51528 -3.26771,-3.16618 -8.37682,-1.72311 -12.43568,-2.97976 -71.5869,-9.63847 -143.69223,-17.24291 -216.1049,-16.98824 z"
       id="path3100-2"
       inkscape:connector-curvature="0"
       sodipodi:nodetypes="cccccccccccccc" />
    <path
       style="display:inline;fill:#ffffff;fill-rule:evenodd;stroke:none;stroke-width:1.14884px;stroke-linecap:butt;stroke-linejoin:miter;stroke-opacity:1"
       d="m 1876.2442,2473.0319 c 29.6781,34.3855 -48.3918,61.0872 -32.7914,98.1006 6.1219,14.5249 50.1858,21.814 59.4409,88.3499 -23.107,-54.5774 -70.7535,-56.808 -83.5614,-79.4341 -24.3256,-42.971 15.5983,-74.4437 22.7675,-83.4264 9.5884,-12.0136 34.1444,-23.59 34.1444,-23.59 z"
       id="path4186-80"
       inkscape:connector-curvature="0"
       sodipodi:nodetypes="cscssc" />
    <path
       style="color:#000000;display:inline;overflow:visible;visibility:visible;fill:#ffffff;fill-opacity:1;fill-rule:nonzero;stroke:none;stroke-width:0.472467px;marker:none;enable-background:accumulate"
       d="m 266.97992,2086.542 c 13.37453,-13.964 129.16447,-22.406 159.83419,0.5429 25.59955,19.1552 15.61147,66.8586 -7.1553,77.8463 -22.76671,10.9877 -98.5031,9.7123 -131.69666,4.7305 -31.60485,-4.7428 -36.91183,-19.0595 -38.46644,-47.8849 -0.63452,-11.7653 4.10957,-21.2709 17.48421,-35.2348 z"
       id="path4040-4-9-3"
       inkscape:connector-curvature="0"
       sodipodi:nodetypes="zssssz" />
    <path
       style="color:#000000;display:inline;overflow:visible;visibility:visible;fill:#ffffff;fill-opacity:1;fill-rule:nonzero;stroke:none;stroke-width:0.816531px;marker:none;enable-background:accumulate"
       d="m 354.58902,2078.2586 c 35.58146,-4.2267 52.48817,-58.2989 28.13393,-95.1145 44.43236,49.6051 29.57055,64.2564 4.74971,120.5184 -6.58837,14.934 -32.88364,-25.4039 -32.88364,-25.4039 z"
       id="path5010-4-5"
       inkscape:connector-curvature="0"
       sodipodi:nodetypes="ccsc" />
  </g>
  <g
     inkscape:groupmode="layer"
     id="layer1"
     inkscape:label="txt">
    <text
       xml:space="preserve"
       style="font-style:normal;font-variant:normal;font-weight:normal;font-stretch:normal;font-size:45px;line-height:1.25;font-family:Lavi;-inkscape-font-specification:Lavi;text-align:center;letter-spacing:0px;word-spacing:0px;text-anchor:middle;fill:#000000;fill-opacity:1;stroke:none"
       x="682.26318"
       y="174.98274"
       id="text4246-3-2-2"><tspan
         style="font-size:45px"
         sodipodi:role="line"
         x="689.29443"
         y="174.98274"
         id="tspan908">Îți mulțumesc </tspan><tspan
         style="font-size:45px"
         sodipodi:role="line"
         x="682.26318"
         y="231.41833"
         id="tspan84">pentru că i-ai permis</tspan><tspan
         style="font-size:45px"
         sodipodi:role="line"
         x="682.26318"
         y="287.66833"
         id="tspan86">lui Carrot să meargă</tspan><tspan
         style="font-size:45px"
         sodipodi:role="line"
         x="682.26318"
         y="343.91833"
         id="tspan98">să îmi aducă haine noi.</tspan></text>
    <text
       xml:space="preserve"
       style="font-style:normal;font-variant:normal;font-weight:normal;font-stretch:normal;font-size:45px;line-height:1.25;font-family:Lavi;-inkscape-font-specification:Lavi;text-align:center;letter-spacing:0px;word-spacing:0px;text-anchor:middle;fill:#000000;fill-opacity:1;stroke:none"
       x="1235.6431"
       y="179.79465"
       id="text4246-3-2-2-3-3-3"><tspan
         style="font-size:45px"
         sodipodi:role="line"
         x="1235.6431"
         y="179.79465"
         id="tspan876-3">Cu plăcere.</tspan></text>
    <text
       xml:space="preserve"
       style="font-style:normal;font-variant:normal;font-weight:normal;font-stretch:normal;font-size:45px;line-height:1.25;font-family:Lavi;-inkscape-font-specification:Lavi;text-align:center;letter-spacing:0px;word-spacing:0px;text-anchor:middle;fill:#000000;fill-opacity:1;stroke:none"
       x="1403.865"
       y="288.4176"
       id="text4246-3-2-2-3-3"><tspan
         style="font-size:45px"
         sodipodi:role="line"
         x="1410.8962"
         y="288.4176"
         id="tspan933">Ne-ai ușurat treaba, </tspan><tspan
         style="font-size:45px"
         sodipodi:role="line"
         x="1410.8962"
         y="344.85321"
         id="tspan941">așa că măcar atât </tspan><tspan
         style="font-size:45px"
         sodipodi:role="line"
         x="1403.865"
         y="401.28879"
         id="tspan111">puteam face să întorc</tspan><tspan
         style="font-size:45px"
         sodipodi:role="line"
         x="1403.865"
         y="457.53879"
         id="tspan113">favoarea.</tspan></text>
    <text
       xml:space="preserve"
       style="font-style:normal;font-variant:normal;font-weight:normal;font-stretch:normal;font-size:45px;line-height:1.25;font-family:Lavi;-inkscape-font-specification:Lavi;text-align:center;letter-spacing:0px;word-spacing:0px;text-anchor:middle;fill:#000000;fill-opacity:1;stroke:none"
       x="2070.6965"
       y="162.92047"
       id="text4246-3-2-2-3-3-67"><tspan
         style="font-size:45px"
         sodipodi:role="line"
         x="2070.6965"
         y="162.92047"
         id="tspan898">Dar, știi ceva, chiar</tspan><tspan
         style="font-size:45px"
         sodipodi:role="line"
         x="2070.6965"
         y="219.35606"
         id="tspan117">ai supărat-o pe Wasabi.</tspan></text>
    <text
       xml:space="preserve"
       style="font-style:normal;font-variant:normal;font-weight:normal;font-stretch:normal;font-size:45px;line-height:1.25;font-family:Lavi;-inkscape-font-specification:Lavi;text-align:center;letter-spacing:0px;word-spacing:0px;text-anchor:middle;fill:#000000;fill-opacity:1;stroke:none"
       x="2069.8462"
       y="308.0451"
       id="text4246-3-2-2-3-3-67-2"><tspan
         style="font-size:45px"
         sodipodi:role="line"
         x="2069.8462"
         y="308.0451"
         id="tspan1004-2">Ea cere întotdeauna</tspan><tspan
         style="font-size:45px"
         sodipodi:role="line"
         x="2069.8462"
         y="364.2951"
         id="tspan1010-7">perfecțiunea. Ai stricat asta</tspan><tspan
         style="font-size:45px"
         sodipodi:role="line"
         x="2069.8462"
         y="420.73071"
         id="tspan125">cu murdăria și hainele</tspan><tspan
         style="font-size:45px"
         sodipodi:role="line"
         x="2069.8462"
         y="477.16629"
         id="tspan912">tale rupte, precum și</tspan><tspan
         style="font-size:45px"
         sodipodi:role="line"
         x="2069.8462"
         y="533.60193"
         id="tspan134">intrarea.</tspan></text>
    <text
       xml:space="preserve"
       style="font-style:normal;font-variant:normal;font-weight:normal;font-stretch:normal;font-size:45px;line-height:1.25;font-family:Lavi;-inkscape-font-specification:Lavi;text-align:center;letter-spacing:0px;word-spacing:0px;text-anchor:middle;fill:#000000;fill-opacity:1;stroke:none"
       x="2082.1326"
       y="631.30664"
       id="text4246-3-2-2-3-3-67-2-3"><tspan
         style="font-size:45px"
         sodipodi:role="line"
         x="2089.1638"
         y="631.30664"
         id="tspan1134">Și ai atacat-o! Nu </tspan><tspan
         style="font-size:45px"
         sodipodi:role="line"
         x="2082.1326"
         y="687.74225"
         id="tspan140">te va lăsa prea ușor.</tspan></text>
    <text
       xml:space="preserve"
       style="font-style:normal;font-variant:normal;font-weight:normal;font-stretch:normal;font-size:45px;line-height:1.25;font-family:Lavi;-inkscape-font-specification:Lavi;text-align:center;letter-spacing:0px;word-spacing:0px;text-anchor:middle;fill:#000000;fill-opacity:1;stroke:none"
       x="349.56961"
       y="2138.6455"
       id="text4246-3-2-2-3-3-6-67"><tspan
         style="font-size:45px"
         sodipodi:role="line"
         x="349.56961"
         y="2138.6455"
         id="tspan1191-3">Știu.</tspan></text>
    <text
       xml:space="preserve"
       style="font-style:normal;font-variant:normal;font-weight:normal;font-stretch:normal;font-size:45px;line-height:1.25;font-family:Lavi;-inkscape-font-specification:Lavi;text-align:center;letter-spacing:0px;word-spacing:0px;text-anchor:middle;fill:#000000;fill-opacity:1;stroke:none"
       x="743.62054"
       y="1442.3682"
       id="text4246-3-2-2-3-3-6"><tspan
         style="font-size:45px"
         sodipodi:role="line"
         x="743.62054"
         y="1442.3682"
         id="tspan909">Oricum, trebuie să</tspan><tspan
         style="font-size:45px"
         sodipodi:role="line"
         x="743.62054"
         y="1498.6182"
         id="tspan148">mă odihnesc un pic.</tspan></text>
    <text
       xml:space="preserve"
       style="font-style:normal;font-variant:normal;font-weight:normal;font-stretch:normal;font-size:45px;line-height:1.25;font-family:Lavi;-inkscape-font-specification:Lavi;text-align:center;letter-spacing:0px;word-spacing:0px;text-anchor:middle;fill:#000000;fill-opacity:1;stroke:none"
       x="863.08191"
       y="1579.2286"
       id="text4246-3-2-2-3-3-6-6"><tspan
         style="font-size:45px"
         sodipodi:role="line"
         x="863.08191"
         y="1579.2286"
         id="tspan949">Plecăm imediat</tspan><tspan
         style="font-size:45px"
         sodipodi:role="line"
         x="870.11316"
         y="1635.4786"
         id="tspan152">ce mă trezesc. </tspan></text>
    <text
       xml:space="preserve"
       style="font-style:normal;font-variant:normal;font-weight:normal;font-stretch:normal;font-size:45px;line-height:1.25;font-family:Lavi;-inkscape-font-specification:Lavi;text-align:center;letter-spacing:0px;word-spacing:0px;text-anchor:middle;fill:#000000;fill-opacity:1;stroke:none"
       x="1106.4032"
       y="1711.861"
       id="text4246-3-2-2-3-3-6-2"><tspan
         style="font-size:45px"
         sodipodi:role="line"
         x="1106.4032"
         y="1711.861"
         id="tspan958">Fă ce vrei, atât</tspan><tspan
         style="font-size:45px"
         sodipodi:role="line"
         x="1106.4032"
         y="1768.111"
         id="tspan159">timp cât nu pleci</tspan><tspan
         style="font-size:45px"
         sodipodi:role="line"
         x="1106.4032"
         y="1824.361"
         id="tspan161">prea departe...</tspan></text>
    <text
       xml:space="preserve"
       style="font-style:normal;font-variant:normal;font-weight:normal;font-stretch:normal;line-height:0%;font-family:Lavi;-inkscape-font-specification:Lavi;letter-spacing:0px;word-spacing:0px;display:inline;fill:#ffffff;fill-opacity:1;stroke:#5f8dd3;stroke-width:0.99236202;stroke-miterlimit:4;stroke-dasharray:none;stroke-opacity:1;filter:url(#filter4375-4-1-1-1-9-3-2-3-8-7-6-4-9)"
       x="787.65729"
       y="1584.5073"
       id="text4580-5-0-6-2-8-5-9-9"
       transform="matrix(0.71138619,-0.38856964,0.42362052,1.0933045,-1095.3818,1936.127)"><tspan
         sodipodi:role="line"
         id="tspan4582-6-9-1-3-9-5-3-3"
         x="787.65729"
         y="1584.5073"
         style="font-size:70px;line-height:1.25;fill:#ffffff;stroke:#5f8dd3">Pleosc</tspan></text>
    <text
       xml:space="preserve"
       style="font-style:normal;font-variant:normal;font-weight:normal;font-stretch:normal;font-size:45px;line-height:1.25;font-family:Lavi;-inkscape-font-specification:Lavi;text-align:center;letter-spacing:0px;word-spacing:0px;text-anchor:middle;fill:#000000;fill-opacity:1;stroke:none"
       x="1861.7039"
       y="2364.5269"
       id="text4246-3-2-2-3-3-6-2-9"><tspan
         style="font-size:45px"
         sodipodi:role="line"
         x="1868.7351"
         y="2364.5269"
         id="tspan170">Ce </tspan><tspan
         style="font-size:45px"
         sodipodi:role="line"
         x="1861.7039"
         y="2420.7769"
         id="tspan176">vrăjitoare</tspan><tspan
         style="font-size:45px"
         sodipodi:role="line"
         x="1861.7039"
         y="2477.0269"
         id="tspan178">ciudată.</tspan></text>
  </g>
</svg>
