<?xml version="1.0" encoding="UTF-8" standalone="no"?>
<svg
   xmlns:dc="http://purl.org/dc/elements/1.1/"
   xmlns:cc="http://creativecommons.org/ns#"
   xmlns:rdf="http://www.w3.org/1999/02/22-rdf-syntax-ns#"
   xmlns:svg="http://www.w3.org/2000/svg"
   xmlns="http://www.w3.org/2000/svg"
   xmlns:xlink="http://www.w3.org/1999/xlink"
   xmlns:sodipodi="http://sodipodi.sourceforge.net/DTD/sodipodi-0.dtd"
   xmlns:inkscape="http://www.inkscape.org/namespaces/inkscape"
   id="svg2"
   version="1.1"
   inkscape:version="0.92.4 (5da689c313, 2019-01-14)"
   width="2481"
   height="3503"
   sodipodi:docname="E35P10.svg">
  <metadata
     id="metadata8">
    <rdf:RDF>
      <cc:Work
         rdf:about="">
        <dc:format>image/svg+xml</dc:format>
        <dc:type
           rdf:resource="http://purl.org/dc/dcmitype/StillImage" />
        <dc:title />
      </cc:Work>
    </rdf:RDF>
  </metadata>
  <defs
     id="defs6" />
  <sodipodi:namedview
     pagecolor="#ffffff"
     bordercolor="#666666"
     borderopacity="1"
     objecttolerance="10"
     gridtolerance="10"
     guidetolerance="10"
     inkscape:pageopacity="0"
     inkscape:pageshadow="2"
     inkscape:window-width="1600"
     inkscape:window-height="847"
     id="namedview4"
     showgrid="false"
     inkscape:zoom="0.37618364"
     inkscape:cx="1659.1452"
     inkscape:cy="1623.0367"
     inkscape:window-x="-8"
     inkscape:window-y="-8"
     inkscape:window-maximized="1"
     inkscape:current-layer="layer1"
     inkscape:document-rotation="0"
     inkscape:snap-global="false"
     inkscape:pagecheckerboard="0" />
  <g
     inkscape:groupmode="layer"
     id="layer2"
     inkscape:label="artwork"
     sodipodi:insensitive="true">
    <image
       sodipodi:absref="D:\Pepper&amp;Carrot\code\ep35_The-Reflection\lang\ro\../gfx_Pepper-and-Carrot_by-David-Revoy_E35P10.png"
       xlink:href="../gfx_Pepper-and-Carrot_by-David-Revoy_E35P10.png"
       width="2481"
       height="3503"
       id="image10"
       x="0"
       y="0" />
  </g>
  <g
     inkscape:groupmode="layer"
     id="layer3"
     inkscape:label="speechbubbles">
    <path
       style="fill:#ffffff;stroke:none;stroke-width:0.953514"
       d="M 1261.291 157.25391 C 1207.7357 157.54489 1153.594 156.77924 1100.9434 168.07031 C 1079.0515 172.63737 1056.7703 178.05516 1037.541 189.92578 C 1014.7661 204.15435 995.86341 225.73768 987.83184 251.63897 C 981.27062 274.19125 985.39243 298.69085 995.30674 319.62389 C 1007.0019 345.58404 1028.2668 367.35364 1054.5756 378.52378 C 1081.5622 391.2018 1110.2419 399.83365 1139.1015 407.07235 C 1181.0204 416.67526 1224.2013 418.26528 1267.0361 419.0483 C 1318.7866 420.54802 1370.8139 423.45207 1422.3754 417.1585 C 1454.2487 413.43906 1486.0071 408.45644 1517.3258 401.42549 C 1548.668 394.18699 1579.903 383.56425 1606.2534 364.65158 C 1618.3453 356.29101 1627.4265 344.1997 1633.6247 330.98008 C 1637.8988 321.88336 1640.9749 312.28247 1643.9727 302.70807 C 1649.4597 283.9668 1651.0927 263.63441 1645.5571 244.70093 C 1638.5385 219.47018 1619.7506 197.97675 1595.9061 187.24726 C 1571.7096 175.34708 1544.9375 170.37134 1518.594 165.73016 C 1480.2608 159.64674 1441.3661 158.84703 1402.6436 157.82525 C 1356.0424 157.11629 1309.4336 157.28069 1262.8288 157.24308 C 1262.3162 157.24669 1261.8036 157.2503 1261.291 157.25391 z "
       id="path3100-98"
       inkscape:connector-curvature="0"
       sodipodi:nodetypes="zsssssz" />
    <path
       style="color:#000000;display:inline;overflow:visible;visibility:visible;fill:#ffffff;fill-opacity:1;fill-rule:nonzero;stroke:none;stroke-width:0.83737px;marker:none;enable-background:accumulate"
       d="m 1448.7795,517.63055 c 2.403,-24.32977 -9.2766,-33.6163 -20.6628,-38.28253 -11.3869,-4.66626 -19.0826,-5.58729 -28.1978,-26.0826 -9.1142,-20.49521 -0.7357,-41.29642 -4.8853,-52.46499 -11.4569,-16.24953 -34.9307,-26.06627 -44.5289,-30.51513 -21.6856,-10.05119 11.3091,-23.29909 11.3091,-23.29909 8.77,-0.30545 47.7455,23.68713 57.7575,33.72157 14.4084,14.44054 -4.0636,48.20741 4.0399,65.52593 7.5675,16.17219 18.2749,17.40774 23.9472,28.63593 5.6729,11.22843 4.8219,31.66667 1.2211,42.76091 z"
       id="path4538-8"
       inkscape:connector-curvature="0"
       sodipodi:nodetypes="csscscsssc" />
    <path
       style="color:#000000;display:inline;overflow:visible;visibility:visible;fill:#ffffff;fill-opacity:1;fill-rule:nonzero;stroke:none;stroke-width:1.11446214px;marker:none;enable-background:accumulate"
       d="m 104.6856,1531.981 c 4.15701,-43.4924 4.75374,-85.5078 59.73857,-110.6221 54.98472,-25.1131 151.85303,-31.4231 273.52618,-24.118 65.17463,3.9126 147.27782,9.1419 199.24949,27.218 51.97168,18.0762 73.81194,48.999 68.47865,112.7058 -5.3333,63.7068 -34.11421,91.3318 -94.15057,107.2324 -60.03627,15.9018 -151.32822,20.0795 -173.31119,21.7256 -21.98295,1.6461 -90.16436,-0.4599 -157.81026,-8.3551 -67.64578,-7.8952 -113.91525,-13.4085 -133.75602,-34.9236 -31.10367,-27.2938 -43.85634,-59.1984 -41.96485,-90.863 z"
       id="path4546-6-2-0"
       inkscape:connector-curvature="0"
       sodipodi:nodetypes="cssssssscc" />
    <path
       style="fill:#ffffff;fill-rule:evenodd;stroke:none;stroke-width:1.12465px;stroke-linecap:butt;stroke-linejoin:miter;stroke-opacity:1"
       d="m 566.83527,1651.6586 c 4.43847,-15.3188 61.8645,41.4938 43.56991,104.2767 2.42387,27.4208 22.18027,42.2423 21.12076,57.0045 -1.05963,24.2524 -9.53608,35.8508 -36.02508,55.8848 33.90594,-15.8168 54.23301,-33.7608 55.29264,-58.0121 1.05951,-24.2524 -17.71625,-25.1329 -17.14842,-60.0829 1.05952,-10.5449 25.79381,-65.3353 -26.69151,-120.7385 19.07205,-20.0341 -40.1183,21.6675 -40.1183,21.6675 z"
       id="path1303"
       inkscape:connector-curvature="0"
       sodipodi:nodetypes="cccccccc" />
    <path
       style="color:#000000;display:inline;overflow:visible;visibility:visible;fill:#ffffff;fill-opacity:1;fill-rule:nonzero;stroke:none;stroke-width:0.79738px;marker:none;enable-background:accumulate"
       d="m 1281.8209,1541.7467 c 2.4753,-37.3903 2.8306,-73.5107 35.5721,-95.1015 32.7413,-21.5896 90.4228,-27.0143 162.8745,-20.7341 38.8092,3.3636 87.6985,7.8593 118.6458,23.3992 30.9472,15.54 43.9521,42.1243 40.7764,96.8929 -3.1756,54.7685 -20.3136,78.5176 -56.063,92.1873 -35.7495,13.6708 -90.1104,17.2623 -103.2004,18.6775 -13.09,1.4151 -53.6897,-0.3954 -93.9703,-7.1829 -40.2806,-6.7874 -67.8322,-11.5272 -79.6466,-30.0237 -18.521,-23.4644 -26.1149,-50.8927 -24.9885,-78.1147 z"
       id="path4546-6-2-0-3"
       inkscape:connector-curvature="0"
       sodipodi:nodetypes="cssssssscc" />
    <path
       style="color:#000000;display:inline;overflow:visible;visibility:visible;fill:#ffffff;fill-opacity:1;fill-rule:nonzero;stroke:none;stroke-width:0.82119703px;marker:none;enable-background:accumulate"
       d="m 1338.0106,1759.375 c 2.3855,-41.1512 2.7279,-80.9047 34.2808,-104.6672 31.5527,-23.7613 87.1401,-29.7316 156.9614,-22.8197 37.4003,3.702 84.5146,8.6498 114.3385,25.7529 29.8237,17.1029 42.3566,46.3614 39.2961,106.6388 -3.0604,60.2772 -19.5763,86.415 -54.0277,101.4599 -34.4516,15.0458 -86.8391,18.9986 -99.4539,20.556 -12.6148,1.5576 -51.7406,-0.4349 -90.5586,-7.9053 -38.8182,-7.4703 -65.3696,-12.6866 -76.7553,-33.0436 -17.8486,-25.8245 -25.1666,-56.0116 -24.0813,-85.9718 z"
       id="path4546-6-2-0-3-6"
       inkscape:connector-curvature="0"
       sodipodi:nodetypes="cssssssscc" />
    <path
       style="color:#000000;display:inline;overflow:visible;visibility:visible;fill:#ffffff;fill-opacity:1;fill-rule:nonzero;stroke:none;stroke-width:1.47843px;marker:none;enable-background:accumulate"
       d="m 1474.8245,1844.8292 c 6.1533,73.3287 -47.1663,130.4434 -118.01,146.3855 114.7363,-9.2052 166.2605,-106.0374 160.9588,-137.1332 -5.191,-30.4467 -42.9488,-9.2523 -42.9488,-9.2523 z"
       id="path5010-4"
       inkscape:connector-curvature="0"
       sodipodi:nodetypes="ccsc" />
  </g>
  <g
     inkscape:groupmode="layer"
     id="layer1"
     inkscape:label="txt">
    <text
       xml:space="preserve"
       style="font-style:normal;font-variant:normal;font-weight:normal;font-stretch:normal;font-size:45px;line-height:1.25;font-family:Lavi;-inkscape-font-specification:Lavi;text-align:center;letter-spacing:0px;word-spacing:0px;text-anchor:middle;fill:#000000;fill-opacity:1;stroke:none"
       x="1325.0667"
       y="244.98175"
       id="text4246-3-2-2"><tspan
         style="font-size:45px"
         sodipodi:role="line"
         x="1332.0979"
         y="244.98175"
         id="tspan39">Știi că în momentul în </tspan><tspan
         style="font-size:45px"
         sodipodi:role="line"
         x="1325.0667"
         y="301.41736"
         id="tspan45">care te predai Stăpânei Wasabi,</tspan><tspan
         style="font-size:45px"
         sodipodi:role="line"
         x="1325.0667"
         y="357.66736"
         id="tspan41">nu o să îți fie bine, nu?</tspan></text>
    <text
       xml:space="preserve"
       style="font-style:normal;font-variant:normal;font-weight:normal;font-stretch:normal;font-size:45px;line-height:1.25;font-family:Lavi;-inkscape-font-specification:Lavi;text-align:center;letter-spacing:0px;word-spacing:0px;text-anchor:middle;fill:#000000;fill-opacity:1;stroke:none"
       x="410.09659"
       y="1487.4188"
       id="text4246-3-2-2-3"><tspan
         style="font-size:45px"
         sodipodi:role="line"
         x="410.09659"
         y="1487.4188"
         id="tspan890">Știu, dar eu tot cred că am</tspan><tspan
         style="font-size:45px"
         sodipodi:role="line"
         x="410.09659"
         y="1543.8544"
         id="tspan892">o șansă să o conving – să</tspan><tspan
         style="font-size:45px"
         sodipodi:role="line"
         x="410.09659"
         y="1600.29"
         id="tspan56">o fac să înțeleagă.</tspan></text>
    <text
       xml:space="preserve"
       style="font-style:normal;font-variant:normal;font-weight:normal;font-stretch:normal;font-size:45px;line-height:1.25;font-family:Lavi;-inkscape-font-specification:Lavi;text-align:center;letter-spacing:0px;word-spacing:0px;text-anchor:middle;fill:#000000;fill-opacity:1;stroke:none"
       x="1460.6498"
       y="1490.1573"
       id="text4246-3-2-2-3-3"><tspan
         style="font-size:45px"
         sodipodi:role="line"
         x="1467.681"
         y="1490.1573"
         id="tspan896">Până la urmă, </tspan><tspan
         style="font-size:45px"
         sodipodi:role="line"
         x="1460.6498"
         y="1546.4073"
         id="tspan63">nimic nu este</tspan><tspan
         style="font-size:45px"
         sodipodi:role="line"
         x="1460.6498"
         y="1602.6573"
         id="tspan65">ireparabil.</tspan></text>
    <text
       xml:space="preserve"
       style="font-style:normal;font-variant:normal;font-weight:normal;font-stretch:normal;font-size:45px;line-height:1.25;font-family:Lavi;-inkscape-font-specification:Lavi;text-align:center;letter-spacing:0px;word-spacing:0px;text-anchor:middle;fill:#000000;fill-opacity:1;stroke:none"
       x="1513.7742"
       y="1709.9939"
       id="text4246-3-2-2-3-3-1"><tspan
         style="font-size:45px"
         sodipodi:role="line"
         x="1513.7742"
         y="1709.9939"
         id="tspan913">Am învățat</tspan><tspan
         style="font-size:45px"
         sodipodi:role="line"
         x="1520.8054"
         y="1766.4294"
         id="tspan72">asta de la o </tspan><tspan
         style="font-size:45px"
         sodipodi:role="line"
         x="1513.7742"
         y="1822.6794"
         id="tspan74">prietenă veche.</tspan></text>
  </g>
</svg>
