<?xml version="1.0" encoding="UTF-8" standalone="no"?>
<svg
   id="svg2"
   version="1.1"
   inkscape:version="1.2.2 (732a01da63, 2022-12-09)"
   width="2481"
   height="663"
   sodipodi:docname="E33P00.svg"
   xml:space="preserve"
   xmlns:inkscape="http://www.inkscape.org/namespaces/inkscape"
   xmlns:sodipodi="http://sodipodi.sourceforge.net/DTD/sodipodi-0.dtd"
   xmlns:xlink="http://www.w3.org/1999/xlink"
   xmlns="http://www.w3.org/2000/svg"
   xmlns:svg="http://www.w3.org/2000/svg"
   xmlns:rdf="http://www.w3.org/1999/02/22-rdf-syntax-ns#"
   xmlns:cc="http://creativecommons.org/ns#"
   xmlns:dc="http://purl.org/dc/elements/1.1/"><metadata
     id="metadata8"><rdf:RDF><cc:Work
         rdf:about=""><dc:format>image/svg+xml</dc:format><dc:type
           rdf:resource="http://purl.org/dc/dcmitype/StillImage" /><dc:title /></cc:Work></rdf:RDF></metadata><defs
     id="defs6"><linearGradient
       inkscape:collect="always"
       id="linearGradient1984"><stop
         style="stop-color:#0c182f;stop-opacity:1;"
         offset="0"
         id="stop1980" /><stop
         style="stop-color:#213279;stop-opacity:1;"
         offset="0.5"
         id="stop1988" /><stop
         style="stop-color:#8f98a2;stop-opacity:1;"
         offset="1"
         id="stop1982" /></linearGradient><filter
       inkscape:menu-tooltip="Transparent plastic with deep colors"
       inkscape:menu="Bevels"
       inkscape:label="Pepper-title-style"
       style="color-interpolation-filters:sRGB"
       id="filter4268"
       x="-0.0082478605"
       y="-0.046601978"
       width="1.0165184"
       height="1.0933758"><feGaussianBlur
         in="SourceGraphic"
         result="result6"
         stdDeviation="1.07656"
         id="feGaussianBlur4270" /><feComposite
         in2="SourceGraphic"
         in="result6"
         operator="clear"
         id="feComposite4272" /><feGaussianBlur
         result="result2"
         stdDeviation="2.073358984375"
         id="feGaussianBlur4274" /><feComposite
         in2="SourceGraphic"
         operator="atop"
         result="result91"
         id="feComposite4276"
         stdDeviation="6" /><feComposite
         result="result4"
         in="result2"
         operator="xor"
         in2="result91"
         id="feComposite4278"
         stdDeviation="3.7000000000000002" /><feGaussianBlur
         in="result4"
         result="result3"
         stdDeviation="2.4161573242187497"
         id="feGaussianBlur4280" /><feSpecularLighting
         lighting-color="#7fadda"
         in="result3"
         result="result5"
         specularExponent="35"
         specularConstant="1.9236244370806594"
         surfaceScale="12"
         id="feSpecularLighting4282"
         stdDeviation="3.0299999999999998"><feDistantLight
           elevation="61"
           azimuth="104"
           id="feDistantLight880" /></feSpecularLighting><feComposite
         k4="0"
         k1="0"
         in2="result5"
         in="SourceGraphic"
         k3="0.7"
         k2="0.8"
         operator="arithmetic"
         result="result7"
         id="feComposite4286" /><feComposite
         in="result7"
         operator="in"
         in2="SourceGraphic"
         id="feComposite4288" /></filter><linearGradient
       inkscape:collect="always"
       xlink:href="#linearGradient1984"
       id="linearGradient1986"
       x1="1147.5084"
       y1="-78.475121"
       x2="1146.819"
       y2="61.353275"
       gradientUnits="userSpaceOnUse"
       gradientTransform="translate(20.193691,361.81984)" /></defs><sodipodi:namedview
     pagecolor="#ffffff"
     bordercolor="#666666"
     borderopacity="1"
     objecttolerance="10"
     gridtolerance="10"
     guidetolerance="10"
     inkscape:pageopacity="0"
     inkscape:pageshadow="2"
     inkscape:window-width="1920"
     inkscape:window-height="1017"
     id="namedview4"
     showgrid="false"
     inkscape:zoom="0.70085904"
     inkscape:cx="1232.7729"
     inkscape:cy="459.43618"
     inkscape:window-x="-8"
     inkscape:window-y="-8"
     inkscape:window-maximized="1"
     inkscape:current-layer="layer1"
     inkscape:document-rotation="0"
     inkscape:showpageshadow="2"
     inkscape:pagecheckerboard="0"
     inkscape:deskcolor="#d1d1d1" /><g
     inkscape:groupmode="layer"
     id="layer2"
     inkscape:label="artwork"
     sodipodi:insensitive="true"><image
       xlink:href="../gfx_Pepper-and-Carrot_by-David-Revoy_E33P00.png"
       y="0"
       x="0"
       id="image10"
       height="663"
       width="2481" /></g><g
     inkscape:groupmode="layer"
     id="layer1"
     inkscape:label="txt"
     style="display:inline"><path
       style="display:inline;fill:url(#linearGradient1986);fill-opacity:1;stroke:#131110;stroke-width:3.7;stroke-dasharray:none;stroke-opacity:1;filter:url(#filter4268)"
       d="m 575.75877,528.80693 c -6.16703,-2.79898 -7.18661,-5.88415 -6.16813,-18.66422 0.44507,-5.58477 0.917,-21.33477 1.04874,-35 l 0.23953,-24.84586 -6.91625,-0.55141 c -11.28976,-0.90009 -24.41625,-9.1578 -24.41625,-15.35994 0,-2.1879 0.24029,-2.24412 7.75,-1.8132 10.20819,0.58575 14.94956,-0.80986 20.476,-6.02708 l 4.50016,-4.24837 0.64845,-46.50001 c 0.35665,-25.575 0.9347,-53.28254 1.28455,-61.57232 l 0.63609,-15.07232 -9.39762,-2.42768 c -9.13036,-2.35864 -9.40612,-2.51452 -9.69631,-5.48093 -0.19243,-1.967 0.4686,-4.0287 1.85803,-5.79507 1.94294,-2.47004 2.58327,-2.67786 6.45995,-2.09651 3.86426,0.57948 4.4741,0.38454 5.97816,-1.91096 0.92121,-1.40594 1.37876,-3.03548 1.01677,-3.62119 -0.83956,-1.35844 4.19249,-3.47094 12.21495,-5.12796 5.47599,-1.13104 6.64677,-1.08621 9.70388,0.37163 3.91231,1.86565 6.19815,5.57482 7.16614,11.62834 0.7178,4.48885 1.48245,4.80446 6.5302,2.69537 9.41116,-3.93224 28.32833,-2.55329 39.34697,2.86815 11.98496,5.8969 22.29744,18.78293 27.52955,34.39973 5.49908,16.41366 5.27299,43.15103 -0.50864,60.14971 -4.68703,13.78046 -14.99401,30.99202 -18.55926,30.99202 -2.22636,0 -4.93802,3.64901 -4.93802,6.64496 0,2.77064 -8.31267,10.1859 -15.93826,14.21761 -3.05896,1.6173 -11.18674,4.59964 -18.06174,6.62743 -18.96059,5.59245 -17,1.60979 -17,34.53305 v 27.97695 h 7.96505 c 5.08199,0 13.13153,-1.1016 22.23852,-3.04341 15.05437,-3.20991 19.11576,-3.40877 19.537,-0.95659 0.30095,1.75194 -12.49589,10.67107 -20.74057,14.45576 -5.1578,2.36766 -5.57565,2.41647 -6.71589,0.78449 -2.40595,-3.44351 -3.39281,-4.24025 -5.25211,-4.24025 -2.6621,0 -5.032,2.68608 -5.032,5.70335 0,3.64936 -5.9772,8.91543 -12.22547,10.77097 -7.22786,2.14644 -17.26507,1.93991 -22.56217,-0.46424 z m 35.20952,-116.02572 c 4.90703,-1.0848 10.85435,-2.90785 13.21626,-4.05123 9.02366,-4.36828 19.00919,-18.46008 24.68589,-34.83725 6.33464,-18.27531 2.93165,-41.82278 -7.48474,-51.79175 -7.06094,-6.75765 -21.4124,-10.92025 -29.00766,-8.41359 -1.90091,0.62736 -5.06556,2.82113 -7.03255,4.87505 l -3.57636,3.7344 -1.12451,33.5 c -1.49888,44.65269 -1.46194,59.00631 0.15179,58.97837 0.6875,-0.0119 5.26484,-0.9092 10.17188,-1.994 z m 523.82811,90.40121 c -2.8875,-2.5111 -5.25,-5.04425 -5.25,-5.62921 0,-0.58497 1.8472,-2.76888 4.1048,-4.85313 l 4.1048,-3.78955 0.4144,-10.30684 c 0.2278,-5.66876 0.8423,-22.73457 1.3654,-37.92401 0.7998,-23.22258 1.2278,-28.09916 2.6895,-30.64612 2.4409,-4.25297 0.6592,-6.23671 -5.6013,-6.23671 -2.5727,0 -5.2176,-0.54 -5.8776,-1.2 -2.0988,-2.09882 -1.3158,-5.52479 1.8767,-8.21111 2.4723,-2.08027 4.1294,-2.58889 8.4349,-2.58889 6.7395,0 9.2369,0.95402 13.8251,5.28125 2.9282,2.7616 3.6633,4.19337 3.6633,7.13487 v 3.67996 l 4.5342,-3.11962 c 3.1435,-2.16275 6.5551,-3.43424 11.1227,-4.14535 6.0285,-0.93855 6.8297,-0.84747 9.4253,1.07157 1.5603,1.15353 4.2037,2.09732 5.8744,2.09732 3.8608,0 10.014,5.39074 12.5354,10.98217 1.6028,3.55436 1.657,4.37091 0.4412,6.64259 -1.2631,2.3602 -1.1885,2.75007 0.8403,4.39294 5.2448,4.24692 0.623,14.57172 -8.8863,19.85161 l -4.6128,2.5612 -2.3872,-2.76357 c -2.4877,-2.87988 -4.8607,-3.51137 -8.5901,-2.28591 -1.8646,0.61267 -2.5174,0.1075 -4.25,-3.28875 -5.0686,-9.93514 0.096,-17.43218 6.9529,-10.09228 2.3093,2.47215 3.5928,3 7.2942,3 2.6731,0 4.6844,-0.50611 4.9674,-1.25 1.488,-3.91098 -5.8753,-10.97806 -13.2921,-12.75732 -6.5305,-1.56663 -11.6611,-0.0144 -17.4356,5.2751 l -4.6204,4.23222 -0.2067,30.68885 c -0.1435,21.29901 0.1309,31.02995 0.8968,31.80365 0.6071,0.61314 6.2321,2.02679 12.5,3.14146 6.268,1.11466 11.691,2.32802 12.051,2.69635 0.36,0.36833 -1.5453,2.61271 -4.2341,4.98752 -4.6607,4.11645 -4.9931,4.24471 -7.1271,2.75 -2.9941,-2.09715 -3.8833,-1.99605 -8.1983,0.93217 -3.3421,2.26805 -4.6308,2.49774 -13.8895,2.47561 l -10.2056,-0.0244 -5.25,-4.56565 z m -36.8915,0.18119 c -5.1825,-2.27486 -5.7614,-5.80776 -4.9946,-30.48129 0.6104,-19.63771 0.8362,-21.62324 2.6517,-23.31459 2.5184,-2.3463 2.4919,-3.22015 -0.173,-5.70291 -2.1069,-1.96288 -2.1431,-2.44956 -1.5472,-20.78895 0.3357,-10.32846 1.1303,-20.25519 1.7659,-22.0594 2.2362,-6.34824 11.9889,-8.12499 15.4664,-2.81768 2.2869,3.4902 2.6787,14.78613 1.7462,50.33398 -0.6023,22.95704 -1.1952,32.58538 -2.0598,33.45 -1.5206,1.52057 -1.583,5.46805 -0.101,6.384 1.8202,1.12492 0.5363,11.23698 -1.7003,13.39179 -2.6603,2.56302 -7.3279,3.24073 -11.0543,1.60505 z m 768.1415,-42.44594 c -7.6368,-3.50387 -16.7716,-15.25052 -32.7293,-42.08754 -4.2503,-7.14779 -6.5708,-12.04422 -6.161,-13 1.6501,-3.84889 -1.06,-9.03328 -4.7221,-9.03328 -2.0087,0 -4.3423,-2.78714 -12.0996,-14.45125 -2.9084,-4.37318 -5.7681,-8.09573 -6.355,-8.27233 -0.5868,-0.1766 -4.2993,3.67763 -8.25,8.56496 -6.7088,8.2994 -7.1837,9.20867 -7.194,13.77234 -0.02,8.98366 -1.0425,12.51129 -4.1353,14.27037 -3.5868,2.04004 -3.7007,5.22412 -0.3798,10.61591 4.6575,7.56184 2.9294,18.48391 -3.9769,25.13592 -6.1693,5.94215 -12.3809,7.80163 -26.1768,7.83613 -11.0217,0.0275 -11.2232,-0.0136 -14.25,-2.90914 -1.6886,-1.6154 -3.0702,-3.66463 -3.0702,-4.55383 0,-1.89277 4.2395,-6.04793 12.1613,-11.91939 7.9165,-5.86756 8.8368,-8.32576 9.89,-26.41793 0.4857,-8.34447 0.8979,-17.02146 0.9159,-19.28222 0.022,-2.69395 0.8943,-5.37999 2.5328,-7.79441 3.1103,-4.58329 3.1059,-5.12914 -0.065,-8.0683 l -2.5656,-2.37766 1.5662,-61.82459 c 0.8614,-34.00352 1.5659,-62.79306 1.5655,-63.97675 -4e-4,-1.477 0.911,-2.46995 2.9051,-3.1651 5.2628,-1.83463 4.886,-8.44396 -0.5593,-9.81065 -4.7256,-1.18603 -18.9543,0.44683 -26.7771,3.07287 -4.1863,1.40528 -7.9496,2.55505 -8.3629,2.55505 -0.4134,0 -1.6145,-1.60235 -2.6692,-3.56078 l -1.9176,-3.56077 2.9402,-2.36009 c 6.2409,-5.00952 27.6537,-17.82663 34.6254,-20.72575 13.5795,-5.64693 24.1515,-3.90343 26.0656,4.29864 0.4375,1.87481 0.5042,33.22125 0.1483,69.65874 -0.356,36.4375 -0.3897,66.25 -0.075,66.25 1.0751,0 38.4684,-53.69374 45.0043,-64.6226 4.185,-6.99789 22.3465,-25.00672 26.192,-25.97189 4.2251,-1.06045 5.4802,0.99559 5.4736,8.96693 0,4.71299 -0.975,10.6846 -2.8667,17.62756 -3.3612,12.3368 -5.1348,16.77808 -9.2799,23.23772 -2.7723,4.32015 -3.411,4.76228 -6.8803,4.76228 -3.8909,0 -6.9672,1.99771 -6.9672,4.52438 0,0.75983 0.533,2.55138 1.1845,3.98122 1.3887,3.04795 0.8831,4.06878 -8.8693,17.90446 l -6.2805,8.91006 1.8689,3.08994 c 6.7565,11.17133 27.377,47.17814 29.9981,52.38171 2.5935,5.1487 3.02,6.87461 2.3477,9.5 -0.4518,1.76453 -0.6635,4.20538 -0.4704,5.42411 0.4579,2.8893 5.7248,7.28413 8.7296,7.28413 1.8009,0 3.7599,1.9416 8.3242,8.25 7.2406,10.00753 9.4713,12.14992 17.4613,16.76975 5.6967,3.29383 6.2059,3.86857 6.2059,7.00472 0,5.07013 -2.5852,5.94744 -17.5,5.93883 -9.9953,-0.006 -13.3015,-0.37497 -16.5,-1.84248 z m -540.7973,-3.56314 c -15.0423,-5.36573 -31.7027,-27.52297 -31.7027,-42.16258 0,-4.22351 0.1522,-4.48593 2.25,-3.88008 3.8061,1.0992 7.1228,3.99497 9.8378,8.5892 l 2.5978,4.39578 6.588,-0.26651 c 3.6868,-0.14914 6.8646,0.18113 7.2162,0.75 0.879,1.42224 3.4881,1.26964 3.9922,-0.23349 0.2306,-0.6875 0.9038,-3.14385 1.496,-5.45856 0.7716,-3.01596 1.8483,-4.57649 3.7994,-5.50695 3.4227,-1.63226 4.2842,-6.954 1.6049,-9.91451 -1.6829,-1.85963 -1.6239,-2.59529 1.3762,-17.15647 7.1625,-34.76337 21.2303,-102.3755 21.7354,-104.46352 0.3176,-1.31314 1.3045,-2.25 2.3702,-2.25 1.0042,0 2.681,-0.94482 3.726,-2.0996 1.9998,-2.20969 2.1206,-4.67625 0.877,-17.90039 -0.4413,-4.69213 -0.028,-9.35887 1.4856,-16.77876 4.4872,-21.99578 10.992,-32.20125 17.0373,-26.73029 4.3808,3.96461 7.3306,14.58053 24.0379,86.50904 5.0462,21.725 9.3247,39.65792 9.5078,39.85094 0.511,0.53877 1.5955,-3.92463 12.9633,-53.35094 12.0464,-52.37713 15.5649,-65.41704 19.1062,-70.80936 2.1511,-3.27542 2.9498,-3.76601 5.6983,-3.5 2.8588,0.27669 3.5662,1.04745 6.6965,7.2962 3.1031,6.19452 3.5,7.87076 3.5,14.78172 0,5.30837 0.414,8.05231 1.2979,8.60183 2.2199,1.38007 2.3068,1.78781 25.0838,117.70258 0.7462,3.79756 0.6082,4.18322 -2.0407,5.70349 -2.1235,1.21873 -2.841,2.38501 -2.841,4.61801 0,3.29127 0.8799,4.12905 5.2826,5.0295 l 2.9572,0.60481 4.2099,20.98562 c 2.3155,11.54209 4.7524,21.99811 5.4153,23.23561 1.1242,2.09851 1.8659,2.25 11.0152,2.25 8.6011,0 10.0371,0.25113 11.6544,2.03822 1.7991,1.98798 1.7809,2.16791 -0.7363,7.30043 -3.5489,7.23606 -11.8225,15.99621 -18.0288,19.08892 -4.0926,2.03944 -6.6237,2.56938 -12.2158,2.55769 -8.1175,-0.017 -11.1298,-1.23248 -14.1459,-5.70812 -2.8167,-4.17962 -4.862,-17.1862 -3.2567,-20.70953 0.9214,-2.02222 0.7489,-3.37291 -0.9293,-7.27542 -2.3655,-5.50048 -5.2981,-22.73034 -15.1981,-89.2922 -3.8857,-26.125 -7.2172,-47.95 -7.4033,-48.5 -0.5975,-1.76526 -2.4349,6.15263 -11.2543,48.5 -8.7555,42.04042 -8.9288,42.60929 -13.8725,45.53014 -2.2158,1.3091 -2.2914,6.41333 -0.1186,8.00212 0.8938,0.65352 1.625,2.18365 1.625,3.40029 0,3.72332 -6.1168,30.3887 -7.6527,33.36081 -1.8831,3.64406 -5.3944,5.28699 -8.1489,3.81284 -2.7857,-1.49087 -4.3636,-7.10044 -24.2094,-86.06773 -6.6628,-26.51142 -12.4909,-49.17815 -12.9514,-50.37052 -1.2218,-3.1636 -1.4844,-2.04291 -5.5835,23.83205 -2.0041,12.65 -4.5293,27.05 -5.6116,32 -1.0823,4.95 -2.5874,14.4 -3.3446,21 -1.7255,15.03934 -7.9728,56.56775 -10.6056,70.50001 -2.8382,15.01885 -3.4545,16.56436 -7.3408,18.40854 -4.0867,1.93924 -13.619,2.01467 -18.8488,0.14914 z m 731.2973,0.0905 c -6.1673,-1.66764 -12.9062,-5.58499 -15.3945,-8.94895 -1.5427,-2.08548 -2.1678,-4.70315 -2.4479,-10.25 -0.2069,-4.0971 -0.6142,-7.44927 -0.9051,-7.44927 -0.2908,0 -2.5251,1.8401 -4.965,4.08911 -7.1193,6.56233 -12.1367,8.33564 -23.2875,8.23058 -12.829,-0.12087 -19.1012,-2.51153 -27.0847,-10.32344 -6.3887,-6.25135 -10.6616,-14.04777 -13.4252,-24.49625 -3.0414,-11.49847 -4.341,-54.82721 -2.6397,-88.00869 0.5974,-11.65195 0.9007,-13.24245 2.9083,-15.25 2.6933,-2.69332 2.8028,-4.48227 0.5115,-8.361 -2.0467,-3.46487 -1.2913,-5.21667 3.7215,-8.63032 5.0817,-3.46057 12.9527,-3.165 17.2186,0.6466 l 3.2419,2.89659 0.6822,13.35341 c 0.3752,7.34437 0.7523,26.6284 0.8379,42.8534 0.2116,40.06757 1.0195,51.16441 4.1884,57.52813 4.8228,9.68479 12.8902,12.0048 22.5265,6.47815 11.3194,-6.49196 15.8975,-17.18558 16.9794,-39.66127 l 0.6333,-13.15498 2.7956,-0.55914 c 5.7268,-1.14534 6.1791,-7.942 0.6567,-9.86711 l -3.0591,-1.0664 0.6251,-24.59869 c 0.3438,-13.52928 1.101,-26.25727 1.6827,-28.28441 2.8883,-10.06552 18.201,-12.87484 24.4036,-4.47717 2.0295,2.74777 2.0874,3.75556 1.8397,32 -0.414,47.19317 -1.9327,81.53861 -3.7267,84.27647 -1.9117,2.91768 -1.9275,5.46211 -0.049,7.9453 0.9343,1.23532 1.4798,4.3243 1.5,8.49535 0.034,6.99667 1.8885,10.97337 9.5314,20.4383 6.6089,8.18445 7.0095,12.43714 1.3572,14.40755 -4.0987,1.42882 -15.1341,1.29557 -20.8568,-0.25185 z M 771.85408,449.04685 c -9.71152,-10.34883 -10.12198,-13.30156 -2.62607,-18.89125 4.99445,-3.72435 5.14528,-3.98243 5.75677,-9.85014 0.41878,-4.01855 3.62724,-106.38299 3.57553,-114.07578 -0.0117,-1.74303 -1.17263,-2.34032 -7.40396,-3.80936 -4.06453,-0.95822 -8.22703,-2.3908 -9.25,-3.18351 -1.78976,-1.38692 -1.76561,-1.52247 0.64006,-3.59252 3.83908,-3.30347 16.36619,-8.79783 22.76324,-9.98389 7.20189,-1.33528 15.85286,-0.67604 17.89239,1.36349 0.91732,0.91732 2.02329,5.04428 2.69923,10.0722 l 1.14514,8.51811 3,-2.50072 c 1.65,-1.37539 5.475,-3.68183 8.5,-5.1254 4.6758,-2.23137 6.87687,-2.62968 14.68807,-2.65797 8.26256,-0.0299 9.39969,0.19337 11.28896,2.21673 1.15548,1.2375 3.2228,2.25 4.59404,2.25 6.00263,0 13.86542,5.46514 18.59703,12.92612 3.57286,5.63382 3.94209,13.87765 0.8319,18.57388 -1.09275,1.65 -1.98979,4.03485 -1.99341,5.29966 -0.0155,5.4014 -6.67388,14.6912 -12.3905,17.28722 -6.18465,2.80857 -15.18692,2.56879 -19.74104,-0.52582 -3.97823,-2.70327 -7.2326,-8.46572 -6.24077,-11.0504 0.71367,-1.85979 1.51613,-1.72233 8.98199,1.5386 7.17465,3.13374 9.57505,2.30297 12.8833,-4.45885 2.51624,-5.14302 2.5686,-5.55791 1.06765,-8.46043 -2.47522,-4.78654 -9.47666,-8.31899 -17.64721,-8.90359 -6.29509,-0.45041 -7.52083,-0.20516 -13.37253,2.67562 -3.82116,1.88115 -8.02668,4.97155 -10.33668,7.59584 l -3.89447,4.42436 -0.65483,15.7889 c -0.36016,8.68389 -0.65634,29.14425 -0.65817,45.46747 -0.004,32.26925 0.0906,32.82143 5.60022,32.82143 1.35338,0 4.0911,0.68123 6.08383,1.51385 2.47332,1.03341 5.13358,1.31348 8.38256,0.88248 4.55982,-0.60488 14.07393,0.55839 22.30569,2.72727 l 3.87563,1.02114 -3.66883,2.49304 c -3.95453,2.68717 -5.42619,2.96212 -10.1198,1.89065 -3.932,-0.89761 -7.36492,1.75876 -8.32228,6.43972 -0.55379,2.70772 -1.31815,3.57454 -3.66991,4.16187 -3.92547,0.98034 -30.29897,2.86998 -40.05605,2.86998 h -7.71082 z m 862.32262,-0.5 c -8.2079,-12.88309 -8.2799,-14.99003 -0.6544,-19.14035 l 5.0241,-2.73447 v -6.48725 c 0,-3.86777 0.6179,-7.68221 1.5304,-9.44662 1.2224,-2.36398 1.2924,-3.40389 0.3478,-5.16881 -1.2821,-2.39578 -1.2923,-17.28472 -0.047,-68.27251 0.3896,-15.95 0.5481,-31.53891 0.3521,-34.64203 l -0.3563,-5.64203 -6.8953,-0.38962 c -8.8484,-0.49998 -9.7565,-1.37903 -7.5078,-7.26727 2.9009,-7.59582 9.0964,-10.55905 22.077,-10.55905 6.8545,0 8.7526,0.37043 11.5468,2.2534 5.2556,3.54177 7.6977,8.94568 9.4838,20.98566 l 0.5546,3.73906 5.0034,-3.95493 c 6.3554,-5.02364 10.0359,-6.01072 22.4383,-6.01761 9.3807,-0.005 10.493,0.21715 17.2256,3.44365 13.663,6.54784 20.2994,15.73334 21.0345,29.11401 0.5411,9.85143 -0.9733,13.38993 -9.7051,22.67585 l -5.8873,6.26091 h -7.348 c -6.0397,0 -8.3726,-0.50319 -13.1036,-2.82632 -6.4103,-3.1478 -8.378,-5.62102 -6.8073,-8.55603 1.291,-2.41227 2.3142,-2.77118 10.3541,-3.63219 6.624,-0.70936 6.6447,-0.72135 8.7503,-5.07103 2.2771,-4.70386 2.0781,-6.68804 -1.2167,-12.13167 -1.5845,-2.61787 -2.5478,-3.19467 -5.1704,-3.09608 -1.7728,0.0666 -5.0491,-0.92968 -7.2807,-2.21406 l -4.0576,-2.33524 -4.6803,2.93131 c -10.1954,6.38548 -15.0809,10.08748 -17.8362,13.51553 l -2.8809,3.58421 -0.961,45.25856 c -0.5285,24.89222 -0.7452,45.60771 -0.4814,46.03444 0.2637,0.42673 2.1788,1.04762 4.2559,1.37974 2.077,0.33213 4.5931,1.55778 5.5914,2.72367 1.6702,1.95071 1.9554,1.99278 3.5745,0.52748 3.4566,-3.12822 17.8866,-1.39958 24.0664,2.88305 5.0747,3.51674 4.8488,3.82838 -8.4159,11.61 l -10.0485,5.89489 -24.2624,0.01 -24.2624,0.01 -3.3449,-5.25 z m 489.3697,0.56341 c -5.232,-0.86688 -15.7307,-4.60601 -21.4222,-7.62954 -4.3198,-2.29483 -7.1312,-4.77465 -10.3904,-9.16498 -7.5362,-10.15153 -9.1864,-14.8149 -10.352,-29.25548 -1.2292,-15.2278 -0.1549,-20.55192 4.2502,-21.06398 3.2915,-0.38262 4.4217,1.07015 5.754,7.39656 1.4886,7.06809 4.7852,15.57207 7.7042,19.87337 1.3509,1.9907 2.4562,4.69233 2.4562,6.00362 0,3.69117 2.7421,5.83649 6.4113,5.01593 3.3195,-0.74236 4.5535,-0.75772 23.5887,-0.29365 13.8942,0.33873 16.4832,-0.41545 21.3723,-6.22585 3.7651,-4.47456 6.084,-13.05669 4.6786,-17.31509 -2.2844,-6.92192 -8.7466,-10.79773 -26.0509,-15.62447 -10.0746,-2.81013 -11.8795,-3.6487 -14.5617,-6.76542 -2.7608,-3.20815 -3.4108,-3.49219 -6.6155,-2.89098 -3.2549,0.61063 -3.8676,0.3193 -7.2855,-3.46382 -5.5526,-6.14605 -6.7471,-9.90134 -7.3034,-22.95985 -0.3862,-9.06715 -0.1227,-12.82928 1.2258,-17.5 2.7323,-9.46392 7.4994,-17.39817 15.126,-25.17545 9.603,-9.79266 17.4058,-13.51455 29.5501,-14.09517 7.6594,-0.36621 9.3117,-0.12092 14.171,2.10374 3.0253,1.38506 6.6959,3.85982 8.1569,5.49947 1.7508,1.96499 4.0043,3.19675 6.6112,3.6136 2.7799,0.44453 5.0645,1.77703 7.69,4.48516 6.5515,6.75781 17.1913,27.18463 15.9054,30.53578 -0.5745,1.49702 -0.9676,1.4694 -4.4006,-0.30923 -2.0733,-1.0742 -6.4697,-4.27429 -9.7697,-7.11131 -6.8076,-5.85257 -16.9734,-11.35928 -24.1429,-13.07805 -2.6714,-0.64043 -6.3453,-2.00905 -8.1643,-3.04137 -4.1321,-2.34519 -4.3587,-2.33829 -7.2898,0.22214 -1.3216,1.1545 -4.5447,3.18922 -7.1624,4.52159 -5.6184,2.85975 -10.162,8.6918 -12.2505,15.72446 -2.502,8.42519 -2.0772,10.45724 3.2599,15.59579 4.1289,3.97529 6.1472,4.99863 15.4359,7.82646 8.1057,2.46769 10.8383,3.73363 11.3174,5.2429 0.3864,1.21743 1.5137,1.9897 2.9044,1.9897 4.1923,0 14.8026,6.23372 21.7245,12.76354 8.2604,7.79245 9.8678,11.98468 9.8678,25.73647 0,15.60924 -4.0448,24.84798 -15.3627,35.09009 -12.5977,11.4003 -29.9107,16.49474 -46.6373,13.72332 z M 512.73623,446.77122 c -4.38628,-2.67425 -6.28393,-7.58915 -6.50659,-16.85206 -0.29292,-12.18543 1.43862,-98.3458 2.26536,-112.72329 0.6609,-11.49321 1.01708,-13.3647 2.90238,-15.25 2.43588,-2.43588 2.53585,-3.00142 1.16696,-6.60186 -0.78974,-2.07719 -0.60424,-2.96086 0.94726,-4.51236 2.65891,-2.65891 8.94027,-4.21805 12.58996,-3.12504 9.63013,2.88405 9.6586,2.98183 10.21789,35.09023 l 0.46159,26.5 -2.61732,2.42431 c -3.13238,2.90141 -3.32122,5.37178 -0.61731,8.07569 1.89358,1.89358 1.99682,3.29035 1.94029,26.25 -0.0884,35.91018 -1.20335,53.2738 -3.63371,56.59054 -4.3324,5.91246 -13.09245,7.80675 -19.11676,4.13384 z m 202.65161,0.50156 c -4.42674,-2.40437 -7.15223,-7.82327 -6.41718,-12.75884 0.34543,-2.3194 0.54362,-5.34209 0.44043,-6.71709 -0.10319,-1.375 -0.0995,-21.625 0.008,-45.00001 0.23434,-50.84746 1.42527,-83.78679 3.15004,-87.12517 3.78417,-7.32445 10.45769,-10.10869 17.64777,-7.36277 7.23913,2.76465 7.77469,4.63371 8.16279,28.48794 0.32087,19.7222 0.24775,20.65765 -1.92724,24.65503 -2.15202,3.95518 -2.18009,4.27816 -0.58353,6.71482 1.47115,2.24525 1.67136,5.97389 1.62939,30.34497 -0.0697,40.4721 -1.2349,60.83437 -3.67149,64.16044 -4.03086,5.50232 -12.76637,7.68188 -18.43923,4.60068 z m 840.44456,0.1272 c -12.6,-4.09894 -26.681,-18.163 -34.2734,-34.23221 -5.8587,-12.40012 -7.4395,-20.98314 -7.4353,-40.37093 0,-20.56635 1.3608,-26.91323 9.3049,-43.54339 6.3547,-13.30302 11.4125,-20.63205 19.3847,-28.08965 8.6106,-8.05484 14.0376,-10.59955 23.8116,-11.16536 26.2105,-1.5173 45.6803,13.98552 52.8702,42.09791 4.6376,18.13257 5.1164,45.48064 1.1298,64.52153 -2.0557,9.81847 -3.2275,12.17897 -6.046,12.17897 -2.1322,0 -5.0325,3.07887 -5.0325,5.34231 0,0.92666 0.5359,2.54301 1.191,3.59191 0.9993,1.60017 0.7177,2.59637 -1.75,6.19032 -7.8886,11.48896 -19.2923,19.97717 -30.441,22.6585 -8.0275,1.93066 -18.174,2.297 -22.714,0.82009 z m 22.3422,-29.41149 c 9.3435,-4.77115 17.2027,-18.42577 19.2898,-33.51401 0.5951,-4.3023 1.0663,-13.3023 1.0471,-20 -0.085,-29.80263 -7.8575,-45.78609 -23.0196,-47.33982 -11.7451,-1.20358 -19.8934,4.00667 -25.6355,16.39202 -1.8436,3.97642 -3.633,8.63516 -3.9765,10.35276 -0.4559,2.27957 -1.4147,3.39836 -3.5505,4.14288 -4.1447,1.44487 -5.3284,5.12855 -2.9339,9.13102 1.5308,2.55872 2.0737,6.585 2.9185,21.6435 1.1762,20.96739 2.6692,26.64555 8.9292,33.95885 5.899,6.89166 8.7265,8.23654 16.3032,7.75443 3.916,-0.24918 8.1411,-1.25161 10.6282,-2.52163 z m 323.7368,28.88928 c -2.0314,-1.23869 -3.7571,-3.54079 -4.9024,-6.53973 -1.6125,-4.2222 -1.7184,-7.79326 -1.2069,-40.71477 0.5372,-34.58353 0.6477,-36.2045 2.6524,-38.91605 2.6415,-3.57277 2.6462,-6.24168 0.017,-9.7976 -2.0355,-2.75307 -2.0555,-3.27002 -1.0588,-27.2925 1.142,-27.52234 2.0474,-31.68525 7.5075,-34.5202 4.0667,-2.11152 10.2717,-2.06652 14.4548,0.10483 6.4086,3.32663 6.4879,4.02324 5.9298,52.09509 -0.455,39.20059 -0.6629,43.33833 -2.3518,46.82905 -1.7631,3.644 -1.7693,3.97414 -0.1297,6.83105 1.3426,2.33944 1.7155,5.35667 1.6892,13.67095 -0.051,16.09719 -1.6053,30.74924 -3.6251,34.16846 -3.2627,5.5234 -13.1307,7.64581 -18.9762,4.08142 z m -959.96,-1.21894 c -2.49128,-2.79602 -7.81767,-5.01118 -10.09909,-4.20005 -0.99325,0.35314 -2.59237,1.31748 -3.5536,2.14298 -1.55899,1.33884 -2.16195,1.31411 -5.58389,-0.22897 -5.02023,-2.26381 -17.63286,-13.26393 -25.31204,-22.07594 -3.70258,-4.24879 -7.85026,-10.58586 -10.55309,-16.12362 l -4.45298,-9.12363 0.0357,-19.87638 c 0.0334,-18.58583 0.22475,-20.62306 2.94702,-31.37638 4.99998,-19.75059 11.01654,-30.63817 24.94713,-45.14439 10.35409,-10.78194 15.32903,-13.30559 26.22978,-13.30564 6.54806,-3e-5 8.47806,0.45973 15.06866,3.58959 10.0531,4.77422 19.8202,13.8781 24.0018,22.37214 4.5907,9.32507 6.2693,22.00916 5.5427,41.88394 -0.3196,8.74261 -0.7961,16.11066 -1.0589,16.37346 -0.4525,0.45256 -13.2616,3.59494 -53.8142,13.20195 l -17.75,4.20502 v 3.73384 c 0,10.35634 9.27006,22.95978 19.42814,26.4142 5.75239,1.9562 17.70676,2.17542 28.07186,0.51479 3.85,-0.61682 9.3111,-1.06571 12.1359,-0.99754 4.9213,0.11878 5.1851,-0.011 6.3148,-3.10869 0.6484,-1.77796 1.7283,-4.35766 2.3998,-5.73266 1.5103,-3.09255 16.4111,-15.2654 17.7064,-14.46484 0.5187,0.32058 0.9431,3.85944 0.9431,7.86413 0,10.33644 -3.6776,17.38198 -14.9498,28.64061 -9.7722,9.76044 -16.0851,13.29782 -27.6964,15.51942 -9.39191,1.79697 -8.6863,1.84191 -10.94881,-0.69734 z m -3.40499,-90.4544 c 11.275,-1.42939 20.9352,-3.01357 21.4672,-3.52041 1.1644,-1.10947 -1.9406,-20.66135 -4.1111,-25.88718 -1.9341,-4.65658 -7.6198,-10.36421 -12.52996,-12.5784 -3.52433,-1.58925 -4.45513,-1.64106 -8.15236,-0.45376 -2.29558,0.73718 -6.48109,1.28708 -9.30114,1.22199 -6.56726,-0.15157 -9.37858,2.30678 -7.70584,6.73837 0.89469,2.37031 0.60414,3.91405 -1.79526,9.53851 -3.66909,8.60075 -5.87154,17.13854 -5.87154,22.76097 0,5.36952 0.47896,5.94136 4.42849,5.28738 1.68933,-0.27973 12.29651,-1.67809 23.57151,-3.10747 z m -578.77128,83.84242 c -10.07478,-12.85339 -8.45631,-21.91577 4.40841,-24.68423 l 3.13713,-0.6751 0.72669,-17.91407 c 0.66223,-16.32501 0.8941,-17.96722 2.61393,-18.51307 4.22631,-1.34138 4.74732,-7.39655 0.8174,-9.49979 -1.77225,-0.94847 -1.93049,-2.21136 -1.91064,-15.24893 l 0.0216,-14.21482 3.16263,-1.5 c 5.379,-2.5512 5.53733,-3.90252 1.46261,-12.48273 l -3.66848,-7.72485 v -31.20004 -31.20004 l -3.33482,-3.23223 c -2.19885,-2.13121 -4.66847,-3.41233 -7.25,-3.76094 -2.15335,-0.2908 -4.92768,-0.73314 -6.16518,-0.98299 -3.71311,-0.74967 -2.7561,-4.29603 2.53577,-9.39671 8.42948,-8.12495 28.0461,-13.02483 52.09522,-13.01245 33.27931,0.0171 57.58844,12.30236 67.59577,34.16127 5.42944,11.85944 6.85981,19.88069 6.92459,38.83171 0.0509,14.90002 -0.26965,18.8036 -2.15779,26.27432 -5.51181,21.80836 -16.95328,40.23772 -30.96621,49.87887 -9.86078,6.78439 -28.6183,12.92424 -44.27735,14.49318 -3.575,0.35819 -6.83061,1.14679 -7.23469,1.75245 -1.18185,1.77143 -0.87395,18.52628 0.38439,20.91693 1.55156,2.94772 2.79067,3.65088 6.46544,3.66895 1.71333,0.008 4.32108,0.9639 5.795,2.12329 2.03457,1.60039 3.3312,1.92 5.38486,1.32732 3.34559,-0.96552 17.64524,-0.70798 21.69196,0.39068 2.9303,0.79556 2.82578,0.8988 -5.5091,5.44215 -12.46377,6.79401 -17.83919,8.96955 -22.01976,8.91186 -2.71051,-0.0374 -4.36035,0.61929 -6.03543,2.40233 -3.02036,3.21502 -9.71175,5.1182 -24.37968,6.93412 -16.92795,2.09572 -16.89196,2.09974 -20.31427,-2.26644 z m 67.54877,-79.80671 c 1.22238,-0.85619 2.22251,-2.15634 2.22251,-2.88922 0,-2.84672 3.60788,-5.80153 7.45666,-6.10692 4.7101,-0.37372 5.76387,-1.79128 5.1488,-6.92632 -0.35251,-2.94301 0.26608,-5.67715 2.37558,-10.5 5.29613,-12.10827 6.43877,-18.19491 6.48056,-34.52084 0.0436,-17.02662 -1.87343,-25.62705 -7.41839,-33.28166 -3.35545,-4.63205 -11.68456,-9.89704 -17.04321,-10.77332 -5.32185,-0.87026 -7.76184,-2.11928 -8.46442,-4.3329 -1.35368,-4.26508 -8.75813,-3.28715 -10.53701,1.39166 -0.62273,1.63789 -1.9832,2.74316 -3.83159,3.11283 l -2.86602,0.57321 -0.65048,13.5632 c -0.35776,7.45976 -0.65048,30.7775 -0.65048,51.81719 v 38.25399 l 4.09298,0.69151 c 2.25114,0.38033 6.4314,0.39934 9.28948,0.0422 2.85807,-0.35709 6.30373,-0.20724 7.65702,0.33301 3.43951,1.37309 4.21177,1.32178 6.73801,-0.44766 z m 671.2646,9.71154 c -4.4272,-4.21151 -5.0065,-6.91102 -2.6785,-12.48256 1.8151,-4.3442 5.6155,-6.67568 10.8512,-6.65697 5.6069,0.02 7.1597,1.12921 7.2285,5.16319 0.046,2.6621 0.5034,3.38494 2.3067,3.64105 1.8481,0.26248 2.25,0.95014 2.25,3.85 0,2.68169 -0.8174,4.34785 -3.4,6.93045 -2.8721,2.87206 -4.1077,3.4 -7.9579,3.4 -3.9195,0 -5.1241,-0.53859 -8.6,-3.84516 z M 930.00379,264.93392 c -10.36482,-6.32066 -12.33314,-19.77035 -4.12237,-28.16852 3.96189,-4.05232 6.43629,-4.96855 13.41821,-4.96855 7.05398,0 11.15438,2.58381 14.83988,9.35122 6.5239,11.97949 -2.0551,25.64961 -16.0931,25.64348 -3.10693,-10e-4 -6.15198,-0.70468 -8.04262,-1.85763 z m -411.3371,-10.84757 c -4.15112,-2.04497 -8.67282,-8.0908 -9.55061,-12.76983 -1.57039,-8.37089 5.29709,-19.04004 13.18033,-20.47663 7.9486,-1.4485 17.61291,1.99405 14.45714,5.14982 -1.54869,1.54869 -1.55249,5.06179 -0.007,6.60714 0.66,0.66 2.685,1.2 4.5,1.2 3.17423,0 3.3,0.14996 3.3,3.9349 0,5.07425 -1.46305,8.85473 -4.81362,12.43826 -5.22245,5.58556 -14.26522,7.26667 -21.0661,3.91634 z m 202.08825,0.0427 c -4.90549,-2.41765 -7.20853,-5.90266 -7.20853,-10.90804 0,-2.36837 -0.45,-4.58424 -1,-4.92416 -3.17117,-1.95989 1.59231,-12.22109 7.45724,-16.06394 3.19727,-2.09493 13.21165,-2.17576 17.1514,-0.13844 8.53972,4.41606 11.96555,16.34992 7.15211,24.91428 -4.38267,7.7979 -15.41198,11.1323 -23.55222,7.12034 z m 1185.71936,-1.12441 c -2.6446,-1.69948 -5.2794,-4.42875 -6.25,-6.47409 -3.4021,-7.16954 -1.3969,-16.94498 4.6296,-22.56866 4.865,-4.53977 14.9375,-4.85549 21.3276,-0.6685 2.1202,1.38916 2.5067,2.27646 2.1136,4.85175 -0.6361,4.16693 -0.026,5.59565 2.8562,6.69154 4.8986,1.86245 1.8545,13.36063 -4.7897,18.09173 -2.2911,1.63137 -4.9868,2.40386 -9.2727,2.65717 -5.3147,0.31413 -6.5932,0.003 -10.6146,-2.58094 z"
       id="path916" /><text
       xml:space="preserve"
       style="font-style:normal;font-variant:normal;font-weight:normal;font-stretch:normal;font-size:72.5px;line-height:1.25;font-family:Lavi;-inkscape-font-specification:'Lavi, Normal';font-variant-ligatures:normal;font-variant-caps:normal;font-variant-numeric:normal;font-feature-settings:normal;text-align:center;letter-spacing:0px;word-spacing:0px;writing-mode:lr-tb;text-anchor:middle;display:inline;fill:#2b1100;fill-opacity:1;stroke:none"
       x="1239.1194"
       y="582.47577"
       id="episode-title"><tspan
         sodipodi:role="line"
         x="1239.1194"
         y="582.47577"
         id="tspan2942">Epizodas 33: Karo burtas</tspan></text></g></svg>
