<?xml version="1.0" encoding="UTF-8" standalone="no"?>
<!-- Created with Inkscape (http://www.inkscape.org/) -->

<svg
   id="svg2"
   version="1.1"
   inkscape:version="1.2.2 (b0a8486541, 2022-12-01, custom)"
   width="2481"
   height="3503"
   sodipodi:docname="E29P04.svg"
   xmlns:inkscape="http://www.inkscape.org/namespaces/inkscape"
   xmlns:sodipodi="http://sodipodi.sourceforge.net/DTD/sodipodi-0.dtd"
   xmlns:xlink="http://www.w3.org/1999/xlink"
   xmlns="http://www.w3.org/2000/svg"
   xmlns:svg="http://www.w3.org/2000/svg"
   xmlns:rdf="http://www.w3.org/1999/02/22-rdf-syntax-ns#"
   xmlns:cc="http://creativecommons.org/ns#"
   xmlns:dc="http://purl.org/dc/elements/1.1/">
  <metadata
     id="metadata8">
    <rdf:RDF>
      <cc:Work
         rdf:about="">
        <dc:format>image/svg+xml</dc:format>
        <dc:type
           rdf:resource="http://purl.org/dc/dcmitype/StillImage" />
        <dc:title />
      </cc:Work>
    </rdf:RDF>
  </metadata>
  <defs
     id="defs6">
    <filter
       style="color-interpolation-filters:sRGB"
       id="filter4375-4-1-1-1-9"
       inkscape:label="deevad outline effect"
       x="-0.019228152"
       y="-0.056055886"
       width="1.0384563"
       height="1.1121118">
      <feFlood
         id="feFlood4377-7-9-0-8-1"
         flood-opacity="1"
         flood-color="rgb(0,0,0)"
         result="flood" />
      <feComposite
         id="feComposite4379-3-8-8-2-77"
         in2="SourceGraphic"
         in="flood"
         operator="in"
         result="composite1" />
      <feMorphology
         id="feMorphology4393-1-0-49-8-9"
         operator="dilate"
         radius="3.5"
         result="result3" />
      <feComposite
         id="feComposite4385-9-5-7-0-8"
         in2="result3"
         in="SourceGraphic"
         operator="over"
         result="composite2" />
    </filter>
  </defs>
  <sodipodi:namedview
     pagecolor="#ffffff"
     bordercolor="#666666"
     borderopacity="1"
     objecttolerance="10"
     gridtolerance="10"
     guidetolerance="10"
     inkscape:pageopacity="0"
     inkscape:pageshadow="2"
     inkscape:window-width="1832"
     inkscape:window-height="1016"
     id="namedview4"
     showgrid="false"
     inkscape:zoom="0.46000001"
     inkscape:cx="1317.3913"
     inkscape:cy="2277.1739"
     inkscape:window-x="88"
     inkscape:window-y="27"
     inkscape:window-maximized="1"
     inkscape:current-layer="layer1"
     inkscape:snap-global="false"
     inkscape:showpageshadow="2"
     inkscape:pagecheckerboard="0"
     inkscape:deskcolor="#d1d1d1" />
  <g
     inkscape:groupmode="layer"
     id="layer2"
     inkscape:label="artwork"
     sodipodi:insensitive="true">
    <image
       xlink:href="../gfx_Pepper-and-Carrot_by-David-Revoy_E29P04.png"
       width="2481"
       height="3503"
       id="image10"
       x="0"
       y="0" />
  </g>
  <g
     inkscape:groupmode="layer"
     id="layer3"
     inkscape:label="speechbubbles">
    <path
       style="color:#000000;display:inline;overflow:visible;visibility:visible;fill:#ffffff;fill-opacity:1;fill-rule:nonzero;stroke:none;stroke-width:0.99999994px;marker:none;enable-background:accumulate"
       d="m 1726.3426,270.75078 c 36.6266,17.47494 513.8042,28.25116 579.9986,-9.52496 42.0048,-23.97129 25.5692,-114.6249 -28.0644,-131.99553 -63.1211,-20.44339 -415.9107,-14.90308 -504.6373,-3.50793 -84.4145,10.84135 -87.5328,47.97508 -91.79,84.04848 -1.7376,14.72302 7.8663,43.50495 44.4931,60.97994 z"
       id="path4040-4-0"
       inkscape:connector-curvature="0"
       sodipodi:nodetypes="zssssz" />
    <path
       style="color:#000000;display:inline;overflow:visible;visibility:visible;fill:#ffffff;fill-opacity:1;fill-rule:nonzero;stroke:none;stroke-width:1px;marker:none;enable-background:accumulate"
       d="m 1665.2458,974.28298 c 1.4734,-27.70047 -10.5788,-63.64292 28.6701,-106.66886 27.9433,-30.63244 77.3331,-27.46654 194.8339,-29.564 108.4025,-4.37388 191.7017,54.39719 161.2289,154.51178 -3.3433,81.1088 -138.3359,73.4389 -166.5453,76.7687 -28.2094,3.33 -163.471,2.3603 -190.2034,-23.8104 -16.7339,-16.382 -27.8385,-37.372 -27.9842,-71.23722 z"
       id="path4546-6"
       inkscape:connector-curvature="0"
       sodipodi:nodetypes="csccssc" />
    <path
       style="color:#000000;display:inline;overflow:visible;visibility:visible;fill:#ffffff;fill-opacity:1;fill-rule:nonzero;stroke:none;stroke-width:1px;marker:none;enable-background:accumulate"
       d="m 723.26058,180.77898 c 26.24898,-35.34082 247.82043,-73.70115 325.69482,-0.87112 77.8744,72.83004 30.6391,160.22615 -14.043,188.03391 -44.68198,27.80788 -176.17478,58.26407 -236.17627,34.42878 C 738.73452,378.53526 691.99709,342.90613 688.946,269.95229 c -1.24527,-29.77538 8.06549,-53.83237 34.31458,-89.17331 z"
       id="path4040"
       inkscape:connector-curvature="0"
       sodipodi:nodetypes="zssssz" />
    <path
       style="fill:#ffffff;fill-opacity:1;fill-rule:evenodd;stroke:none;stroke-width:1px;stroke-linecap:butt;stroke-linejoin:miter;stroke-opacity:1"
       d="m 466.04924,429.00909 c -11.78237,3.45864 -26.01828,-0.74899 -34.57607,-8.15263 -7.08075,-6.68721 -17.01074,-13.3491 -17.7254,-21.98808 -0.78596,-9.91947 -6.35252,-20.77271 -16.01039,-30.02739 -13.46238,-8.53432 -21.51604,-13.91901 -21.93366,-27.44905 -0.49458,-11.53162 0.14408,-22.67415 7.87162,-30.91503 6.46417,-5.69346 3.23184,-13.76292 -2.09911,-19.92549 -5.60383,-9.86661 2.60112,-22.86862 13.0499,-30.68782 6.77543,-3.72535 13.38693,-7.01355 14.01709,-14.81183 -5.65837,-14.33832 -4.29949,-20.94883 -5.26776,-31.53175 -6.3628,-10.72007 1.1842,-37.81777 7.97176,-46.54931 5.04743,-6.06044 9.4892,-13.78623 21.16176,-13.93988 19.78178,-4.26035 47.13873,-2.23397 58.0381,-14.54687 7.12631,-6.99684 11.66176,-17.02823 25.03867,-18.85348 15.57743,-2.47843 30.87547,10.42367 45.07772,15.18682 13.85078,-10.36049 38.82264,-8.81162 46.36526,1.57953 4.18125,5.86329 23.50859,31.58085 24.60387,38.10889 4.07654,13.01954 -8.46305,35.1769 3.00617,46.49479 12.21903,8.19818 9.02444,27.91799 6.47032,38.44049 -3.66397,8.3406 17.54084,17.01373 18.90334,25.64816 2.3945,9.20505 -7.21523,19.20189 -5.36057,28.40299 5.23226,13.78778 11.10413,26.16521 6.10877,40.43019 -1.94079,12.46165 -18.75884,17.57342 -31.57103,24.41239 -4.18961,3.06174 -6.5178,8.81564 -7.63289,13.5487 -3.89219,11.6257 -7.1651,17.31781 -17.10219,27.30395 -8.57523,7.39843 -24.28097,9.1082 -37.41406,5.25094 -10.18808,-1.82229 -21.37158,-8.10109 -31.26965,-5.67643 -12.7847,5.27537 -16.21615,22.49725 -32.82987,20.94606 -8.87349,-0.86603 -15.42343,-6.38555 -24.05201,-7.97123 -4.21484,-1.11979 -8.51324,-2.00888 -12.83953,-2.72723 z"
       id="path4367"
       inkscape:connector-curvature="0"
       sodipodi:nodetypes="ccccccccccccccccccccccccccccccc" />
    <path
       style="fill:#ffffff;fill-opacity:1;fill-rule:evenodd;stroke:none;stroke-width:1px;stroke-linecap:butt;stroke-linejoin:miter;stroke-opacity:1"
       d="m 130.1344,261.41965 c -5.12524,-8.3218 1.23779,-18.7638 6.311,-22.4599 5.68755,-6.8744 12.99493,-6.8194 19.82436,-6.3027 6.79375,1.352 11.77414,-5.27 16.18557,-12.1154 6.98221,-8.8817 17.12042,-11.9296 25.35981,-5.4527 6.12357,4.415 13.20474,9.8428 19.91679,4.778 8.0044,-5.1258 18.19301,-9.611 25.91922,-1.1515 5.49617,9.8244 14.62131,5.6471 21.34506,1.7701 8.63618,-4.5481 18.08805,-7.3093 27.00823,-2.8986 5.91448,2.5816 13.24947,3.8416 16.16734,13.568 3.52187,10.6522 7.31076,23.368 15.55888,26.5604 5.83828,2.7568 14.23667,4.4272 15.70643,15.516 -0.17108,9.8954 -3.2623,19.6529 -6.07366,28.2714 -8.31199,11.1665 -21.06086,2.5793 -31.61673,5.6713 -6.902,1.9912 -12.5637,13.88684 -24.10085,15.42663 -15.97578,2.57938 -19.22532,-7.09909 -28.92267,-2.35549 -11.43604,4.4331 -14.56071,-0.91191 -25.39617,7.06989 -12.33846,7.417 -26.85473,5.0132 -37.68115,-6.9075 -4.64656,-5.9244 -15.52238,2.19307 -21.43911,3.32597 -7.90331,0.3998 -11.95809,2.3025 -17.79578,-7.8758 -4.67972,-7.2593 -3.42085,-4.964 -6.53806,-13.0375 -3.25895,-7.9711 -10.8281,-9.7059 -13.10332,-19.1363 -1.74278,-7.794 4.3009,-14.1129 3.36481,-22.2643 z"
       id="path4367-3"
       inkscape:connector-curvature="0"
       sodipodi:nodetypes="ccccccccccccccccccccccc" />
    <path
       style="color:#000000;display:inline;overflow:visible;visibility:visible;fill:#ffffff;fill-opacity:1;fill-rule:nonzero;stroke:none;stroke-width:0.99999994px;marker:none;enable-background:accumulate"
       d="m 2029.4399,982.81485 c -1.0819,-24.06664 22.3392,-51.39089 53.4745,-66.35052 46.2489,-22.22128 82.2489,-19.72135 121.37,-18.69902 36.3404,0.94967 94.5018,8.53903 125.0351,35.30831 23.6214,20.70944 38.1519,53.08275 32.7424,78.36488 -5.4095,25.2819 -13.5604,59.301 -54.0385,66.2753 -43.4129,7.48 -134.2336,1.1466 -175.6147,2.5025 -37.0103,1.2128 -67.9595,-9.7146 -87.4337,-27.5607 -19.743,-18.0923 -14.4532,-45.7742 -15.5351,-69.84075 z"
       id="path3373"
       inkscape:connector-curvature="0"
       sodipodi:nodetypes="zsssssssz" />
    <path
       style="fill:#ffffff;fill-rule:evenodd;stroke:none;stroke-width:0.99999994px;stroke-linecap:butt;stroke-linejoin:miter;stroke-opacity:1"
       d="m 918.39492,1223.5898 c 37.57708,3.4907 92.60228,-13.0192 62.22284,-65.5744 59.94124,26.313 109.04914,45.8066 203.23264,-27.7326 -7.9708,81.4659 34.9,73.8546 73.549,58.2141 -37.0922,27.4139 29.4897,43.1229 65.3049,44.6628 -75.7636,59.2943 -34.9455,67.3435 -0.9576,76.7065 -68.2556,-3.5532 -61.618,32.0871 -47.7708,52.0996 -63.8732,-42.8941 -153.7379,-17.5824 -143.9207,12.5816 -28.496,-17.3709 -51.0591,-64.3702 -121.8138,4.554 26.0182,-59.5014 -8.0859,-53.2559 -63.30099,-23.9247 8.6534,-20.2671 60.08449,-51.086 -26.54549,-47.8499 54.11065,-19.2669 65.45794,-45.3663 0,-83.737 z"
       id="path4584"
       inkscape:connector-curvature="0"
       sodipodi:nodetypes="cccccccccccc" />
    <path
       style="color:#000000;display:inline;overflow:visible;visibility:visible;fill:#ffffff;fill-opacity:1;fill-rule:nonzero;stroke:none;stroke-width:1px;marker:none;enable-background:accumulate"
       d="m 1324.2833,1484.7539 c -74.0623,-16.7815 -162.4554,-85.4407 -173.3256,-102.2336 5.7646,-4.0191 72.5018,-4.3109 72.5018,-4.3109 -25.8476,-20.7242 -129.727,-70.2911 -122.0213,-64.8466 -4.5243,-14.4638 68.3453,-13.6441 68.3453,-13.6441 0,0 96.3576,81.9196 112.2383,92.2829 -16.3671,10.5299 -65.2194,8.0221 -73.0419,9.9521 2.0894,11.1694 89.3696,76.2156 115.3034,82.8002 z"
       id="path4456"
       inkscape:connector-curvature="0"
       sodipodi:nodetypes="cccccccc" />
    <path
       style="fill:#ffffff;stroke:none"
       d="m 2131.7915,445.15271 c 52.0797,-62.97217 40.5599,-106.89763 -10.3849,-161.57773 -30.8676,-33.13074 -53.0957,-49.56362 -53.0957,-49.56362 l 44.4365,-11.17106 49.9606,31.26438 c 0,0 89.2487,110.10775 -30.9165,191.04803 z"
       id="path3063"
       inkscape:connector-curvature="0"
       sodipodi:nodetypes="cscccc" />
    <path
       style="color:#000000;display:inline;overflow:visible;visibility:visible;fill:#ffffff;fill-opacity:1;fill-rule:nonzero;stroke:none;stroke-width:1px;marker:none;enable-background:accumulate"
       d="m 2058.5978,778.45752 c 9.1284,42.15323 9.9229,57.84514 -32.0252,91.28724 -41.9482,33.44204 -30.1382,47.46229 -30.1382,47.46229 l 35.2785,-4.99268 c 0,0 84.878,-77.03313 26.8849,-133.75685 z"
       id="path3072"
       inkscape:connector-curvature="0" />
    <path
       style="color:#000000;display:inline;overflow:visible;visibility:visible;fill:#ffffff;fill-opacity:1;fill-rule:nonzero;stroke:none;stroke-width:1px;marker:none;enable-background:accumulate"
       d="m 927.43282,520.21556 c 19.56717,-37.91334 24.33095,-91.92051 -16.62461,-116.94423 -32.00795,-36.20829 -9.67863,-17.32971 -9.67863,-17.32971 l 32.39871,9.54307 c 0,0 63.63839,61.67926 -6.09547,124.73087 z"
       id="path3072-1"
       inkscape:connector-curvature="0"
       sodipodi:nodetypes="ccccc" />
    <path
       style="fill:#ffffff;stroke:none;stroke-width:1"
       d="m 474.06301,566.6488 c -27.08926,-9.58289 -32.5203,-36.93877 -24.84669,-46.84257 7.67355,-9.90382 11.04321,-20.15564 9.99616,-28.55742 -1.04707,-8.40178 -6.96196,-16.67881 -12.15876,-23.25606 -5.19686,-6.5773 -0.54867,-16.7326 3.324,-24.56544 3.8727,-7.83292 21.69074,-48.24885 21.69074,-48.24885 0,0 -32.6467,14.99838 -38.93703,24.29403 -6.29034,9.29564 -7.46917,16.81049 -8.99649,21.28 -1.52732,4.46962 -3.67239,20.67985 0.0331,28.8457 3.70537,8.16587 12.02334,14.14658 16.1134,19.67791 4.09009,5.53123 3.08616,12.07653 -1.18341,20.95011 -4.26957,8.87361 -6.9529,30.42476 6.07072,44.3955 7.72085,8.28235 17.78982,12.284 28.89431,12.02709 z"
       id="path3023"
       inkscape:connector-curvature="0"
       sodipodi:nodetypes="csssscssssssc"
       inkscape:transform-center-x="-13.368944"
       inkscape:transform-center-y="102.37524" />
    <path
       style="opacity:1;fill:#ffffff;fill-rule:evenodd;stroke:none;stroke-width:0.99999994px;stroke-linecap:butt;stroke-linejoin:miter;stroke-opacity:1"
       d="m 287.82858,450.03205 c -15.64979,-24.8542 8.77501,-47.91607 8.58626,-62.92677 -0.19481,-15.49635 -40.69805,-21.31418 -41.62679,-35.6781 -0.92874,-14.36402 24.25197,-42.90833 22.3945,-65.352 -1.85748,-22.44378 -33.11728,-22.62637 -30.33094,3.4084 2.78634,26.03475 -20.58525,41.20496 -15.67743,61.79602 8.18516,34.34048 37.35935,31.20382 47.00302,40.86297 6.38476,6.395 -4.2802,22.87728 -1.49386,38.139 2.78634,15.26172 11.14524,19.75048 11.14524,19.75048 z"
       id="path4272"
       inkscape:connector-curvature="0"
       sodipodi:nodetypes="csssssssc" />
  </g>
  <g
     inkscape:groupmode="layer"
     id="layer1"
     inkscape:label="txt">
    <text
       xml:space="preserve"
       style="font-style:normal;font-variant:normal;font-weight:normal;font-stretch:normal;line-height:0%;font-family:Lavi;-inkscape-font-specification:Lavi;text-align:center;letter-spacing:0px;word-spacing:0px;text-anchor:middle;fill:#000000;fill-opacity:1;stroke:none"
       x="228.43721"
       y="285.49896"
       id="text4246"><tspan
         sodipodi:role="line"
         style="font-size:37.3333px;line-height:1.2"
         x="228.43721"
         y="285.49896"
         id="tspan4252">Oh bah!</tspan></text>
    <text
       xml:space="preserve"
       style="font-style:normal;font-variant:normal;font-weight:normal;font-stretch:normal;line-height:0%;font-family:Lavi;-inkscape-font-specification:Lavi;text-align:center;letter-spacing:0px;word-spacing:0px;text-anchor:middle;fill:#000000;fill-opacity:1;stroke:none"
       x="518.84619"
       y="200.31061"
       id="text4246-3"><tspan
         sodipodi:role="line"
         style="font-size:37.3333px;line-height:1.2"
         x="518.84619"
         y="200.31061"
         id="tspan4252-6">Ieuw!</tspan><tspan
         sodipodi:role="line"
         style="font-size:37.3333px;line-height:1.2"
         x="518.84619"
         y="245.11061"
         id="tspan841">Dat ding</tspan><tspan
         sodipodi:role="line"
         style="font-size:37.3333px;line-height:1.2"
         x="518.84619"
         y="289.91061"
         id="tspan843">heeft in</tspan><tspan
         sodipodi:role="line"
         style="font-size:37.3333px;line-height:1.2"
         x="518.84619"
         y="334.7106"
         id="tspan845">iemands mond</tspan><tspan
         sodipodi:role="line"
         style="font-size:37.3333px;line-height:1.2"
         x="518.84619"
         y="379.51062"
         id="tspan847">gezeten!</tspan></text>
    <text
       xml:space="preserve"
       style="font-style:normal;font-variant:normal;font-weight:normal;font-stretch:normal;line-height:0%;font-family:Lavi;-inkscape-font-specification:Lavi;text-align:center;letter-spacing:0px;word-spacing:0px;text-anchor:middle;fill:#000000;fill-opacity:1;stroke:none"
       x="892.04926"
       y="202.70126"
       id="text4246-9"><tspan
         sodipodi:role="line"
         style="font-size:45px;line-height:1.2"
         x="892.04926"
         y="202.70126"
         id="tspan4252-1">Haha!</tspan><tspan
         sodipodi:role="line"
         style="font-size:45px;line-height:1.2"
         x="892.04926"
         y="256.70126"
         id="tspan872">Zoals altijd erg</tspan><tspan
         sodipodi:role="line"
         style="font-size:45px;line-height:1.2"
         x="892.04926"
         y="310.70126"
         id="tspan889">indrukwekkend,</tspan><tspan
         sodipodi:role="line"
         style="font-size:45px;line-height:1.2"
         x="892.04926"
         y="364.70126"
         id="tspan891">Pepper!</tspan></text>
    <text
       xml:space="preserve"
       style="font-style:normal;font-variant:normal;font-weight:normal;font-stretch:normal;line-height:0%;font-family:Lavi;-inkscape-font-specification:Lavi;text-align:center;letter-spacing:0px;word-spacing:0px;text-anchor:middle;fill:#000000;fill-opacity:1;stroke:none"
       x="2012.9222"
       y="185.31441"
       id="text4246-9-2"><tspan
         sodipodi:role="line"
         style="font-size:45px;line-height:1.2"
         x="2012.9222"
         y="185.31441"
         id="tspan873">Goed. Pepper,</tspan><tspan
         sodipodi:role="line"
         style="font-size:45px;line-height:1.2"
         x="2012.9222"
         y="239.31441"
         id="tspan101">bedankt voor deze… “uitleg”.</tspan></text>
    <text
       xml:space="preserve"
       style="font-style:normal;font-variant:normal;font-weight:normal;font-stretch:normal;line-height:0%;font-family:Lavi;-inkscape-font-specification:Lavi;text-align:center;letter-spacing:0px;word-spacing:0px;text-anchor:middle;fill:#000000;fill-opacity:1;stroke:none"
       x="1862.4745"
       y="910.26434"
       id="text4246-9-2-6"><tspan
         sodipodi:role="line"
         style="font-size:45px;line-height:1.2"
         x="1862.4745"
         y="910.26434"
         id="tspan956">Ik denk dat</tspan><tspan
         sodipodi:role="line"
         style="font-size:45px;line-height:1.2"
         x="1862.4745"
         y="964.26434"
         id="tspan110">het nu tijd is om</tspan><tspan
         sodipodi:role="line"
         style="font-size:45px;line-height:1.2"
         x="1862.4745"
         y="1018.2643"
         id="tspan132">te gaan slapen.</tspan></text>
    <text
       xml:space="preserve"
       style="font-style:normal;font-variant:normal;font-weight:normal;font-stretch:normal;font-size:10.5924px;line-height:0%;font-family:Lavi;-inkscape-font-specification:Lavi;text-align:center;letter-spacing:0px;word-spacing:0px;text-anchor:middle;fill:#000000;fill-opacity:1;stroke:none;stroke-width:1"
       x="2193.345"
       y="957.08563"
       id="text4246-3-2"><tspan
         sodipodi:role="line"
         style="font-size:37.3333px;line-height:1.2;stroke-width:1"
         x="2193.345"
         y="957.08563"
         id="tspan847-9">En iemand</tspan><tspan
         sodipodi:role="line"
         style="font-size:37.3333px;line-height:1.2;stroke-width:1"
         x="2193.345"
         y="1001.8856"
         id="tspan1004">wast beter eerst</tspan><tspan
         sodipodi:role="line"
         style="font-size:37.3333px;line-height:1.2;stroke-width:1"
         x="2193.345"
         y="1046.6857"
         id="tspan118">haar handen.</tspan></text>
    <text
       xml:space="preserve"
       style="font-style:normal;font-variant:normal;font-weight:normal;font-stretch:normal;line-height:0%;font-family:Lavi;-inkscape-font-specification:Lavi;text-align:center;letter-spacing:0px;word-spacing:0px;text-anchor:middle;fill:#000000;fill-opacity:1;stroke:none"
       x="1109.5612"
       y="1253.6182"
       id="text4246-9-2-6-2"><tspan
         sodipodi:role="line"
         style="font-size:45px;line-height:1.2"
         x="1109.5612"
         y="1253.6182"
         id="tspan1035">Hé! Wacht</tspan><tspan
         sodipodi:role="line"
         style="font-size:45px;line-height:1.2"
         x="1109.5612"
         y="1307.6182"
         id="tspan122">op mij!</tspan></text>
    <text
       xml:space="preserve"
       style="font-style:normal;font-variant:normal;font-weight:normal;font-stretch:normal;font-size:14.6235px;line-height:0%;font-family:Lavi;-inkscape-font-specification:Lavi;text-align:center;letter-spacing:0px;word-spacing:0px;text-anchor:middle;fill:#ffffff;fill-opacity:0.784314;stroke:none;stroke-width:1"
       x="1397.3319"
       y="2201.5322"
       id="text4246-7"
       transform="matrix(0.79017753,-0.5292546,0.38466968,1.0078897,0,0)"><tspan
         sodipodi:role="line"
         style="font-style:normal;font-variant:normal;font-weight:bold;font-stretch:normal;font-size:58.4938px;line-height:1.2;font-family:Lavi;-inkscape-font-specification:'Lavi Bold';fill:#ffffff;fill-opacity:0.784314;stroke-width:0.820599"
         x="1397.3319"
         y="2201.5322"
         id="tspan4252-5">Toink!</tspan></text>
    <text
       xml:space="preserve"
       style="font-style:normal;font-variant:normal;font-weight:normal;font-stretch:normal;font-size:11.7947px;line-height:0%;font-family:Lavi;-inkscape-font-specification:Lavi;text-align:center;letter-spacing:0px;word-spacing:0px;text-anchor:middle;fill:#ffffff;fill-opacity:0.784314;stroke:none;stroke-width:1"
       x="-544.74127"
       y="2437.7266"
       id="text4246-7-9"
       transform="matrix(0.80236382,-0.52121629,0.39060214,0.99258189,0,0)"><tspan
         sodipodi:role="line"
         style="font-style:normal;font-variant:normal;font-weight:bold;font-stretch:normal;font-size:47.1788px;line-height:1.2;font-family:Lavi;-inkscape-font-specification:'Lavi Bold';fill:#ffffff;fill-opacity:0.784314;stroke-width:0.820599"
         x="-544.74127"
         y="2437.7266"
         id="tspan4252-5-2">Pok!</tspan></text>
    <text
       xml:space="preserve"
       style="font-style:normal;font-variant:normal;font-weight:normal;font-stretch:normal;font-size:11.7947px;line-height:0%;font-family:Lavi;-inkscape-font-specification:Lavi;text-align:center;letter-spacing:0px;word-spacing:0px;text-anchor:middle;fill:#ffffff;fill-opacity:0.784314;stroke:none;stroke-width:1"
       x="-369.83539"
       y="2519.6321"
       id="text4246-7-9-2"
       transform="matrix(0.80236382,-0.52121629,0.39060214,0.99258189,0,0)"><tspan
         sodipodi:role="line"
         style="font-style:normal;font-variant:normal;font-weight:bold;font-stretch:normal;font-size:47.1788px;line-height:1.2;font-family:Lavi;-inkscape-font-specification:'Lavi Bold';fill:#ffffff;fill-opacity:0.784314;stroke-width:0.820599"
         x="-369.83539"
         y="2519.6321"
         id="tspan4252-5-2-8">Pok!</tspan></text>
    <text
       xml:space="preserve"
       style="font-style:normal;font-variant:normal;font-weight:normal;font-stretch:normal;line-height:0%;font-family:Lavi;-inkscape-font-specification:Lavi;letter-spacing:0px;word-spacing:0px;fill:#000000;fill-opacity:1;stroke:none;stroke-width:0;stroke-miterlimit:4;stroke-dasharray:none;stroke-opacity:1;filter:url(#filter4375-4-1-1-1-9)"
       x="787.65729"
       y="1584.5073"
       id="text4580"
       transform="matrix(1.0211987,-1.0799997,0.40321163,1.6505895,-232.24531,872.73654)"><tspan
         sodipodi:role="line"
         id="tspan4582"
         x="787.65729"
         y="1584.5073"
         style="font-size:70px;line-height:1.25;fill:#ffffff;stroke:none;stroke-width:0;stroke-miterlimit:4;stroke-dasharray:none">W<tspan
   style="font-size:56.0152px;stroke:none;stroke-width:0;stroke-miterlimit:4;stroke-dasharray:none"
   id="tspan1119">AM</tspan><tspan
   style="font-size:80.4001px;stroke:none;stroke-width:0;stroke-miterlimit:4;stroke-dasharray:none"
   id="tspan4617">!</tspan></tspan></text>
    <text
       xml:space="preserve"
       style="font-style:normal;font-variant:normal;font-weight:normal;font-stretch:normal;font-size:15.7523px;line-height:0%;font-family:Lavi;-inkscape-font-specification:Lavi;text-align:center;letter-spacing:0px;word-spacing:0px;text-anchor:middle;opacity:1;fill:#ffffff;fill-opacity:0.841808;stroke:none;stroke-width:1"
       x="1879.0814"
       y="2486.6555"
       id="text4246-7-9-2-3"
       transform="matrix(0.98943475,-0.09116349,0.01957156,1.0088748,0,0)"><tspan
         sodipodi:role="line"
         style="font-style:normal;font-variant:normal;font-weight:bold;font-stretch:normal;font-size:63.0093px;line-height:1.2;font-family:Lavi;-inkscape-font-specification:'Lavi Bold';fill:#ffffff;fill-opacity:0.841808;stroke-width:0.820599"
         x="1879.0814"
         y="2486.6555"
         id="tspan4252-5-2-8-6">?</tspan></text>
  </g>
</svg>
