<?xml version="1.0" encoding="UTF-8" standalone="no"?>
<!-- Created with Inkscape (http://www.inkscape.org/) -->

<svg
   id="svg2"
   version="1.1"
   inkscape:version="1.2 (dc2aedaf03, 2022-05-15)"
   width="2481"
   height="3503"
   sodipodi:docname="E37P06.svg"
   xmlns:inkscape="http://www.inkscape.org/namespaces/inkscape"
   xmlns:sodipodi="http://sodipodi.sourceforge.net/DTD/sodipodi-0.dtd"
   xmlns:xlink="http://www.w3.org/1999/xlink"
   xmlns="http://www.w3.org/2000/svg"
   xmlns:svg="http://www.w3.org/2000/svg"
   xmlns:rdf="http://www.w3.org/1999/02/22-rdf-syntax-ns#"
   xmlns:cc="http://creativecommons.org/ns#"
   xmlns:dc="http://purl.org/dc/elements/1.1/">
  <metadata
     id="metadata8">
    <rdf:RDF>
      <cc:Work
         rdf:about="">
        <dc:format>image/svg+xml</dc:format>
        <dc:type
           rdf:resource="http://purl.org/dc/dcmitype/StillImage" />
        <dc:title />
      </cc:Work>
    </rdf:RDF>
  </metadata>
  <defs
     id="defs6" />
  <sodipodi:namedview
     pagecolor="#ffffff"
     bordercolor="#666666"
     borderopacity="1"
     objecttolerance="10"
     gridtolerance="10"
     guidetolerance="10"
     inkscape:pageopacity="0"
     inkscape:pageshadow="2"
     inkscape:window-width="1920"
     inkscape:window-height="1056"
     id="namedview4"
     showgrid="false"
     inkscape:zoom="0.8045429"
     inkscape:cx="1183.2806"
     inkscape:cy="989.38168"
     inkscape:window-x="1920"
     inkscape:window-y="0"
     inkscape:window-maximized="1"
     inkscape:current-layer="layer3"
     inkscape:pagecheckerboard="0"
     inkscape:showpageshadow="0"
     inkscape:deskcolor="#d1d1d1" />
  <g
     inkscape:groupmode="layer"
     id="layer2"
     inkscape:label="artwork"
     sodipodi:insensitive="true">
    <image
       xlink:href="../gfx_Pepper-and-Carrot_by-David-Revoy_E37P06.png"
       y="0"
       x="0"
       id="image10"
       height="3503"
       width="2481" />
  </g>
  <g
     inkscape:groupmode="layer"
     id="layer3"
     inkscape:label="speechbubbles">
    <path
       style="fill:#ffffff;fill-rule:evenodd;stroke:none;stroke-width:1.66363px;stroke-linecap:butt;stroke-linejoin:miter;stroke-opacity:1"
       d="m 122.68981,204.58688 c -1.32289,-47.5066 33.07476,-55.88911 51.59649,-58.68441 18.52189,-2.79361 95.25509,-16.76674 124.36082,5.5889 29.10573,22.35565 37.04378,60.08123 23.81381,74.05435 -13.2298,13.97143 -55.56551,34.93027 -82.02528,36.32708 -26.45961,1.39679 -83.34818,-6.98572 -101.86991,-26.54777 -18.52189,-19.56032 -15.87593,-30.73815 -15.87593,-30.73815 z"
       id="path1365"
       inkscape:connector-curvature="0" />
    <path
       style="fill:#ffffff;fill-rule:evenodd;stroke:none;stroke-width:1.18625px;stroke-linecap:butt;stroke-linejoin:miter;stroke-opacity:1"
       d="m 244.94628,237.78367 c 0,0 -8.31854,14.71485 -3.94644,34.32306 4.3721,19.60821 13.90542,39.57744 34.7933,54.14841 -41.89702,-20.22752 -65.69947,-37.55159 -66.67128,-74.5854 -0.97218,-37.03494 35.82442,-13.88607 35.82442,-13.88607 z"
       id="path1357"
       inkscape:connector-curvature="0" />
    <path
       style="fill:#ffffff;fill-rule:evenodd;stroke:none;stroke-width:0.785069px;stroke-linecap:butt;stroke-linejoin:miter;stroke-opacity:1"
       d="m 996.78747,134.94717 c -35.62601,1.56913 -71.66852,1.39216 -106.6211,9.38086 -15.72052,3.93139 -31.68851,9.5927 -43.75976,20.82226 -12.99068,13.03738 -19.97202,30.7296 -24.05522,48.37889 -7.78514,33.21008 -7.1984,69.00917 5.38391,100.9866 6.10863,15.4423 15.52789,30.2927 29.68562,39.48464 14.59284,9.20593 31.26352,14.27779 47.70096,19.06897 28.06272,6.9534 57.24423,6.3274 85.91138,5.03137 25.52814,-1.22361 51.47214,-4.09696 75.27254,-13.97935 13.1637,-5.32719 26.2122,-12.09077 35.9937,-22.61149 10.4535,-11.99167 15.7796,-27.50384 18.8125,-42.89128 4.9709,-26.32079 3.314,-53.37671 -0.4847,-79.73284 -1.6994,-13.155 -3.0606,-26.93417 -9.9683,-38.57784 -6.8495,-11.01467 -18.2961,-17.99397 -29.6173,-23.69376 -26.0057,-13.24729 -54.8618,-22.03898 -84.25423,-21.66703 z"
       id="path1353"
       inkscape:connector-curvature="0"
       sodipodi:nodetypes="csssscscsscsc" />
    <path
       style="color:#000000;display:inline;overflow:visible;visibility:visible;fill:#ffffff;fill-opacity:1;fill-rule:nonzero;stroke:none;stroke-width:0.861851px;marker:none;enable-background:accumulate"
       d="M 953.70508 343.14258 C 945.81352 349.07454 942.11404 359.4294 942.97232 369.09215 C 943.39455 373.58195 945.0429 377.85386 945.46094 382.34961 C 946.47291 389.90188 946.51387 397.77132 944.05273 405.06445 C 942.84831 406.79327 940.26225 406.11898 939.03705 404.76819 C 928.9624 398.15903 918.97517 390.93657 907.3457 387.31292 C 903.55223 386.39074 899.84971 389.09818 898.10938 392.31445 C 896.66918 395.09102 896.09622 398.24438 895.78014 401.33051 C 895.22741 407.91111 897.06568 414.43541 899.7412 420.38869 C 902.88834 428.44402 906.05542 436.84579 905.67578 445.64062 C 904.83033 451.7716 897.42743 455.86864 891.78885 453.28782 C 885.50188 451.40821 881.0568 446.30015 876.22323 442.17631 C 867.35826 434.32766 858.62793 425.99443 847.91797 420.68164 C 840.53543 418.18227 832.19934 420.92575 826.68164 426.14844 C 823.39886 429.12894 820.60941 432.58902 817.74023 435.95508 C 823.62163 431.93101 829.62021 427.66272 836.66602 425.98828 C 842.5933 426.26302 847.49664 429.98111 852.31948 433.03002 C 861.5429 439.04629 868.7192 447.68416 874.52585 456.93938 C 878.29152 462.40848 882.04538 468.06879 887.19678 472.33748 C 890.46258 473.97423 894.1002 474.67846 897.6582 475.37695 C 902.99301 476.23879 908.59194 476.37744 913.8018 474.79654 C 918.85264 472.11205 921.44154 466.30999 921.70911 460.78918 C 923.02468 450.2827 920.3687 439.82429 917.38164 429.82948 C 916.0412 425.05451 914.82958 420.22511 914.23633 415.29297 C 915.37972 412.8731 918.91952 412.64623 920.79688 414.3125 C 928.3918 417.7623 933.80127 424.32931 939.88477 429.79102 C 948.48149 435.91714 961.70679 433.53135 967.77548 424.94296 C 972.99478 418.2392 974.72369 409.58873 975.21034 401.28802 C 976.03928 391.2641 976.82209 381.00243 980.79824 371.6361 C 981.96266 368.61038 983.44029 365.71178 985.10742 362.93359 C 984.75598 360.94677 982.45376 360.5274 981.10057 359.4056 C 972.08007 353.99176 963.05957 348.57791 954.03906 343.16406 L 953.87305 343.13477 L 953.70508 343.14258 z M 986.85547 362.93945 C 986.23389 363.62012 987.09449 362.93712 986.85547 362.93945 z "
       id="path5058-2"
       inkscape:connector-curvature="0"
       sodipodi:nodetypes="cscsssssscssssccscccc" />
    <path
       style="display:inline;fill:#ffffff;fill-rule:evenodd;stroke:none;stroke-width:1.00035px;stroke-linecap:butt;stroke-linejoin:miter;stroke-opacity:1"
       d="m 1173.2666,85.412468 c 48.8164,-0.514447 65.2665,0.382697 76.5717,1.504202 -2.0991,-2.742541 66.8039,-1.573613 144.2398,0.0654 -23.0394,-2.008362 38.3673,-2.141035 114.8082,-1.017783 -8.6456,-0.96888 6.3974,62.453543 87.8448,22.345683 -24.6072,51.02893 -57.9143,87.62233 118.825,26.32462 -51.747,34.20206 -133.2092,77.42143 -20.2927,107.7048 -101.6831,13.34986 -127.6806,75.86564 -101.1569,105.488 -48.4434,-59.95223 -90.4543,-50.0919 -71.5748,45.54951 -48.7278,-45.40909 -88.6603,-76.08124 -97.9407,-24.41015 -19.2112,-29.04675 -64.7309,-30.44978 -87.3916,32.90981 -34.5141,-60.72295 -72.2188,-75.04618 -110.2703,2.17972 -0.5383,-49.54914 -19.2345,-84.93854 -55.2028,-59.49958 z"
       id="path1100"
       inkscape:connector-curvature="0"
       sodipodi:nodetypes="cccccccccccccc" />
    <path
       style="display:inline;fill:#ffffff;fill-rule:evenodd;stroke:none;stroke-width:1.02035px;stroke-linecap:butt;stroke-linejoin:miter;stroke-opacity:1"
       d="m 2394.2434,802.66902 c -45.4479,0.57491 -60.7628,-0.42767 -71.2879,-1.68097 1.9542,3.06484 -62.1943,1.75854 -134.2867,-0.0731 21.4495,2.24438 -104.015,12.60536 -175.1812,11.35011 6.4351,-10.18279 -51.239,-10.17152 -78.3528,-0.15757 77.8618,-32.45072 105.2887,-98.5348 8.2334,-124.01874 68.9856,-4.85589 85.5491,-55.87849 -9.6424,-87.15318 87.4989,7.45346 83.4933,-15.36555 19.992,-63.01035 74.4665,29.93175 136.3711,4.51295 93.1019,-58.17298 56.8273,35.31915 143.0106,77.20862 108.2637,-24.06269 60.4581,74.78739 82.4131,84.93972 103.5102,14.13424 32.1325,67.85899 76.0767,59.05285 94.3476,15.25449 -3.3865,45.57622 11.3229,72.74359 44.8092,44.31509 z"
       id="path1100-1"
       inkscape:connector-curvature="0"
       sodipodi:nodetypes="cccccccccccccc" />
    <path
       style="display:inline;fill:#ffffff;fill-rule:evenodd;stroke:none;stroke-width:1.21129px;stroke-linecap:butt;stroke-linejoin:miter;stroke-opacity:1"
       d="m 1424.4886,322.99278 c 32.8791,33.53516 56.7879,77.06946 103.0231,108.5417 l -39.4041,4.85315 c 33.1236,33.29864 86.1701,72.49084 86.1701,72.49084 0,0 -36.1582,-9.1905 -137.95,-87.08512 l 35.6661,-4.58596 c -28.5603,-35.78999 -82.3648,-65.49689 -123.704,-98.20746 z"
       id="path957"
       sodipodi:nodetypes="cccccccc" />
    <path
       style="display:inline;fill:#ffffff;fill-rule:evenodd;stroke:none;stroke-width:1.15094px;stroke-linecap:butt;stroke-linejoin:miter;stroke-opacity:1"
       d="m 2116.4109,677.94435 c -101.3405,-53.78313 -274.4054,-97.55437 -274.4054,-97.55437 0,0 33.0594,-7.14437 146.2005,19.77436 l 158.6649,28.48852 c 296.9015,105.20644 -85.0336,87.53799 -30.46,49.29149 z"
       id="path957-2"
       sodipodi:nodetypes="ccccc" />
    <path
       style="fill:#ffffff;fill-rule:evenodd;stroke:none;stroke-width:1.9934px;stroke-linecap:butt;stroke-linejoin:miter;stroke-opacity:1"
       d="m 1500.8947,874.34961 c -31.5592,0.47147 -63.3751,0.052 -94.5363,5.90039 -21.7295,4.2926 -42.9005,13.5376 -59.3779,28.76993 -14.7984,13.90487 -25.3791,32.88175 -27.7322,53.34615 -0.8689,12.41849 1.5143,24.73789 3.581,36.91449 1.8891,8.19693 7.33,15.23243 14.1815,19.83893 9.9247,7.7332 20.7979,14.9503 33.2599,17.4767 11.8692,2.6134 24.0479,3.0766 36.0876,4.4336 20.9815,2.0344 41.9659,4.2113 63.038,5.0071 39.726,1.8495 79.505,1.7214 119.2628,1.7942 38.3636,-0.07 76.7279,-0.1001 115.0911,-0.1667 26.5826,-0.5673 53.5284,-2.6622 78.8987,-11.2768 15.4179,-5.2251 30.3511,-13.3242 41.2006,-25.8459 12.6054,-14.35632 19.6992,-33.99767 17.7376,-53.25747 -2.218,-15.39259 -11.3518,-29.08442 -23.1517,-38.71536 -15.4069,-13.14144 -33.6938,-22.24738 -52.3323,-29.65187 -18.1252,-6.24919 -37.4349,-6.83254 -56.3341,-8.47712 -69.3853,-5.31475 -139.0092,-5.93128 -208.5591,-6.09056 l -0.1802,1.7e-4 z"
       id="path1297"
       inkscape:connector-curvature="0" />
    <path
       style="fill:#ffffff;fill-rule:evenodd;stroke:none;stroke-width:0.989487px;stroke-linecap:butt;stroke-linejoin:miter;stroke-opacity:1"
       d="m 1830.6505,1003.6236 c 43.6705,4.6896 69.687,11.7228 82.695,25.7904 13.0083,14.0685 29.7331,23.4465 26.9457,56.2711 -2.7875,32.8248 1.8583,52.7547 -9.2917,66.8222 -11.1498,14.0675 -11.1498,25.7914 -34.3787,31.6527 -23.229,5.8615 -140.163,18.6708 -152.242,18.6708 -12.079,0 -125.576,-9.2927 -135.7968,-11.6374 -10.2206,-2.3449 -43.6704,-24.6186 -50.1744,-45.7193 -6.5042,-21.1018 -12.0791,-48.0651 -7.4333,-63.3056 4.6457,-15.2404 26.0165,-50.4098 40.8829,-55.0983 14.8665,-4.6895 42.7412,-15.2404 65.041,-15.2404 22.2997,0 127.2945,-5.8614 127.2945,-5.8614 z"
       id="path1299"
       inkscape:connector-curvature="0"
       sodipodi:nodetypes="ccssssssscscc" />
    <path
       style="display:inline;fill:#ffffff;fill-rule:evenodd;stroke:none;stroke-width:1.41701px;stroke-linecap:butt;stroke-linejoin:miter;stroke-opacity:1"
       d="m 1580.6432,1137.9508 c 48.1599,23.4294 92.5554,16.0374 91.7286,-38.4245 22.9768,58.8533 38.9217,72.0159 48.3779,43.0186 30.4197,24.9241 49.4195,17.9323 64.5039,0 5.6224,23.0624 17.6797,13.7562 28.1144,12.6102 3.4368,5.2185 -8.3673,18.1812 39.3214,0.9098 3.089,6.9058 7.2503,12.8536 35.1838,-2.4581 7.2368,28.0318 30.4554,-1.554 54.2419,-33.1856 -14.8196,38.8882 -8.6744,44.3815 10.262,29.4986 -8.6577,16.0145 -13.8359,28.4118 19.058,1.2286 -11.2613,29.5595 18.2823,9.2702 65.9698,-33.1855 -35.6291,35.8306 -67.8325,89.3625 13.9348,69.8313 -22.8528,12.6309 -61.3,51.6148 0.4189,66.2584 -11.5219,6.2787 -46.6986,-2.896 -17.3549,23.6857 3.9314,3.1072 -9.2302,5.0049 15.8891,13.1875 -14.8281,-0.5572 -23.9218,1.432 -10.2621,13.5194 -27.0668,-0.653 -39.0113,28.4996 -19.1397,44.7108 -39.1965,-20.7954 -41.3535,-13.2374 -42.5139,-4.9157 -49.1248,-28.3518 -52.0086,-19.4253 -58.6399,-13.5202 -23.9446,0.2209 -47.8892,-3.3488 -71.8338,28.269 -6.2709,-19.6654 -18.8431,-34.8029 -71.8338,-20.8941 23.2671,-25.0189 -9.8333,-9.079 -35.1838,1.2287 13.8823,-31.254 -21.3494,-10.7422 -65.9698,19.6654 24.9872,-34.513 -3.3925,-22.0457 -45.446,2.4583 15.8891,-33.9059 -9.9879,-50.3027 -71.8337,-51.6222 29.6013,-12.2295 44.3192,-68.3053 13.5818,-95.9928 34.6498,8.1522 44.9852,0.5798 20.524,-29.4986 37.7934,24.6881 26.0663,-22.2012 -11.0989,-46.383 z"
       id="path4508-2"
       inkscape:connector-curvature="0"
       sodipodi:nodetypes="cccccccccccccccccccccccccccc" />
    <path
       style="display:inline;fill:#ffffff;fill-rule:evenodd;stroke:none;stroke-width:1.41701px;stroke-linecap:butt;stroke-linejoin:miter;stroke-opacity:1"
       d="m 1579.348,1238.7838 c 78.0352,25.9575 149.9708,17.7678 148.6312,-42.5704 37.2301,65.2034 63.0661,79.7863 78.3885,47.6602 49.2901,27.6134 80.076,19.8672 104.5179,0 9.1101,25.5509 28.6468,15.2405 45.5548,13.9708 5.5688,5.7816 -13.5578,20.143 63.7137,1.0081 5.0055,7.6509 11.748,14.2404 57.0096,-2.7235 11.726,31.0565 49.3481,-1.7217 87.8901,-36.7662 -24.0126,43.0842 -14.0555,49.1702 16.628,32.6814 -14.0283,17.7424 -22.4188,31.4774 30.8802,1.3612 -18.2469,32.749 29.6236,10.2705 106.8933,-36.7661 -57.7311,39.6966 -109.9115,99.0045 22.5791,77.3659 -37.0292,13.9938 -99.3264,57.184 0.6787,73.4077 -18.6693,6.956 -75.6673,-3.2085 -28.1207,26.2413 6.3701,3.4424 -14.956,5.5448 25.7456,14.6104 -24.0265,-0.6173 -38.7613,1.5865 -16.6279,14.9781 -43.8574,-0.7234 -63.2115,31.5746 -31.0128,49.5351 -63.5115,-23.0392 -67.0066,-14.6658 -68.887,-5.4461 -79.5984,-31.4109 -84.271,-21.5213 -95.016,-14.979 -38.7984,0.2447 -77.5966,-3.7102 -116.395,31.3191 -10.1608,-21.7873 -30.5321,-38.558 -116.3948,-23.1486 37.7004,-27.7182 -15.9334,-10.0585 -57.0095,1.3613 22.494,-34.6262 -34.5932,-11.9012 -106.8935,21.7873 40.4878,-38.2369 -5.4968,-24.4244 -73.6376,2.7235 25.7456,-37.5642 -16.1838,-55.7302 -116.3948,-57.1921 47.9641,-13.549 71.8121,-75.6753 22.0073,-106.3503 56.1441,9.0318 72.8909,0.6424 33.2557,-32.6814 61.238,27.3519 42.2361,-24.5967 -17.9841,-51.3877 z"
       id="path4508-2-3"
       inkscape:connector-curvature="0"
       sodipodi:nodetypes="cccccccccccccccccccccccccccc" />
    <path
       style="color:#000000;display:inline;overflow:visible;visibility:visible;fill:#ffffff;fill-opacity:1;fill-rule:nonzero;stroke:none;stroke-width:0.969926px;marker:none;enable-background:accumulate"
       d="m 1241.2998,989.61424 c 22.2211,-34.141 39.9857,-36.591 52.6492,-39.616 1.7643,3.396 6.1135,8.794 6.1135,8.794 0,0 24.438,-8.09 34.6126,-8.313 10.1747,-0.224 10.4078,11.447 10.4078,11.447 0,0 -47.1663,16.831 -56.3698,23.214 -4.4313,-9.518 -7.9052,-13.563 -7.9875,-17.682 -7.6447,-0.519 -31.1799,10.299 -39.4258,22.156 z"
       id="path4456-5"
       inkscape:connector-curvature="0" />
    <path
       style="display:inline;fill:#ffffff;fill-rule:evenodd;stroke:none;stroke-width:0.82688px;stroke-linecap:butt;stroke-linejoin:miter;stroke-opacity:1"
       d="m 223.03839,2049.9977 c 44.40963,1.9562 108.39666,5.8779 57.9817,-1.6857 32.66257,1.8313 74.4298,5.4214 86.29409,2.504 11.54755,1.0885 18.41219,0.7184 12.62143,-1.5634 31.52989,2.8416 47.3862,1.7361 66.08925,1.3475 21.2963,2.0346 36.6284,1.6171 46.39705,-1.0877 -7.1015,5.6406 50.2879,1.5728 95.63051,-0.7951 -3.07518,1.2879 -30.40238,4.8783 16.18142,1.4514 -4.39723,1.8574 -3.94257,3.3811 100.135,-2.2207 -45.96467,5.0275 -24.28187,3.8873 -0.012,2.5113 -38.82049,5.4257 29.77888,9.4415 55.83106,8.9116 -77.90021,15.1943 -113.62842,42.3338 12.24418,88.4165 -49.05016,0.2837 -123.65447,-22.422 -98.99442,77.9462 -73.57472,-54.7599 -108.93439,-5.4464 -93.80044,40.6583 -43.95744,-62.393 -71.64944,-62.0197 -80.92629,9.4158 -25.33646,-60.767 -52.20379,-72.9244 -81.34293,-12.945 10.95777,-89.6863 -56.59211,-63.2022 -89.46096,-23.7851 25.74854,-41.6566 -20.31954,-48.5646 -72.57645,-9.3964 63.90502,-63.2583 18.53891,-58.536 -56.43499,-35.3941 89.38703,-46.0158 76.25662,-65.3801 -14.79036,-64.4883 111.07935,-6.0948 89.32452,-76.0106 38.93318,-79.8011 z"
       id="path740849"
       sodipodi:nodetypes="cccccccccccccccccccccc" />
    <path
       style="color:#000000;display:inline;overflow:visible;visibility:visible;fill:#ffffff;fill-opacity:1;fill-rule:nonzero;stroke:none;stroke-width:1px;marker:none;enable-background:accumulate"
       d="m 625.17576,2198.464 c 32.4119,11.8493 68.59806,43.3077 68.15392,52.5243 2.57923,-9.5085 6.6039,-17.4308 9.62749,-23.6657 13.04254,7.2714 43.8298,44.5047 61.80037,65.0819 -15.05247,-42.9 -51.67758,-88.1131 -70.34793,-102.0634 -0.43359,10.3146 -2.88747,18.5199 -5.87724,22.4034 -19.74556,7.9495 -28.17774,-60.2326 -25.11612,-64.3964 z"
       id="path5066-6"
       inkscape:connector-curvature="0"
       sodipodi:nodetypes="cccccccc" />
    <path
       style="color:#000000;display:inline;overflow:visible;visibility:visible;fill:#ffffff;fill-opacity:1;fill-rule:nonzero;stroke:none;stroke-width:1.71778px;marker:none;enable-background:accumulate"
       d="m 1852.6531,2268.1362 c 12.9153,76.7939 -88.6194,46.5565 -122.8371,31.507 69.2442,40.8155 103.781,69.9248 -24.819,68.0358 127.0092,58.0789 22.7154,60.3091 0.7794,78.5943 103.2278,11.6338 57.7276,93.5064 38.359,96.2133 120.3515,0.03 79.6492,2.1424 83.6819,3.8204 10.6936,-0.789 60.6635,-3.1932 61.9245,-0.5235 81.2036,-2.5576 178.1292,-4.2154 182.9791,0.2415 33.4729,-2.2467 107.7582,0.9233 61.9247,-0.5235 81.6464,-3.4891 152.301,-2.246 223.546,-1.2719 19.5235,-1.0525 22.7231,-2.6659 83.5449,-2.2956 -7.9152,-1.0397 -13.9741,-66.3049 -8.7282,-76.2806 -6.888,-14.3738 -8.1204,-29.3556 4.7987,-45.8568 -9.7891,-1.3044 -18.9123,-4.2642 -7.2566,-59.6777 -16.0421,2.9472 -115.2517,10.7526 -22.7197,-87.0778 -70.0182,45.3282 -206.5286,81.096 -187.7436,-22.8262 -39.1294,61.4705 -101.2679,88.3576 -122.5227,11.4433 -41.3694,69.8993 -92.3368,43.9845 -122.3889,-4.9652 -23.9185,36.7737 -64.3628,89.9323 -122.5224,11.4432 z"
       id="path3549-3-7-5"
       inkscape:connector-curvature="0"
       sodipodi:nodetypes="ccccccccccccccccccc" />
    <path
       style="display:inline;fill:#ffffff;fill-rule:evenodd;stroke:none;stroke-width:1.21419px;stroke-linecap:butt;stroke-linejoin:miter;stroke-opacity:1"
       d="m 1636.5226,2851.0879 c 21.774,-17.5421 20.3717,-56.2808 -6.3018,-68.6302 57.8746,-6.8043 13.0235,-36.2852 -16.4355,-70.6616 44.0346,20.9428 97.9946,59.1249 75.3907,-44.1382 31.2374,29.3266 56.7506,54.8915 76.3203,10.9689 9.9324,20.5299 30.3058,39.644 52.668,5.748 7.843,16.8092 16.7725,10.2693 26.8401,-20.7305 9.1423,38.2507 30.873,37.7324 53.5479,-3.0234 15.8866,41.8271 33.3992,76.5636 72.0236,19.2446 -5.9374,42.8166 14.0697,40.9106 45.8036,18.7903 -4.7817,18.5992 0.5687,24.7809 37.9905,9.9228 -9.9509,17.9945 -23.4241,28.8096 12.6562,23.41 -16.0334,16.3572 -33.626,52.5399 21.0054,43.5697 -42.861,27.6514 -18.4657,38.7879 -17.5436,54.8278 -30.6711,-9.6423 -44.8693,-5.4783 -14.1469,36.3353 -15.9289,-0.6819 -57.9551,-46.4501 -38.8072,13.4668 -24.3772,-33.6181 -51.7536,6.8157 -37.847,8.3712 l -57.9095,11.8883 -90.5652,-11.5149 -64.474,-0.1188 -54.1069,7.2007 c 8.8514,-26.0708 -9.8166,-17.0264 -24.373,-13.2285 -4.3063,-7.7029 6.753,-26.1596 -24.9519,-14.6865 1.7327,-18.9066 -13.662,-16.5481 -26.7838,-17.0118 z"
       id="path1058"
       sodipodi:nodetypes="cccccccccccccccccccccccc" />
    <path
       style="display:inline;fill:#ffffff;fill-rule:evenodd;stroke:none;stroke-width:1.71488px;stroke-linecap:butt;stroke-linejoin:miter;stroke-opacity:1"
       d="m 1692.7753,2962.626 c 58.6696,1.4579 50.8964,28.4114 29.768,60.4895 16.2538,-2.1575 54.268,-31.8726 31.7272,15.0995 49.2176,-17.0651 18.896,17.4633 14.8966,34.8249 19.8395,-3.6544 31.9847,12.0712 7.8551,70.5621 24.366,-13.765 61.6,-65.4443 58.8254,0.7597 19.7257,-8.2177 45.6428,-39.8797 48.9321,14.1409 32.9201,-45.8016 63.0527,-50.2129 69.5693,34.2247 24.2323,-54.3202 45.3335,-64.4445 61.9066,-10.6391 23.0767,-35.7023 55.9997,-45.0055 85.0096,23.2998 -8.4691,-54.1072 4.3875,-87.6746 99.2922,-42.2195 -0.6884,-47.6358 19.115,-68.9453 98.2576,-14.0193 -16.8205,-31.7041 -57.4879,-82.1806 37.1813,-26.1202 -49.7887,-67.4922 4.232,-109.0653 45.6887,-153.7754 -50.4805,31.1789 -55.8275,19.0067 -36.8079,-16.5698 -80.2728,41.66 -71.8538,-21.6037 -50.494,-100.1768 -58.78,41.582 -50.3479,17.384 -36.2559,-4.7318 -104.4723,43.6973 -60.9002,-25.4643 -51.2534,-52.4243 -75.6796,121.1242 -53.4289,46.3304 -45.0748,-0.6617 -42.9643,72.1986 -61.0753,72.1222 -52.8769,1.1197 -72.0507,86.6816 -40.1579,5.6107 -63.6808,8.77 l -294.8677,76.5348 -32.5462,33.2487 c 30.2113,11.7042 28.8289,40.9502 -25.0521,48.2636 z"
       id="path961"
       sodipodi:nodetypes="cccccccccccccccccccccccc" />
    <path
       style="display:inline;fill:#ffffff;fill-rule:evenodd;stroke:none;stroke-width:1px;stroke-linecap:butt;stroke-linejoin:miter;stroke-opacity:1"
       d="m 1487.7373,2719.1203 100.518,94.2706 6.505,-33.2379 70.6075,62.6158 11.5455,-27.2884 -90.5705,-67.709 -8.6863,37.6437 z"
       id="path4667-2"
       inkscape:connector-curvature="0" />
  </g>
  <g
     inkscape:groupmode="layer"
     id="layer1"
     inkscape:label="txt"
     style="display:inline">
    <text
       xml:space="preserve"
       style="font-style:normal;font-variant:normal;font-weight:normal;font-stretch:normal;font-size:45.3333px;line-height:125%;font-family:Lavi;-inkscape-font-specification:Lavi;text-align:center;letter-spacing:0px;word-spacing:0px;text-anchor:middle;fill:#000000;fill-opacity:1;stroke:none"
       x="225.68468"
       y="212.4789"
       id="text4246-70-2-2-2-7-4-9-9-6-1-2-3-9-2-7-9"><tspan
         sodipodi:role="line"
         style="font-size:45.3333px"
         x="225.68468"
         y="212.4789"
         id="tspan80607">Alors ?</tspan></text>
    <text
       xml:space="preserve"
       style="font-style:normal;font-variant:normal;font-weight:normal;font-stretch:normal;font-size:45.3333px;line-height:125%;font-family:Lavi;-inkscape-font-specification:Lavi;text-align:center;letter-spacing:0px;word-spacing:0px;text-anchor:middle;fill:#000000;fill-opacity:1;stroke:none"
       x="971.63519"
       y="215.03271"
       id="text4246-70-2-2-2-7-4-9-9-6-1-2-3-9-2-7-9-3"><tspan
         sodipodi:role="line"
         style="font-size:45.3333px"
         x="971.63519"
         y="215.03271"
         id="tspan5904">Ça ne vous</tspan><tspan
         sodipodi:role="line"
         style="font-size:45.3333px"
         x="971.63519"
         y="271.69934"
         id="tspan5908">fait pas</tspan><tspan
         sodipodi:role="line"
         style="font-size:45.3333px"
         x="971.63519"
         y="328.36597"
         id="tspan5910">pleurer ?</tspan></text>
    <text
       xml:space="preserve"
       style="font-style:normal;font-variant:normal;font-weight:normal;font-stretch:normal;font-size:52.7846px;line-height:125%;font-family:Lavi;-inkscape-font-specification:Lavi;text-align:center;letter-spacing:0px;word-spacing:0px;text-anchor:middle;fill:#000000;fill-opacity:1;stroke:none;stroke-width:0.807928"
       x="1395.3021"
       y="179.03783"
       id="text4246-70-2-2-2-7-4-9-9-6-1-2-3-9-2-7-9-3-7"><tspan
         sodipodi:role="line"
         style="font-style:normal;font-variant:normal;font-weight:bold;font-stretch:normal;font-size:52.7846px;font-family:Lavi;-inkscape-font-specification:'Lavi Bold';stroke-width:0.807928"
         x="1395.3021"
         y="179.03783"
         id="tspan5910-5">NON MAIS</tspan><tspan
         sodipodi:role="line"
         style="font-style:normal;font-variant:normal;font-weight:bold;font-stretch:normal;font-size:52.7846px;font-family:Lavi;-inkscape-font-specification:'Lavi Bold';stroke-width:0.807928"
         x="1395.3021"
         y="245.01857"
         id="tspan15562">T'ES SÉRIEUSE</tspan><tspan
         sodipodi:role="line"
         style="font-style:normal;font-variant:normal;font-weight:bold;font-stretch:normal;font-size:52.7846px;font-family:Lavi;-inkscape-font-specification:'Lavi Bold';stroke-width:0.807928"
         x="1395.3021"
         y="310.99933"
         id="tspan15564">LÀ ?!!</tspan></text>
    <text
       xml:space="preserve"
       style="font-style:normal;font-variant:normal;font-weight:normal;font-stretch:normal;font-size:54.2756px;line-height:125%;font-family:Lavi;-inkscape-font-specification:Lavi;text-align:center;letter-spacing:0px;word-spacing:0px;text-anchor:middle;fill:#000000;fill-opacity:1;stroke:none;stroke-width:0.83075"
       x="2191.6011"
       y="616.18671"
       id="text4246-70-2-2-2-7-4-9-9-6-1-2-3-9-2-7-9-3-7-6"><tspan
         sodipodi:role="line"
         style="font-style:normal;font-variant:normal;font-weight:bold;font-stretch:normal;font-size:54.2756px;font-family:Lavi;-inkscape-font-specification:'Lavi Bold';stroke-width:0.83075"
         x="2191.6011"
         y="616.18671"
         id="tspan15564-1">C'EST TOUT</tspan><tspan
         sodipodi:role="line"
         style="font-style:normal;font-variant:normal;font-weight:bold;font-stretch:normal;font-size:54.2756px;font-family:Lavi;-inkscape-font-specification:'Lavi Bold';stroke-width:0.83075"
         x="2191.6011"
         y="684.03119"
         id="tspan19634">CE QUE</tspan><tspan
         sodipodi:role="line"
         style="font-style:normal;font-variant:normal;font-weight:bold;font-stretch:normal;font-size:54.2756px;font-family:Lavi;-inkscape-font-specification:'Lavi Bold';stroke-width:0.83075"
         x="2191.6011"
         y="751.87573"
         id="tspan19636">TU AS ?!!</tspan></text>
    <text
       xml:space="preserve"
       style="font-style:normal;font-variant:normal;font-weight:normal;font-stretch:normal;font-size:49.902px;line-height:125%;font-family:Lavi;-inkscape-font-specification:Lavi;text-align:center;letter-spacing:0px;word-spacing:0px;text-anchor:middle;fill:#000000;fill-opacity:1;stroke:none;stroke-width:1.10078"
       x="1576.8163"
       y="946.78656"
       id="text4246-70-2-2-2-7-4-9-9-6-1-2-3-9-2-7-9-3-2"><tspan
         sodipodi:role="line"
         style="font-style:normal;font-variant:normal;font-weight:normal;font-stretch:normal;font-size:49.902px;font-family:Lavi;-inkscape-font-specification:Lavi;stroke-width:1.10078"
         x="1576.8163"
         y="946.78656"
         id="tspan5910-9">Eux, au moins, ont</tspan><tspan
         sodipodi:role="line"
         style="font-style:normal;font-variant:normal;font-weight:normal;font-stretch:normal;font-size:49.902px;font-family:Lavi;-inkscape-font-specification:Lavi;stroke-width:1.10078"
         x="1576.8163"
         y="1009.1641"
         id="tspan24188">essayé la poésie !</tspan></text>
    <text
       xml:space="preserve"
       style="font-style:normal;font-variant:normal;font-weight:normal;font-stretch:normal;font-size:49.902px;line-height:125%;font-family:Lavi;-inkscape-font-specification:Lavi;text-align:center;letter-spacing:0px;word-spacing:0px;text-anchor:middle;fill:#000000;fill-opacity:1;stroke:none;stroke-width:1.10078"
       x="1745.0437"
       y="1090.2063"
       id="text4246-70-2-2-2-7-4-9-9-6-1-2-3-9-2-7-9-3-2-3"><tspan
         sodipodi:role="line"
         style="font-style:normal;font-variant:normal;font-weight:normal;font-stretch:normal;font-size:49.902px;font-family:Lavi;-inkscape-font-specification:Lavi;stroke-width:1.10078"
         x="1745.0437"
         y="1090.2063"
         id="tspan34076">L'écriture de</tspan><tspan
         sodipodi:role="line"
         style="font-style:normal;font-variant:normal;font-weight:normal;font-stretch:normal;font-size:49.902px;font-family:Lavi;-inkscape-font-specification:Lavi;stroke-width:1.10078"
         x="1745.0437"
         y="1152.5837"
         id="tspan34080">tragédies !</tspan></text>
    <text
       xml:space="preserve"
       style="font-style:normal;font-variant:normal;font-weight:normal;font-stretch:normal;font-size:69.9626px;line-height:125%;font-family:Lavi;-inkscape-font-specification:Lavi;text-align:center;letter-spacing:0px;word-spacing:0px;text-anchor:middle;fill:#000000;fill-opacity:1;stroke:none;stroke-width:1.54329"
       x="1816.1199"
       y="1285.5034"
       id="text4246-70-2-2-2-7-4-9-9-6-1-2-3-9-2-7-9-3-2-3-6-1"><tspan
         sodipodi:role="line"
         style="font-style:normal;font-variant:normal;font-weight:bold;font-stretch:normal;font-size:69.9626px;font-family:Lavi;-inkscape-font-specification:'Lavi Bold';stroke-width:1.54329"
         x="1816.1199"
         y="1285.5034"
         id="tspan37654-7">DE L'ART !</tspan></text>
    <text
       xml:space="preserve"
       style="font-style:normal;font-variant:normal;font-weight:normal;font-stretch:normal;font-size:71.4558px;line-height:125%;font-family:Lavi;-inkscape-font-specification:Lavi;text-align:center;letter-spacing:0px;word-spacing:0px;text-anchor:middle;fill:#000000;fill-opacity:1;stroke:none;stroke-width:1.57622"
       x="1955.1536"
       y="1391.791"
       id="text4246-70-2-2-2-7-4-9-9-6-1-2-3-9-2-7-9-3-2-3-6-1-9"><tspan
         sodipodi:role="line"
         style="font-style:normal;font-variant:normal;font-weight:bold;font-stretch:normal;font-size:71.4558px;font-family:Lavi;-inkscape-font-specification:'Lavi Bold';stroke-width:1.57622"
         x="1955.1536"
         y="1391.791"
         id="tspan37654-7-2">DU DRAMATIQUE !</tspan></text>
    <text
       xml:space="preserve"
       style="font-style:normal;font-variant:normal;font-weight:normal;font-stretch:normal;font-size:63.2403px;line-height:125%;font-family:Lavi;-inkscape-font-specification:Lavi;text-align:center;letter-spacing:0px;word-spacing:0px;text-anchor:middle;fill:#000000;fill-opacity:1;stroke:none;stroke-width:1.39501"
       x="483.78723"
       y="2154.6296"
       id="text4246-70-2-2-2-7-4-9-9-6-1-2-3-9-2-7-9-3-2-3-0-7"><tspan
         sodipodi:role="line"
         style="font-style:normal;font-variant:normal;font-weight:bold;font-stretch:normal;font-size:63.2403px;font-family:Lavi;-inkscape-font-specification:'Lavi Bold';stroke-width:1.39501"
         x="483.78723"
         y="2154.6296"
         id="tspan100735-9">ET TOI ?!</tspan></text>
    <text
       xml:space="preserve"
       style="font-style:normal;font-variant:normal;font-weight:normal;font-stretch:normal;font-size:63.2403px;line-height:125%;font-family:Lavi;-inkscape-font-specification:Lavi;text-align:center;letter-spacing:0px;word-spacing:0px;text-anchor:middle;fill:#000000;fill-opacity:1;stroke:none;stroke-width:1.39501"
       x="2081.9277"
       y="2395.3088"
       id="text4246-70-2-2-2-7-4-9-9-6-1-2-3-9-2-7-9-3-2-3-0"><tspan
         sodipodi:role="line"
         style="font-style:normal;font-variant:normal;font-weight:bold;font-stretch:normal;font-size:63.2403px;font-family:Lavi;-inkscape-font-specification:'Lavi Bold';stroke-width:1.39501"
         x="2081.9277"
         y="2395.3088"
         id="tspan89475">TU VIENS SANS</tspan><tspan
         sodipodi:role="line"
         style="font-style:normal;font-variant:normal;font-weight:bold;font-stretch:normal;font-size:63.2403px;font-family:Lavi;-inkscape-font-specification:'Lavi Bold';stroke-width:1.39501"
         x="2081.9277"
         y="2474.3591"
         id="tspan100735"> PRÉPARATION !</tspan></text>
    <text
       xml:space="preserve"
       style="font-style:normal;font-variant:normal;font-weight:normal;font-stretch:normal;font-size:51.0809px;line-height:125%;font-family:Lavi;-inkscape-font-specification:Lavi;text-align:center;letter-spacing:0px;word-spacing:0px;text-anchor:middle;fill:#000000;fill-opacity:1;stroke:none;stroke-width:1.01681"
       x="1853.8928"
       y="2779.1357"
       id="text4246-70-2-2-2-7-4-9-9-6-1-2-3-9-2-7-9-3-2-3-0-2"><tspan
         sodipodi:role="line"
         style="font-style:normal;font-variant:normal;font-weight:bold;font-stretch:normal;font-size:51.0809px;font-family:Lavi;-inkscape-font-specification:'Lavi Bold';stroke-width:1.01681"
         x="1853.8928"
         y="2779.1357"
         id="tspan100735-8">OUI, C'EST</tspan><tspan
         sodipodi:role="line"
         style="font-style:normal;font-variant:normal;font-weight:bold;font-stretch:normal;font-size:51.0809px;font-family:Lavi;-inkscape-font-specification:'Lavi Bold';stroke-width:1.01681"
         x="1853.8928"
         y="2842.9868"
         id="tspan144267">ÇA ; OUSTE !</tspan></text>
    <text
       xml:space="preserve"
       style="font-style:normal;font-variant:normal;font-weight:normal;font-stretch:normal;font-size:47.5376px;line-height:125%;font-family:Lavi;-inkscape-font-specification:Lavi;text-align:center;letter-spacing:0px;word-spacing:0px;text-anchor:middle;fill:#000000;fill-opacity:1;stroke:none;stroke-width:0.946337"
       x="2035.2812"
       y="2936.1543"
       id="text4246-70-2-2-2-7-4-9-9-6-1-2-3-9-2-7-9-3-2-3-0-2-9"><tspan
         sodipodi:role="line"
         style="font-style:normal;font-variant:normal;font-weight:bold;font-stretch:normal;font-size:47.5376px;font-family:Lavi;-inkscape-font-specification:'Lavi Bold';stroke-width:0.946337"
         x="2035.2812"
         y="2936.1543"
         id="tspan136423">RENTRE CHEZ TOI, </tspan><tspan
         sodipodi:role="line"
         style="font-style:normal;font-variant:normal;font-weight:bold;font-stretch:normal;font-size:47.5376px;font-family:Lavi;-inkscape-font-specification:'Lavi Bold';stroke-width:0.946337"
         x="2035.2812"
         y="2995.5764"
         id="tspan156982">ET REVIENS QUAND</tspan><tspan
         sodipodi:role="line"
         style="font-style:normal;font-variant:normal;font-weight:bold;font-stretch:normal;font-size:47.5376px;font-family:Lavi;-inkscape-font-specification:'Lavi Bold';stroke-width:0.946337"
         x="2035.2812"
         y="3054.9983"
         id="tspan156984">TU AURAS TROUVÉ</tspan><tspan
         sodipodi:role="line"
         style="font-style:normal;font-variant:normal;font-weight:bold;font-stretch:normal;font-size:47.5376px;font-family:Lavi;-inkscape-font-specification:'Lavi Bold';stroke-width:0.946337"
         x="2035.2812"
         y="3114.4204"
         id="tspan571">MIEUX !</tspan></text>
  </g>
</svg>
