<?xml version="1.0" encoding="UTF-8" standalone="no"?>
<!-- Created with Inkscape (http://www.inkscape.org/) -->

<svg
   xmlns:dc="http://purl.org/dc/elements/1.1/"
   xmlns:cc="http://creativecommons.org/ns#"
   xmlns:rdf="http://www.w3.org/1999/02/22-rdf-syntax-ns#"
   xmlns:svg="http://www.w3.org/2000/svg"
   xmlns="http://www.w3.org/2000/svg"
   xmlns:xlink="http://www.w3.org/1999/xlink"
   xmlns:sodipodi="http://sodipodi.sourceforge.net/DTD/sodipodi-0.dtd"
   xmlns:inkscape="http://www.inkscape.org/namespaces/inkscape"
   id="svg2"
   version="1.1"
   inkscape:version="0.92.3 (2405546, 2018-03-11)"
   width="2481"
   height="3503"
   sodipodi:docname="E12P01.svg">
  <sodipodi:namedview
     pagecolor="#ffffff"
     bordercolor="#666666"
     inkscape:pageopacity="0"
     inkscape:pageshadow="2"
     inkscape:window-width="1813"
     inkscape:window-height="955"
     id="namedview70"
     showgrid="false"
     inkscape:zoom="0.34782609"
     inkscape:cx="542.77407"
     inkscape:cy="481.03846"
     inkscape:current-layer="layer3"
     inkscape:window-x="0"
     inkscape:window-y="26"
     inkscape:window-maximized="0" />
  <metadata
     id="metadata8">
    <rdf:RDF>
      <cc:Work
         rdf:about="">
        <dc:format>image/svg+xml</dc:format>
        <dc:type
           rdf:resource="http://purl.org/dc/dcmitype/StillImage" />
        <dc:title />
      </cc:Work>
    </rdf:RDF>
  </metadata>
  <defs
     id="defs6">
    <filter
       style="color-interpolation-filters:sRGB"
       id="filter4375-4-1-1-15-1-3"
       inkscape:label="deevad outline effect">
      <feFlood
         id="feFlood4377-7-9-0-4-4-4"
         flood-opacity="1"
         flood-color="rgb(0,0,0)"
         result="flood" />
      <feComposite
         id="feComposite4379-3-8-8-6-0-7"
         in2="SourceGraphic"
         in="flood"
         operator="in"
         result="composite1" />
      <feMorphology
         id="feMorphology4393-1-0-49-8-2-7"
         operator="dilate"
         radius="0.59999999999999998"
         result="result3" />
      <feComposite
         id="feComposite4385-9-5-7-2-1-2"
         in2="result3"
         in="SourceGraphic"
         operator="over"
         result="composite2" />
    </filter>
    <filter
       style="color-interpolation-filters:sRGB"
       id="filter4865"
       inkscape:label="deevad outline effect">
      <feFlood
         id="feFlood4867"
         flood-opacity="1"
         flood-color="rgb(0,0,0)"
         result="flood" />
      <feComposite
         id="feComposite4869"
         in2="SourceGraphic"
         in="flood"
         operator="in"
         result="composite1" />
      <feMorphology
         id="feMorphology4871"
         operator="dilate"
         radius="0.59999999999999998"
         result="result3" />
      <feComposite
         id="feComposite4873"
         in2="result3"
         in="SourceGraphic"
         operator="over"
         result="composite2" />
    </filter>
    <filter
       style="color-interpolation-filters:sRGB"
       id="filter4875"
       inkscape:label="deevad outline effect">
      <feFlood
         id="feFlood4877"
         flood-opacity="1"
         flood-color="rgb(0,0,0)"
         result="flood" />
      <feComposite
         id="feComposite4879"
         in2="SourceGraphic"
         in="flood"
         operator="in"
         result="composite1" />
      <feMorphology
         id="feMorphology4881"
         operator="dilate"
         radius="0.59999999999999998"
         result="result3" />
      <feComposite
         id="feComposite4883"
         in2="result3"
         in="SourceGraphic"
         operator="over"
         result="composite2" />
    </filter>
    <filter
       style="color-interpolation-filters:sRGB"
       id="filter4885"
       inkscape:label="deevad outline effect">
      <feFlood
         id="feFlood4887"
         flood-opacity="1"
         flood-color="rgb(0,0,0)"
         result="flood" />
      <feComposite
         id="feComposite4889"
         in2="SourceGraphic"
         in="flood"
         operator="in"
         result="composite1" />
      <feMorphology
         id="feMorphology4891"
         operator="dilate"
         radius="0.59999999999999998"
         result="result3" />
      <feComposite
         id="feComposite4893"
         in2="result3"
         in="SourceGraphic"
         operator="over"
         result="composite2" />
    </filter>
    <filter
       style="color-interpolation-filters:sRGB"
       id="filter4895"
       inkscape:label="deevad outline effect">
      <feFlood
         id="feFlood4897"
         flood-opacity="1"
         flood-color="rgb(0,0,0)"
         result="flood" />
      <feComposite
         id="feComposite4899"
         in2="SourceGraphic"
         in="flood"
         operator="in"
         result="composite1" />
      <feMorphology
         id="feMorphology4901"
         operator="dilate"
         radius="0.59999999999999998"
         result="result3" />
      <feComposite
         id="feComposite4903"
         in2="result3"
         in="SourceGraphic"
         operator="over"
         result="composite2" />
    </filter>
    <filter
       style="color-interpolation-filters:sRGB"
       id="filter4905"
       inkscape:label="deevad outline effect">
      <feFlood
         id="feFlood4907"
         flood-opacity="1"
         flood-color="rgb(0,0,0)"
         result="flood" />
      <feComposite
         id="feComposite4909"
         in2="SourceGraphic"
         in="flood"
         operator="in"
         result="composite1" />
      <feMorphology
         id="feMorphology4911"
         operator="dilate"
         radius="0.59999999999999998"
         result="result3" />
      <feComposite
         id="feComposite4913"
         in2="result3"
         in="SourceGraphic"
         operator="over"
         result="composite2" />
    </filter>
    <filter
       style="color-interpolation-filters:sRGB"
       id="filter4915"
       inkscape:label="deevad outline effect">
      <feFlood
         id="feFlood4917"
         flood-opacity="1"
         flood-color="rgb(0,0,0)"
         result="flood" />
      <feComposite
         id="feComposite4919"
         in2="SourceGraphic"
         in="flood"
         operator="in"
         result="composite1" />
      <feMorphology
         id="feMorphology4921"
         operator="dilate"
         radius="0.59999999999999998"
         result="result3" />
      <feComposite
         id="feComposite4923"
         in2="result3"
         in="SourceGraphic"
         operator="over"
         result="composite2" />
    </filter>
    <filter
       style="color-interpolation-filters:sRGB"
       id="filter4925"
       inkscape:label="deevad outline effect">
      <feFlood
         id="feFlood4927"
         flood-opacity="1"
         flood-color="rgb(0,0,0)"
         result="flood" />
      <feComposite
         id="feComposite4929"
         in2="SourceGraphic"
         in="flood"
         operator="in"
         result="composite1" />
      <feMorphology
         id="feMorphology4931"
         operator="dilate"
         radius="0.59999999999999998"
         result="result3" />
      <feComposite
         id="feComposite4933"
         in2="result3"
         in="SourceGraphic"
         operator="over"
         result="composite2" />
    </filter>
    <filter
       style="color-interpolation-filters:sRGB"
       id="filter4375-4-1-1-1"
       inkscape:label="deevad outline effect">
      <feFlood
         id="feFlood4377-7-9-0-8"
         flood-opacity="1"
         flood-color="rgb(104,147,162)"
         result="flood" />
      <feComposite
         id="feComposite4379-3-8-8-2"
         in2="SourceGraphic"
         in="flood"
         operator="in"
         result="composite1" />
      <feMorphology
         id="feMorphology4393-1-0-49-8"
         operator="dilate"
         radius="4"
         result="result3" />
      <feComposite
         id="feComposite4385-9-5-7-0"
         in2="result3"
         in="SourceGraphic"
         operator="over"
         result="composite2" />
    </filter>
    <filter
       style="color-interpolation-filters:sRGB"
       id="filter4375-4-1-1-1-6"
       inkscape:label="deevad outline effect">
      <feFlood
         id="feFlood4377-7-9-0-8-3"
         flood-opacity="1"
         flood-color="rgb(104,147,162)"
         result="flood" />
      <feComposite
         id="feComposite4379-3-8-8-2-0"
         in2="SourceGraphic"
         in="flood"
         operator="in"
         result="composite1" />
      <feMorphology
         id="feMorphology4393-1-0-49-8-8"
         operator="dilate"
         radius="4"
         result="result3" />
      <feComposite
         id="feComposite4385-9-5-7-0-0"
         in2="result3"
         in="SourceGraphic"
         operator="over"
         result="composite2" />
    </filter>
    <filter
       style="color-interpolation-filters:sRGB"
       id="filter4375-4-1-1-1-6-4"
       inkscape:label="deevad outline effect">
      <feFlood
         id="feFlood4377-7-9-0-8-3-1"
         flood-opacity="1"
         flood-color="rgb(104,147,162)"
         result="flood" />
      <feComposite
         id="feComposite4379-3-8-8-2-0-7"
         in2="SourceGraphic"
         in="flood"
         operator="in"
         result="composite1" />
      <feMorphology
         id="feMorphology4393-1-0-49-8-8-3"
         operator="dilate"
         radius="4"
         result="result3" />
      <feComposite
         id="feComposite4385-9-5-7-0-0-8"
         in2="result3"
         in="SourceGraphic"
         operator="over"
         result="composite2" />
    </filter>
  </defs>
  <sodipodi:namedview
     pagecolor="#ffffff"
     bordercolor="#666666"
     borderopacity="1"
     objecttolerance="10"
     gridtolerance="10"
     guidetolerance="10"
     inkscape:pageopacity="0"
     inkscape:pageshadow="2"
     inkscape:window-width="1920"
     inkscape:window-height="1025"
     id="namedview4"
     showgrid="false"
     inkscape:zoom="0.32526914"
     inkscape:cx="963.09077"
     inkscape:cy="1258.795"
     inkscape:window-x="0"
     inkscape:window-y="26"
     inkscape:window-maximized="1"
     inkscape:current-layer="layer1"
     showguides="false" />
  <g
     inkscape:groupmode="layer"
     id="layer2"
     inkscape:label="artwork"
     sodipodi:insensitive="true">
    <image
       sodipodi:absref="/home/deevad/peppercarrot/webcomics/ep12_Autumn-Clearout/lang/vi/../gfx_Pepper-and-Carrot_by-David-Revoy_E12P01.png"
       xlink:href="../gfx_Pepper-and-Carrot_by-David-Revoy_E12P01.png"
       width="2481"
       height="3503"
       id="image10"
       x="0"
       y="0" />
  </g>
  <g
     inkscape:groupmode="layer"
     id="layer3"
     inkscape:label="speechbubbles"
     style="display:inline">
    <path
       style="color:#000000;display:inline;overflow:visible;visibility:visible;fill:#ffffff;fill-opacity:1;fill-rule:nonzero;stroke:none;stroke-width:1px;marker:none;enable-background:accumulate"
       d="m 1152.3403,359.6865 c 46.9224,48.193 -72.6261,148.9581 -69.9511,186.808 0.8976,12.701 4.6514,39.1331 13.894,48.482 15.5943,15.774 45.2047,6.6421 10.8388,135.377 -9.0437,28.8541 29.9664,60.646 67.9498,58.4261 14.4699,2.2199 36.9567,21.4779 4.3995,103.602 -25.6503,61.04103 109.1284,134.6241 146.8054,110.0019 -58.641,-4.35093 -123.6032,-50.38687 -131.4964,-83.57488 -3.5061,-14.29406 19.9963,-77.89826 27.2312,-108.97226 7.235,-31.0741 -37.6689,-39.43486 -50.3301,-46.09376 -12.661,-6.659 -34.0709,-5.7061 -37.6883,-23.462 -3.6174,-17.7571 21.0815,-82.2671 17.464,-115.5611 -3.6175,-33.2929 -35.6018,-40.787 -37.4106,-71.8609 -1.8087,-31.074 65.2373,-98.222 76.0523,-131.3221 13.3956,-34.9709 5.6511,-79.607 5.6511,-79.607 z"
       id="path3153"
       inkscape:connector-curvature="0"
       sodipodi:nodetypes="csscccccsscssccc" />
    <path
       style="color:#000000;display:inline;overflow:visible;visibility:visible;fill:#ffffff;fill-opacity:1;fill-rule:nonzero;stroke:none;stroke-width:1px;marker:none;enable-background:accumulate"
       d="m 938.37834,157.95055 c 7.63995,-45.36622 71.72036,-77.001625 233.01906,-64.138483 86.4002,6.890153 190.5407,13.693053 174.4458,78.999883 -15.1597,61.512 -153.9891,58.54657 -180.8125,61.79197 -29.0849,3.51903 -180.96591,-10.25238 -206.27904,-33.63366 -15.84544,-14.63605 -21.64663,-28.94048 -20.37332,-43.01971 z"
       id="path4546"
       inkscape:connector-curvature="0"
       sodipodi:nodetypes="cssssc" />
    <path
       style="color:#000000;display:inline;overflow:visible;visibility:visible;fill:#ffffff;fill-opacity:1;fill-rule:nonzero;stroke:none;stroke-width:0.99999994px;marker:none;enable-background:accumulate"
       d="m 847.37144,248.16794 c 9.34979,-45.36622 87.77204,-77.00163 285.17096,-64.13848 105.7375,6.89015 225.9549,12.51481 213.4885,78.99988 -12.4665,66.485 -185.4389,61.0098 -221.2802,61.79197 -35.8411,0.78225 -221.46779,-10.25238 -252.44621,-33.63366 -19.39189,-14.63605 -26.49133,-28.94048 -24.93305,-43.01971 z"
       id="path4546-2"
       inkscape:connector-curvature="0"
       sodipodi:nodetypes="cssssc" />
    <path
       style="color:#000000;display:inline;overflow:visible;visibility:visible;fill:#ffffff;fill-opacity:1;fill-rule:nonzero;stroke:none;stroke-width:1px;marker:none;enable-background:accumulate"
       d="m 957.48534,345.4639 c 9.67343,-45.36622 85.87906,-78.64542 290.11106,-65.78227 109.3975,6.89015 232.0683,12.20612 220.8784,78.99988 -12.8981,76.9901 -191.8579,65.13346 -228.9398,61.79196 -36.9405,-3.32875 -229.1342,-10.25238 -261.18492,-33.63366 -20.06301,-14.63604 -22.47696,-27.29668 -20.86474,-41.37591 z"
       id="path4546-1"
       inkscape:connector-curvature="0"
       sodipodi:nodetypes="cssssc" />
    <path
       style="color:#000000;display:inline;overflow:visible;visibility:visible;fill:#ffffff;fill-opacity:1;fill-rule:nonzero;stroke:none;stroke-width:1px;marker:none;enable-background:accumulate"
       d="m 831.56917,448.16793 c 9.37652,-45.36622 88.02312,-77.00156 285.98683,-64.13848 106.0399,6.89015 226.6014,12.51481 214.0994,78.99988 -12.502,66.48505 -185.9695,61.0098 -221.9132,61.79197 -35.9439,0.78225 -222.10161,-10.25238 -253.16866,-33.63366 -19.44735,-14.63605 -26.56723,-28.94048 -25.00437,-43.01971 z"
       id="path4546-8"
       inkscape:connector-curvature="0"
       sodipodi:nodetypes="cssssc" />
    <path
       style="color:#000000;display:inline;overflow:visible;visibility:visible;fill:#ffffff;fill-opacity:1;fill-rule:nonzero;stroke:none;stroke-width:1px;marker:none;enable-background:accumulate"
       d="m 1029.3574,536.50083 c 7.4329,-41.8837 69.7761,-71.09064 226.702,-59.21492 84.058,6.36123 179.6269,11.55412 169.7166,72.93549 -9.9105,61.3813 -147.418,56.32631 -175.9107,57.04852 -28.4926,0.72221 -176.06,-9.46535 -200.6869,-31.05178 -15.4158,-13.51253 -21.0597,-26.71886 -19.821,-39.71731 z"
       id="path4546-4"
       inkscape:connector-curvature="0"
       sodipodi:nodetypes="cssssc" />
    <path
       style="color:#000000;display:inline;overflow:visible;visibility:visible;fill:#ffffff;fill-opacity:1;fill-rule:nonzero;stroke:none;stroke-width:0.99999994px;marker:none;enable-background:accumulate"
       d="m 976.26482,724.30884 c 1.08823,-50.72301 89.23808,-58.10085 166.50508,-55.33413 77.2671,2.76672 216.5655,-16.60031 203.5062,80.23447 -13.0591,96.83479 -260.0962,52.56741 -267.7141,53.48973 -7.6178,0.9222 -117.53304,-17.52251 -102.29718,-78.39007 z"
       id="path5018"
       inkscape:connector-curvature="0" />
    <path
       style="color:#000000;display:inline;overflow:visible;visibility:visible;fill:#ffffff;fill-opacity:1;fill-rule:nonzero;stroke:none;stroke-width:1px;marker:none;enable-background:accumulate"
       d="m 135.67039,2065.6449 c 29.12756,-38.1325 191.90657,-38.7778 246.38507,-23.8405 54.47822,14.937 75.21,42.387 77.93654,52.2367 2.72639,9.8495 -2.60152,55.9401 -30.11003,65.602 -27.50839,9.662 -106.73058,16.0381 -134.4287,16.6918 -27.69798,0.6537 -116.23685,-2.9931 -138.88842,-15.6488 -21.66846,-12.1063 -50.02215,-56.909 -20.89446,-95.0412 z"
       id="path3330"
       inkscape:connector-curvature="0"
       sodipodi:nodetypes="zsssssz" />
    <path
       style="fill:#ffffff;fill-rule:evenodd;stroke:none;stroke-width:1px;stroke-linecap:butt;stroke-linejoin:miter;stroke-opacity:1"
       d="m 232.10654,2253.0155 c -0.38587,-47.0991 11.21951,-36.8029 31.63918,-57.6609 20.90383,-21.3527 15.58665,-34.5401 48.24761,-42.9685 27.04354,-6.9786 43.95092,4.0453 63.30838,-2.2786 19.35745,-6.3236 42.07663,-25.5405 68.93275,-26.8694 26.85612,-1.3292 50.04507,19.6399 67.26061,20.2971 17.21559,0.6571 45.64403,-12.0143 59.03392,-11.5032 13.38988,0.5111 38.74998,8.1732 54.05269,8.7573 15.30272,0.5842 21.44112,-14.7908 48.14453,-11.4173 26.70342,3.3736 32.2711,12.1327 49.56302,10.4385 17.2919,-1.6941 61.86102,-15.3551 92.31376,-9.4841 30.45274,5.8708 58.34249,29.3604 69.97222,25.0958 11.62975,-4.2645 31.41428,-22.4096 63.70352,-14.1144 32.28918,8.2953 42.8811,34.6625 60.09667,35.3197 17.2156,0.6571 38.5152,11.5136 48.0173,27.769 12.6599,21.6581 -4.7614,26.0823 5.9832,49.6672 9.298,20.4098 24.7499,-0.1383 22.6189,43.1863 -1.6842,34.2453 -34.4839,26.9741 -55.6779,30.8735 -21.1939,3.8995 -43.85701,23.052 -68.80026,24.4542 -24.94326,1.4021 -37.74865,-16.7767 -64.52841,-17.7989 -26.77976,-1.0222 -52.73023,31.0658 -75.53161,25.487 -22.80139,-5.5788 -47.63524,-19.4822 -76.02274,-17.7048 -45.84876,2.8706 -49.49588,18.7658 -76.352,20.0949 -26.85611,1.3291 -48.07703,-21.9323 -69.11828,-22.7355 -21.04124,-0.8032 -41.07646,25.4838 -71.533,19.6412 -30.34219,-5.8207 -39.81323,-22.3506 -77.06383,-28.1261 -26.56004,-4.118 -20.38238,19.7245 -50.9878,18.5563 -30.60545,-1.1683 -26.48589,-20.3413 -52.52848,-31.4662 -26.63926,-11.3797 -52.73246,7.4451 -80.25163,-4.1009 -33.96778,-14.2515 -35.33216,-35.5446 -34.49232,-61.4092 z"
       id="path5057"
       inkscape:connector-curvature="0"
       sodipodi:nodetypes="cssssssssssssssssssssssssssssc" />
    <path
       style="fill:#ffffff;stroke:none"
       d="m 1207.788,2384.9518 c -42.3391,-0.586 -45.0844,-9.2183 -46.9532,-19.4623 -1.8689,-10.244 -1.838,-20.0094 -9.9889,-22.6734 -8.1508,-2.6639 -21.5006,-2.0562 -31.6843,-0.651 -10.1838,1.4053 -34.5796,-13.8511 -48.8136,-34.7805 -13.4623,-19.7944 -27.401,-48.7409 -27.401,-48.7409 0,0 -61.20822,0.1919 -58.66177,9.0795 2.54634,8.8877 36.66447,44.4465 60.52307,63.8432 20.5407,16.6993 37.9313,30.1335 48.1885,30.5792 10.2571,0.4457 21.5162,-2.8266 29.8367,-3.7847 8.3207,-0.9584 17.3597,3.945 21.2981,11.0453 3.9383,7.1004 16.7573,21.5684 33.8698,20.9922 17.1126,-0.5761 29.7866,-5.4466 29.7866,-5.4466 z"
       id="path3023"
       inkscape:connector-curvature="0"
       sodipodi:nodetypes="csssscssssssc" />
    <flowRoot
       xml:space="preserve"
       id="flowRoot2987-7-9-9-7-0-3-4-1"
       style="font-style:normal;font-variant:normal;font-weight:normal;font-stretch:normal;line-height:0.01%;font-family:Lavi;-inkscape-font-specification:Lavi;letter-spacing:0px;word-spacing:0px;fill:#000000;fill-opacity:1;stroke:#000000;stroke-width:0.99236238;stroke-miterlimit:4;stroke-dasharray:none;stroke-opacity:1;filter:url(#filter4375-4-1-1-1)"
       transform="matrix(1.0562753,-0.69556782,0.90092392,1.7261279,180.59337,2088.7284)"><flowRegion
         id="flowRegion2989-4-5-8-7-41-7-62-2"
         style="stroke-width:5.40286207"><rect
           id="rect2991-45-1-3-3-8-0-4-6"
           width="319.66232"
           height="56.089447"
           x="120.55251"
           y="265.53046"
           style="font-style:normal;font-variant:normal;font-weight:normal;font-stretch:normal;font-family:Lavi;-inkscape-font-specification:Lavi;fill:#000000;fill-opacity:1;stroke:#000000;stroke-width:0.99236238;stroke-miterlimit:4;stroke-dasharray:none;stroke-opacity:1" /></flowRegion><flowPara
         id="flowPara2995-4-1-5-0-7-2-6-4"
         style="font-style:normal;font-variant:normal;font-weight:500;font-stretch:normal;font-size:48px;line-height:1.25;font-family:ComicSpice;-inkscape-font-specification:'ComicSpice Medium';letter-spacing:7.06853437px;fill:#ffffff;fill-opacity:1;stroke:#ffffff;stroke-width:0.99236238;stroke-linejoin:miter;stroke-miterlimit:4;stroke-dasharray:none;stroke-opacity:1">Cling</flowPara></flowRoot>    <flowRoot
       xml:space="preserve"
       id="flowRoot2987-7-9-9-7-0-3-4-1-7"
       style="font-style:normal;font-variant:normal;font-weight:normal;font-stretch:normal;line-height:0.01%;font-family:Lavi;-inkscape-font-specification:Lavi;letter-spacing:0px;word-spacing:0px;display:inline;fill:#000000;fill-opacity:1;stroke:#000000;stroke-width:0.99236238;stroke-miterlimit:4;stroke-dasharray:none;stroke-opacity:1;filter:url(#filter4375-4-1-1-1-6)"
       transform="matrix(0.52340846,-0.97512508,1.5581568,1.1543842,-194.18905,2393.1986)"><flowRegion
         id="flowRegion2989-4-5-8-7-41-7-62-2-5"
         style="stroke-width:5.40286207"><rect
           id="rect2991-45-1-3-3-8-0-4-6-5"
           width="319.66232"
           height="56.089447"
           x="120.55251"
           y="265.53046"
           style="font-style:normal;font-variant:normal;font-weight:normal;font-stretch:normal;font-family:Lavi;-inkscape-font-specification:Lavi;fill:#000000;fill-opacity:1;stroke:#000000;stroke-width:0.99236238;stroke-miterlimit:4;stroke-dasharray:none;stroke-opacity:1" /></flowRegion><flowPara
         id="flowPara2995-4-1-5-0-7-2-6-4-4"
         style="font-style:normal;font-variant:normal;font-weight:500;font-stretch:normal;font-size:48px;line-height:1.25;font-family:ComicSpice;-inkscape-font-specification:'ComicSpice Medium';letter-spacing:7.06853437px;fill:#ffffff;fill-opacity:1;stroke:#ffffff;stroke-width:0.99236238;stroke-linejoin:miter;stroke-miterlimit:4;stroke-dasharray:none;stroke-opacity:1">Clang</flowPara></flowRoot>    <flowRoot
       xml:space="preserve"
       id="flowRoot2987-7-9-9-7-0-3-4-1-7-0"
       style="font-style:normal;font-variant:normal;font-weight:normal;font-stretch:normal;line-height:0.01%;font-family:Lavi;-inkscape-font-specification:Lavi;letter-spacing:0px;word-spacing:0px;display:inline;fill:#000000;fill-opacity:1;stroke:#000000;stroke-width:0.99236238;stroke-miterlimit:4;stroke-dasharray:none;stroke-opacity:1;filter:url(#filter4375-4-1-1-1-6-4)"
       transform="matrix(1.0048804,-0.46372464,0.54958142,1.8596817,223.15829,2170.6951)"><flowRegion
         id="flowRegion2989-4-5-8-7-41-7-62-2-5-5"
         style="stroke-width:5.40286207"><rect
           id="rect2991-45-1-3-3-8-0-4-6-5-9"
           width="319.66232"
           height="56.089447"
           x="120.55251"
           y="265.53046"
           style="font-style:normal;font-variant:normal;font-weight:normal;font-stretch:normal;font-family:Lavi;-inkscape-font-specification:Lavi;fill:#000000;fill-opacity:1;stroke:#000000;stroke-width:0.99236238;stroke-miterlimit:4;stroke-dasharray:none;stroke-opacity:1" /></flowRegion><flowPara
         id="flowPara2995-4-1-5-0-7-2-6-4-4-2"
         style="font-style:normal;font-variant:normal;font-weight:500;font-stretch:normal;font-size:48px;line-height:1.25;font-family:ComicSpice;-inkscape-font-specification:'ComicSpice Medium';letter-spacing:7.06853437px;fill:#ffffff;fill-opacity:1;stroke:#ffffff;stroke-width:0.99236238;stroke-linejoin:miter;stroke-miterlimit:4;stroke-dasharray:none;stroke-opacity:1">Clong</flowPara></flowRoot>    <path
       style="color:#000000;display:inline;overflow:visible;visibility:visible;fill:#ffffff;fill-opacity:1;fill-rule:nonzero;stroke:none;stroke-width:1px;marker:none;enable-background:accumulate"
       d="m 1249.2881,2892.3092 c -29.534,-32.749 -15.015,-123.3029 -6.5765,-138.0399 8.4382,-14.737 20.0409,-12.8182 60.1228,-12.8182 40.0821,0 320.8174,-8.8824 361.9542,25.5038 41.1366,34.3864 40.082,94.1532 4.2192,134.2706 -35.8629,40.1173 -227.8345,31.9302 -227.8345,31.9302 0,0 -146.5293,0.9083 -191.8852,-40.8465 z"
       id="path3992"
       inkscape:connector-curvature="0"
       sodipodi:nodetypes="csssscc" />
    <path
       style="color:#000000;display:inline;overflow:visible;visibility:visible;fill:#ffffff;fill-opacity:1;fill-rule:nonzero;stroke:none;stroke-width:1px;marker:none;enable-background:accumulate"
       d="m 1243.8663,3382.6809 c -26.7303,-61.3814 -9.4757,-280.725 1.4483,-307.0088 10.9239,-26.2837 22.8371,-35.4047 82.2102,-34.8842 157.1694,1.3779 278.1979,-26.1501 392.267,43.7531 68.2136,41.8023 11.4745,273.387 -28.7835,322.1816 -39.8561,48.3077 -263.8684,53.9417 -263.8684,53.9417 0,0 -141.0589,0.7519 -183.2736,-77.9834 z"
       id="path3992-8"
       inkscape:connector-curvature="0"
       sodipodi:nodetypes="csssscc" />
    <path
       style="color:#000000;display:inline;overflow:visible;visibility:visible;fill:#ffffff;fill-opacity:1;fill-rule:nonzero;stroke:none;stroke-width:1px;marker:none;enable-background:accumulate"
       d="m 1665.7905,3368.5081 c 40.5884,-10.1185 137.5138,-52.531 143.8646,-60.5027 -21.0927,8.0293 -101.2009,27.8422 -129.2061,30.2825 -23.77,2.0713 -14.6585,30.2202 -14.6585,30.2202 z"
       id="path3940"
       inkscape:connector-curvature="0"
       sodipodi:nodetypes="ccsc" />
    <path
       style="color:#000000;display:inline;overflow:visible;visibility:visible;fill:#ffffff;fill-opacity:1;fill-rule:nonzero;stroke:none;stroke-width:1px;marker:none;enable-background:accumulate"
       d="m 1533.5929,2870.5837 c 1.8139,47.1601 45.3463,116.0864 91.5995,107.924 -55.3225,-26.3008 -69.8333,-87.0647 -66.2056,-101.5755 3.6277,-14.5108 -25.3939,-6.3485 -25.3939,-6.3485 z"
       id="path3978"
       inkscape:connector-curvature="0" />
    <path
       style="color:#000000;display:inline;overflow:visible;visibility:visible;fill:#ffffff;fill-opacity:1;fill-rule:nonzero;stroke:none;stroke-width:1px;marker:none;enable-background:accumulate"
       d="m 143.87498,3215.056 c -20.84959,-44.9699 15.48638,-139.0659 205.97021,-130.7458 190.48366,8.3201 221.45679,55.864 226.10263,70.127 4.646,14.2634 57.62665,92.0287 -92.20165,102.6134 -155.60498,10.9929 -293.4117,12.6807 -339.87119,-41.9946 z"
       id="path3525"
       inkscape:connector-curvature="0"
       sodipodi:nodetypes="csssc" />
    <path
       style="color:#000000;display:inline;overflow:visible;visibility:visible;fill:#ffffff;fill-opacity:1;fill-rule:nonzero;stroke:none;stroke-width:1px;marker:none;enable-background:accumulate"
       d="m 666.70509,3209.3439 c -36.07499,-39.8088 -68.97239,-17.312 -80.78972,-13.9589 -11.8173,3.3531 -54.47138,15.8178 -81.70206,-18.4008 -27.23081,-34.2187 -77.24794,-29.5002 -77.24794,-29.5002 l 39.55278,52.0565 c 0,0 45.52013,24.9069 74.86499,22.5829 29.34487,-2.3241 66.48183,-22.9142 81.24019,-21.3162 14.75833,1.5979 30.45036,-1.6253 44.08176,8.5367 z"
       id="path4018"
       inkscape:connector-curvature="0" />
  </g>
  <g
     inkscape:groupmode="layer"
     id="layer1"
     inkscape:label="txt"
     style="display:inline">
    <flowRoot
       xml:space="preserve"
       id="flowRoot2987-4-9-3"
       style="font-style:normal;font-variant:normal;font-weight:500;font-stretch:normal;line-height:0.01%;font-family:ComicSpice;-inkscape-font-specification:'ComicSpice Medium';text-align:center;letter-spacing:0px;word-spacing:0px;text-anchor:middle;fill:#000000;fill-opacity:1;stroke:none"
       transform="translate(876.21378,-143.43012)"><flowRegion
         id="flowRegion2989-5-4-5"><rect
           id="rect2991-7-9-6"
           width="357.4017"
           height="55.739929"
           x="88.052513"
           y="270.53046"
           style="font-style:normal;font-variant:normal;font-weight:500;font-stretch:normal;font-family:ComicSpice;-inkscape-font-specification:'ComicSpice Medium';text-align:center;text-anchor:middle" /></flowRegion><flowPara
         style="font-style:normal;font-variant:normal;font-weight:500;font-stretch:normal;font-size:48px;line-height:1.25;font-family:ComicSpice;-inkscape-font-specification:'ComicSpice Medium';text-align:center;text-anchor:middle"
         id="flowPara3030-8">Thuốc tươi cười</flowPara></flowRoot>    <flowRoot
       xml:space="preserve"
       id="flowRoot2987-4-9-3-7"
       style="font-style:normal;font-variant:normal;font-weight:500;font-stretch:normal;line-height:0.01%;font-family:ComicSpice;-inkscape-font-specification:'ComicSpice Medium';text-align:center;letter-spacing:0px;word-spacing:0px;text-anchor:middle;fill:#000000;fill-opacity:1;stroke:none"
       transform="translate(694.48739,-43.535341)"><flowRegion
         id="flowRegion2989-5-4-5-5"><rect
           id="rect2991-7-9-6-9"
           width="519.54474"
           height="99.195747"
           x="120.55251"
           y="265.53046"
           style="font-style:normal;font-variant:normal;font-weight:500;font-stretch:normal;font-family:ComicSpice;-inkscape-font-specification:'ComicSpice Medium';text-align:center;text-anchor:middle" /></flowRegion><flowPara
         style="font-style:normal;font-variant:normal;font-weight:500;font-stretch:normal;font-size:48px;line-height:1.25;font-family:ComicSpice;-inkscape-font-specification:'ComicSpice Medium';text-align:center;text-anchor:middle"
         id="flowPara4172">Thần dược mọc tóc</flowPara></flowRoot>    <flowRoot
       xml:space="preserve"
       id="flowRoot2987-4-9-3-7-8"
       style="font-style:normal;font-variant:normal;font-weight:500;font-stretch:normal;line-height:0.01%;font-family:ComicSpice;-inkscape-font-specification:'ComicSpice Medium';text-align:center;letter-spacing:0px;word-spacing:0px;text-anchor:middle;fill:#000000;fill-opacity:1;stroke:none"
       transform="translate(831.57417,57.517967)"><flowRegion
         id="flowRegion2989-5-4-5-5-1"><rect
           id="rect2991-7-9-6-9-5"
           width="524.90173"
           height="98.239929"
           x="120.55251"
           y="265.53046"
           style="font-style:normal;font-variant:normal;font-weight:500;font-stretch:normal;font-family:ComicSpice;-inkscape-font-specification:'ComicSpice Medium';text-align:center;text-anchor:middle" /></flowRegion><flowPara
         style="font-style:normal;font-variant:normal;font-weight:500;font-stretch:normal;font-size:48px;line-height:1.25;font-family:ComicSpice;-inkscape-font-specification:'ComicSpice Medium';text-align:center;text-anchor:middle"
         id="flowPara4217">Thuối bong bóng thối</flowPara></flowRoot>    <flowRoot
       xml:space="preserve"
       id="flowRoot2987-4-9-3-7-8-6"
       style="font-style:normal;font-variant:normal;font-weight:500;font-stretch:normal;line-height:0.01%;font-family:ComicSpice;-inkscape-font-specification:'ComicSpice Medium';text-align:center;letter-spacing:0px;word-spacing:0px;text-anchor:middle;fill:#000000;fill-opacity:1;stroke:none"
       transform="translate(696.99374,155.88661)"><flowRegion
         id="flowRegion2989-5-4-5-5-1-2"><rect
           id="rect2991-7-9-6-9-5-7"
           width="524.90173"
           height="117.24342"
           x="120.55251"
           y="265.53046"
           style="font-style:normal;font-variant:normal;font-weight:500;font-stretch:normal;font-family:ComicSpice;-inkscape-font-specification:'ComicSpice Medium';text-align:center;text-anchor:middle" /></flowRegion><flowPara
         style="font-style:normal;font-variant:normal;font-weight:500;font-stretch:normal;font-size:48px;line-height:1.25;font-family:ComicSpice;-inkscape-font-specification:'ComicSpice Medium';text-align:center;text-anchor:middle"
         id="flowPara4217-8">Thần dược &quot;Niềm tin&quot;</flowPara></flowRoot>    <flowRoot
       xml:space="preserve"
       id="flowRoot2987-4-9-3-7-8-6-6"
       style="font-style:normal;font-variant:normal;font-weight:500;font-stretch:normal;line-height:0.01%;font-family:ComicSpice;-inkscape-font-specification:'ComicSpice Medium';text-align:center;letter-spacing:0px;word-spacing:0px;text-anchor:middle;fill:#000000;fill-opacity:1;stroke:none"
       transform="translate(829.61469,246.28329)"><flowRegion
         id="flowRegion2989-5-4-5-5-1-2-4"><rect
           id="rect2991-7-9-6-9-5-7-2"
           width="524.90173"
           height="98.239929"
           x="120.55251"
           y="265.53046"
           style="font-style:normal;font-variant:normal;font-weight:500;font-stretch:normal;font-family:ComicSpice;-inkscape-font-specification:'ComicSpice Medium';text-align:center;text-anchor:middle" /></flowRegion><flowPara
         style="font-style:normal;font-variant:normal;font-weight:500;font-stretch:normal;font-size:48px;line-height:1.25;font-family:ComicSpice;-inkscape-font-specification:'ComicSpice Medium';text-align:center;text-anchor:middle"
         id="flowPara4217-8-6">Thuốc tạo khói...</flowPara></flowRoot>    <flowRoot
       xml:space="preserve"
       id="flowRoot2987-4-9-3-7-8-6-6-6"
       style="font-style:normal;font-variant:normal;font-weight:500;font-stretch:normal;line-height:0.01%;font-family:ComicSpice;-inkscape-font-specification:'ComicSpice Medium';text-align:center;letter-spacing:0px;word-spacing:0px;text-anchor:middle;fill:#000000;fill-opacity:1;stroke:none"
       transform="translate(818.11472,444.61233)"><flowRegion
         id="flowRegion2989-5-4-5-5-1-2-4-2"><rect
           id="rect2991-7-9-6-9-5-7-2-1"
           width="313.02673"
           height="203.23993"
           x="188.05251"
           y="245.53046"
           style="font-style:normal;font-variant:normal;font-weight:500;font-stretch:normal;font-family:ComicSpice;-inkscape-font-specification:'ComicSpice Medium';text-align:center;text-anchor:middle" /></flowRegion><flowPara
         style="font-style:normal;font-variant:normal;font-weight:500;font-stretch:normal;font-size:48px;line-height:1.25;font-family:ComicSpice;-inkscape-font-specification:'ComicSpice Medium';text-align:center;text-anchor:middle"
         id="flowPara3559">... Đấy chỉ là một số ít!</flowPara></flowRoot>    <flowRoot
       xml:space="preserve"
       id="flowRoot2987-4-9-3-7-8-6-6-6-0"
       style="font-style:normal;font-variant:normal;font-weight:500;font-stretch:normal;line-height:0.01%;font-family:ComicSpice;-inkscape-font-specification:'ComicSpice Medium';text-align:center;letter-spacing:0px;word-spacing:0px;text-anchor:middle;display:inline;fill:#000000;fill-opacity:1;stroke:none"
       transform="translate(-89.870612,1787.1466)"><flowRegion
         id="flowRegion2989-5-4-5-5-1-2-4-2-0"><rect
           id="rect2991-7-9-6-9-5-7-2-1-3"
           width="504.9017"
           height="183.23993"
           x="120.55251"
           y="265.53046"
           style="font-style:normal;font-variant:normal;font-weight:500;font-stretch:normal;font-family:ComicSpice;-inkscape-font-specification:'ComicSpice Medium';text-align:center;text-anchor:middle" /></flowRegion><flowPara
         style="font-style:normal;font-variant:normal;font-weight:500;font-stretch:normal;font-size:48px;line-height:1.25;font-family:ComicSpice;-inkscape-font-specification:'ComicSpice Medium';text-align:center;text-anchor:middle"
         id="flowPara4297-3">Được rồi, con</flowPara><flowPara
         style="font-style:normal;font-variant:normal;font-weight:500;font-stretch:normal;font-size:48px;line-height:1.25;font-family:ComicSpice;-inkscape-font-specification:'ComicSpice Medium';text-align:center;text-anchor:middle"
         id="flowPara3468">biết:</flowPara></flowRoot>    <flowRoot
       xml:space="preserve"
       id="flowRoot2987-4-9-3-7-8-6-6-6-0-7"
       style="font-style:normal;font-variant:normal;font-weight:500;font-stretch:normal;line-height:0.01%;font-family:ComicSpice;-inkscape-font-specification:'ComicSpice Medium';text-align:center;letter-spacing:0px;word-spacing:0px;text-anchor:middle;display:inline;fill:#000000;fill-opacity:1;stroke:none"
       transform="translate(89.7412,1924.29)"><flowRegion
         id="flowRegion2989-5-4-5-5-1-2-4-2-0-8"><rect
           id="rect2991-7-9-6-9-5-7-2-1-3-2"
           width="872.77673"
           height="198.86493"
           x="120.55251"
           y="265.53046"
           style="font-style:normal;font-variant:normal;font-weight:500;font-stretch:normal;font-family:ComicSpice;-inkscape-font-specification:'ComicSpice Medium';text-align:center;text-anchor:middle" /></flowRegion><flowPara
         style="font-style:normal;font-variant:normal;font-weight:500;font-stretch:normal;font-size:48px;line-height:1.25;font-family:ComicSpice;-inkscape-font-specification:'ComicSpice Medium';text-align:center;text-anchor:middle"
         id="flowPara5032">&quot;Một-phù-thủy-Chaosad-thật-sự-không</flowPara><flowPara
         style="font-style:normal;font-variant:normal;font-weight:500;font-stretch:normal;font-size:48px;line-height:1.25;font-family:ComicSpice;-inkscape-font-specification:'ComicSpice Medium';text-align:center;text-anchor:middle"
         id="flowPara3470">tạo-ra-mấy-loại-thuốc-vớ-vẩn-này&quot;.</flowPara></flowRoot>    <flowRoot
       xml:space="preserve"
       id="flowRoot2987-4-9-3-7-8-6-6-6-0-70"
       style="font-style:normal;font-variant:normal;font-weight:500;font-stretch:normal;line-height:0.01%;font-family:ComicSpice;-inkscape-font-specification:'ComicSpice Medium';text-align:center;letter-spacing:0px;word-spacing:0px;text-anchor:middle;display:inline;fill:#000000;fill-opacity:1;stroke:none"
       transform="translate(1109.8475,2521.4522)"><flowRegion
         id="flowRegion2989-5-4-5-5-1-2-4-2-0-87"><rect
           id="rect2991-7-9-6-9-5-7-2-1-3-1"
           width="504.9017"
           height="183.23993"
           x="120.55251"
           y="265.53046"
           style="font-style:normal;font-variant:normal;font-weight:500;font-stretch:normal;font-family:ComicSpice;-inkscape-font-specification:'ComicSpice Medium';text-align:center;text-anchor:middle" /></flowRegion><flowPara
         style="font-style:normal;font-variant:normal;font-weight:500;font-stretch:normal;font-size:48px;line-height:1.25;font-family:ComicSpice;-inkscape-font-specification:'ComicSpice Medium';text-align:center;text-anchor:middle"
         id="flowPara4376">Ta có việc ở </flowPara><flowPara
         style="font-style:normal;font-variant:normal;font-weight:500;font-stretch:normal;font-size:48px;line-height:1.25;font-family:ComicSpice;-inkscape-font-specification:'ComicSpice Medium';text-align:center;text-anchor:middle"
         id="flowPara3476">khu chợ Komona.</flowPara></flowRoot>    <flowRoot
       xml:space="preserve"
       id="flowRoot2987-4-9-3-7-8-6-6-6-0-70-6"
       style="font-style:normal;font-variant:normal;font-weight:500;font-stretch:normal;line-height:0.01%;font-family:ComicSpice;-inkscape-font-specification:'ComicSpice Medium';text-align:center;letter-spacing:0px;word-spacing:0px;text-anchor:middle;display:inline;fill:#000000;fill-opacity:1;stroke:none"
       transform="translate(1162.1662,2809.9005)"><flowRegion
         id="flowRegion2989-5-4-5-5-1-2-4-2-0-87-8"><rect
           id="rect2991-7-9-6-9-5-7-2-1-3-1-0"
           width="424.0267"
           height="378.08185"
           x="120.55251"
           y="265.53046"
           style="font-style:normal;font-variant:normal;font-weight:500;font-stretch:normal;font-family:ComicSpice;-inkscape-font-specification:'ComicSpice Medium';text-align:center;text-anchor:middle" /></flowRegion><flowPara
         style="font-style:normal;font-variant:normal;font-weight:500;font-stretch:normal;font-size:48px;line-height:1.25;font-family:ComicSpice;-inkscape-font-specification:'ComicSpice Medium';text-align:center;text-anchor:middle"
         id="flowPara4427">Hãy dọn sạch chỗ này khi ta đi vắng; </flowPara><flowPara
         style="font-style:normal;font-variant:normal;font-weight:500;font-stretch:normal;font-size:48px;line-height:1.25;font-family:ComicSpice;-inkscape-font-specification:'ComicSpice Medium';text-align:center;text-anchor:middle"
         id="flowPara3547">sẽ koong tốt nếu một tên dở hơi nào tìm thấy và nghịch với chúng.</flowPara></flowRoot>    <flowRoot
       xml:space="preserve"
       id="flowRoot2987-4-9-3-7-8-6-6-6-0-70-60-4"
       style="font-style:normal;font-variant:normal;font-weight:500;font-stretch:normal;line-height:0.01%;font-family:ComicSpice;-inkscape-font-specification:'ComicSpice Medium';text-align:center;letter-spacing:0px;word-spacing:0px;text-anchor:middle;display:inline;fill:#000000;fill-opacity:1;stroke:none"
       transform="translate(-6.288536,2838.0367)"><flowRegion
         id="flowRegion2989-5-4-5-5-1-2-4-2-0-87-5-8"><rect
           id="rect2991-7-9-6-9-5-7-2-1-3-1-7-0"
           width="504.9017"
           height="183.23993"
           x="120.55251"
           y="265.53046"
           style="font-style:normal;font-variant:normal;font-weight:500;font-stretch:normal;font-family:ComicSpice;-inkscape-font-specification:'ComicSpice Medium';text-align:center;text-anchor:middle" /></flowRegion><flowPara
         style="font-style:normal;font-variant:normal;font-weight:500;font-stretch:normal;font-size:48px;line-height:1.25;font-family:ComicSpice;-inkscape-font-specification:'ComicSpice Medium';text-align:center;text-anchor:middle"
         id="flowPara3570">Đúng Thế. </flowPara><flowPara
         style="font-style:normal;font-variant:normal;font-weight:500;font-stretch:normal;font-size:48px;line-height:1.25;font-family:ComicSpice;-inkscape-font-specification:'ComicSpice Medium';text-align:center;text-anchor:middle"
         id="flowPara3474">Và nó sẽ luôn là như thế.</flowPara></flowRoot>  </g>
</svg>
