<?xml version="1.0" encoding="UTF-8" standalone="no"?>
<!-- Created With Inkscape (http://www.inkscape.org/) -->

<svg
   xmlns:dc="http://purl.org/dc/elements/1.1/"
   xmlns:cc="http://creativecommons.org/ns#"
   xmlns:rdf="http://www.w3.org/1999/02/22-rdf-syntax-ns#"
   xmlns:svg="http://www.w3.org/2000/svg"
   xmlns="http://www.w3.org/2000/svg"
   xmlns:xlink="http://www.w3.org/1999/xlink"
   xmlns:sodipodi="http://sodipodi.sourceforge.net/DTD/sodipodi-0.dtd"
   xmlns:inkscape="http://www.inkscape.org/namespaces/inkscape"
   id="svg2"
   version="1.1"
   inkscape:version="0.92.5 (2060ec1f9f, 2020-04-08)"
   width="2646.3999"
   height="3736.5334"
   sodipodi:docname="E14P02.svg"
   viewBox="0 0 2481 3503">
  <metadata
     id="metadata8">
    <rdf:RDF>
      <cc:Work
         rdf:about="">
        <dc:format>image/svg+xml</dc:format>
        <dc:type
           rdf:resource="http://purl.org/dc/dcmitype/StillImage" />
        <dc:title />
      </cc:Work>
    </rdf:RDF>
  </metadata>
  <defs
     id="defs6" />
  <sodipodi:namedview
     pagecolor="#ffffff"
     bordercolor="#666666"
     borderopacity="1"
     objecttolerance="10"
     gridtolerance="10"
     guidetolerance="10"
     inkscape:pageopacity="0"
     inkscape:pageshadow="2"
     inkscape:window-width="1866"
     inkscape:window-height="1016"
     id="namedview4"
     showgrid="false"
     inkscape:zoom="0.43016844"
     inkscape:cx="1314.4777"
     inkscape:cy="736.90044"
     inkscape:window-x="54"
     inkscape:window-y="27"
     inkscape:window-maximized="1"
     inkscape:current-layer="layer1" />
  <g
     inkscape:groupmode="layer"
     id="layer2"
     inkscape:label="artwork"
     sodipodi:insensitive="true">
    <image
       sodipodi:absref="/home/user/lojban/webcomics/ep14_The-Dragon-s-Tooth/lang/jb/../gfx_Pepper-and-Carrot_by-David-Revoy_E14P02.png"
       xlink:href="../gfx_Pepper-and-Carrot_by-David-Revoy_E14P02.png"
       y="0"
       x="0"
       id="image10"
       height="3503"
       width="2481" />
  </g>
  <g
     inkscape:groupmode="layer"
     id="layer3"
     inkscape:label="speechbubbles">
    <path
       style="fill:#ffffff;fill-rule:evenodd;stroke:none;stroke-width:0.92229909px;stroke-linecap:butt;stroke-linejoin:miter;stroke-opacity:1"
       d="m 116.38873,125.01045 c 27.1047,12.84293 67.74956,22.40868 2.79653,57.53267 24.64636,2.26732 55.02707,3.03659 30.76187,18.08169 9.35093,15.34205 -22.16698,30.68409 -44.74454,46.02614 23.61605,-5.37034 47.89835,-14.19368 16.43823,19.28423 16.89812,-0.95142 14.52494,7.80651 -8.04862,26.7419 53.29145,-35.32444 71.86144,-44.16601 74.10814,-16.4379 6.72518,-14.81655 19.80294,-18.68176 11.18613,29.58823 34.84,-84.74422 5.02857,85.59582 -4.1948,251.49995 17.11381,-76.23729 47.668,-388.11014 51.73587,-230.13068 27.2811,-113.64788 66.02155,-18.86794 74.10814,-6.57516 -6.78666,-88.47609 42.93207,-51.77102 55.93066,-18.0817 -3.35097,-21.58677 12.58979,-65.06529 60.1681,-11.9905 -11.3443,-19.50565 -3.62372,-39.66182 39.10884,8.70292 -12.95927,-32.25639 11.0472,-41.3421 85.84142,-10.62404 -0.57695,-16.00848 -7.87162,-32.85826 70.76446,-4.17007 -1.47524,-14.70024 -17.50845,-34.9626 89.48907,-8.21895 0.698,-25.65455 17.93348,-27.19316 47.96176,-15.2327 -5.12989,-22.04605 27.66446,-11.95183 69.22987,2.97228 -26.47321,-30.16714 9.62276,-26.77992 61.7865,-17.32781 -5.06528,-14.61437 -12.30699,-29.62237 18.17749,-37.80719 -31.13752,-34.91827 1.41248,-37.0807 11.18611,-50.9575 -21.92853,2.42931 -38.84861,-10.0765 -13.57291,-28.34529 -44.26809,6.75374 -28.01245,-14.35273 -25.57853,-25.8998 l -71.31162,-18.081696 -69.91334,-8.218953 -83.896,-8.218953 -78.30294,-1.64379 h -79.7012 l -69.91334,3.287581 -60.12547,-8.218953 -61.52373,8.218953 -86.69255,-1.643791 -41.94799,27.944439 z"
       id="path4323"
       inkscape:connector-curvature="0"
       sodipodi:nodetypes="ccccccccccccccccccccccccccccccccccc" />
    <path
       style="fill:#ffffff;stroke:none;stroke-width:1.03587413"
       d="m 740.1295,396.43448 c -2.1836,-25.10988 36.96654,-87.97005 227.93921,-83.2419 190.97279,4.72812 250.74419,32.34816 256.34059,76.98102 8.853,70.60794 -91.6176,89.4768 -235.88415,94.70667 -148.72326,5.39152 -250.70392,-43.0762 -248.39565,-88.44579 z"
       id="path3280"
       inkscape:connector-curvature="0"
       sodipodi:nodetypes="csssc" />
    <path
       style="color:#000000;display:inline;overflow:visible;visibility:visible;fill:#ffffff;fill-opacity:1;fill-rule:nonzero;stroke:none;stroke-width:1px;marker:none;enable-background:accumulate"
       d="m 816.05405,568.35967 c 39.18491,-37.68963 73.342,-77.76882 65.62626,-117.15486 -10.90688,-55.67559 -9.43261,-29.77014 -9.43261,-29.77014 l 41.81204,36.16737 c 4.42223,-1.37242 6.88006,49.17295 -98.00569,110.75763 z"
       id="path3072"
       inkscape:connector-curvature="0"
       sodipodi:nodetypes="csccc" />
    <path
       style="fill:#ffffff;fill-rule:evenodd;stroke:none;stroke-width:0.72332466px;stroke-linecap:butt;stroke-linejoin:miter;stroke-opacity:1"
       d="m 1395.1026,398.76455 c 6.4233,-21.07185 23.7204,-37.05969 42.5455,-47.73258 8.9588,-5.1527 19.199,-8.92873 29.6776,-7.9355 10.4098,0.59345 20.5778,4.13674 31.1029,2.906 12.7982,-0.40647 25.8211,-2.17999 38.4723,0.3542 11.2466,2.76512 22.8337,4.1972 34.4393,4.28026 8.1874,-1.75518 15.6793,2.92285 22.9912,5.72086 6.5642,3.0223 13.2689,6.19319 18.7824,10.8682 5.0796,6.56275 11.1618,12.27225 16.3006,18.77659 3.3626,3.55587 3.0395,8.46746 2.8846,13.01306 -0.4368,9.30842 -1.1763,18.76379 -3.9212,27.73166 -1.6427,5.69342 -7.7142,7.57757 -12.3794,10.19379 -11.0387,5.52283 -22.7605,9.71098 -33.2956,16.21017 -10.4371,3.32792 -21.529,1.77129 -32.2329,1.26838 -8.9692,-0.99062 -17.9915,-2.372 -27.0378,-1.22001 -11.5137,0.84303 -22.9924,3.02586 -34.5473,2.74627 -14.4751,-1.91862 -28.3382,-6.64274 -42.3657,-10.43229 -12.5853,-3.34013 -24.0557,-9.62095 -35.0619,-16.33981 -5.879,-3.8154 -12.1029,-8.25027 -14.1776,-15.28159 -1.7008,-4.84167 -2.1016,-10.02593 -2.177,-15.12766 z"
       id="path4365"
       inkscape:connector-curvature="0" />
    <path
       style="fill:#ffffff;stroke:none"
       d="m 1600.5998,539.46175 c -28.0754,-14.3263 -28.0705,-24.10879 -27.1393,-35.26758 0.931,-11.15875 3.0258,-21.20884 -1.8373,-26.59493 -4.8629,-5.38607 -13.8837,-9.08681 -20.965,-10.93985 -7.0813,-1.85304 -2.5775,-10.15393 -3.484,-17.79341 -0.9066,-7.63954 -20.1711,-44.64576 -20.1711,-44.64576 0,0 -10.2917,29.72026 -10.4833,39.70135 -0.1918,9.98106 -0.313,13.62987 0.7147,17.62055 1.0279,3.99076 5.0156,13.43659 11.7527,17.22018 6.7371,3.78364 14.9313,4.06179 20.6767,5.77151 5.7455,1.70964 6.255,10.50318 7.37,19.09418 1.1149,8.59099 3.3294,14.64819 14.8496,23.66417 9.8749,7.72832 28.7163,12.16959 28.7163,12.16959 z"
       id="path3023"
       inkscape:connector-curvature="0"
       sodipodi:nodetypes="csssscssssssc" />
    <path
       style="fill:#ffffff;fill-rule:evenodd;stroke:none;stroke-width:1px;stroke-linecap:butt;stroke-linejoin:miter;stroke-opacity:1"
       d="m 568.8634,1318.3227 c 104.31326,44.7459 702.5032,155.1743 811.2553,71.8972 58.8149,31.0736 60.5988,42.1012 121.6331,4.8129 89.8869,43.503 111.1049,28.7465 133.2993,20.0459 48.5521,7.5979 70.9469,10.8128 141.1257,39.7648 -74.8014,-20.5225 -93.9086,-23.7561 -138.3472,-25.7747 -64.3635,22.373 -112.0813,-6.2147 -133.1658,-17.4012 -62.5836,39.1667 -64.7247,30.9426 -125.6546,-6.0558 -65.191,62.6405 -404.44384,23.8741 -807.88989,-63.3003 4.43886,-12.4294 -2.25591,-23.9888 -2.25591,-23.9888 z"
       id="path4385"
       inkscape:connector-curvature="0"
       sodipodi:nodetypes="cccccccccc" />
    <path
       style="color:#000000;display:inline;overflow:visible;visibility:visible;fill:#ffffff;fill-opacity:1;fill-rule:nonzero;stroke:none;stroke-width:0.91902453px;marker:none;enable-background:accumulate"
       d="m 210.53079,1296.3558 c 15.07564,-24.4048 46.78647,-44.927 88.37444,-53.2468 41.58793,-8.3199 118.52567,-6.1013 132.04182,-3.328 13.51602,2.7733 87.85451,12.757 103.96979,26.6234 16.11539,13.8664 37.94906,31.0607 42.62767,48.8096 4.67877,17.7489 0.51993,60.4574 -14.55575,69.8866 -15.07563,9.4292 -83.69575,29.9512 -123.72422,31.0606 -40.02843,1.1093 -133.08138,-7.7651 -159.59378,-13.8663 -26.5123,-6.1012 -54.58417,-13.8664 -62.90175,-33.2793 -8.31762,-19.413 -23.9131,-44.9271 -6.23822,-72.6598 z"
       id="path3533"
       inkscape:connector-curvature="0" />
    <path
       style="color:#000000;display:inline;overflow:visible;visibility:visible;fill:#ffffff;fill-opacity:1;fill-rule:nonzero;stroke:none;stroke-width:1.22100377px;marker:none;enable-background:accumulate"
       d="m 951.84641,1419.7186 c 1.29826,-33.5988 18.09202,-48.879 82.95789,-54.035 66.3216,-5.2715 317.6362,-0.8543 365.9368,13.4829 36.3003,10.7749 45.0949,29.3632 40.9304,51.2876 -3.8188,20.1057 -52.8523,42.0863 -134.4771,46.1473 -82.2134,4.0905 -226.2151,0.1265 -270.3488,-8.464 -44.13382,-8.5902 -82.33061,-21.5849 -84.99919,-48.4188 z"
       id="path3986"
       inkscape:connector-curvature="0"
       sodipodi:nodetypes="csssssc" />
    <path
       style="fill:#ffffff;fill-rule:evenodd;stroke:none;stroke-width:1px;stroke-linecap:butt;stroke-linejoin:miter;stroke-opacity:1"
       d="m 130.37091,2140.9069 c -66.601867,143.3288 421.72752,84.8962 462.88452,78.4896 33.60794,-3.9095 57.01139,-56.4084 13.05195,-95.9393 -23.1926,-23.0368 -411.27463,-58.7088 -475.93647,17.4497 z"
       id="path4430"
       inkscape:connector-curvature="0"
       sodipodi:nodetypes="cccc" />
    <path
       style="color:#000000;display:inline;overflow:visible;visibility:visible;fill:#ffffff;fill-opacity:1;fill-rule:nonzero;stroke:none;stroke-width:1px;marker:none;enable-background:accumulate"
       d="m 691.0979,2336.639 c -25.68011,21.5473 -245.05987,46.666 -323.03063,3.4441 -77.97075,-43.2218 -31.99818,-96.3486 12.04039,-113.5183 44.03847,-17.1699 174.15338,-36.7147 233.90501,-22.8786 59.75174,13.8359 106.46587,34.9031 110.22463,78.87 1.53409,17.9446 -7.45918,32.5354 -33.1394,54.0828 z"
       id="path4040"
       inkscape:connector-curvature="0"
       sodipodi:nodetypes="zssssz" />
    <path
       style="fill:#ffffff;stroke:none"
       d="m 841.66543,2570.7124 c -168.20546,-56.9231 -212.36128,-102.467 -272.87963,-227.2396 -31.03877,-63.9937 16.40761,-58.7269 16.40761,-58.7269 l -66.84596,-12.0365 c 0,0 -19.9862,-53.8679 0.8035,1.8299 20.7897,55.6978 51.93247,244.4932 322.51448,296.1731 z"
       id="path3063"
       inkscape:connector-curvature="0"
       sodipodi:nodetypes="cscczc" />
    <path
       style="color:#000000;display:inline;overflow:visible;visibility:visible;fill:#ffffff;fill-opacity:1;fill-rule:nonzero;stroke:none;stroke-width:1px;marker:none;enable-background:accumulate"
       d="m 1728.335,3182.8918 c 22.7187,-40.6995 52.4055,-69.568 115.9988,-84.1355 63.5934,-14.5674 181.516,-12.3555 202.2693,-8.0198 20.7533,4.3354 134.8142,19.4552 159.7232,42.111 24.9094,22.6557 34.3327,47.8547 41.7786,77.157 7.4458,29.3022 7.0803,87.657 -21.2126,116.0043 -34.4021,34.4683 -103.4762,54.0469 -164.7925,56.6444 -61.3163,2.5976 -204.0351,-10.3297 -244.7541,-19.9292 -40.7186,-9.5994 -65.2709,-27.6421 -78.3184,-59.6306 -13.0476,-31.9887 -37.3419,-73.9422 -10.6923,-120.2016 z"
       id="path3533-6"
       inkscape:connector-curvature="0"
       sodipodi:nodetypes="cscssssssc" />
    <path
       style="color:#000000;display:inline;overflow:visible;visibility:visible;fill:#ffffff;fill-opacity:1;fill-rule:nonzero;stroke:none;stroke-width:1px;marker:none;enable-background:accumulate"
       d="m 1785.6357,3186.0855 c -20.1616,13.8181 16.9174,30.9609 -6.7481,39.3015 -23.6655,8.3406 -108.0753,7.8791 -138.1193,-16.3542 -60.0878,-48.4667 -44.2285,-81.6926 -44.2285,-81.6926 -2.0578,20.4814 35.0801,106.8869 189.0959,58.7453 z"
       id="path5002"
       inkscape:connector-curvature="0"
       sodipodi:nodetypes="csscc" />
    <path
       style="color:#000000;display:inline;overflow:visible;visibility:visible;fill:#ffffff;fill-opacity:1;fill-rule:nonzero;stroke:none;stroke-width:1.07568455px;marker:none;enable-background:accumulate"
       d="m 608.92074,1413.7348 c -7.94705,22.2136 -52.76956,24.0763 -69.26997,19.561 33.261,24.85 32.10145,40.2897 -13.05763,42.687 75.73254,44.7862 13.84494,38.009 1.63803,49.3655 59.46405,15.4343 32.85923,34.6427 22.27255,53.7643 68.34807,0.6568 35.43599,12.831 17.41967,39.3748 19.31342,-11.7866 70.23212,-45.7392 66.41944,8.8459 36.81585,-30.3113 78.56816,-44.0496 103.98414,3.8548 18.21515,-32.6147 36.99744,-50.6979 69.79692,-3.2003 -8.96298,-51.1315 50.86895,-36.6815 91.6662,-22.3817 -9.68756,-13.6675 6.70847,-49.1497 46.62984,-33.2327 -27.11812,-22.3492 6.84414,-25.5401 33.27733,-31.7186 -35.12552,-9.1431 -41.59904,-18.574 23.62114,-28.7231 -49.62871,-0.9817 -95.90788,-2.993 -37.68253,-37.6044 -18.26691,-0.8375 -61.60706,28.0432 -41.40017,-56.4768 -31.41098,27.0578 -64.92365,41.9918 -106.95157,-14.6874 -19.88975,28.3158 -54.38806,42.3276 -69.39651,6.9589 -5.39436,15.0783 -27.76222,20.749 -46.75085,21.4367 -7.34294,-5.9894 -14.91633,-14.1245 -22.8195,-24.7828 -12.9171,22.3796 -32.23966,37.4938 -69.39653,6.9589 z"
       id="path3549-3-7"
       inkscape:connector-curvature="0"
       sodipodi:nodetypes="cccccccccccccccccccc" />
    <path
       style="color:#000000;display:inline;overflow:visible;visibility:visible;fill:#ffffff;fill-opacity:1;fill-rule:nonzero;stroke:none;stroke-width:1px;marker:none;enable-background:accumulate"
       d="m 548.30505,1489.5343 c -32.71667,-14.168 -100.80088,-25.7605 -117.75539,-27.2872 -20.27048,14.0102 -50.61242,35.3064 -73.20544,50.1722 -5.31176,-1.4012 -91.51271,-47.8708 -99.56707,-45.7537 -8.05422,2.1172 -79.0692,29.9973 -84.37818,37.4927 18.70636,-20.5749 83.14331,-49.601 95.87634,-50.1894 8.58229,-0.7407 80.53436,35.2542 83.66571,38.0832 15.04972,-15.8838 71.20105,-48.2854 79.8175,-52.493 13.26097,0.788 64.22973,3.8642 121.88704,24.3755 57.65735,20.5113 -6.34051,25.5997 -6.34051,25.5997 z"
       id="path5901"
       inkscape:connector-curvature="0"
       sodipodi:nodetypes="ccccccccsc" />
  </g>
  <g
     inkscape:groupmode="layer"
     id="layer1"
     inkscape:label="txt">
    <text
       xml:space="preserve"
       style="font-style:normal;font-variant:normal;font-weight:normal;font-stretch:normal;line-height:0%;font-family:Lavi;-inkscape-font-specification:Lavi;text-align:center;letter-spacing:0px;word-spacing:0px;text-anchor:middle;fill:#000000;fill-opacity:1;stroke:none"
       x="517.96368"
       y="166.83237"
       id="text4246"><tspan
         sodipodi:role="line"
         style="font-style:normal;font-variant:normal;font-weight:normal;font-stretch:normal;font-size:45px;line-height:1.25;font-family:Lavi;-inkscape-font-specification:Lavi"
         x="517.96368"
         y="166.83237"
         id="tspan3437">.i pei doi la .kaien. .e la .timian. do</tspan><tspan
         sodipodi:role="line"
         style="font-style:normal;font-variant:normal;font-weight:normal;font-stretch:normal;font-size:45px;line-height:1.25;font-family:Lavi;-inkscape-font-specification:Lavi"
         x="517.96368"
         y="223.08237"
         id="tspan3590">cpacu la denci be la drakono</tspan></text>
    <text
       xml:space="preserve"
       style="font-style:normal;font-variant:normal;font-weight:normal;font-stretch:normal;line-height:0%;font-family:Lavi;-inkscape-font-specification:Lavi;text-align:center;letter-spacing:0px;word-spacing:0px;text-anchor:middle;fill:#000000;fill-opacity:1;stroke:none"
       x="972.8573"
       y="396.87469"
       id="text4246-7"><tspan
         sodipodi:role="line"
         style="font-size:45px;line-height:1.25"
         x="972.8573"
         y="396.87469"
         id="tspan4144-1">.i mi ca ro nu lenku</tspan><tspan
         sodipodi:role="line"
         style="font-size:45px;line-height:1.25"
         x="972.8573"
         y="453.12469"
         id="tspan4169">na djica</tspan></text>
    <text
       xml:space="preserve"
       style="font-style:normal;font-variant:normal;font-weight:normal;font-stretch:normal;line-height:0%;font-family:Lavi;-inkscape-font-specification:Lavi;text-align:center;letter-spacing:0px;word-spacing:0px;text-anchor:middle;fill:#000000;fill-opacity:1;stroke:none"
       x="1504.8965"
       y="412.94827"
       id="text4246-7-6"><tspan
         sodipodi:role="line"
         style="font-size:45px;line-height:1.25"
         x="1504.8965"
         y="412.94827"
         id="tspan4196">.i mi ji'a</tspan></text>
    <text
       xml:space="preserve"
       style="font-style:normal;font-variant:normal;font-weight:normal;font-stretch:normal;line-height:0%;font-family:Lavi;-inkscape-font-specification:Lavi;text-align:center;letter-spacing:0px;word-spacing:0px;text-anchor:middle;fill:#000000;fill-opacity:1;stroke:none"
       x="383.91589"
       y="1314.684"
       id="text4246-7-6-4"><tspan
         sodipodi:role="line"
         style="font-size:45px;line-height:1.25"
         x="383.91589"
         y="1314.684"
         id="tspan4221">.i no da nabmi</tspan><tspan
         sodipodi:role="line"
         style="font-size:45px;line-height:1.25"
         x="383.91589"
         y="1370.934"
         id="tspan3443">.i mi ba cpacu</tspan></text>
    <text
       xml:space="preserve"
       style="font-style:normal;font-variant:normal;font-weight:normal;font-stretch:normal;line-height:0%;font-family:Lavi;-inkscape-font-specification:Lavi;text-align:center;letter-spacing:0px;word-spacing:0px;text-anchor:middle;fill:#000000;fill-opacity:1;stroke:none"
       x="1188.6787"
       y="1427.5325"
       id="text4246-7-6-4-6"><tspan
         sodipodi:role="line"
         style="font-size:37.00366974px;line-height:1.25"
         x="1188.6787"
         y="1427.5325"
         id="tspan4221-0">.i mi ti ba zi mo'u klama ti</tspan></text>
    <text
       xml:space="preserve"
       style="font-style:normal;font-variant:normal;font-weight:normal;font-stretch:normal;line-height:0%;font-family:Lavi;-inkscape-font-specification:Lavi;text-align:center;letter-spacing:0px;word-spacing:0px;text-anchor:middle;fill:#000000;fill-opacity:1;stroke:none"
       x="376.62363"
       y="2182.0615"
       id="text4246-7-6-4-6-4"><tspan
         sodipodi:role="line"
         style="font-size:45px;line-height:1.25"
         x="376.62363"
         y="2182.0615"
         id="tspan4221-0-2">.i zo lenku .i zo lenku</tspan></text>
    <text
       xml:space="preserve"
       style="font-style:normal;font-variant:normal;font-weight:normal;font-stretch:normal;line-height:0%;font-family:Lavi;-inkscape-font-specification:Lavi;text-align:center;letter-spacing:0px;word-spacing:0px;text-anchor:middle;fill:#000000;fill-opacity:1;stroke:none"
       x="524.49438"
       y="2265.5308"
       id="text4246-7-6-4-6-4-5"><tspan
         sodipodi:role="line"
         style="font-size:45px;line-height:1.25"
         x="524.49438"
         y="2265.5308"
         id="tspan3450">.i gunma</tspan><tspan
         sodipodi:role="line"
         style="font-size:45px;line-height:1.25"
         x="524.49438"
         y="2321.7808"
         id="tspan3604">le na'o terpa</tspan></text>
    <text
       xml:space="preserve"
       style="font-style:normal;font-variant:normal;font-weight:normal;font-stretch:normal;line-height:0%;font-family:Lavi;-inkscape-font-specification:Lavi;text-align:center;letter-spacing:0px;word-spacing:0px;text-anchor:middle;fill:#000000;fill-opacity:1;stroke:none"
       x="1994.5713"
       y="3171.8694"
       id="text4246-7-6-4-6-4-5-2"><tspan
         sodipodi:role="line"
         style="font-size:45px;line-height:1.25"
         x="1994.5713"
         y="3171.8694"
         id="tspan3617">.i le tsali cinza joi le</tspan><tspan
         sodipodi:role="line"
         style="font-size:45px;line-height:1.25"
         x="1994.5713"
         y="3228.1194"
         id="tspan3461">jinme calku cu jai banzu</tspan><tspan
         sodipodi:role="line"
         style="font-size:45px;line-height:1.25"
         x="1994.5713"
         y="3284.3694"
         id="tspan3619">le nu cpacu le denci</tspan><tspan
         sodipodi:role="line"
         style="font-size:45px;line-height:1.25"
         x="1994.5713"
         y="3340.6194"
         id="tspan3643">be lo drakono</tspan></text>
    <text
       xml:space="preserve"
       style="font-style:normal;font-variant:normal;font-weight:normal;font-stretch:normal;line-height:0%;font-family:Lavi;-inkscape-font-specification:Lavi;text-align:center;letter-spacing:0px;word-spacing:0px;text-anchor:middle;fill:#000000;fill-opacity:1;stroke:#000000;stroke-width:1.29999995;stroke-miterlimit:4;stroke-dasharray:none;stroke-opacity:1"
       x="746.86877"
       y="1492.02"
       id="text4246-7-6-4-0"><tspan
         sodipodi:role="line"
         style="font-size:60.78111267px;line-height:1.25;stroke:#000000;stroke-width:1.29999995;stroke-miterlimit:4;stroke-dasharray:none;stroke-opacity:1"
         x="746.86877"
         y="1492.02"
         id="tspan4212">.i ko denpa</tspan><tspan
         sodipodi:role="line"
         style="font-size:60.78111267px;line-height:1.25;stroke:#000000;stroke-width:1.29999995;stroke-miterlimit:4;stroke-dasharray:none;stroke-opacity:1"
         x="746.86877"
         y="1567.9965"
         id="tspan3600">doi la .piper.</tspan></text>
  </g>
</svg>
