<?xml version="1.0" encoding="UTF-8" standalone="no"?>
<!-- Created with Inkscape (http://www.inkscape.org/) -->

<svg
   xmlns:dc="http://purl.org/dc/elements/1.1/"
   xmlns:cc="http://creativecommons.org/ns#"
   xmlns:rdf="http://www.w3.org/1999/02/22-rdf-syntax-ns#"
   xmlns:svg="http://www.w3.org/2000/svg"
   xmlns="http://www.w3.org/2000/svg"
   xmlns:xlink="http://www.w3.org/1999/xlink"
   xmlns:sodipodi="http://sodipodi.sourceforge.net/DTD/sodipodi-0.dtd"
   xmlns:inkscape="http://www.inkscape.org/namespaces/inkscape"
   id="svg2"
   version="1.1"
   inkscape:version="0.92.1 r15371"
   width="2481"
   height="3503"
   sodipodi:docname="E29P03.svg"
   inkscape:export-filename="/home/dash/Downloads/pepper carrot EPS/ep29_Destroyer-of-Worlds_lang-pack/lang/ph/E29P03.svg.png"
   inkscape:export-xdpi="90"
   inkscape:export-ydpi="90">
  <metadata
     id="metadata8">
    <rdf:RDF>
      <cc:Work
         rdf:about="">
        <dc:format>image/svg+xml</dc:format>
        <dc:type
           rdf:resource="http://purl.org/dc/dcmitype/StillImage" />
        <dc:title />
      </cc:Work>
    </rdf:RDF>
  </metadata>
  <defs
     id="defs6" />
  <sodipodi:namedview
     pagecolor="#ffffff"
     bordercolor="#666666"
     borderopacity="1"
     objecttolerance="10"
     gridtolerance="10"
     guidetolerance="10"
     inkscape:pageopacity="0"
     inkscape:pageshadow="2"
     inkscape:window-width="1920"
     inkscape:window-height="997"
     id="namedview4"
     showgrid="false"
     inkscape:zoom="0.72492622"
     inkscape:cx="805.8809"
     inkscape:cy="528.35815"
     inkscape:window-x="0"
     inkscape:window-y="0"
     inkscape:window-maximized="1"
     inkscape:current-layer="layer1"
     inkscape:snap-global="false" />
  <g
     inkscape:groupmode="layer"
     id="layer2"
     inkscape:label="artwork"
     sodipodi:insensitive="true">
    <image
       sodipodi:absref="/home/dash/Downloads/pepper carrot EPS/ep29_Destroyer-of-Worlds_lang-pack/lang/ph/../gfx_Pepper-and-Carrot_by-David-Revoy_E29P03.png"
       xlink:href="../gfx_Pepper-and-Carrot_by-David-Revoy_E29P03.png"
       width="2481"
       height="3503"
       id="image10"
       x="0"
       y="0" />
  </g>
  <g
     inkscape:groupmode="layer"
     id="layer3"
     inkscape:label="speechbubbles">
    <path
       style="color:#000000;display:inline;overflow:visible;visibility:visible;fill:#ffffff;fill-opacity:1;fill-rule:nonzero;stroke:none;stroke-width:1.20859182px;marker:none;enable-background:accumulate"
       d="m 709.7943,430.37733 c 44.32981,3.10259 96.43098,-1.09605 121.45291,35.17819 25.02191,36.27423 29.62478,113.02135 20.83816,192.74648 -4.70658,42.70506 0.16434,113.33679 -25.29329,146.06764 -16.6329,21.3849 -55.46481,32.33525 -120.40764,28.28633 -64.94276,-4.0489 -98.76507,-23.40541 -114.33145,-62.91253 -15.56638,-39.50712 -15.03861,-79.10805 -14.31576,-113.59465 0.69794,-33.29796 -5.20384,-59.12218 3.59373,-103.41326 8.79757,-44.29108 23.49746,-88.18084 45.66771,-101.00537 13.87804,-8.02782 27.71085,-13.57683 41.5072,-17.01347 13.79635,-3.43664 27.55623,-4.76095 41.28843,-4.33936 z"
       id="path4546-6"
       inkscape:connector-curvature="0"
       sodipodi:nodetypes="csssssssssc" />
    <path
       style="color:#000000;display:inline;overflow:visible;visibility:visible;fill:#ffffff;fill-opacity:1;fill-rule:nonzero;stroke:none;stroke-width:1.05374336px;marker:none;enable-background:accumulate"
       d="m 2245.6491,168.85078 c 39.6654,31.0929 64.1257,436.178 -21.6201,492.3718 -54.411,35.6585 -260.1806,21.7061 -299.6092,-23.8244 -46.4034,-53.5847 -33.8277,-353.0745 -7.9624,-428.3962 24.6081,-71.661 108.8959,-74.3081 190.7769,-77.9222 33.4189,-1.4751 98.7493,6.6778 138.4148,37.771 z"
       id="path4040-4"
       inkscape:connector-curvature="0"
       sodipodi:nodetypes="zssssz" />
    <path
       style="color:#000000;display:inline;overflow:visible;visibility:visible;fill:#ffffff;fill-opacity:1;fill-rule:nonzero;stroke:none;stroke-width:1.33725977px;marker:none;enable-background:accumulate"
       d="m 2222.4785,529.69464 c 51.6998,3.02474 92.7141,9.84399 115.457,47.36133 22.7426,37.51744 27.2134,105.73296 18.267,192.27695 -4.7922,46.35769 -11.7705,108.19724 -33.3736,145.1405 -21.6029,36.94351 -57.8305,48.99051 -133.5621,45.09781 -75.7315,-3.8928 -116.0735,-17.5067 -134.8498,-60.23975 -18.7766,-42.73308 -15.9872,-114.58547 -17.8974,-130.22624 6.0152,-40.89629 -2.516,-119.75292 13.4043,-169.88339 15.9203,-50.13056 56.2922,-71.53468 172.5546,-69.52721 z"
       id="path4546-6-0"
       inkscape:connector-curvature="0"
       sodipodi:nodetypes="cssssscsc" />
    <path
       style="color:#000000;display:inline;overflow:visible;visibility:visible;fill:#ffffff;fill-opacity:1;fill-rule:nonzero;stroke:none;stroke-width:1.06089509px;marker:none;enable-background:accumulate"
       d="m 582.95713,1398.2485 c 48.18058,3.0602 94.69607,3.4994 122.97712,43.9756 28.2807,40.476 36.11038,111.784 29.08606,201.3517 -3.76285,47.9773 -8.83408,108.4162 -28.3904,146.6743 -19.55621,38.2581 -53.59739,54.3354 -124.16633,50.4094 -70.5687,-3.9261 -101.40041,-25.1126 -119.52656,-69.3074 -18.12627,-44.1947 -23.54734,-111.3978 -25.56193,-127.5802 -2.01422,-16.1823 -0.27852,-66.373 7.87151,-116.1694 8.14991,-49.7963 13.8482,-83.8568 37.49234,-98.4622 29.94294,-22.8965 65.14951,-32.2841 100.21819,-30.8918 z"
       id="path4546-6-2"
       inkscape:connector-curvature="0"
       sodipodi:nodetypes="cssssssscc" />
    <path
       style="color:#000000;display:inline;overflow:visible;visibility:visible;fill:#ffffff;fill-opacity:1;fill-rule:nonzero;stroke:none;stroke-width:0.66193187px;marker:none;enable-background:accumulate"
       d="m 655.48914,1809.6444 c 12.25183,19.0438 18.87322,24.2238 32.43852,29.1474 5.67522,1.8947 26.67014,-4.5048 19.17063,-26.1601 0.98406,10.0411 -34.01061,-2.6318 -40.18,-6.0616 -40.10084,-28.834 17.81128,68.1289 -11.42915,3.0743 z"
       id="path5058"
       inkscape:connector-curvature="0"
       sodipodi:nodetypes="ccccc" />
    <path
       style="color:#000000;display:inline;overflow:visible;visibility:visible;fill:#ffffff;fill-opacity:1;fill-rule:nonzero;stroke:none;stroke-width:1.25978565px;marker:none;enable-background:accumulate"
       d="m 1949.6295,1161.9642 c 10.3754,9.7271 20.3914,32.9743 26.052,85.8859 5.661,52.9112 4.3443,118.1355 3.1408,188.6304 -1.2034,70.4946 -0.2529,70.2112 -0.2627,134.3286 -0.013,68.2355 -9.7619,102.789 -42.2278,143.5102 -32.4658,40.7214 -63.6087,60.7241 -104.2375,60.4891 -40.6289,-0.2352 -69.7946,-9.1249 -97.1549,-46.8117 -27.3601,-37.6868 -48.1823,-94.2644 -52.6793,-167.5237 -4.4973,-73.2594 -6.9504,-246.0389 21.0393,-334.9772 27.9901,-88.9387 47.9273,-93.9794 133.5972,-98.5021 34.9655,-1.8457 71.2318,-3.9377 112.7329,34.9705 z"
       id="path4040"
       inkscape:connector-curvature="0"
       sodipodi:nodetypes="sssszzzzsss" />
    <path
       style="color:#000000;display:inline;overflow:visible;visibility:visible;fill:#ffffff;fill-opacity:1;fill-rule:nonzero;stroke:none;stroke-width:1.0653249px;marker:none;enable-background:accumulate"
       d="m 1881.5529,1219.0726 c -41.8665,122.7323 -35.3869,185.6777 42.5567,264.4098 -47.4291,-53.5721 -48.443,-140.458 -27.8836,-196.5656 17.5953,-48.018 24.528,-47.5096 24.528,-47.5096 z"
       id="path4440"
       inkscape:connector-curvature="0"
       sodipodi:nodetypes="ccscc" />
    <path
       style="color:#000000;display:inline;overflow:visible;visibility:visible;fill:#ffffff;fill-opacity:1;fill-rule:nonzero;stroke:none;stroke-width:1.00430238px;marker:none;enable-background:accumulate"
       d="m 1151.236,1995.1258 c 21.3804,31.7052 18.979,309.2778 12.0991,357.4579 -5.2731,36.9279 -5.5985,80.7816 -24.4898,109.8808 -18.8915,29.099 -48.0159,39.8015 -107.384,39.9473 -59.83036,0.1468 -113.15434,-15.9293 -125.28148,-50.3952 -16.76008,-47.6326 -15.83951,-99.7855 -16.48688,-146.7454 -0.38764,-28.1158 -7.32873,-228.164 16.7748,-271.337 27.50038,-49.2573 58.70673,-70.2225 110.40486,-73.2217 87.3505,-2.7013 119.3544,13.6564 134.3634,34.4133 z"
       id="path4546-6-28"
       inkscape:connector-curvature="0"
       sodipodi:nodetypes="csssssscc" />
    <path
       style="color:#000000;display:inline;overflow:visible;visibility:visible;fill:#ffffff;fill-opacity:1;fill-rule:nonzero;stroke:none;stroke-width:1px;marker:none;enable-background:accumulate"
       d="m 988.61393,2528.497 c 27.46207,-10.0522 29.72717,-13.3589 28.53707,-27.8918 -1.1904,-14.5328 -9.9245,-26.5364 7.1382,-46.8557 17.0627,-20.3194 23.4258,-21.4269 33.8419,-22.8653 -10.7962,-15.1116 -24.1977,-37.3822 -37.8378,-39.5812 -13.64,-2.1992 45.1695,-29.6441 45.1695,-29.6441 0,0 22.7558,46.3627 21.9951,70.4189 -5.5318,28.827 -31.7847,25.0277 -45.6068,37.2789 -13.822,12.2511 -2.6612,31.1992 -11.6387,43.0536 -8.9779,11.8543 -27.7103,14.1688 -41.59847,16.0867 z"
       id="path4538"
       inkscape:connector-curvature="0"
       sodipodi:nodetypes="cccccccscc" />
    <path
       style="fill:#ffffff;fill-rule:evenodd;stroke:none;stroke-width:1.41421354px;stroke-linecap:butt;stroke-linejoin:miter;stroke-opacity:1"
       d="m 1631.1984,2056.7351 c -28.8356,9.0662 -58.196,13.7804 -29.1661,78.1946 -40.2304,-31.8026 -101.614,-49.4022 -127.3674,18.663 -21.0416,-64.8302 -72.5215,-36.2786 -103.6089,-18.5726 22.7459,-78.2198 -18.3414,-70.2996 -48.6838,-52.5944 58.1387,-88.8006 27.6095,-117.042 4.7008,-150.4882 57.1366,24.7454 96.278,0.5462 77.1628,-55.9076 47.2189,58.409 101.7044,47.149 85.7998,-8.5874 11.7134,26.4596 10.4746,81.8862 73.6465,-3.583 -19.9656,89.111 6.2049,79.7576 48.5754,35.8304 -6.6404,30.3524 -46.1072,76.5076 20.3703,71.6612 -41.5231,28.8546 -55.9482,50.7892 -1.4294,85.384 z"
       id="path4584"
       inkscape:connector-curvature="0"
       sodipodi:nodetypes="cccccccccccc" />
    <path
       style="color:#000000;display:inline;overflow:visible;visibility:visible;fill:#ffffff;fill-opacity:1;fill-rule:nonzero;stroke:none;stroke-width:1.00747228px;marker:none;enable-background:accumulate"
       d="m 411.4367,2833.9706 c 30.81592,25.9462 49.81926,363.9789 -16.79671,410.8712 -42.27203,29.756 -202.13432,18.1132 -232.76633,-19.8809 -36.05078,-44.715 -26.28078,-294.6313 -6.18605,-357.4852 19.11805,-59.7992 84.60127,-62.0082 148.21459,-65.024 25.96309,-1.2309 76.71831,5.5725 107.5345,31.5189 z"
       id="path4040-4-0"
       inkscape:connector-curvature="0"
       sodipodi:nodetypes="zssssz" />
    <path
       style="color:#000000;display:inline;overflow:visible;visibility:visible;fill:#ffffff;fill-opacity:1;fill-rule:nonzero;stroke:none;stroke-width:1.03462934px;marker:none;enable-background:accumulate"
       d="m 688.75852,2923.7615 c 26.63404,51.813 61.6391,433.8931 -0.91042,511.3479 -50.20028,62.1627 -240.04514,39.6239 -276.42246,-26.0108 -35.04702,-63.2345 -31.20987,-385.4767 -7.34631,-467.7108 22.70381,-78.2373 77.24594,-81.2691 150.31468,-85.0732 33.34441,-1.736 107.73061,15.6339 134.36451,67.4469 z"
       id="path4040-4-0-6"
       inkscape:connector-curvature="0"
       sodipodi:nodetypes="zssssz" />
    <path
       style="color:#000000;display:inline;overflow:visible;visibility:visible;fill:#ffffff;fill-opacity:1;fill-rule:nonzero;stroke:none;stroke-width:0.78885919px;marker:none;enable-background:accumulate"
       d="m 2054.7121,2788.8616 c 49.774,27.4363 70.2978,281.9543 -19.0065,329.4192 -61.2007,32.528 -228.7282,24.2819 -263.3905,-15.9397 -33.3947,-38.7504 -29.7384,-236.2229 -7,-286.6166 21.6335,-47.9444 95.7318,-49.7155 167.7147,-52.1335 29.3789,-0.9869 71.9082,-2.1657 121.6823,25.2706 z"
       id="path4040-4-0-6-3"
       inkscape:connector-curvature="0"
       sodipodi:nodetypes="zssssz" />
    <path
       style="display:inline;fill:#ffffff;fill-rule:evenodd;stroke:none;stroke-width:0.96371996px;stroke-linecap:butt;stroke-linejoin:miter;stroke-opacity:1"
       d="m 1968.3699,3374.6179 c 50.2316,-24.0951 62.8839,-18.6575 62.0218,37.3512 23.9651,-60.5242 59.4179,-62.4318 69.2811,-32.6111 52.5099,-15.6013 0.5031,-24.9339 50.5825,-7.9106 3.2218,-7.1024 7.5622,-13.2188 36.6973,2.5279 7.5481,-28.828 31.7657,1.5978 56.5754,34.128 -15.4572,-39.9932 -9.0476,-45.642 10.7035,-30.336 -9.0301,-16.4694 -14.431,-29.2187 19.8775,-1.264 -11.7453,-30.3992 19.0691,-9.5333 68.808,34.1279 -24.8802,-32.2741 -90.8567,-86.6696 -47.4008,-82.1597 -6.0603,-9.5144 -27.6766,-17.8042 36.6973,-32.864 -12.0178,-6.4562 -48.7075,2.9784 -18.1017,-24.3578 4.1006,-3.1955 -9.6272,-5.1469 16.5727,-13.5619 -15.4661,0.5725 -24.9509,-1.4727 -10.7035,-13.9039 -28.2311,0.6722 -17.6681,-12.3995 3.0581,-29.0719 -40.8827,21.3859 -43.1324,13.6133 -44.3427,5.0559 -51.238,29.1563 -68.3365,18.5231 -57.6397,-4.9927 -22.6261,31.7515 -75.7825,15.0729 -78.4468,-10.1753 -58.8221,29.4346 17.5651,19.6212 -24.5884,2.6019 14.4796,32.1414 -22.2678,22.6759 -68.8079,-8.5952 26.0623,35.4933 -3.5383,22.6721 -47.4009,-2.528 16.5728,34.8685 -10.4174,51.7312 -74.9239,53.0878 30.8748,12.5775 48.8791,28.406 16.8199,56.8798 36.14,-8.3842 26.9581,15.3931 1.4446,46.3255 39.4195,-25.389 38.5971,-11.8211 23.2166,22.2462 z"
       id="path4508"
       inkscape:connector-curvature="0"
       sodipodi:nodetypes="ccccccccccccccccccccccccc" />
    <path
       style="color:#000000;display:inline;overflow:visible;visibility:visible;fill:#ffffff;fill-opacity:1;fill-rule:nonzero;stroke:none;stroke-width:0.60188615px;marker:none;enable-background:accumulate"
       d="m 634.60964,2891.9747 c 21.28122,-31.8831 48.42556,-22.4689 54.87088,-4.8409 -9.44173,-31.5484 -40.16625,-48.9787 -56.52216,-29.9411 -13.3556,19.522 1.65128,34.782 1.65128,34.782 z"
       id="path4480"
       inkscape:connector-curvature="0"
       sodipodi:nodetypes="cccc" />
    <path
       style="color:#000000;display:inline;overflow:visible;visibility:visible;fill:#ffffff;fill-opacity:1;fill-rule:nonzero;stroke:none;stroke-width:0.99999994px;marker:none;enable-background:accumulate"
       d="m 1653.2457,3105.1967 c -45.0341,26.3761 -102.4755,18.588 -116.1149,4.0048 19.9802,26.0992 84.9979,40.5188 119.6093,24.7695 28.2623,-16.1501 -3.4944,-28.7743 -3.4944,-28.7743 z"
       id="path4480-2"
       inkscape:connector-curvature="0"
       sodipodi:nodetypes="cccc"
       inkscape:transform-center-x="-155.62645"
       inkscape:transform-center-y="34.210293" />
    <path
       style="color:#000000;display:inline;overflow:visible;visibility:visible;fill:#ffffff;fill-opacity:1;fill-rule:nonzero;stroke:none;stroke-width:0.81879753px;marker:none;enable-background:accumulate"
       d="m 2346.6761,1510.2847 c 25.4674,0.6916 -5.3367,-53.9962 -5.3367,-53.9962 1.1951,39.6341 -20.1307,53.3048 5.3367,53.9962 z"
       id="path5058-9"
       inkscape:connector-curvature="0"
       sodipodi:nodetypes="zcz" />
    <path
       style="color:#000000;display:inline;overflow:visible;visibility:visible;fill:#ffffff;fill-opacity:1;fill-rule:nonzero;stroke:none;stroke-width:0.7634216px;marker:none;enable-background:accumulate"
       d="m 2261.855,2978.9918 c 43.6639,29.2911 61.6682,301.0157 -16.6733,351.6895 -53.6878,34.727 -200.65,25.9233 -231.0572,-17.0174 -29.2953,-41.3701 -26.0878,-252.1927 -6.1407,-305.9931 18.9778,-51.1858 83.98,-53.0766 147.1264,-55.658 25.7724,-1.0536 63.0809,-2.3122 106.7448,26.979 z"
       id="path4040-4-0-6-3-6"
       inkscape:connector-curvature="0"
       sodipodi:nodetypes="zssssz" />
  </g>
  <g
     inkscape:groupmode="layer"
     id="layer1"
     inkscape:label="txt">
    <text
       xml:space="preserve"
       style="font-style:normal;font-variant:normal;font-weight:normal;font-stretch:normal;line-height:1;font-family:Lavi;-inkscape-font-specification:Lavi;text-align:center;letter-spacing:0px;word-spacing:0px;text-anchor:middle;fill:#000000;fill-opacity:1;stroke:none"
       x="710.03137"
       y="564.77209"
       id="text4246"><tspan
         sodipodi:role="line"
         style="font-size:45px;line-height:1"
         x="717.94153"
         y="564.77209"
         id="tspan7234">Haha, </tspan><tspan
         sodipodi:role="line"
         style="font-size:45px;line-height:1"
         x="710.03137"
         y="609.77209"
         id="tspan4846">anu ba yan,</tspan><tspan
         sodipodi:role="line"
         style="font-size:45px;line-height:1"
         x="717.94153"
         y="654.77209"
         id="tspan4848">mahirap kasi </tspan><tspan
         sodipodi:role="line"
         style="font-size:45px;line-height:1"
         x="710.03137"
         y="699.77209"
         id="tspan4850">i-explain</tspan><tspan
         sodipodi:role="line"
         style="font-size:45px;line-height:1"
         x="710.03137"
         y="744.77209"
         id="tspan4854"> eh</tspan></text>
    <text
       xml:space="preserve"
       style="font-style:normal;font-variant:normal;font-weight:normal;font-stretch:normal;line-height:0%;font-family:Lavi;-inkscape-font-specification:Lavi;text-align:center;letter-spacing:0px;word-spacing:0px;text-anchor:middle;fill:#000000;fill-opacity:1;stroke:none"
       x="2084.522"
       y="239.13579"
       id="text4246-3"><tspan
         sodipodi:role="line"
         style="font-size:45px;line-height:1"
         x="2084.522"
         y="239.13579"
         id="tspan920">Well...</tspan><tspan
         sodipodi:role="line"
         style="font-size:45px;line-height:1"
         x="2092.4321"
         y="284.1358"
         id="tspan4870"> pwedeng </tspan><tspan
         sodipodi:role="line"
         style="font-size:45px;line-height:1"
         x="2092.4321"
         y="329.1358"
         id="tspan4606">sabihin na </tspan><tspan
         sodipodi:role="line"
         style="font-size:45px;line-height:1"
         x="2092.4321"
         y="374.1358"
         id="tspan4860">nakabase ang </tspan><tspan
         sodipodi:role="line"
         style="font-size:45px;line-height:1"
         x="2092.4321"
         y="419.1358"
         id="tspan4608">Chaosah magic </tspan><tspan
         sodipodi:role="line"
         style="font-size:45px;line-height:1"
         x="2092.4321"
         y="464.1358"
         id="tspan4864">sa pagkakaintindi </tspan><tspan
         sodipodi:role="line"
         style="font-size:45px;line-height:1"
         x="2092.4321"
         y="509.1358"
         id="tspan4610">mo sa batas </tspan><tspan
         sodipodi:role="line"
         style="font-size:45px;line-height:1"
         x="2092.4321"
         y="554.1358"
         id="tspan4868">ng chaotic </tspan><tspan
         sodipodi:role="line"
         style="font-size:45px;line-height:1"
         x="2084.522"
         y="599.1358"
         id="tspan4612">universe</tspan></text>
    <text
       xml:space="preserve"
       style="font-style:normal;font-variant:normal;font-weight:normal;font-stretch:normal;line-height:1;font-family:Lavi;-inkscape-font-specification:Lavi;text-align:center;letter-spacing:0px;word-spacing:0px;text-anchor:middle;fill:#000000;fill-opacity:1;stroke:none"
       x="2196.2021"
       y="638.91827"
       id="text4246-3-5"><tspan
         sodipodi:role="line"
         style="font-size:45px;line-height:1"
         x="2196.2021"
         y="638.91827"
         id="tspan924">…</tspan><tspan
         sodipodi:role="line"
         style="font-size:45px;line-height:1"
         x="2204.1123"
         y="683.91827"
         id="tspan4878">naguumpisa </tspan><tspan
         sodipodi:role="line"
         style="font-size:45px;line-height:1"
         x="2204.1123"
         y="728.91827"
         id="tspan4872">siya sa maliit, </tspan><tspan
         sodipodi:role="line"
         style="font-size:45px;line-height:1"
         x="2204.1123"
         y="773.91827"
         id="tspan4616">hanggang sa </tspan><tspan
         sodipodi:role="line"
         style="font-size:45px;line-height:1"
         x="2204.1123"
         y="818.91827"
         id="tspan4874">lumalaki... ng </tspan><tspan
         sodipodi:role="line"
         style="font-size:45px;line-height:1"
         x="2196.2021"
         y="863.91827"
         id="tspan4876">lumalaki</tspan><tspan
         sodipodi:role="line"
         style="font-size:45px;line-height:1"
         x="2196.2021"
         y="908.91827"
         id="tspan4880">...</tspan></text>
    <text
       xml:space="preserve"
       style="font-style:normal;font-variant:normal;font-weight:normal;font-stretch:normal;line-height:1;font-family:Lavi;-inkscape-font-specification:Lavi;text-align:center;letter-spacing:0px;word-spacing:0px;text-anchor:middle;fill:#000000;fill-opacity:1;stroke:none"
       x="586.45734"
       y="1484.0094"
       id="text4246-3-5-1"><tspan
         sodipodi:role="line"
         style="font-size:45px;line-height:1"
         x="594.36749"
         y="1484.0094"
         id="tspan927">Malinaw </tspan><tspan
         sodipodi:role="line"
         style="font-size:45px;line-height:1"
         x="586.45734"
         y="1529.0094"
         id="tspan4882">naman...</tspan><tspan
         sodipodi:role="line"
         style="font-size:45px;line-height:1"
         x="586.45734"
         y="1547.918"
         id="tspan4896" /><tspan
         sodipodi:role="line"
         style="font-size:45px;line-height:1"
         x="586.45734"
         y="1559.918"
         id="tspan4898" /><tspan
         sodipodi:role="line"
         style="font-size:45px;line-height:1"
         x="594.36749"
         y="1598.0094"
         id="tspan4671">Naintindihan </tspan><tspan
         sodipodi:role="line"
         style="font-size:45px;line-height:1"
         x="586.45734"
         y="1643.0094"
         id="tspan4884">naman namin</tspan><tspan
         sodipodi:role="line"
         style="font-size:45px;line-height:1"
         x="586.45734"
         y="1688.0094"
         id="tspan4894">...</tspan><tspan
         sodipodi:role="line"
         style="font-size:45px;line-height:1"
         x="586.45734"
         y="1706.918"
         id="tspan4900" /><tspan
         sodipodi:role="line"
         style="font-size:45px;line-height:1"
         x="594.36749"
         y="1745.0094"
         id="tspan931">Sabi </tspan><tspan
         sodipodi:role="line"
         style="font-size:45px;line-height:1"
         x="586.45734"
         y="1790.0094"
         id="tspan4886">mo eh</tspan></text>
    <text
       xml:space="preserve"
       style="font-style:normal;font-variant:normal;font-weight:normal;font-stretch:normal;line-height:0%;font-family:Lavi;-inkscape-font-specification:Lavi;text-align:center;letter-spacing:0px;word-spacing:0px;text-anchor:middle;fill:#000000;fill-opacity:1;stroke:none"
       x="1839.0928"
       y="1242.1007"
       id="text4246-3-5-1-0"><tspan
         sodipodi:role="line"
         style="font-size:45px;line-height:1.20000005"
         x="1847.0029"
         y="1242.1007"
         id="tspan77">Teka lang </tspan><tspan
         sodipodi:role="line"
         style="font-size:45px;line-height:1.20000005"
         x="1839.0928"
         y="1296.1007"
         id="tspan4902">hahaha!!!</tspan><tspan
         sodipodi:role="line"
         style="font-size:45px;line-height:1.20000005"
         x="1847.0029"
         y="1350.1007"
         id="tspan7258">alam ko </tspan><tspan
         sodipodi:role="line"
         style="font-size:45px;line-height:1.20000005"
         x="1847.0029"
         y="1404.1007"
         id="tspan4904">medyo </tspan><tspan
         sodipodi:role="line"
         style="font-size:45px;line-height:1.20000005"
         x="1847.0029"
         y="1458.1007"
         id="tspan4719">magulo so </tspan><tspan
         sodipodi:role="line"
         style="font-size:45px;line-height:1.20000005"
         x="1847.0029"
         y="1512.1007"
         id="tspan4918">kailangan </tspan><tspan
         sodipodi:role="line"
         style="font-size:45px;line-height:1.20000005"
         x="1847.0029"
         y="1566.1007"
         id="tspan4906">ko lang </tspan><tspan
         sodipodi:role="line"
         style="font-size:45px;line-height:1.20000005"
         x="1847.0029"
         y="1620.1007"
         id="tspan4725">talaga i- </tspan><tspan
         sodipodi:role="line"
         style="font-size:45px;line-height:1.20000005"
         x="1839.0928"
         y="1674.1007"
         id="tspan4908">example.</tspan></text>
    <text
       xml:space="preserve"
       style="font-style:normal;font-variant:normal;font-weight:normal;font-stretch:normal;line-height:1;font-family:Lavi;-inkscape-font-specification:Lavi;text-align:center;letter-spacing:0px;word-spacing:0px;text-anchor:middle;fill:#000000;fill-opacity:1;stroke:none"
       x="1026.3346"
       y="2054.4707"
       id="text4246-3-5-1-0-0"><tspan
         sodipodi:role="line"
         style="font-size:45px;line-height:1"
         x="1034.2448"
         y="2054.4707"
         id="tspan7275">Saglit </tspan><tspan
         sodipodi:role="line"
         style="font-size:45px;line-height:1"
         x="1034.2448"
         y="2099.4707"
         id="tspan4965">lang, </tspan><tspan
         sodipodi:role="line"
         style="font-size:45px;line-height:1"
         x="1026.3346"
         y="2144.4707"
         id="tspan4710">mag-</tspan><tspan
         sodipodi:role="line"
         style="font-size:45px;line-height:1"
         x="1034.2448"
         y="2189.4707"
         id="tspan4973">hahanap </tspan><tspan
         sodipodi:role="line"
         style="font-size:45px;line-height:1"
         x="1034.2448"
         y="2234.4707"
         id="tspan4967">lang </tspan><tspan
         sodipodi:role="line"
         style="font-size:45px;line-height:1"
         x="1034.2448"
         y="2279.4707"
         id="tspan4712">ako ng </tspan><tspan
         sodipodi:role="line"
         style="font-size:45px;line-height:1"
         x="1026.3346"
         y="2324.4707"
         id="tspan4969">pang</tspan><tspan
         sodipodi:role="line"
         style="font-size:45px;line-height:1"
         x="1034.2448"
         y="2369.4707"
         id="tspan4977">demo </tspan><tspan
         sodipodi:role="line"
         style="font-size:45px;line-height:1"
         x="1026.3346"
         y="2414.4707"
         id="tspan4971">ha</tspan><tspan
         sodipodi:role="line"
         style="font-size:45px;line-height:1"
         x="1026.3346"
         y="2459.4707"
         id="tspan4975">...</tspan><tspan
         sodipodi:role="line"
         style="font-size:45px;line-height:1"
         x="1026.3346"
         y="2478.3792"
         id="tspan87" /></text>
    <text
       xml:space="preserve"
       style="font-style:normal;font-variant:normal;font-weight:normal;font-stretch:normal;font-size:22.5711174px;line-height:0%;font-family:Lavi;-inkscape-font-specification:Lavi;text-align:center;letter-spacing:0px;word-spacing:0px;text-anchor:middle;fill:#000000;fill-opacity:1;stroke:none;stroke-width:1.88092649"
       x="2072.6702"
       y="2037.3925"
       id="text4246-3-5-1-0-0-8"
       transform="skewX(-16.583995)"><tspan
         sodipodi:role="line"
         style="font-size:84.64169312px;line-height:1.20000005;stroke-width:1.88092649"
         x="2072.6702"
         y="2037.3925"
         id="tspan1006-2">AHA!</tspan></text>
    <text
       xml:space="preserve"
       style="font-style:normal;font-variant:normal;font-weight:normal;font-stretch:normal;font-size:10.15074348px;line-height:0%;font-family:Lavi;-inkscape-font-specification:Lavi;text-align:center;letter-spacing:0px;word-spacing:0px;text-anchor:middle;opacity:0.76599995;fill:#ffffff;fill-opacity:1;stroke:none;stroke-width:1"
       x="1548.4551"
       y="1728.0029"
       id="text4246-37"
       transform="matrix(0.95687978,-0.3398346,0.04566864,1.0288442,0,0)"><tspan
         sodipodi:role="line"
         style="font-style:normal;font-variant:normal;font-weight:bold;font-stretch:normal;font-size:38.06529236px;line-height:1.20000005;font-family:Lavi;-inkscape-font-specification:'Lavi Bold';fill:#ffffff;stroke-width:1"
         x="1548.4551"
         y="1728.0029"
         id="tspan4252-5">SRATCH</tspan></text>
    <text
       xml:space="preserve"
       style="font-style:normal;font-variant:normal;font-weight:normal;font-stretch:normal;font-size:8.87699509px;line-height:0%;font-family:Lavi;-inkscape-font-specification:Lavi;text-align:center;letter-spacing:0px;word-spacing:0px;text-anchor:middle;opacity:0.76599995;fill:#ffffff;fill-opacity:1;stroke:none;stroke-width:0.99999994"
       x="1868.0312"
       y="1511.1451"
       id="text4246-37-9"
       transform="matrix(0.93691979,-0.1877366,-0.11760016,1.0908915,0,0)"><tspan
         sodipodi:role="line"
         style="font-style:normal;font-variant:normal;font-weight:bold;font-stretch:normal;font-size:33.28873062px;line-height:1.20000005;font-family:Lavi;-inkscape-font-specification:'Lavi Bold';fill:#ffffff;stroke-width:0.99999994"
         x="1868.0312"
         y="1511.1451"
         id="tspan4252-5-2">SCRATCH</tspan></text>
    <text
       xml:space="preserve"
       style="font-style:normal;font-variant:normal;font-weight:normal;font-stretch:normal;line-height:0%;font-family:Lavi;-inkscape-font-specification:Lavi;text-align:center;letter-spacing:0px;word-spacing:0px;text-anchor:middle;fill:#000000;fill-opacity:1;stroke:none"
       x="285.38892"
       y="2922.7437"
       id="text4246-3-5-1-0-0-8-9"><tspan
         sodipodi:role="line"
         style="font-size:45px;line-height:1.20000005"
         x="293.29907"
         y="2922.7437"
         id="tspan7284">Nakikita </tspan><tspan
         sodipodi:role="line"
         style="font-size:45px;line-height:1.20000005"
         x="293.29907"
         y="2976.7437"
         id="tspan4979">nyo ba </tspan><tspan
         sodipodi:role="line"
         style="font-size:45px;line-height:1.20000005"
         x="293.29907"
         y="3030.7437"
         id="tspan4804">tong </tspan><tspan
         sodipodi:role="line"
         style="font-size:45px;line-height:1.20000005"
         x="293.29907"
         y="3084.7437"
         id="tspan4981">toothpick </tspan><tspan
         sodipodi:role="line"
         style="font-size:45px;line-height:1.20000005"
         x="293.29907"
         y="3138.7437"
         id="tspan4806">na nakausli </tspan><tspan
         sodipodi:role="line"
         style="font-size:45px;line-height:1.20000005"
         x="285.38892"
         y="3192.7437"
         id="tspan4983">sa daan?</tspan></text>
    <text
       xml:space="preserve"
       style="font-style:normal;font-variant:normal;font-weight:normal;font-stretch:normal;line-height:0%;font-family:Lavi;-inkscape-font-specification:Lavi;text-align:center;letter-spacing:0px;word-spacing:0px;text-anchor:middle;fill:#000000;fill-opacity:1;stroke:none"
       x="553.61011"
       y="2947.7964"
       id="text4246-3-5-1-0-0-8-9-3"><tspan
         sodipodi:role="line"
         style="font-size:45px;line-height:1"
         x="561.52026"
         y="2947.7964"
         id="tspan7303">Dahil </tspan><tspan
         sodipodi:role="line"
         style="font-size:45px;line-height:1"
         x="553.61011"
         y="2992.7964"
         id="tspan4999">pinulot</tspan><tspan
         sodipodi:role="line"
         style="font-size:45px;line-height:1"
         x="561.52026"
         y="3037.7964"
         id="tspan4989"> ko 'to, </tspan><tspan
         sodipodi:role="line"
         style="font-size:45px;line-height:1"
         x="561.52026"
         y="3082.7964"
         id="tspan4991">merong </tspan><tspan
         sodipodi:role="line"
         style="font-size:45px;line-height:1"
         x="561.52026"
         y="3127.7964"
         id="tspan4813">isang </tspan><tspan
         sodipodi:role="line"
         style="font-size:45px;line-height:1"
         x="561.52026"
         y="3172.7964"
         id="tspan4993"><tspan
   style="font-style:italic;line-height:1"
   id="tspan5005">miron </tspan>na </tspan><tspan
         sodipodi:role="line"
         style="font-size:45px;line-height:1"
         x="561.52026"
         y="3217.7964"
         id="tspan5001">nakaligtas, </tspan><tspan
         sodipodi:role="line"
         style="font-style:italic;font-weight:normal;font-size:45px;line-height:1;fill:#800000;stroke:#800000"
         x="553.61011"
         y="3230.7048"
         id="tspan4997" /><tspan
         sodipodi:role="line"
         style="font-size:45px;line-height:1"
         x="553.61011"
         y="3230.7048"
         id="tspan5011" /><tspan
         sodipodi:role="line"
         style="font-size:45px;line-height:1"
         x="553.61011"
         y="3230.7048"
         id="tspan5075" /><tspan
         sodipodi:role="line"
         style="font-size:45px;line-height:1"
         x="553.61011"
         y="3230.7048"
         id="tspan5077" /><tspan
         sodipodi:role="line"
         style="font-size:45px;line-height:1;fill:#ffffff"
         x="553.61011"
         y="3262.7964"
         id="tspan5085">.</tspan><tspan
         sodipodi:role="line"
         style="font-size:45px;line-height:1;fill:#ffffff"
         x="553.61011"
         y="3275.7048"
         id="tspan5087" /><tspan
         sodipodi:role="line"
         style="font-size:45px;line-height:1;fill:#ffffff"
         x="553.61011"
         y="3307.7964"
         id="tspan5089">.</tspan><tspan
         sodipodi:role="line"
         style="font-size:45px;line-height:1;fill:#ffffff"
         x="553.61011"
         y="3352.7964"
         id="tspan5093">.</tspan><tspan
         sodipodi:role="line"
         style="font-size:45px;line-height:1"
         x="553.61011"
         y="3365.7048"
         id="tspan5091" /><tspan
         sodipodi:role="line"
         style="font-size:45px;line-height:1"
         x="553.61011"
         y="3365.7048"
         id="tspan5079" /><tspan
         sodipodi:role="line"
         style="font-size:45px;line-height:1"
         x="553.61011"
         y="3365.7048"
         id="tspan5081" /><tspan
         sodipodi:role="line"
         style="font-size:45px;line-height:1"
         x="553.61011"
         y="3397.7964"
         id="tspan5083">!!!</tspan></text>
    <text
       xml:space="preserve"
       style="font-style:normal;font-variant:normal;font-weight:normal;font-stretch:normal;line-height:0%;font-family:Lavi;-inkscape-font-specification:Lavi;text-align:center;letter-spacing:0px;word-spacing:0px;text-anchor:middle;fill:#000000;fill-opacity:1;stroke:none"
       x="1922.7488"
       y="2872.8425"
       id="text4246-3-5-1-0-0-8-9-3-9"><tspan
         sodipodi:role="line"
         style="font-size:45px;line-height:1"
         x="1930.6589"
         y="2872.8425"
         id="tspan4834">isang maliit </tspan><tspan
         sodipodi:role="line"
         style="font-size:45px;line-height:1"
         x="1930.6589"
         y="2917.8425"
         id="tspan5022">na bagay lang </tspan><tspan
         sodipodi:role="line"
         style="font-size:45px;line-height:1"
         x="1930.6589"
         y="2962.8425"
         id="tspan4842">pero malaking </tspan><tspan
         sodipodi:role="line"
         style="font-size:45px;line-height:1"
         x="1930.6589"
         y="3007.8425"
         id="tspan4844">bagay ang </tspan><tspan
         sodipodi:role="line"
         style="font-size:45px;line-height:1"
         x="1922.7488"
         y="3052.8425"
         id="tspan5026">kapupuntahan</tspan></text>
    <text
       xml:space="preserve"
       style="font-style:normal;font-variant:normal;font-weight:normal;font-stretch:normal;font-size:53.33333206px;line-height:0.80000001;font-family:Lavi;-inkscape-font-specification:Lavi;text-align:center;letter-spacing:0px;word-spacing:0px;text-anchor:middle;fill:#000000;fill-opacity:1;stroke:none"
       x="2149.0217"
       y="3089.6228"
       id="text4246-3-5-1-0-0-8-9-3-9-8"><tspan
         sodipodi:role="line"
         style="font-size:42.66666794px;line-height:0.80000001"
         x="2149.0217"
         y="3089.6228"
         id="tspan4823">Ito mismo</tspan><tspan
         sodipodi:role="line"
         style="font-size:42.66666794px;line-height:0.80000001"
         x="2149.0217"
         y="3132.2896"
         id="tspan5042"> ang nage-</tspan><tspan
         sodipodi:role="line"
         style="font-size:42.66666794px;line-height:0.80000001"
         x="2149.0217"
         y="3174.9561"
         id="tspan4838">explain sa</tspan><tspan
         sodipodi:role="line"
         style="font-size:42.66666794px;line-height:0.80000001"
         x="2156.5217"
         y="3217.6228"
         id="tspan5073">dakilang, </tspan><tspan
         sodipodi:role="line"
         style="font-size:53.33333206px;line-height:0.80000001"
         x="2149.0217"
         y="3260.2896"
         id="tspan5038" /></text>
    <text
       xml:space="preserve"
       style="font-style:normal;font-variant:normal;font-weight:normal;font-stretch:normal;font-size:9.85773945px;line-height:0%;font-family:Lavi;-inkscape-font-specification:Lavi;text-align:center;letter-spacing:0px;word-spacing:0px;text-anchor:middle;fill:#ffffff;fill-opacity:1;stroke:none;stroke-width:0.82147831"
       x="292.96387"
       y="1124.215"
       id="text4246-3-5-1-1"><tspan
         sodipodi:role="line"
         style="font-size:36.96652222px;line-height:1.20000005;fill:#ffffff;stroke-width:0.82147831"
         x="292.96387"
         y="1124.215"
         id="tspan931-7">Hmmm....</tspan></text>
    <text
       xml:space="preserve"
       style="font-style:normal;font-variant:normal;font-weight:normal;font-stretch:normal;font-size:6.87008953px;line-height:0%;font-family:Lavi;-inkscape-font-specification:Lavi;text-align:center;letter-spacing:0px;word-spacing:0px;text-anchor:middle;fill:#ffffff;fill-opacity:1;stroke:none;stroke-width:0.57250744"
       x="1614.8364"
       y="1436.0399"
       id="text4246-3-5-1-1-0"><tspan
         sodipodi:role="line"
         style="font-size:25.76283455px;line-height:1.20000005;fill:#ffffff;stroke-width:0.57250744"
         x="1614.8364"
         y="1436.0399"
         id="tspan931-7-9">boring...</tspan></text>
    <text
       xml:space="preserve"
       style="font-style:normal;font-weight:normal;font-size:40px;line-height:1.25;font-family:sans-serif;letter-spacing:0px;word-spacing:0px;fill:#000000;fill-opacity:1;stroke:none"
       x="634.5473"
       y="1702.8168"
       id="text4890"><tspan
         sodipodi:role="line"
         id="tspan4888"
         x="634.5473"
         y="1739.2115" /><tspan
         sodipodi:role="line"
         x="634.5473"
         y="1789.2115"
         id="tspan4892" /></text>
    <text
       xml:space="preserve"
       style="font-style:normal;font-weight:normal;font-size:40px;line-height:1.25;font-family:sans-serif;letter-spacing:0px;word-spacing:0px;fill:#000000;fill-opacity:1;stroke:none"
       x="1890.3619"
       y="1294.6515"
       id="text4912"><tspan
         sodipodi:role="line"
         id="tspan4910"
         x="1890.3619"
         y="1294.6515" /></text>
    <text
       xml:space="preserve"
       style="font-style:normal;font-weight:normal;font-size:51.6563797px;line-height:1;font-family:sans-serif;letter-spacing:0px;word-spacing:0px;fill:#800000;fill-opacity:1;stroke:#800000;stroke-width:1.29140949"
       x="3097.5623"
       y="3350.428"
       id="text5069"
       transform="matrix(1.0216531,0,-0.34068789,0.97880581,0,0)"><tspan
         sodipodi:role="line"
         id="tspan5067"
         x="3097.5623"
         y="3350.428"
         style="font-style:normal;font-variant:normal;font-weight:normal;font-stretch:normal;font-family:Lavi;-inkscape-font-specification:Lavi;fill:#800000;stroke:#800000;stroke-width:1.29140949">CHAOSA </tspan><tspan
         sodipodi:role="line"
         x="3097.5623"
         y="3402.3831"
         id="tspan5071"
         style="font-style:normal;font-variant:normal;font-weight:normal;font-stretch:normal;font-family:Lavi;-inkscape-font-specification:Lavi;fill:#800000;stroke:#800000;stroke-width:1.29140949"> MAHIKA!</tspan></text>
    <text
       xml:space="preserve"
       style="font-style:normal;font-weight:normal;font-size:52.76883316px;line-height:1;font-family:sans-serif;text-align:center;letter-spacing:0px;word-spacing:0px;text-anchor:middle;fill:#800000;fill-opacity:1;stroke:#800000;stroke-width:1.31922078"
       x="1173.8472"
       y="3283.449"
       id="text5069-1"
       transform="skewX(-10.688767)"><tspan
         sodipodi:role="line"
         x="1173.8472"
         y="3283.449"
         id="tspan5071-1"
         style="font-style:normal;font-variant:normal;font-weight:normal;font-stretch:normal;font-family:Lavi;-inkscape-font-specification:Lavi;text-align:center;text-anchor:middle;fill:#800000;stroke:#800000;stroke-width:1.31922078">sa Tiyak na</tspan><tspan
         sodipodi:role="line"
         x="1173.8472"
         y="3336.5229"
         style="font-style:normal;font-variant:normal;font-weight:normal;font-stretch:normal;font-family:Lavi;-inkscape-font-specification:Lavi;text-align:center;text-anchor:middle;fill:#800000;stroke:#800000;stroke-width:1.31922078"
         id="tspan5118">Ka'paa'makan</tspan></text>
  </g>
</svg>
