<?xml version="1.0" encoding="UTF-8" standalone="no"?>
<!-- Created with Inkscape (http://www.inkscape.org/) -->

<svg
   xmlns:dc="http://purl.org/dc/elements/1.1/"
   xmlns:cc="http://creativecommons.org/ns#"
   xmlns:rdf="http://www.w3.org/1999/02/22-rdf-syntax-ns#"
   xmlns:svg="http://www.w3.org/2000/svg"
   xmlns="http://www.w3.org/2000/svg"
   xmlns:xlink="http://www.w3.org/1999/xlink"
   xmlns:sodipodi="http://sodipodi.sourceforge.net/DTD/sodipodi-0.dtd"
   xmlns:inkscape="http://www.inkscape.org/namespaces/inkscape"
   id="svg2"
   version="1.1"
   inkscape:version="0.92.2 5c3e80d, 2017-08-06"
   width="2481"
   height="3503"
   sodipodi:docname="E31P06.svg">
  <metadata
     id="metadata8">
    <rdf:RDF>
      <cc:Work
         rdf:about="">
        <dc:format>image/svg+xml</dc:format>
        <dc:type
           rdf:resource="http://purl.org/dc/dcmitype/StillImage" />
        <dc:title></dc:title>
      </cc:Work>
    </rdf:RDF>
  </metadata>
  <defs
     id="defs6">
    <filter
       style="color-interpolation-filters:sRGB"
       id="filter4375-4-1-1-1-9-5-8-3-8"
       inkscape:label="Drop Shadow">
      <feFlood
         id="feFlood4377-7-9-0-8-1-7-3-8-3"
         flood-opacity="1"
         flood-color="rgb(39,39,39)"
         result="flood" />
      <feComposite
         id="feComposite4379-3-8-8-2-77-4-1-8-7"
         in2="SourceGraphic"
         in="flood"
         operator="in"
         result="composite1" />
      <feMorphology
         id="feMorphology4393-1-0-49-8-9-3-0-31-8"
         operator="dilate"
         radius="6.2000000000000002"
         result="result3" />
      <feComposite
         id="feComposite4385-9-5-7-0-8-8-7-8-2"
         in2="result3"
         in="SourceGraphic"
         operator="over"
         result="fbSourceGraphic" />
      <feColorMatrix
         result="fbSourceGraphicAlpha"
         in="fbSourceGraphic"
         values="0 0 0 -1 0 0 0 0 -1 0 0 0 0 -1 0 0 0 0 1 0"
         id="feColorMatrix4544-96-1" />
      <feTurbulence
         id="feTurbulence4546-4-0"
         type="fractalNoise"
         numOctaves="3"
         seed="37"
         baseFrequency="0.129 0.0050000000000000001"
         result="turbulence" />
      <feDisplacementMap
         id="feDisplacementMap4548-3-5"
         in2="turbulence"
         in="fbSourceGraphic"
         scale="6.6"
         yChannelSelector="G"
         xChannelSelector="R"
         result="fbSourceGraphic" />
      <feColorMatrix
         result="fbSourceGraphicAlpha"
         in="fbSourceGraphic"
         values="0 0 0 -1 0 0 0 0 -1 0 0 0 0 -1 0 0 0 0 1 0"
         id="feColorMatrix4670-33-8" />
      <feFlood
         id="feFlood4672-8-5"
         flood-opacity="0.40999999999999998"
         flood-color="rgb(0,0,0)"
         result="flood"
         in="fbSourceGraphic" />
      <feComposite
         id="feComposite4674-6-5"
         in2="fbSourceGraphic"
         in="flood"
         operator="in"
         result="composite1" />
      <feGaussianBlur
         id="feGaussianBlur4676-0-0"
         in="composite1"
         stdDeviation="0"
         result="blur" />
      <feOffset
         id="feOffset4678-4-7"
         dx="6"
         dy="6"
         result="offset" />
      <feComposite
         id="feComposite4680-8-3"
         in2="offset"
         in="fbSourceGraphic"
         operator="over"
         result="composite2" />
    </filter>
    <filter
       style="color-interpolation-filters:sRGB"
       id="filter4375-4-1-1-1-9-0"
       inkscape:label="deevad outline effect">
      <feFlood
         id="feFlood4377-7-9-0-8-1-9"
         flood-opacity="1"
         flood-color="rgb(0,0,0)"
         result="flood" />
      <feComposite
         id="feComposite4379-3-8-8-2-77-1"
         in2="SourceGraphic"
         in="flood"
         operator="in"
         result="composite1" />
      <feMorphology
         id="feMorphology4393-1-0-49-8-9-9"
         operator="dilate"
         radius="3"
         result="result3" />
      <feComposite
         id="feComposite4385-9-5-7-0-8-6"
         in2="result3"
         in="SourceGraphic"
         operator="over"
         result="composite2" />
    </filter>
    <filter
       style="color-interpolation-filters:sRGB"
       id="filter4375-4-1-1-1-9-0-5"
       inkscape:label="deevad outline effect">
      <feFlood
         id="feFlood4377-7-9-0-8-1-9-6"
         flood-opacity="1"
         flood-color="rgb(0,0,0)"
         result="flood" />
      <feComposite
         id="feComposite4379-3-8-8-2-77-1-2"
         in2="SourceGraphic"
         in="flood"
         operator="in"
         result="composite1" />
      <feMorphology
         id="feMorphology4393-1-0-49-8-9-9-9"
         operator="dilate"
         radius="3"
         result="result3" />
      <feComposite
         id="feComposite4385-9-5-7-0-8-6-1"
         in2="result3"
         in="SourceGraphic"
         operator="over"
         result="composite2" />
    </filter>
  </defs>
  <sodipodi:namedview
     pagecolor="#ffffff"
     bordercolor="#666666"
     borderopacity="1"
     objecttolerance="10"
     gridtolerance="10"
     guidetolerance="10"
     inkscape:pageopacity="0"
     inkscape:pageshadow="2"
     inkscape:window-width="1920"
     inkscape:window-height="1130"
     id="namedview4"
     showgrid="false"
     inkscape:zoom="0.26691407"
     inkscape:cx="1240.5"
     inkscape:cy="1751.5"
     inkscape:window-x="0"
     inkscape:window-y="1"
     inkscape:window-maximized="1"
     inkscape:current-layer="layer3"
     inkscape:snap-global="false" />
  <g
     inkscape:groupmode="layer"
     id="layer2"
     inkscape:label="artwork"
     sodipodi:insensitive="true">
    <image
       sodipodi:absref="/Users/gand/Documents/Pepper&amp;Carrot/ep31_The-Fight/it/../gfx_Pepper-and-Carrot_by-David-Revoy_E31P06.png"
       xlink:href="../gfx_Pepper-and-Carrot_by-David-Revoy_E31P06.png"
       y="0"
       x="0"
       id="image10"
       height="3503"
       width="2481" />
  </g>
  <g
     inkscape:groupmode="layer"
     id="layer3"
     inkscape:label="speechbubbles">
    <path
       style="color:#000000;display:inline;overflow:visible;visibility:visible;fill:#ffffff;fill-opacity:1;fill-rule:nonzero;stroke:none;stroke-width:1.13598561px;marker:none;enable-background:accumulate"
       d="m 859.75494,2925.6926 c -14.80028,-3.0753 -58.45766,-31.0327 -6.72605,-31.992 -38.6631,-10.7706 -34.90211,-36.1548 -4.41813,-52.3649 -40.82017,5.0058 -71.54896,0.2287 -51.76978,-26.7489 -59.75395,19.5804 -86.47836,24.2844 -75.75637,-12.7729 -26.37374,31.4363 -53.44242,27.1345 -62.14965,-7.7042 -4.94369,26.527 -45.87541,36.8922 -94.6941,4.185 16.63089,30.8416 26.07486,46.8938 -60.70537,42.3823 33.65993,16.7365 55.04665,27.4574 -0.22941,37.9391 28.79808,6.861 47.46713,17.1507 4.1581,37.0684 28.9419,4.2054 74.18851,0.3429 20.88649,36.9929 35.46738,-17.8244 96.60337,-9.1912 71.84071,17.9721 69.62268,-32.5667 83.69967,-25.4803 95.5098,-5.1642 24.87407,-31.8112 76.75374,-37.7434 99.89334,-21.0916 -12.19597,-26.5151 31.503,-17.1146 64.16042,-18.7011 z"
       id="path3549-3-78-5-3"
       inkscape:connector-curvature="0"
       sodipodi:nodetypes="ccccccccccccccc" />
    <path
       style="color:#000000;display:inline;overflow:visible;visibility:visible;fill:#ffffff;fill-opacity:1;fill-rule:nonzero;stroke:none;stroke-width:1.13598561px;marker:none;enable-background:accumulate"
       d="m 843.02907,2994.1713 c -11.89713,-2.9785 -24.17157,-22.306 -4.83933,-35.2868 -16.04099,-0.688 -25.22109,-7.3316 -10.09016,-20.9326 -33.63592,17.0282 -42.55262,-6.109 -31.54836,-33.2935 -49.36943,13.0575 -71.28017,15.72 -61.02027,-12.9191 -22.7425,23.6321 -44.55674,19.2215 -50.17625,-8.4238 -5.12498,20.6058 -16.0656,31.8674 -48.67807,5.9229 -2.4006,7.5606 8.64658,32.4271 -61.67596,25.5615 26.65036,14.4116 42.6399,17.0575 -2.71109,23.1541 23.11252,6.4833 53.82905,16.2056 17.80741,30.1585 23.34031,4.4069 45.22812,8.7539 0.38797,35.4404 29.56268,-12.6127 61.01949,-4.4394 39.76453,15.9049 57.9305,-22.8594 69.07237,-16.7642 77.8197,-0.3847 21.53965,-23.9836 52.66833,-21.2672 70.7742,-7.3256 -8.80189,-21.2539 37.58447,-17.5851 64.18568,-17.5762 z"
       id="path3549-3-78-5"
       inkscape:connector-curvature="0"
       sodipodi:nodetypes="ccccccccccccccc" />
    <path
       style="fill:#ffffff;fill-opacity:1;stroke:none;stroke-width:0.98228759"
       d="m 2319.6347,607.49643 c -15.2003,3.86007 -21.051,7.46431 -18.3293,9.6977 -6.235,1.09817 -8.637,30.03928 -2.8057,35.3413 0.3881,0.55806 3.1113,2.23433 1.9418,2.50979 -1.1689,0.27548 -8.1786,-0.5762 -9.3495,0.53413 -1.1711,1.11089 10.4792,17.00347 8.9197,17.5563 -1.5593,0.55338 -37.372,-10.10974 -42.4413,-7.61678 -5.0694,2.49298 -2.3571,8.9012 -3.9157,9.17575 -1.5586,0.27454 -15.9675,-1.42978 -17.9157,-1.15616 -1.9482,0.2736 -5.4725,8.61487 -7.4207,8.88847 -1.9484,0.27362 -10.8987,-3.64446 -12.4573,-3.36991 -1.5588,0.27454 -0.7953,7.23467 -2.7434,7.50829 -1.9483,0.2736 -10.5042,-5.86981 -11.6734,-5.59434 -1.169,0.27548 -5.485,14.1817 -7.4345,15.01188 -1.9495,0.83018 -14.3779,-15.34253 -15.5462,-15.62363 -1.1678,-0.28165 -8.6117,18.90564 -10.1703,19.18018 -1.559,0.27454 -9.3193,-13.1041 -10.4887,-12.82862 -1.1693,0.27548 -8.5874,8.05138 -10.1468,8.60421 -1.5593,0.55283 -11.6471,-17.28455 -13.2052,-17.28829 -1.5583,-0.004 -14.8187,7.47929 -15.9904,8.86791 -1.1718,1.38917 -2.321,-7.24215 -3.8791,-7.24589 -1.558,-0.004 -19.4875,4.96349 -19.8763,4.68427 -0.389,-0.27923 2.7393,-5.56029 1.5706,-5.56309 -1.1684,-0.003 -19.4915,6.9115 -20.2678,5.5182 5.3446,-20.42315 -39.5184,6.15199 -42.471,5.74316 -2.7243,-1.12024 17.5796,-22.78124 15.6359,-24.45617 -1.9441,-1.6744 -8.96,0.25676 -9.3477,-0.57903 -0.3874,-0.83579 4.2949,-4.44284 3.1288,-5.55878 -1.1662,-1.1165 -14.3999,-5.60143 -15.5654,-6.99566 -1.1654,-1.3948 5.8541,-4.99624 4.2978,-5.83483 -1.5564,-0.83915 -24.5263,-6.18233 -24.9128,-7.57524 -0.3864,-1.39237 11.704,-8.04334 10.1501,-9.99509 -1.5536,-1.95229 -5.8367,-2.79743 -5.4439,-4.18848 0.3926,-1.39049 7.7972,-3.04299 7.4109,-4.43535 -0.3864,-1.39238 -4.2662,-8.36054 -5.4322,-9.47648 -1.1661,-1.11595 8.1813,-0.53694 8.1837,-1.65008 0,-1.11369 -1.8016,-23.5183 -15.6179,-33.66701 24.1901,6.75864 34.3847,3.53587 47.2442,1.34045 12.8594,-2.19598 7.8264,-16.12464 9.776,-16.95484 7.9102,5.17921 20.5849,27.89768 22.5986,1.91714 -0.4,-1.85524 13.9286,11.16727 15.8766,10.89366 1.9484,-0.27361 18.008,-14.7864 20.7352,-15.05814 2.7273,-0.27174 13.2333,4.76377 15.5697,5.04767 2.3367,0.2839 4.2998,-6.66969 6.2462,-6.10843 1.9465,0.56124 14.3999,5.60143 16.3487,5.04953 1.9489,-0.55245 3.5119,-2.775 5.069,-2.21468 1.5566,0.56031 8.563,2.80399 8.563,2.80399 0,0 5.0678,-1.65812 7.4048,-1.65251 2.3371,0.006 18.2871,9.22905 20.2334,9.79031 1.9464,0.56124 21.9638,-9.43403 20.7991,-11.10655 2.4652,7.31416 14.447,0.65375 16.9823,1.02589 2.7246,0.84196 10.9103,-1.64353 11.6875,-0.80679 0.777,0.83672 3.1043,5.29601 5.4408,5.57991 2.3367,0.2839 7.7873,1.41013 7.7873,1.41013 l -0.7826,1.6684 c 0,0 16.3699,6.87013 18.3214,5.20508 7.0103,-0.92566 6.6988,1.56665 24.6937,-6.34533 -14.4142,16.83134 -23.9822,35.87639 6.0299,28.12884 -24.9564,7.40389 -13.9046,13.68463 6.9841,12.26364 z"
       id="path5888-3-2"
       inkscape:connector-curvature="0"
       sodipodi:nodetypes="cccsccsscccccccsccscscsccsccccccsccscsccccsccscsccccccccccc" />
    <path
       style="fill:#ffffff;fill-opacity:1;stroke:none;stroke-width:0.94653028"
       d="m 2204.7571,406.59234 c -0.051,0.004 -0.1036,0.0176 -0.1548,0.041 -1.6404,0.75002 -7.7707,7.90828 -9.411,7.15827 -1.6404,-0.75076 -9.1413,-7.40689 -10.4537,-6.65688 -1.3122,0.75001 -6.1243,11.06376 -6.1243,11.06376 0,0 -7.956,-4.96527 -16.2623,-11.01838 -2.45,5.91093 -4.6626,17.08211 -6.3031,17.83213 -1.6403,0.75002 -18.4812,-12.78316 -25.1416,-17.47112 -2.4542,6.19133 -4.5461,18.47784 -6.6821,18.97112 -2.2965,1.12577 -16.831,-13.22067 -17.487,-12.09564 -0.6562,1.12502 5.0194,18.09759 3.0509,18.4726 -1.9685,0.37501 -6.5612,1.875 -6.5612,1.875 l 0.6553,2.25 c 0,0 -13.7794,-6.00192 -15.4198,-8.25196 -1.6403,-2.25078 0.9849,9.75311 1.9692,12.75391 -5.9056,-3.0008 -23.2935,-9.37813 -24.6057,-11.25391 -1.3123,-1.87503 2.2968,6.75193 4.2652,9.37696 -2.6246,-1.12501 -4.9221,-1.5 -4.9221,-1.5 l 7.5465,9.00195 -2.296,0.75 c 0,0 4.9206,4.12498 4.9206,6 0,1.87579 -12.7955,4.12695 -12.7955,4.12695 14.5154,11.23691 5.3708,14.55335 -5.9044,16.50391 6.1251,2.51362 10.4246,4.93804 13.0128,7.11523 l -12.4998,3.7168 12.9817,7.56445 -6.9241,3.24219 6.9241,5.4043 -19.0408,8.64648 19.9072,5.4043 -14.7145,9.72851 14.7145,5.4043 -7.7905,7.56446 17.4407,1.45312 c 0,3.14332 -5.0782,19.04189 -7.6076,23.27148 9.9629,-0.0303 26.5262,0.13477 38.5664,0.13477 0.022,1.16441 0.094,2.00665 0.4738,2.11523 0.6446,0.18421 3.9141,-0.26823 7.2557,-0.72851 l 10.6308,4.42578 c 1.253,3.15354 2.5421,6.59956 3.4394,6.80469 1.0253,0.23437 4.3566,-1.72876 7.0318,-3.14258 6e-4,-2.5e-4 0,2.5e-4 0,0 l 3.8335,-0.9082 c 0.8227,1.91909 0.4713,9.34263 1.9284,9.67578 1.6405,0.37502 8.8584,-7.87501 9.8426,-7.5 0.9842,0.375 4.5925,19.12886 6.2327,20.2539 1.6405,1.12501 12.1397,-20.6289 13.1241,-21.0039 0.9841,-0.37576 7.2163,25.5039 8.5286,25.8789 1.3124,0.37502 7.8745,-17.62892 8.8588,-17.2539 0.9843,0.37499 7.2181,10.87889 8.5303,11.6289 1.3124,0.75002 9.8424,-23.25586 11.1548,-23.25586 1.3123,0 12.4666,10.12693 13.4509,12.00196 0.9843,1.87579 1.969,-9.75196 3.2813,-9.75196 1.3124,0 16.4025,6.75197 16.7306,6.37696 0.3282,-0.37501 -2.2965,-7.50196 -1.3122,-7.50196 0.9842,0 16.4045,9.37698 17.0607,7.50196 0.656,-1.87578 28.1681,3.46603 35.7602,7.87695 -5.8876,-9.56114 -14.7642,-30.75508 -13.1239,-33.00586 1.6404,-2.25003 7.547,0.37502 7.8751,-0.75 0.328,-1.12502 -3.6086,-6.00194 -2.6244,-7.50195 0.9842,-1.50078 12.1381,-7.50191 13.1222,-9.37696 0.9842,-1.87577 -4.9204,-6.74999 -3.6082,-7.875 1.3123,-1.12576 20.6692,-8.25313 20.9973,-10.1289 0.328,-1.87504 -9.8426,-10.87691 -8.5303,-13.50195 1.3123,-2.62579 4.9218,-3.74922 4.5936,-5.625 -0.3281,-1.87502 -6.5623,-4.12694 -6.2342,-6.00196 0.328,-1.87503 3.6094,-11.25193 4.5935,-12.75195 0.9844,-1.50003 -6.8895,-0.74998 -6.8895,-2.25 0,-1.50078 -18.0024,-9.73512 2.2298,-31.94263 -28.9632,4.74119 -18.9619,-1.06318 -29.7884,-4.06323 -10.8267,-3.0008 -6.5615,-21.75584 -8.2018,-22.88086 -1.6405,-1.12577 -13.7797,6.377 -15.42,3.75195 -1.6404,-2.62579 -2.2975,-7.50195 -3.6099,-7.50195 -1.3121,0 -15.41,8.06404 -17.0504,7.68903 -1.6404,-0.37501 -10.5075,-14.44098 -12.8041,-14.81598 -2.2965,-0.37502 -11.1555,6.37695 -13.124,6.75195 -1.9068,0.36329 -3.5044,-8.42522 -5.094,-8.29297 z"
       id="path5888-3"
       inkscape:connector-curvature="0"
       sodipodi:nodetypes="ccccccccccscccccccccscccccccccccccccscccccccccccccscsssccccccccccccsccccsccccc" />
    <path
       style="color:#000000;display:inline;overflow:visible;visibility:visible;fill:#ffffff;fill-opacity:1;fill-rule:nonzero;stroke:none;stroke-width:0.99999994px;marker:none;enable-background:accumulate"
       d="m 1272.5449,3077.9523 c -78.231,15.2781 -158.5825,23.1124 -234.3525,47.042 l 48.6913,-38.9221 c -31.113,-0.2775 -62.6052,11.89 -93.96922,19.832 l 24.81112,-26.6421 c -73.62433,-0.043 -140.93978,19.5825 -211.30464,29.7017 l 48.37788,-44.8304 c 71.35729,-4.7997 140.74069,-1.8479 214.31916,-15.3676 l -20.5535,27.1733 c 25.7084,-2.3825 51.5171,-5.4463 77.7719,-11.5491 l -30.1046,33.1547 z"
       id="path4032-1"
       inkscape:connector-curvature="0"
       sodipodi:nodetypes="cccccccccccc" />
    <path
       style="display:inline;fill:#ffffff;fill-rule:evenodd;stroke:none;stroke-width:0.95866078px;stroke-linecap:butt;stroke-linejoin:miter;stroke-opacity:1"
       d="m 518.03764,2979.2366 c 47.45441,23.355 88.44603,41.0773 56.26585,-25.083 38.32299,49.4296 53.77977,27.5103 63.09757,-1.3936 29.97418,24.8442 50.67193,46.8027 65.53548,28.9276 5.53998,22.9883 17.42065,13.7115 27.70267,12.5694 3.38641,5.2017 -21.09131,-11.802 25.89867,-29.0181 -5.85003,-33.0161 29.87274,3.8352 57.39717,-11.4276 7.13071,27.9419 3.16074,45.2359 43.56546,5.8228 -14.60266,38.7644 -8.54754,44.2395 10.11166,29.404 -8.53084,15.9636 -13.63315,28.3211 18.77867,1.2247 -11.09619,29.4655 28.10871,9.9952 66.4456,-20.2566 -36.48263,33.5457 -87.27539,71.1845 -46.22216,66.8129 -5.72515,9.2221 -26.14632,17.2571 34.66843,31.8543 -11.3533,6.2577 -46.01455,-2.8874 -17.10083,23.6089 3.87385,3.0977 -9.09489,4.9888 15.6563,13.1458 -14.61089,-0.555 -23.57142,1.4268 -10.11168,13.4765 -26.6703,-0.6517 -16.69144,12.0185 2.88908,28.1785 -50.0161,-31.6245 -66.04535,-37.3865 -41.89121,-4.9004 -48.40512,-28.2604 -65.44372,-24.6432 -59.27522,-1.4092 -20.60499,-24.6694 -44.19888,-28.9832 -63.30952,-0.4832 -20.37612,-29.4078 -34.25857,-26.3948 -76.7593,-4.2335 22.92622,-24.9384 -9.68928,-9.0501 -34.66856,1.2247 13.67914,-31.1535 -21.03656,-10.707 -65.00354,19.6024 24.6213,-34.4018 -3.34271,-21.9748 -44.78025,2.4502 15.65639,-33.7969 -9.84147,-50.1411 -70.7816,-51.4559 29.16775,-12.1912 46.17688,-27.5334 15.88983,-55.1323 34.1421,8.1266 44.32618,0.5779 20.22328,-29.4033 37.23996,24.6085 20.30833,-11.0852 5.77815,-44.106 z"
       id="path4508-9"
       inkscape:connector-curvature="0"
       sodipodi:nodetypes="cccccccccccccccccccccccccccc" />
    <path
       style="color:#000000;display:inline;overflow:visible;visibility:visible;fill:#ffffff;fill-opacity:1;fill-rule:nonzero;stroke:none;stroke-width:1px;marker:none;enable-background:accumulate"
       d="m 2279.1877,625.34512 c -0.091,3.76817 51.831,-6.4041 51.831,-6.4041 0,0 1.5665,29.95657 4.6782,32.0986 11.0733,-0.0391 21.0624,-5.37296 21.0624,-5.37296 l 18.0133,48.73793 -20.0054,-31.72225 c -9.8867,-0.91886 -20.0127,-0.88091 -32.7339,9.5382 l -4.3594,-32.26765 -34.1656,7.80769 z"
       id="path4448"
       inkscape:connector-curvature="0"
       sodipodi:nodetypes="cccccccccc" />
  </g>
  <g
     inkscape:groupmode="layer"
     id="layer1"
     inkscape:label="txt">
    <text
       xml:space="preserve"
       style="font-style:normal;font-variant:normal;font-weight:normal;font-stretch:normal;font-size:15.89058971px;line-height:0%;font-family:Lavi;-inkscape-font-specification:Lavi;text-align:center;letter-spacing:0px;word-spacing:0px;text-anchor:middle;fill:#000000;fill-opacity:1;stroke:none;stroke-width:1.17751098"
       x="2192.574"
       y="482.24832"
       id="text4246-1-3-2-8"
       transform="scale(0.99789912,1.0021053)"><tspan
         sodipodi:role="line"
         style="font-style:normal;font-variant:normal;font-weight:bold;font-stretch:normal;font-size:46.66666794px;line-height:1.25;font-family:Lavi;-inkscape-font-specification:'Lavi Bold';stroke-width:1.17751098"
         x="2192.574"
         y="482.24832"
         id="tspan70">Ho detto</tspan><tspan
         sodipodi:role="line"
         style="font-style:normal;font-variant:normal;font-weight:bold;font-stretch:normal;font-size:46.66666794px;line-height:1.25;font-family:Lavi;-inkscape-font-specification:'Lavi Bold';stroke-width:1.17751098"
         x="2192.574"
         y="540.58167"
         id="tspan829">STOP!</tspan></text>
    <text
       xml:space="preserve"
       style="font-style:normal;font-variant:normal;font-weight:normal;font-stretch:normal;font-size:15.89058971px;line-height:0%;font-family:Lavi;-inkscape-font-specification:Lavi;text-align:center;letter-spacing:0px;word-spacing:0px;text-anchor:middle;fill:#000000;fill-opacity:1;stroke:none;stroke-width:1.17751098"
       x="2160.4966"
       y="637.91968"
       id="text4246-1-3-2-8-3"
       transform="scale(0.99789912,1.0021053)"><tspan
         sodipodi:role="line"
         style="font-style:normal;font-variant:normal;font-weight:bold;font-stretch:normal;font-size:46.66666794px;line-height:1.25;font-family:Lavi;-inkscape-font-specification:'Lavi Bold';stroke-width:1.17751098"
         x="2160.4966"
         y="637.91968"
         id="tspan829-7">Basta così!</tspan></text>
    <text
       xml:space="preserve"
       style="font-style:normal;font-variant:normal;font-weight:normal;font-stretch:normal;line-height:0%;font-family:Lavi;-inkscape-font-specification:Lavi;letter-spacing:0px;word-spacing:0px;fill:#000000;fill-opacity:1;stroke:#ffffff;stroke-width:2.66678286;stroke-miterlimit:4;stroke-dasharray:none;stroke-opacity:1;filter:url(#filter4375-4-1-1-1-9-0)"
       x="787.65729"
       y="1584.5073"
       id="text4580-25"
       transform="matrix(0.55718765,-0.37423929,0.21813977,1.0749149,-120.92735,-234.76499)"><tspan
         sodipodi:role="line"
         id="tspan4582-4"
         x="787.65729"
         y="1584.5073"
         style="font-size:70px;line-height:100%;letter-spacing:4.88345098px;fill:#ffffff;stroke:#ffffff;stroke-width:2.66678286;stroke-miterlimit:4;stroke-dasharray:none;stroke-opacity:1"><tspan
           style="font-size:55.34964371px;line-height:100%;letter-spacing:4.88345098px;stroke:#ffffff;stroke-width:2.66678286;stroke-miterlimit:4;stroke-dasharray:none;stroke-opacity:1"
           id="tspan4439-4">Snap</tspan><tspan
           style="font-size:80.40014648px;line-height:100%;letter-spacing:4.88345098px;stroke:#ffffff;stroke-width:2.66678286;stroke-miterlimit:4;stroke-dasharray:none;stroke-opacity:1"
           id="tspan4617-9">!</tspan></tspan></text>
    <text
       xml:space="preserve"
       style="font-style:normal;font-variant:normal;font-weight:normal;font-stretch:normal;line-height:0%;font-family:Lavi;-inkscape-font-specification:Lavi;letter-spacing:0px;word-spacing:0px;display:inline;fill:#ffffff;fill-opacity:1;stroke:#000000;stroke-width:0.48148537;stroke-miterlimit:4;stroke-dasharray:none;stroke-opacity:1;filter:url(#filter4375-4-1-1-1-9-5-8-3-8)"
       x="787.65729"
       y="1584.5073"
       id="text4580-6-0-8-8"
       transform="matrix(1.5492299,-0.0813593,-0.87667877,1.9075458,1570.733,-1836.1775)"><tspan
         sodipodi:role="line"
         id="tspan4582-1-1-8-2"
         x="787.65729"
         y="1584.5073"
         style="font-style:normal;font-variant:normal;font-weight:bold;font-stretch:normal;font-size:70px;line-height:1.25;font-family:'Noto Sans';-inkscape-font-specification:'Noto Sans Bold';letter-spacing:5.87610865px;fill:#ffffff;fill-opacity:1;stroke:#000000;stroke-width:0.48148537;stroke-opacity:1"><tspan
           style="font-style:normal;font-variant:normal;font-weight:bold;font-stretch:normal;font-size:93.14950562px;font-family:'Noto Sans';-inkscape-font-specification:'Noto Sans Bold';letter-spacing:5.87610865px;fill:#ffffff;fill-opacity:1;stroke:#000000;stroke-width:0.48148537;stroke-opacity:1"
           id="tspan4315-8-97-3">PU<tspan
   style="font-style:normal;font-variant:normal;font-weight:bold;font-stretch:normal;font-size:81.11493683px;font-family:'Noto Sans';-inkscape-font-specification:'Noto Sans Bold';stroke-width:0.48148537"
   id="tspan912">UUF</tspan></tspan><tspan
           style="font-style:normal;font-variant:normal;font-weight:bold;font-stretch:normal;font-size:114.73223114px;font-family:'Noto Sans';-inkscape-font-specification:'Noto Sans Bold';letter-spacing:5.87610865px;fill:#ffffff;fill-opacity:1;stroke:#000000;stroke-width:0.48148537;stroke-opacity:1"
           id="tspan4313-2-76-0">!</tspan></tspan></text>
    <text
       xml:space="preserve"
       style="font-style:normal;font-variant:normal;font-weight:normal;font-stretch:normal;line-height:0%;font-family:Lavi;-inkscape-font-specification:Lavi;letter-spacing:0px;word-spacing:0px;fill:#000000;fill-opacity:1;stroke:#ffffff;stroke-width:4.21925974;stroke-miterlimit:4;stroke-dasharray:none;stroke-opacity:1;filter:url(#filter4375-4-1-1-1-9-0-5)"
       x="787.65729"
       y="1584.5073"
       id="text4580-25-2"
       transform="matrix(0.37191843,0.11061463,-0.38324889,0.61702867,2371.8774,1301.4149)"><tspan
         sodipodi:role="line"
         id="tspan4582-4-7"
         x="787.65729"
         y="1584.5073"
         style="font-style:normal;font-variant:normal;font-weight:bold;font-stretch:normal;font-size:80.40014648px;line-height:100%;font-family:'Noto Sans';-inkscape-font-specification:'Noto Sans Bold';letter-spacing:4.88345098px;fill:#ffffff;stroke:#ffffff;stroke-width:4.21925974;stroke-miterlimit:4;stroke-dasharray:none;stroke-opacity:1">TZHK!</tspan></text>
    <text
       xml:space="preserve"
       style="font-style:normal;font-variant:normal;font-weight:normal;font-stretch:normal;font-size:15.89058971px;line-height:0%;font-family:Lavi;-inkscape-font-specification:Lavi;text-align:center;letter-spacing:0px;word-spacing:0px;text-anchor:middle;fill:#000000;fill-opacity:1;stroke:none;stroke-width:1.17751098"
       x="685.59564"
       y="2895.5073"
       id="text4246-1-3-2-8-3-3"
       transform="scale(0.99789912,1.0021053)"><tspan
         sodipodi:role="line"
         style="font-style:normal;font-variant:normal;font-weight:bold;font-stretch:normal;font-size:46.66666794px;line-height:1.25;font-family:Lavi;-inkscape-font-specification:'Lavi Bold';stroke-width:1.17751098"
         x="685.59564"
         y="2895.5073"
         id="tspan829-7-6">Voi due!</tspan></text>
    <text
       xml:space="preserve"
       style="font-style:normal;font-variant:normal;font-weight:normal;font-stretch:normal;font-size:15.89058971px;line-height:0%;font-family:Lavi;-inkscape-font-specification:Lavi;text-align:center;letter-spacing:0px;word-spacing:0px;text-anchor:middle;fill:#000000;fill-opacity:1;stroke:none;stroke-width:1.17751098"
       x="713.37805"
       y="2985.6943"
       id="text4246-1-3-2-8-3-3-7"
       transform="scale(0.99789912,1.0021053)"><tspan
         sodipodi:role="line"
         style="font-style:normal;font-variant:normal;font-weight:bold;font-stretch:normal;font-size:46.66666794px;line-height:1.25;font-family:Lavi;-inkscape-font-specification:'Lavi Bold';stroke-width:1.17751098"
         x="713.37805"
         y="2985.6943"
         id="tspan829-7-6-5">QUI!</tspan></text>
    <text
       xml:space="preserve"
       style="font-style:normal;font-variant:normal;font-weight:normal;font-stretch:normal;font-size:15.89058971px;line-height:0%;font-family:Lavi;-inkscape-font-specification:Lavi;text-align:center;letter-spacing:0px;word-spacing:0px;text-anchor:middle;fill:#000000;fill-opacity:1;stroke:none;stroke-width:1.17751098"
       x="713.04907"
       y="3070.9504"
       id="text4246-1-3-2-8-36-2"
       transform="scale(0.99789912,1.0021053)"><tspan
         sodipodi:role="line"
         style="font-style:normal;font-variant:normal;font-weight:bold;font-stretch:normal;font-size:46.66666794px;line-height:1.25;font-family:Lavi;-inkscape-font-specification:'Lavi Bold';stroke-width:1.17751098"
         x="713.04907"
         y="3070.9504"
         id="tspan1020-8">Immediatamente!</tspan></text>
    <flowRoot
       xml:space="preserve"
       id="flowRoot871"
       style="fill:black;stroke:none;stroke-opacity:1;stroke-width:1px;stroke-linejoin:miter;stroke-linecap:butt;fill-opacity:1;font-family:Sans;font-style:normal;font-weight:normal;font-size:32px;line-height:1000%;letter-spacing:0px;word-spacing:0px;-inkscape-font-specification:Sans"><flowRegion
         id="flowRegion873"><rect
           id="rect875"
           width="633.1626"
           height="295.9754"
           x="1824.5573"
           y="430.85022" /></flowRegion><flowPara
         id="flowPara877"></flowPara></flowRoot>  </g>
</svg>
